{
 "document_id": "10020602857364965398", 
 "sentences": [
  "University of Nebraska Omaha DigitalCommons@UNO \nService Learning \nHigher Education \n\nThe Benefits of Service: Evidence from Undergraduates Linda Sax University of California - Los Angeles \nFollow this and additional works at: http://digitalcommons.unomaha.edu/slcehighered \nPart of the Service Learning Commons \nRecommended Citation Sax, Linda, \"The Benefits of Service: Evidence from Undergraduates\" (1997).", 
  "Higher Education.", 
  "Paper 38. http://digitalcommons.unomaha.edu/slcehighered/38 \nThis Article is brought to you for free and open access by the Service Learning at DigitalCommons@UNO.", 
  "It has been accepted for inclusion in Higher Education by an authorized administrator of DigitalCommons@UNO.", 
  "For more information, please contact unodigitalcommons@unomaha.edu.", 
  "\u2022uJ!e'li~ly,  hightr edttcation  is confront(cid:173) '\"\"inh'>e11t calls  to .return to.its  original  w~sS.JLOJ;l,:or developing a .well-informed,  :~r~}ica.lly thinking, and civically engaged  Ind.eec\\,  recent  findings  from  \nannual  sru;vey  of enteri11g college .", 
  "~sJ~0f'iiri .~\u00b7~.~~::' CooperatfYe Instiqitional Research  ro!~ram .", 
  "(ClRP)te\u00b7veal record low levels\u00b7 .. ofstuc\\ent  \nvisiting .assistant professor at  the  \n::'v'1tit\u2022eY!iity  of California,  Los  Angeles,  and  director  'of the  Cooperative  In.<titlltional  Research  Prog\u2022\u00b7am.", 
  "'lexander  IV.", 
  "Astin  is  prqfi\u2022ssor  and  director  qf the  \n.. .-figher Ed~<cation Research  Institute  at  the  XUniversity  ~f California,  Los  Angeles.", 
  "interest  disqrssing  pc!", 
  "!itics;  c>r  \u00b7 paigns.", 
  "What exactly  caJa  higher ectloc,,uc\u2022n  \nmote\u00b7 citizenship development  at  tht:' same  time  address  the myri1ad.", 
  "prolDlems  continue to plague society?", 
  "stttde:ii.B~.", 
  "~~\"  \n,One  answer  may\u00b7 be  foupd within.", 
  "the college  ,  or  university  curriculum,  thr,ough  the .", 
  ".sinij:ile  but  extreinely  powe~ful' pedagogical  tool  known, as  \"service  l~arni,}g.n  The \u00b7basic  idea  behind  service  learning  is  to  use ' a  community  or  public  serv'ice  experience  to  enhance  the  meaning  and jmpact  of  tradition~} course  content.", 
  "Conne.cting  service  di- rectly with academic courses makes it quite different  \nc/o ETR Associates  4 Carbonero Way  \nScotts Valley,  G/1 95066  \nSr~mmn/F\"alf  1997  \n\f-------\u00b7--------------................................................................. _  \n\ncollege  students  \\Vith  high  school studL'JHS  in  order to  reha(cid:173) bilitate  housing  /\"()r  low-income  t:u11ilies  or  senior  citizens.", 
  "Al(cid:173) though  service  IL'arning  courses  are  most  likely  to  be  t()und  in  education  and  the  social  sci(cid:173) ences, 1  the  f;tct  is  that  a  service  component  can  be  etfectively  added  to  nearly  any  academic  course  offering.", 
  "Student benefits  As  colleges  and  universities  m(cid:173) creasingly  promote  service  learning  and  volunteerism  as  vehicles  for  citizenship  develop(cid:173) ment,  it  is  crucial \"to  determine  whether students actually benefit  fi\u00b7om  such  experiences.", 
  "In  the  case  of undergraduates who par(cid:173) ticipate in  volunteer service pro(cid:173) grams,  the effects  of the program  have  itnportant  implications  both  for  the students  themselves  and  for  long-range  institutional  policy planning.", 
  "If an institution  wishes  to  strengthen  or  expand  its  volunteer  service  programs,  and  especially  if it  is  considering  expanding  classro01n-bascd  ser(cid:173) vice  learning  or  introducing  a  service  requiren1cnt  into  the  curriculum,  the  question  of  how  the  students'  educational  and  personal  developn1ent  are  affected  is  of central importance.", 
  "Over  the  past  tl:w  years,  the  Higher  Education  Research  Institute  (1-1 ER I)  at  the  Univer(cid:173) sity  of  Calit(lrnia,  Los  Angeles  (UCLA)  has  conducted  a  num(cid:173) ber  of studies  on  the  impact  of  the  service  experience  on  the  development of uudergraduates.", 
  "These  studies  were  based  on  data  collected through a series of  national  fi\u00b7eshman  surveys  and  follow-up  surveys  conducted by  \nIn  1995-96,  we  evaluated  the  Corporation  ftlr  National  Service's  Learn  and  Serve  America  Higher  Education  (LSAHE)  program,  an  evalua(cid:173) tion  conducted  jointly  by  UCLA  and  the  RAND  Corpo(cid:173) ration.", 
  "LSAHE  consists  of more  than  100  programs  at  colleges  and  universities  nationwide  that  are  designed  to  support  service  learning  through  student  in(cid:173) volvement  in  community  ser(cid:173) vice.", 
  "A  sister  program  to  the  highly  publicized  AmeriCorps,  LSAHE  engages  student partici(cid:173) pants  in  activities  such  as  tutor(cid:173) ing;  working with  the homeless,  poor,  and  elderly;  improving  neighborhood  environments;  preventing  crin1e;  and  improv(cid:173) ing comn1tmity  health.", 
  "The  UCLA  portion  of the  evaluation  examined  the  impact  of service participation  (as  well as  service  learning  in  particular)  at  LSAHE  institutions on three gen(cid:173) eral areas of student development  civic  responsibility,  academic de(cid:173) velopment,  and lite skills.", 
  "Survey  results are  based on  fi-eshman  and  follow-up  data  collected  ti\u00b7mn  3,450 students attending -12  insti(cid:173) tutions  with  LSAI\u00b7-IE  programs.", 
  "These  respondents include 2,309  service  participants  and  1,1-1-1  nonparticipants.", 
  "from  \"volunteer\"  work  that  is  perfOrmed  in  the  community.", 
  "Service  learning  also  involves  111ore  than simply sending a class  of students into communities for  additional  course  credit.", 
  "Prop(cid:173) erly  designed  service  learning  courses  relate  the  comtnunity  service  experience  to  the  course  material  and  require  that  stu(cid:173) dents ref:1ect on their experiences  through  writings,  discussions,  or  class  presentations.", 
  "Service  learning not only enriches  tradi(cid:173) tional  course  content  by  giving  the  student  an  opportunity  to  'test'  or  'deinonstrate'  abstract  theory  in  the  real  world~ it  also  improves  the  quality  of the  ser(cid:173) vice  being  performed  by  giving  it an intellectual underpinning.", 
  "Service  learning  may  be  implemented  in  any  number  of  academic  fields.", 
  "For  exan1ple,  students  enrolled  in  a  psychol(cid:173) ogy  class  could  conduct  coun(cid:173) seling,  mentoring,  or  drug  education  for  at-risk  school  children.", 
  "Students  taking  an  environmental  science  course  could  work  with  elementary  school students  to  in1prove con(cid:173) ditions in  nearby parks.", 
  "Students  enrolled  in  an  English  course  could  design  and  implement  an  adult literacy  program.", 
  "A  course  in  urban  planniug could connect  \n\nEducali,Jual  R1\u2022cord  \n~ ~; ' ~  ' 1  \n\fAlthough  service  leorning  courses  ore  most  likely  to  be  found  in educotion ond  the sociol  sciences,  the  foct  is  thot  o service  component con  be  effectively odded  to  neorly  ony  ocodemic  course  offering.", 
  "Characteristics of  service participants  Who  arc  the  studC'nts  who  par-(cid:173) ticipJte  in  service  durin~  tllt'ir  undergr:tduatt'  )'L';lr~?", 
  "Some  stu(cid:173) dents  arc  more  inclined  tl\"l  ;-.~'t..'k  our service :1crivirics dun  (ltht'r~.", 
  "and these  initial  dilll\u00b7n_'lh'l''  musr  bt'  taken  into account hcft1rc  l':\\(cid:173) aJnining  rhc  impact  o(  'L'r\"JCt'  expl'ricnn_\u00b7s  on  student  dt\u00b7\\\u00b7clop(cid:173) mcnt.", 
  "1 );It:!", 
  "on  cntcnn~  (r,\u00b7,h-(cid:173) mcn  \\\u00b7'l'rl'  ust\u00b7d  to  idt'Jltll~- char;!ctni<>tic.", 
  "'>  o(  studl'm\u2022  rlLH  predispose  tlh:Jll  to\\',\rd  l\",lrtll\u00b7i(cid:173) pation  in  'olunll'n  \\l'J'\"k'..'  clllr(cid:173) ing colk,L':c.  \nA':.", 
  "1111ght  he  c.\\]1n\u00b7t,\u00b7,L  tlw  siJJg!v  lllO\t  in1porL1Jlt  pr-\u00b7,iJ'P()~ ..  in~ r:1ctor  J\\  \\'hctlln tlh\u00b7  <ulL:lll  \n~~  volunteer  during  high  \nschool.", 
  "Other  predisposing  f.1c(cid:173) tors  include  self-rated  leadership  ability,  involvemem  in  religious  activities,  commitment  to  par(cid:173) ticipating  in  comnnmity  action  progr:1ms,  tutorin[.!", 
  ":  othn  stu(cid:173) dents  during  high  schooL  being  a  guest  in  ;1  teacher's  home,  ;nJd  being  a  \\:voman.", 
  "One  of  the  more  interesting  self-selection  the  imporLmcc  that  some  students  give  to  \"making  more  money''  as  ;1  rL\u00b7ason  for  at\u00b7-.", 
  "tending colkgc, \\'hich  turns out  to  he  tlw  only  ll(!.", 
  ";<lliP<'  predictor  of ;1  student  hccOlning  ;1  volull-(cid:173) !11  otlwr  tcn  during  collv!2:l'.", 
  "word\".", 
  "those  cntcnn~ tl\u00b7cshnwn  who  .liT  JllOst  likl\u00b7h\u00b7  ltl  lwt\u00b7nlllL'  \n\nservice  participants  during  col(cid:173) lege tend  uor  to  be  motivated by  materialistic  values.", 
  "How service  experiences  affect students  Al-1cr ;1ppl~/ing multivariate analy(cid:173) SL'S  to ;Kcnunt f()r the influence of  the  m;11ly  char;lctcristics  that prc(cid:173) disposl'  students  to  engage  in  community service,  V>1C examined  the  rl'lationship  bet\\Vecn  the scr(cid:173) vil'C  l'Xpcricncc  and  JS  college  mltCOilll'S  in  the  following  ;Jrcas:  civic  n'sponsihility,  academic  at(cid:173) t,linmcJJt, :md liti..'  skills.", 
  "Tl1c most  rt'll];lrk;lhk  result  or  the  srudy  w:1:-.", 
  "th:ll  ,11/  3:1  student  otltCOlllt'  !lH\\l\"l\\H.'\"", 
  "wnl'  l:1vorahly  inllu(cid:173) l'llet'd  by :-.nvi\\T  p;trticip;ltion.\u00b7'  \n.\"umHI!", 
  "'!Il .. a/1  /997  \n\n\fis  quite  ~L'I'VICL'  particip,Jtion  sm;d/  in  the  case  o( ;1  student's  gr;llk  point  aver.lg<>--ahout  .1  grade  points-the  f;lct  re111ains  th;lt  the  dfcct  is  /lot  negative  (as  some  critics  would  have  us  be(cid:173) lieve);  indeed,  it  is  positive  and  statistic1lly  significant.", 
  "Among  students  who  had  at  least  a  B+  average  in  high  school,  69  per(cid:173) cem  of  the  service  participants  \ninteranin~ with  r:1ntlty  (i-H  per(cid:173) cent  VL'r')tl:\\  JJ  pcrCl'llt  r()r  par(cid:173) ticipants  .llld  nonparticipants,  respectively).", 
  "And,  despite  the  additional  time  required  for  service  participation,  students  who  engage.~ in  volunteer service  actually  spend  more  time  on  studying and  homework  than  do  nonparticipants.", 
  "Participants  are  substantially  more  likely  than  nonparticipants  (10  percent  ver(cid:173) sus  12  percent)  to  spend  more  than 20 hours per week studying  or  doing  hotnework,  whereas  nonparticipants  are  more  than  twice  as  likelv  to  spend  less  than  thre-e  hours  per  week  doing  homework  or  studying  (13  per(cid:173) cent  versus  5  percent).", 
  "These  results  may help explain the posi(cid:173) tive  effect  of service  participa(cid:173) tion  on  students'  grade  point  average.  \n\n'", 
  "' - )  \nCivic responsibility  The  effects  o( service  are  stron(cid:173) gest in  the area  of civic  responsi(cid:173) bility.", 
  "For  example,  students  are  asked  to  indicate  how  much  their  \"commitment  to  serving  the  community\"  had  changed  since  entering  college.", 
  "More  than  twice  as  many  service  par(cid:173) ticipants  as  nonparticipants  (60  percent  versus  28  percent)  re(cid:173) ported  on  the  follow-up  ques(cid:173) tionnaire that their conunitment  to  serving  the  comn1lmity  wa.~  either  \"stronger\"  or  '~much  stronger\"  than  their  cormnit(cid:173) tnent  had  been  when  they were  freshmen.", 
  "Equally impressive are  the  results  on students'  plans  for  the  near  future:  tnore  than four  times  as  many  service  partici(cid:173) pants as  nonparticipants  (39  per(cid:173) cent  versus  9  percent)  indicated  that  they  planned  to  do  volun(cid:173) teer  work  in  the  coming  f.olL  Further,  during  college,  student  participants  were  m.uch  more  likely  than  nonparticipants  to  strengthen  their  commitn1ent  to  the following life goals:  promot- ing racial  understanding,  partici(cid:173) pating  in  community  action  programs,  and  influencing social  \nAcademic det,eloptnetlt  Perhaps  the  most  conunonly  voiced  objection  to  volunteer  participation  during  the  under(cid:173) graduate years is  that it consUines  time and energy that the student  might otherwise devote  to  \"aca(cid:173) demic\"  pursuits.", 
  "This  argmncnt  has been laid to rest by the results  of  our  longitudinal  analyses,  which  reveal  significant  positive  effects  on  all  ten  academic  out(cid:173) comes  included  in  the  study.", 
  "While  the  analyses  reveal  that  the  net  benefit  attributable  to  \n\nE'dur,ltt'on,ll  Rt~cord  \nStudents who  engage in  volunteer service  actually spend more time  on  studying and  homework  than  do  nonparticipants.", 
  "(compared  to  56  percent  of the  nonparticipants)  were  able  to  maintain at least a  B+ average in  college.", 
  "Among  those  who  en(cid:173) tered  college  with  a  B  or lower  average,  27  percent  of the  ser(cid:173) vice  participants  (compared  to  19  percent  of  the  nonpartici(cid:173) pants)  were able to improve to at  least a B+  average in  college,  \nEven more substantial effects  \ncan  be  observed  with  other aca(cid:173) demic  outcomes.", 
  "Perhaps  the  strongest  effect  occurred  in  the  case  of interaction  with  fJculty:  Compared  to  nonparticipants,  service  p<lrticipants  are  nearly  50  percent  more  likely  to  spend  at  least  one  hour  per  week  \nService  participants  also  are  significantly  more  likely  than  nonparticipants  to  report  \"stron(cid:173) ger\" or \"much stronger\" changes  during college  in  general  knowl(cid:173) edge,  knowledge  of  a  field  or  discipline,  and  preparation  for  graduate  or  professional  schooL  Participants  arc  more  likely  than  nonparticipants  to  re(cid:173) port that they did  extra  work for  courses.", 
  "Finallv,  although  both  groups  show  a  net  decline  be(cid:173) tween  pre-test  and  post-test  in  their  aspirations  for  doctoral  or  advanced  professional  degrees,  the decline is  significantly greater  among nonparticipants.", 
  "(Students  attending  LSAHE  institutions  tend  to  have  1nuch  higher  frcshma11-year  degree  aspirations  than  the  national  population  of  fi_\u00b7es1unen,  The  net  decline  fOr  these students can  be attributable  to  greater realism  in  their degree  plans  over  time,  particularly  as  \n\fchanges  in  career  interests  and  financ:ia]  situations  lead  tnany  students to  decide  not  to  attend  gr:1du:>tc school.)", 
  "Life shtills  In  the  area  of life  skills.", 
  "service  participa11ts  show  greater  posi(cid:173) tive  change  than  do  nonpartici(cid:173) terms  of  all  eight  outcor'llts  analyzed,  with  the  largest  differences  occurring  in  understanding  community  problentl,  knowledge  of difler(cid:173) ent races/cultures,  acceptance of  different  races/ cultures,  and  interpersonal  skills.", 
  "Other  sig(cid:173) nificant  differences  that  f:1vor  service  participants  include  un(cid:173) derstanding  the  nation's  social  problems,  the  ability  to  work  cooperatively,  skills  in  conflict  resolution,  and  the  ability  to  think  critically.", 
  "The  \"real  world\"  value  of  \n>enrice  participation  further  re(cid:173) veals  itself in  the  positive  effects  observed  in  three  areas  of  student  satis\u00a31ction:  leadership  opportunities,  relevance  of  courscwork to everyday life,  and  preparation for future  career.", 
  "Fi(cid:173) nally,  during  college,  servicC  participants  exhibit  greater  in(cid:173) creases  in  social  self-confidence  and  leadership  ability  than  do  nonparticipants.", 
  "As  a  matter  of  fJn,  v\u00b7lhile  service  participants  show increases during college  in  their  self-rated  leadership  abili(cid:173) ties,  nonparticipants  actually  sho\u000b slight  decreases  in  theirs.", 
  "The  benefits of course\u00b7  based service  While  the  evaluation  clearly  dcmonstr;Hes  the  positive  eflCcts  of \\l'JTicc  experience:..,  we  also  :mined  whether course-based  scr\\\u00b7icc-sL\u00b7rvicl'  learning- \nprovided  any  additional  benefits  to  students.", 
  "We  found  th;tt  ser(cid:173) vice  conducted  as  part  of  a  course  provided  <ldditional  ben(cid:173) efits  to  students  in  terms  of  a  number of college outcomes, in(cid:173) cluding  students'  commitment  to  their  comn1unities,  prepara(cid:173) tion  for  careers,  skills  in  conflict  resolution,  and understanding of  community  problems.", 
  "In  all  likelihood,  this  latter finding  re(cid:173) flects  the fact  that the content of  many  service  learning  courses  often  focuses  on  contetnporary  social  problems.", 
  "Course-based  service  also  contributed  to  aca(cid:173) demic  developn1cnt  by  increas(cid:173) ing  the  fi\u00b7equency  with  which  students interact with  faculty.", 
  "Long-term  eHects  Does service continue  to  benefit  students after they leave  college?", 
  "To  detern1ine  the  answer,  we  conducted a longitudinal nation(cid:173) wide  study of more  than  12,000  students,  who  were  surveyed  at  three  time  points  over  a  nine(cid:173) year  period:  in  1985,  as  college  freshmen;  in  1989,  as  college  seniors;  and  in  1994,  as  adults  who had been  out of college for  five  years.", 
  "3  \nEven  \\ll'hen  controlling  fin  \nstudents'  freshman-year  predis(cid:173) position  to  engage in  service,  IT(cid:173) suits  revealed  that  participation  in  volunteer  service  during  the  undergraduate  years  is  positively  associated  with  a  variety  of cog(cid:173) nitive  and  afiCctive  outcomes.", 
  "The  strongest  of these  effects  is  on students' lifelong commitment  to  volunteerism  and  community  activism.", 
  "In  other  words,  those  students \\:vho  engage in  service as  undergraduates  develop  a greater  commitment  to  civic  involve(cid:173) ment  in  the  yc;u\u00b7s  after  college,  \nDuring college,  \nservice  participants  \nexhibit greater  \nincreases in  social  \nself-confidence  \nand leadership  \nability than  do  \nnonparticipants.", 
  "regardless or' their  pre-college in(cid:173) clination  to  beconH:.'", 
  "involved  in  volunteer  .~ervin~  work.", 
  "Under(cid:173) graduate service participation also  enhances  a  variety  of other out(cid:173) comes,  including  the  students'  commitment to  promoting racial  understanding,  helping others  in  difficulty,  and  developing  a  meaningful  philosophy  of  life.", 
  "Furthermore, participating in ser(cid:173) vice  during  college  is  associated  with ~1  gre~lter sense of cmpower(cid:173) tnent in the years  after college.", 
  "In  other  words,  service  participants  become even n1ore strongly com(cid:173) mitted to the notion that, as  indi(cid:173) viduals,  they  have  the  ability  to  change society.", 
  "The  long-term  benefits  of  service  also  are  found  in  the  post-graduate  and  professional  realms.", 
  "Participating  in  volun(cid:173) teer service  work  during college  is  associated  with  the  increased  likelihood  of attending  graduate  school,  aspiring  to  and  earning  higher  degrees,  and  perceiving  that  the  undergraduate  college  provided  good  preparation  for  work.", 
  "This latter  finding  is  con(cid:173) sistent  with  the  notion  that par(cid:173) ticipating  in  service  work  gives  students  important  practical  ex(cid:173) perience in  the \"real world.\"", 
  "Of  particular interest to higher edu(cid:173) cation  officials  is  the finding  that  undergraduate  service  participa(cid:173) tion  is  associated  with  an  in(cid:173) creased  likelihood  of  donating  money  to  the  undergraduate  college.", 
  "Challenges to  institutionalization  Despite  these  apparent  benefits  of service,  it  still  is  quite  a  chal(cid:173) lenge  for  many  institutions  to  incorporate service-particularly  service learning-into the cve1y- \nday  institutional  culture.", 
  "Visits  to college e:unpuses have illumi(cid:173) zuted  numerous  barriers  to  the  full  institutionalization  of  ser(cid:173) vice as  well  as  effective  methods  that son1e  institutions  have  used  to  1)romote  service  on  their  campuses.", 
  "On  many  campuses,  stu(cid:173) \ndents  sin1ply  do  not  know  where  to  go  to  get  connected  with  service  opportunities.", 
  "Par(cid:173) ticularly  on  large  c;unpuses,  students  can  be  unaware  of  which  campus  clubs  or  organi(cid:173) zations  provide  service  to  the  comnwnity.", 
  "Students  often  be(cid:173) come  aware  of  opportunities  only  through  \"word  of mouth,\"  which  doesn't  reach  all  of the  students  who  would  be  willing  and  olble  to  devote  some of their  time  to a service  activity.", 
  "Perhaps  an  even  more  criti(cid:173) cal  barrier to  the institutionaliza(cid:173) tion  of  service  on  campus  is  <l  lack  of awareness--or  even  a  resistance-among  the  f,_1culty.", 
  "Many  filculty  still  view  commu(cid:173) nity  service  and  academic  learning  as  mutu;dly  exclusive  activities.", 
  "A  recent  national  survey  of undergraduate  teach(cid:173) ing  f:1etdty  fuund  that  although  80 percent of 61cultY  believe that  colleges  should  encourage  stu(cid:173) dents  to  do  comnn1nity  service,  \nParticipating in  \nservice during  \ncollege  is  \nassociated with  \na  greater sense  \nof empowerment  \nin  the  years  \nafter college.", 
  "Edsscational  Record  \n\fonly 2  )crcent of f:1culty  include  a  servi,\u00b7c  component  in  their  coursc:\"s.\u00b7l  Our case  study visits  to  campt.JS~s suggest that f:lculty be(cid:173) come  highly  enthusiastic  about  service learning  once  they  have  had  a  dunce  to  experience  it.", 
  "The  re<:l  challenge  for  adnlinis(cid:173) trator~, then,  is  to  devise  more  effecti w  strategies  for  getting  faculty- to  try  it.", 
  "A  recent  article  by  Robert  \nBringle  and  Julie  Hatcher  pro(cid:173) vides  a  ~nnnber of useful  recom(cid:173) mendations  for  institutions  to  cncou nge  implementation  of  scrvic e  learning:  pron1oting  awareness  of  service  learning  by  distributing  ne\u000bsletters  or  articles  on  service  learning,  offering  faculty  development  workshops  on  how  to  integrate  service  learning  into  particular  academic  fields,  securing  faculty  development  funds  as  incentives  to  faculty  to  initiate  service  learning,  and  providing  \u00a31culty  with  service  learning  course  syllabi.\"", 
  "Bringle  and  Hatcher  also  emphasize  the  in1portance,..~f a  centralized service learning cen(cid:173) ter on  campus  that  can  provide  a coordinating link between the  classroom  and  the  community.", 
  "Staff  at  such  centers  develop  and  maintain  relationships  with  community  ;1gencies  in  order  to  coordinate  field  placement  opportunities  for  students  and  assist  f-1culty  with  the  develop(cid:173) ment  of sen\u00b7icc  learning  com(cid:173) ponents  in  their  courses.", 
  "These  staff  members  can  do  ,;o..,hat  many  f;Jctllty  cannot:  They  can  develop  effective  field  pLtce(cid:173) ment  experiences  for  students  because  rhcy  h:1vc  rhc  knov,.\u00b7l(cid:173) edge,  time.", 
  "and  energy  that  faculty  frequc\u00b7ntly  lad:.", 
  "One  of the  primary  benefits  of such  centralized  coordination  is  that it allows for  greater conti(cid:173) nuity  of community  service  ac(cid:173) tivities.", 
  "l3y  and  large,  the  needs  of community agencies arc  f-1irly  constant,  even  as  individual  stu-\u00b7  dent  and  faculty  participants  change  over time.", 
  "The extent to  which  colleges meet comnnmity  \nneeds  should  not  depend  on  whether a  specific  service  learn(cid:173) ing  course  is  currently  being  taught.", 
  "A  centralized  service  of(cid:173) fice  can  work  to  maintain  the  institution's  commitment  to  a  particular community agency by  directing  a  steady  stream  of stu(cid:173) dent volunteers  to  that  site  and/  or by  connecting 'arious service  \nRecommendations of the  \n\"Partnering Initiative  \non Education and Civil Society\"  \nThe  Partnering  Initiative is  the  result of a  year-long  process  of  discussion  and  dialogue among  44 education  associations and  organizations.", 
  "The  partners  have agreed to  work together on  a  ten-year  plan to  integrate civic values  into every aspect of the  educational  experience,  with emphasis  on:  \n1.", 
  "Expanding  opportunities for  students  to  become  more  in(cid:173) \nvalved  in  meaningful  service with  neighborhood organiza(cid:173) tions  by making  service  learning  an  integral part of the  academic experience.", 
  "2.", 
  "Encouraging  students  to explore the  twin  issues  of character  development and responsible  participation  in  the  civil  society  by integrating  service  learning,  character education,  and  citizen  education  into  the  classroom.", 
  "3.", 
  "Weaving the  historical  legacy and values  of a  civil society  into a  broad  range of curricula  and community programs.", 
  "4.", 
  "Extending  the values  of democracy and  community to the  \nclassroom  by encouraging  students  to  participate in  designing  their own  learning  experience.", 
  "5.", 
  "Soliciting  more direct involvement of community organiza(cid:173) \ntions,  civic associations,  and  businesses  with  local schools,  colleges,  and  universities.", 
  "6.", 
  "Ensuring  that faculty,  students,  families,  and communities  have  a  genuine voice  in  school,  college,  and university-level  policy  \n7.", 
  "Making every effort to ensure  that the  human,  financial,  and  \ncommunity resources  needed to  accomplish  these  goals be  available.", 
  "For  more  information  on  the  \"Partnering  Initiative\" call (202)  466-2823.", 
  "!\u00b7;ulllmcr!", 
  "}:,}/  1'JIJ7  \n\n\fk;lrning  cLl~ses  to  th:1t  sitl'  throughout the year.", 
  "In  that w~1y,  community  ~ervice pn~jccts t!Lit  are  designed  by  one  ch~s  may  be implemented by another class  the  t()llowing  term,  ~md  then  evaluated by yet another chlss  later  on.", 
  "Without  <I  strong  commu(cid:173) nity  service  center,  this  level  of coordination  between  t;Jctdty  and  commu~1ity agencies  will  be  nearly impossible  to <lttain.", 
  "Administration's role  It is  important to note, however,  that si1nply luving a  community  service  center  on  ca1npus  is  not  enough  to  ensure  the  institu(cid:173) tionalization  of service.", 
  "The im(cid:173) portance  of the  center  and  its  role  in  the  institutional  mission  nu1st  be  conununicated  clearly  by  top  campus  administrators.", 
  "A  verbal  as  well  as  financial  con1mitn1ent  to  these  centers  by  campus  leadership  helps  send  the  n1essage  to  students,  \u00a31culty,  stafi~  alwnni,  and  the  commu(cid:173) nity  at  large  that  the  institution  values  and encourages  service .", 
  "Another critical t~1ctor in the  success  of such  a  center  js  its  location  on  Gunpus.", 
  "When  a  con1munity  service  center  is  located  at  the  margins  of  the  campus,  or  is  relegated  to  the  basen1ent  of  a  less  fi\u00b7equented  building,  the  campus  is  sending  the  message  that  service  is  \"peripheral\"  to  the  institution's  111ission.", 
  "Ideally, community ser(cid:173) vice  centers  should  be  centrally  located  and  should  regularly  advertise  community  service  opportunities  to  students  and  \u00a31culty.", 
  "Conclusion  The  n1ost  in1portant  factor  inHuencing  an  institution's  .1c- \ntivc  CO!IJJllit!Jll'Jlt  to  scTvicc  whether  it  is  convint'cd  that stu(cid:173) dents  ~JCtu;ll!y  bt'!lt.", 
  "'llt  ti\u00b7oJll  the  service  cxpt-'ricncc.", 
  "HEIU'<;  rc(cid:173) sc;Jrch  provides  some  answers:  Service work encourages students  to  become  more socially  respon(cid:173) sible,  more committed  to serving  their  comnn1nitics,  mort-'  em(cid:173) powered,  and  more  committed  to  cducltion.", 
  "Further,  the  eflCcts  of volunteer service  participation  during  the  undergraduate  years  continue  to  persist  in  the  years  atter  college.", 
  "S  \n1  Astin,  Helen  S.,  Anthony L.  Antonio,  Christine M.  Cress,  et a!.", 
  "Pr1Wft)'  lullolwmenr  ill  Co/1111/lfllity  Sauicc.", 
  "Hight'r  Education  Research  Institute,  University  ofCaliforni;l,  Los  Angeles,  !996.", 
  "For additional details  on  this  study,  see  Sax,  Linda J.,  Alexander W.  Astin,  and  \nHelen\\.", 
  "A-;rin.", 
  "\"Wh~lt were  L\\A!\u00b7H:  !rnp,lcr\\  on  Student  V()!UIHL'L'f'l?", 
  "..  J;t\"<lltid!ioll  ~{  Lr'tl/\"11  1111d  .\\cn'1'  .1JIII'ricd:  Higher  l:'ifu(utioll.", 
  "J:ir_,.,  \\ \u00b7('111\"  i{t'port.", 
  "Santa  Monic.1:  !~AND  Corporation.", 
  "l !J9(l.  \n1  For <lddition:d  det:1ils  on  this  \n.~tudy, set'  Astin,  i\\lex<lnder W.,  Linda J.  S,l:\\,  .lndjtl<ln  Av;Jlos.", 
  "\"Lon~-tnn1 Etrecrs  ofVo1un(cid:173) teerism  l)urill!", 
  "; tht'  Under(cid:173) gndu;ltl' Years ...  1hc  R.erJiew qf  H~~?h('J\" Ed{/(afi(11/.", 
  "(In  press).", 
  ".,  S;lX,  Lind<l J.,  Alexander W.  \nAstin,  Marisol  Arredondo,  ct al.", 
  "71w  Amr\u2022rir<111  Cotltxc  Teacher:  l\\larional  i'<11\"//JS .f(,,  1995-96.", 
  "Higber Education Research  Institute,  Univer~ity of  C;JJifornia,  Los  Angeles,  1996.", 
  "/Bringle,  Roben.", 
  "G.,  and julie A.  Hatcher.", 
  "\"Implementing Service  Learning in  Higher  Education,\"  Joumal 1!/ Hl:'l,hcr  Fidu(mio11,  vol.", 
  "67,  llO.", 
  "2,  !", 
  "1)96,  pg.", 
  "~21.", 
  "ACE's Fifteenth Annual Status Report  on Minorities in Higher Education  The Fifteenth Annual Status Report on Minorities in Higher Hducation pre(cid:173) \nsents the latest available data on  the progress of Hispanics, African Americans, Asian  Americans, and American Indians in postsecondary education.", 
  "Widely recognized as tbe national source of data on current trends and issues  \nrelative to minorities in higher education,  this annual smdy summarizes high school  completion and college participation r;ltes, college cnrollmerns by race/edwicity,  degrees conferred by field of study and race/etluticity, and employment trends.", 
  "11Iis year's Special Focus examines il1e ltistorical, demogmphic, and educalional  \ntrends of one of the fastest growing U.S.  populations-Asian Pacific Americans  (APAs).", 
  "APAs have a long ltistory of stJuggle in their attempts to gain access to and  equal treatment in education in the United States.", 
  "The report challenges the \"model  minority\" stereotype and discusses impor~mt differences in the educational, social,  and econontic circumstances of Asian Pacific Ame1ican ethnic groups.", 
  "($24.95)  To order the Pifleentb Annual Status Rep011 on Minorities in Higber Edu(cid:173) \ncation, comact ACE Publications at (202) 939-9385.", 
  "AMERICAN COUNCIL ON EDUCATION  \n\n'  l - )  \n'  I ,, .", 
  ";:  \n\nEdliCiltiotlill  Rt'corrl  \n-----------------"
 ]
}