{
 "document_id": "10971022116563226172", 
 "sentences": [
  "Global Desertification: Building a Science for Dryland Development James F. Reynolds, DOI: 10.1126/science.1131634  \n\n, 847 (2007); \n\nThe following resources related to this article are available online at www.sciencemag.org (this information is current as of May 18, 2007 ): \nUpdated information and services, version of this article at:  http://www.sciencemag.org/cgi/content/full/316/5826/847 \n\n including high-resolution figures, can be found in the online \nSupporting Online Material http://www.sciencemag.org/cgi/content/full/316/5826/847/DC1 \n\n can be found at:  \nThis article  http://www.sciencemag.org/cgi/content/full/316/5826/847#otherarticles \n\n, 7 of which can be accessed for free:  \ncites 35 articles \nThis article appears in the following  Atmospheric Science  http://www.sciencemag.org/cgi/collection/atmos \nsubject collections \nInformation about obtaining  this article  in whole or in part can be found at:  http://www.sciencemag.org/about/permissions.dtl \n of this article or about obtaining  \npermission to reproduce \nScience (print ISSN 0036-8075; online ISSN 1095-9203) is published weekly, except the last week in December, by the American Association for the Advancement of Science, 1200 New York Avenue NW, Washington, DC 20005.", 
  "Copyright c 2007 by the American Association for the Advancement of Science; all rights reserved.", 
  "The title SCIENCE is a  registered trademark of AAAS.", 
  "Global Desertification: Building a Science for Dryland Development James F. Reynolds,1* D. Mark Stafford Smith,2 Eric F. Lambin,3 B. L. Turner II,4 Michael Mortimore,5 Simon P. J. Batterbury,6 Thomas E. Downing,7 Hadi Dowlatabadi,8 Roberto J. Fern\u00e1ndez,9 Jeffrey E. Herrick,10 Elisabeth Huber-Sannwald,11 Hong Jiang,12 Rik Leemans,13 Tim Lynam,14 Fernando T. Maestre,15 Miguel Ayarza,16 Brian Walker2 \nIn this millennium, global drylands face a myriad of problems that present tough research, management, and policy challenges.", 
  "Recent advances in dryland development, however, together with the integrative approaches of global change and sustainability science, suggest that concerns about land degradation, poverty, safeguarding biodiversity, and protecting the culture of 2.5 billion people can be confronted with renewed optimism.", 
  "We review recent lessons about the functioning of dryland ecosystems and the livelihood systems of their human residents and introduce a new synthetic framework, the Drylands Development Paradigm (DDP).", 
  "The DDP, supported by a growing and well-documented set of tools for policy and management action, helps navigate the inherent complexity of desertification and dryland development, identifying and synthesizing those factors important to research, management, and policy communities.", 
  "Drylands cover about 41% of Earth\u2019s land \nsurface and are home to more than 38% of the total global population of 6.5 billion (1, 2).", 
  "Some form of severe land degradation is present on 10 to 20% of these lands [medium- confidence conclusion of (2)] (3), sequences of which are estimated to affect directly some 250 million people in the developing world, \n1Nicholas School of the Environment and Earth Sciences and Department of Biology, Post Office Box 90328, Duke University, Durham, NC 27708, USA.", 
  "2Commonwealth Sci- entific and Industrial Research Organisation (CSIRO) Sus- tainable Ecosystems, Post Office Box 284, Canberra, ACT 2602, Australia.", 
  "3Universit\u00e9 Catholique de Louvain, B-1348 Louvain-la-Neuve, Belgium.", 
  "4Graduate School of Geography and George Perkins Marsh Institute, Clark University, Worces- ter, MA 01610, USA.", 
  "5Drylands Research, Cutters\u2019 Cottage, Glovers\u2019 Close, Milborne Port, Sherborne DT9 5ER, UK.", 
  "6School of Social and Environmental Enquiry, University of Melbourne, Melbourne, VIC 3010, Australia.", 
  "7Stockholm Envi- ronmental Institute, Oxford Office, 266 Banbury Road, Oxford OX2 7DL, UK.", 
  "8Institute for Resources, Environment and Sustainability, University of British Columbia, Vancouver, BC V6T 1Z4, Canada.", 
  "9Facultad de Agronomia and Instituto de Investigaciones Fisiol\u00f3gicas y Ecol\u00f3gicas, Universidad de Buenos Aires/CONICET (Consejo Nacional de Investigacione, Cient\u00edficas y T\u00e9cnicas), Buenos Aires C1417DSE, Argentina.", 
  "10U.S.", 
  "Department of Agriculture\u2013Agricultural Research Service, Jornada Experimental Range MSC 3JER, Box 30003, New Mexico State University, Las Cruces, NM 88003\u20138003, USA.", 
  "11Instituto Potosino de Investigaci\u00f3n Cient\u00edfica y Tecnol\u00f3gica, Camino a la Presa San Jos\u00e9 2055, San Luis Potos\u00ed, S.L.P.", 
  "78216, M\u00e9xico.", 
  "12Department of Geography, University of Hawaii at Manoa, Honolulu, HI 96822, USA.", 
  "13Environmental Systems Analysis Group, Wageningen Uni- versity, Post Office Box 47, 6700 AA Wageningen, the Neth- erlands.", 
  "14CSIRO Sustainable Ecosystems, PMB PO, Aitkenvale, Qld 4814, Australia.", 
  "15Universidad Rey Juan Carlos, \u00c1rea de Biodiversidad y Conservaci\u00f3n, Escuela Superior de Ciencias Experimentales y tecnol\u00f3gicas, C/ Tulip\u00e1n s/n, M\u00f3stoles, 28933 Spain.", 
  "16CIAT (International Center for Tropical Agriculture)\u2013 Honduras, Edificio de DICTA en la Secretaria de Agricultura y Ganaderia, Tegucigalpa, Honduras.", 
  "*To whom correspondence should be addressed.", 
  "E-mail: james.f.reynolds@duke.edu \nan estimate likely to expand substantially in the face of climate change and population growth (4).", 
  "The United Nations has periodically focused on desertification and drylands, notably adopting the Convention to Combat Desertification (CCD) in 1992 (3) and designating 2006 as the International Year of the Desert and Desertification.", 
  "One contribution of the CCD was to enshrine a definition of desertification as \u201cland deg- radation in arid, semi-arid, and dry subhumid areas resulting from various factors, including climatic variations and human activities,\u201d that is, encompassing both biophysical and social factors (5).", 
  "However, the CCD and related efforts receive comparatively little exposure in the popular and scientific media (6), in part because of the ab- sence of a focused international science program (7).", 
  "Advances in various aspects of science rel- evant to drylands and community development practices in recent years suggest a common framework for managing dryland systems.", 
  "The DDP presented here centers on the live- lihoods of human populations in drylands, and their dependencies on these unique ecosystems, through the study of coupled human-environmental (H-E) systems (8).", 
  "The DDP responds to recent research and policy trends (Fig.", 
  "1) that link eco- system management with human livelihoods in order to best support the large, and rapidly ex- panding, populations of dryland dwellers (9).", 
  "The DDP represents a convergence of insights and key advances drawn from a diverse array of research in desertification, vulnerability, pov- erty alleviation, and community development (Table 1).", 
  "Research and practice in these fields have increasingly converged on a set of five general lessons concerning the condition and dynamics of H-E systems as they apply to sustainable development in drylands.", 
  "(i) Both researchers \nFig.", 
  "1.", 
  "The focus on global drylands is shifting from an emphasis on negative images of desert- ification (upper: drought-stricken cattle on an eroded grassland in central Australia.", 
  "Photo: M. Stafford Smith) to a more forward-looking per- spective concerning human livelihoods, based on interactions between and among human activ- ities and natural-world processes (lower: farmer spraying organic pesticide on domesticated quinoa in southern Bolivia.", 
  "Photo: J. Reynolds).", 
  "Either way, great challenges to the future security of some 250 million people remain (4).", 
  "and practitioners need to adopt an integrated approach: Ecological and social issues are fun- damentally interwoven, and so are the options for livelihood support and ecological manage- ment.", 
  "(ii) There needs to be a heightened aware- ness of slowly evolving conditions: Short-term measures tend to be superficial and do not re- solve persistent, chronic problems nor deal with continual change.", 
  "(iii) Nonlinear processes need to be recognized: Dryland systems are not in equilibrium, have multiple thresholds, and thus often exhibit multiple ecological and social states.", 
  "(iv) Cross-scale interactions must be anticipated: Problems and solutions at one scale influence, and are influenced by, those at other scales.", 
  "(v) A much greater value must be placed on local environmental knowledge (LEK): Its \nwww.sciencemag.org SCIENCE VOL 316 \n11 MAY 2007 \npractice is central to the management of most drylands but is often undervalued.", 
  "Template for a New Science Building on earlier efforts (10), we synthesize and formalize these lessons more explicitly in the DDP.", 
  "The issues that the DDP principles highlight arise from a suite of biophysical and socioeconomic features that together constitute a \u201cdrylands syndrome,\u201d such that dryland populations are among the most ecologically, socially, and politically marginalized popula- tions on Earth (11).", 
  "Sustainable development in drylands is determined by five key features of the drylands syndrome (noted as ds-1 to ds-5 below), which dominate the dynamics of H-E \nDryland syndrome.", 
  "Drylands\u2014which in- clude arid, semi-arid, and dry subhumid areas\u2014 \nare by definition (12) areas where precipita- tion is scarce and typically more-or-less un- predictable (ds-1: high variability).", 
  "High air temperatures, low humidity, and abundant solar radiation result in high potential evapotrans- piration.", 
  "Many dryland soils contain small amounts of organic matter and have low aggre- gate strength (ds-2: low fertility).", 
  "Both tillage and grazing by domesticated animals can quickly have major impacts, so drylands are sensitive to degradation (1, 2).", 
  "These and other biophysical features have profound social and economic implications.", 
  "Compared to mesic areas, and a few major desert cities notwithstanding, the human popula- tions of drylands are usually sparser (ds-3: sparse populations), more mobile, more remote from markets (ds-4: remoteness), and distant from the centers (and priorities) of decision-makers (ds-5: \ndistant voice).", 
  "It is also harder to deliver services efficiently, and institutional arrangements de- vised in other regions may be dysfunctional when imposed on drylands.", 
  "As a result, dryland populations tend to lag behind populations in other parts of the world on a variety of eco- nomic and health indices, even controlling for \u201cruralness\u201d (2), with higher infant mortality, severe shortages of drinking water, and much lower per capita gross national product.", 
  "Principles of the DDP.", 
  "The DDP consists of five principles (Table 2), which are based on the aforementioned lessons but that are also consistent with the dryland syndrome.", 
  "Principle 1.", 
  "Dryland H-E systems are cou- pled, dynamic, and coadapting, with no single target equilibrium point (13).", 
  "They are the co- evolved product of complex interactions be- tween biophysical (e.g., climate, soil, biota) and \nsynthesis presented in Table 2.", 
  "P1 to P5 indicate how the specific advances and lessons foreshadow principles 1 to 5 and their implications as given in Table 2.", 
  "Table 1.", 
  "Selected fields of activity relevant to dryland development, showing some key advances in research and lessons for management and policy over the past two decades, and which provide the basis for the new Fields of activity Some key advances in drylands research Desertification and Many case studies of chronic dryland degradation\u2014caused by interactions between biophysical and social drivers\u2014 have been documented [e.g., land uses that exhaust available water resources or are unsuited to highly variable precipitation regimes (62)].", 
  "rangelands ecology: Understanding the biophysical (59, 60) and socioeconomic (61) drivers of dryland degradation, as part of global environmental change research \nVulnerability: \nUnderstanding the integrated environmental, social, economic, and political exposure of human welfare to a range of potentially harmful perturbations (64) \nThe debate about drylands being disequilibrium systems has \nbeen resolved in favor of a more dynamic, nonequilibrium view (13).", 
  "[\u2192P1, P2, P3] Vulnerability involves multiple stressors across multiple \ntemporal and spatial scales, and emerges from the interactions of social actors, the environment, and institutions (65).", 
  "Thresholds of critical risks are dynamic in space and time \nand are rooted in historical structural causes [e.g., construction of wells during a severe drought in the Sahel interrupted herd movements, creating new vulnerabilities (22)].", 
  "[\u2192P1, P3, P4] \nPoverty alleviation: Elucidates human welfare\u2013land degradation relationships (68) \n\u201cPoverty trap\u201d thresholds exist (69) from which it is difficult \nfor individuals and households to extract themselves without outside intervention.", 
  "Livelihood diversification, which is increasingly promoted \nin drylands, reduces dependence on highly variable natural resources (2).", 
  "[\u2192P2, P3] \nSome key lessons learned for drylands practitioners Desertification is the emergent outcome of a suite of social and biophysical causal factors, with pathways of change that are specific in time and place (23).", 
  "Poor resource management is compounded by weak institutions, poorly implemented technologies, or exploitative economic and political systems [thus emphasizing links between coupled H-E systems \n[\u2192P1, P2] Expansion of cropping into rangelands during wet periods \nchanges system thresholds and often results in crises and environmental collapse when dry conditions return, e.g., the 1930s U.S. Dust Bowl (66) and \u201csandification\u201d in China\u2019s Ordos Plateau (31).", 
  "With adequate preparedness, early-warning systems can \nreduce the human toll of natural hazards and livelihood-based measures can reduce longer-term vulnerability [e.g., community adaptation to drought in Kordofan, Sudan (67)].", 
  "[\u2192P2, P3] Development schemes in drylands justified as alleviating poverty have often been driven by divergent, higher- level political or economic objectives [e.g., forced relocation of Ethiopian Highlands peoples after the 1980s famine (70)].", 
  "Low productivity often means that interregional flows of \nlabor, capital, and skills (e.g., by migration to urban or more humid areas) are needed to sustain poverty reduction in drylands.", 
  "[\u2192P3, P4] An increased role for local communities and land users is \nneeded for win-win (environment-development) outcomes (74) requiring rights to participate and capacity-building initiatives.", 
  "Community-driven \ndevelopment: Seeks to enlarge the role of local communities in policy and to strengthen local autonomy in governance (71) \n\u201cTop-down\u201d development policies often contradict local \npractices and undermine sustainable development [e.g., conflicts between state and local perspectives on burning in Mali (72)].", 
  "Community-driven management, though more sensitive to \nProper engagement of local people (and local \nlocal conditions and knowledge, is not a universal solution (73).", 
  "[\u2192P4, P5] \nenvironmental knowledge) with scientists (and scientific knowledge) can contribute to sustainable management (75, 76).", 
  "11 MAY 2007 VOL 316 SCIENCE www.sciencemag.org \nhuman (e.g., demographic, economic, tional) subsystems (14), complete with a history and geography, and are constantly changing in response to both external (e.g., climate, prices) and internal feedbacks between soil nutrients and plant growth, a farmer\u2019s economic decisions regarding land use) drivers.", 
  "An example of the coevolution of H-E systems is provided by Mortimore and Harris (15) for the Kano Close-Settled Zone in Nigeria, covering the period 1962 to 1996 (16).", 
  "Given this scenario, approaches to development must simultaneously consider both biophysical and socioeconomic dimensions of the dryland system in question [key implication 1 (ki-1) in Table 2] (17).", 
  "Trends in soil fertility or biodiversity, for example, must be linked to factors such as labor, settlement patterns, and livelihood system dynamics, and vice versa, with appropriate temporal and spatial definitions (18).", 
  "Principle 2.", 
  "The critical dynamics of dryland systems are determined by \u201cslow\u201d variables, both biophysical and socioeconomic [as exem- \nplified by the coevolution of the coupled H-E systems of Maradi, Niger (Box S1, supporting online text)].", 
  "Slow variables (e.g., soil fertility, household capital wealth) have lengthy turnover times and are thus useful for gaining insights into long-term H-E changes, resource collapses, potential surprises, and new opportunities (19).", 
  "The vagaries of precipitation, pest outbreaks, and other strongly fluctuating variables charac- teristic of drylands tend to generate noise, mak- ing such \u201cfast\u201d variables with relatively rapid turnover times (e.g., crop yield, household dis- posable cash) poor indicators of land degradation or the need for intervention (17).", 
  "Nevertheless, both research and human exploitation of re- sources are often based on relatively fast var- iables (19), which for drylands has confused the debate about strategic development needs (20, 21).", 
  "Given the complex, multivariate structure of H-E systems, it is important to recognize that not all variables carry equal weight (17).", 
  "It is often possible to identify combinations of inter- \nrelated variables that can be grouped together as syndromes of degradation (22), thus simplifying analysis and intervention (ki-2, Table 2) (23).", 
  "Principle 3.", 
  "Slow variables possess thresh- olds that, if crossed, cause the system to move into a new state or condition.", 
  "The importance of thresholds is widely recognized in both the ecological and socioeconomic literature (24) and, although this usually focuses on one, dom- inant \u201cshift,\u201d Kinzig et al.", 
  "(25) show that most regional-scale systems have a number of actual or potential regime shifts, in different domains (ecological, social, economic) and at different scales, such that one shift may trigger or pre- clude others.", 
  "Thresholds may vary as a function of internal dynamics at other scales, and in some instances can be deliberately altered.", 
  "For ex- ample, the provision of piped water or solar cookers in remote villages can dramatically alter the income threshold at which women have spare time to invest in small business or education by reducing the time taken to collect water or fuel (26).", 
  "Table 2.", 
  "Principles of the Drylands Development Paradigm, with a brief overview of their importance vis-\u00e0-vis the five main components of the dryland syndrome (ds-1 to ds-5, see text) and their implications for research, management, and policy.", 
  "[Based on Stafford Smith and Reynolds (77)] H-E, human- environmental systems; LEK, local environmental knowledge.", 
  "Principles \nWhy important in drylands \nP1: H-E systems are \nThe close dependency of most drylands livelihoods on \ncoupled, dynamic, and coadapting, so that their structure, function, and interrelationships change over time.", 
  "P2: A limited suite of \u201cslow\u201d variables are critical determinants of H-E system dynamics.", 
  "P3: Thresholds in key slow variables define different states of H-E systems, often with different controlling processes; thresholds may change over time.", 
  "the environment imposes a greater cost if the coupling becomes dysfunctional; variability caused by biophysical factors as well as markets and policy processes, which are generally beyond local control, means that tracking the evolving changes and their functionality is relatively harder and more important in drylands.", 
  "Identifying and monitoring the key slow H and E variables is particularly important in drylands because high variability in \u201cfast\u201d variables masks fundamental change indicated by slow variables.", 
  "Thresholds particularly matter in drylands because the \ncapacity to invest in recovering from the impacts of crossing undesirable thresholds is usually lower per unit (area of land, person, etc); and, where outside agencies must be called upon, the transaction costs of doing so to distant policy centers are usually higher.", 
  "Links to dryland (ds-1 to ds-5) \nds-1: variability; ds-4: remoteness \nKey implications (ki) for \nresearch, management, and policy \nki-1: Understanding dryland \ndesertification and development issues always requires the simultaneous consideration of both human and ecological drivers, and the recognition that there is no static equilibrium \u201cto aim for.\u201d \nds-1: variability \nki-2: A limited suite of critical \nds-1: variability; ds-2: low productivity; ds-4: remoteness; ds-5: distant voice \nprocesses and variables at any scale makes a complex problem tractable.", 
  "ki-3: The costs of intervention rise nonlinearly with increasing land degradation or the degree of socioeconomic dysfunction; yet high variability means great uncertainty in detecting thresholds, implying that managers should invoke the precautionary principle.", 
  "P4: Coupled H-E systems \nDrylands are often more distant from economic and \nare hierarchical, nested, and networked across multiple scales.", 
  "policy centers, with weak linkages; additionally, regions with sparse populations may have qualitatively different hierarchical relationships between levels.", 
  "P5: The maintenance of a \nSupport for LEK is critical in drylands because \nbody of up-to-date LEK is key to functional coadaptation of H-E \nexperiential learning is slower where monitoring feedback is harder to obtain (owing to more variable systems, larger management units, in sparsely populated areas) and, secondarily, where there is relatively less research.", 
  "ds-3: sparse population ds-4: remoteness; ds-5: distant voice; \nds-1: variability; ds-3: sparse population \nki-4: H-E systems must be managed at \nthe appropriate scale; cross-scale linkages are important in this, but are often remote and weak in drylands, requiring special institutional attention.", 
  "ki-5: The development of appropriate \nhybrid scientific and LEK must be accelerated both for local management and regional policy.", 
  "www.sciencemag.org SCIENCE VOL 316 \n11 MAY 2007 \nAs an H-E system moves further from some desirable condition or state, the cost of inter- vention to \u201creturn\u201d the system to that condition also increases.", 
  "Sudden changes or nonlinearities associated with thresholds (e.g., run-off from overland flow to gullies; labor withdrawn due to war or out-migration) tend to amplify the costs of intervention (ki-3, Table 2).", 
  "In impoverished drylands, these costs are further exacerbated by economic limits to local investment capacity, thus triggering the call for external resources that further increase transaction costs in remote areas [examples in (17, 27)] (28).", 
  "Principle 4.", 
  "The involvement of multiple stakeholders, with highly differing objectives and perspectives, illustrates the need to pay at- tention to the multilevel, nested, and networked nature of H-E systems.", 
  "Operating hierarchically and across scales, linkages between stake- holders embed the system in question within others (10, 29).", 
  "Such scale issues are especially important in drylands because so many of them are sparsely occupied and remote, e.g., from city-based agencies or company headquarters, which weakens political and economic em- powerment (30).", 
  "In addition, slow variables at one scale of interest are affected by slow and fast variables operating at other scales, such that interventions at one scale generally alter the system at the next [e.g., (31)].", 
  "However, not every problem need be viewed as encompassing all scales of concern.", 
  "Berkes and Jolly (32), for example, argue that short- term coping mechanisms are displayed at the household and individual scales, whereas long- term adaptive strategies, such as change in cul- tural values, are expressed at broader scales.", 
  "In general, intervention on, and management of, a particular process must occur at propriate scale (ki-4, Table 2).", 
  "For example, inasmuch as management is affected by insti- tutions (rules of governance), the two should be scale-matched (33).", 
  "Principle 5.", 
  "The key to maintaining func- tional coadaptation of coupled H-E systems is an up-to-date body of \u201chybrid\u201d environmental knowledge that integrates local management and policy experience with science-based knowledge, all of which must be mediated through an ef- fective institutional framework.", 
  "Local environ- mental knowledge, which encompasses a wide range of activities, may develop rapidly or over generations (34) and has served long-persisting groups well [e.g., native Americans (35)].", 
  "In the modern world, however, the tradition- al role of LEK is threatened by rapid changes in both biophysical (e.g., exotic-species introduc- tions, shifts in climate) and socioeconomic (e.g., population growth, changing technologies, new economic demands) drivers.", 
  "Furthermore, in the variable environments of drylands, especially those subject to climate change, acquiring new LEK through learning from experience is par- ticularly slow, so identifying new alliances of local and science-based knowledge systems to \nspeed up this acquisition is particularly impor- tant (27) (ki-5, Table 2).", 
  "Examples of the products of such alliances include local climate forecasts (36) and soil classifications (37).", 
  "Application of the DDP The DDP serves two purposes: One is concep- tual, providing a holistic synthesis of the dis- parate lessons drawn from previous work on desertification and development (Table 1) in the setting of the unique features of drylands (the dryland syndrome); the other is practical, pro- viding a template whereby each of the five prin- ciples (Table 2) can be thoroughly examined and tested in case studies.", 
  "Other complex, \nintegrated approaches to environment and development issues that have been entertained in the past, such as farming systems research [e.g., (38, 39)], have faced the genuine difficulties that researchers, managers, and policy-makers have with tackling complex- ity.", 
  "To address the global problem of desertifi- cation realistically, an integrative approach is required, not only because of synergy between elements of coupled H-E systems (14), but also because programmatic and policy concerns about each have implications that often conflict if treated individually (21).", 
  "The real challenge that the DDP aims to satisfy is to develop ef- ficient and effective approaches to understand- ing complex H-E interactions in drylands, while respecting and recognizing the capacity of local communities and policy-makers to deal with their complexity.", 
  "The DDP is being tested by the ARIDnet network (40) with interdisciplinary workshops of 15 to 25 participants.", 
  "To date, ARIDnet workshops have addressed local questions of land degradation in rural, dryland H-E systems in Bolivia, Mexico (41) (Box S3), and Honduras (42).", 
  "The DDP is most effective when con- ceptualizing and framing local issues, and their potential solutions, because it is open to the many different lenses through which dryland use and development are viewed by multiple stakeholders.", 
  "In these workshops, the imple- mentation phase was found to be most challeng- ing, requiring that all stakeholders jointly work through the DDP principles, agreeing on the specific implications of each.", 
  "The Mexican and Honduran case studies revealed that it is nec- essary to allow people to explore problems in their own words and gradually work specific issues into the DDP framework.", 
  "Dryland development issues occur also in more developed countries.", 
  "In Australia, for ex- the Desert Knowledge initiative (43) seeks sustainable livelihoods and viable desert settlements, and in the United States, the Central Arizona\u2013Phoenix Long Term Ecological Re- search project (44) seeks to understand the relation between land-use decisions and ecolog- ical consequences.", 
  "These projects share the long- term goal of improving dryland ecosystems and regional economies and, building on DDP-like \nanalyses, seek economic livelihoods that may emerge from sustainable use of dryland environ- ments yet reach out successfully to markets be- yond these regions.", 
  "The DDP does not purport to represent an tools, and ap- exhaustive set of programs, proaches for dryland development.", 
  "In fact, in recent years there has been substantial improve- ment in the suite of toolsets available to the policy, management, and research commu- nities concerned with dryland development [e.g., (2, 45\u201349)].", 
  "Rather, the DDP serves as an analytical framework through which specific problems may be identified and opportunities implemented with greater insight.", 
  "We are confi- dent that further application and testing of the DDP through case studies will lead to continued refinement of a parsimonious set of theoretical, systems-oriented principles for analyzing dryland development issues in any particular region of the world, to the betterment of the 2.5 billion people who live in drylands globally."
 ]
}