{
 "document_id": "1166092.1", 
 "sentences": [
  "Running Head: CONTROVERSIAL PUBLIC ISSUES  \nControversial Public Issues in the Secondary Classroom: Exploring Teachers\u2019 Thoughts  \nand Perceptions  \nIdentifying Information Removed  \n\fCONTROVERSIAL PUBLIC ISSUES  \n\nAbstract  \nThe present empirical study seeks to explore the perceptions novice educators have toward the  \nuse of controversial public issues (CPI) in the secondary classroom.", 
  "The research attempts to do  \nthis by examining the following research questions: (a) What is extent to which new teachers  \nassociate the use of CPI in the classroom with broad principles of democratic education; and (b)  \nTo what extent do new teachers view the practicality of integrating CPI within the classroom.", 
  "Findings suggest that participants associate CPI with citizenship education (e.g., voting) instead  \nof reform-oriented components of democratic education (e.g., providing spaces for historically  \nmarginalized groups and overturning the status quo) and that - though enthusiastic about using  \nCPI in their pedagogy \u2013 several constraints prevent new teachers from feeling confident about  \ndiscussing critical and current issues in their classrooms.", 
  "Based on these findings, future research  \nshould explore ways in which teacher preparation programs can foster a deeper understanding of  \ndemocratic education in teachers and ways in which CPI can be effectively integrated into the  \nsecondary classroom.", 
  "Keywords: Controversial public issues, teacher preparation, democratic education  \n\fCONTROVERSIAL PUBLIC ISSUES  \n\nControversial Public Issues in the Secondary Classroom: Exploring Teachers\u2019 Thoughts  \nand Perceptions  \nIntroduction & Theoretical Framework  \nScholars within the field of education frequently discuss the role of controversial public  \nissues (CPI) in the K12 classroom as a means for developing citizens who are knowledgeable  \nabout topical issues, open to the opinions of others, and capable of participating in rational  \ndialogue about open-ended and complex topics (Brank & Wylie, 2013; Cross & Price, 1996;  \nHess, 2009; Macedo, 2004; Parker, 2003).", 
  "Students of the K12 classroom, in this sense, are  \nexpected to graduate from their formal schooling with an understanding complex social issues  \nand the various ways in which these ideas can be thought about in an autonomous and critical  \nmanner that will help society evolve through evidence-based logic and collective action  \n(Habermas, 1989; Macedo, 2004).", 
  "And though CPI are only one way in which K12 students can gain these skills, grappling  \nwith abstract issues within a relatively diverse and well-facilitated setting can encourage students  \nto grow socially and academically in a manner that will lead them to become more effective  \ncitizens (Banks, 1993; Barton, 2012; Hess, 2004).", 
  "More specifically, the classroom \u2013 regardless  \nof if it is in a private or public school \u2013 will likely contain a more diverse group of students in  \nterms of religious beliefs, sexual orientation, race, ethnicity, and previous experiences than what  \nstudents can experience outside of the classroom (Gutmann, 1999).", 
  "Such diversity presents an  \nopportunity for students to become exposed to new perspectives and beliefs, construct opinions  \nbased on an array of ideologies, and learn to respect the opinions of others on often complex and  \nabstract issues that are so prevalent in modern society.", 
  "Because of this, it is essential to  \nunderstand the extent to which educators understand the importance of CPI and the impact they  \n\fCONTROVERSIAL PUBLIC ISSUES  \n\nhave on developing citizens capable of participating in the public sphere through collaboration  \nand open-mindedness (Hess, 2009).", 
  "Literature Review  \nDespite the large call for developing teachers capable of infusing such issues into the K12  \nclassroom (e.g., Barton & McCully, 2007; Hess, 2009; Parker, 2003; Macedo, 2004), there exists  \na gap in the literature detailing how teachers associate the use of CPI in the classroom with broad  \nprinciples of democratic education.", 
  "Most classroom teachers who have gone through a traditional  \nteacher preparation program, it would seem, have been exposed to the importance of introducing  \nstudents to topical issues in the K12 classroom, but there has been little research exploring the  \nextent to which these teachers understand the inherent value of using CPI in regards to the broad  \naims of a democratic education (i.e., overturning the status quo, promoting participatory  \ncitizenship, quelling social inequities, and providing a voice to historically marginalized groups).", 
  "This study uses Gutmann\u2019s (1987) framework of democratic education to explore these  \nassociations:   \nA democratic state is therefore committed to allocating educational authority in  \nsuch a way as to provide its members with an education adequate to participating  \nin democratic politics, to choosing among (a limited range of) good lives, and to  \nsharing in the several subcommunities, such as families, that impart identity to  \nthe lives of its citizens.", 
  "(p. 42)  \nThis study, for that matter, assumes that a teacher who does not have a complete understanding  \nof how CPI play into the K12 classroom within the context of a democratic education will be  \nless likely to properly integrate current and critical issues into their pedagogy in the most  \n\fCONTROVERSIAL PUBLIC ISSUES  \n\neffective manner.", 
  "The primary goal of this study, therefore, is to gain a better understand of  \nhow a diverse group of novice educators connect CPI with broad principles of education.", 
  "Additionally, there has been limited research exploring how educators at the secondary  \nlevel perceive the use of CPI in secondary classrooms in terms of practicality.", 
  "In other words,  \nno known recent empirical studies exist that look at how teachers actually perceive the use  \ncontroversial public issues in the classroom in terms of student engagement and ability,  \nparental and administrative support, and their own confidence and understanding of how to  \neffectively do so.", 
  "Oulton, Day, Dillon., & Grace (2004) conducted a study with primary and  \nsecondary teachers in the UK and found few teachers who felt confident integrating  \ncontroversial issues into their pedagogy and that even those who do struggle with how to do so.", 
  "In a similar manner, Zembylas & Kambani (2012) explore how elementary teachers in Greece  \nfeel about teaching controversial issues in their history curriculum.", 
  "Findings suggested that the  \nteachers see the value in doing so, but are often hesitant to discuss CPI with their students due  \nto developmental concerns and the context of that region.", 
  "Byford, Lennon, and Russell (2010) conducted a study similar to the present one in  \nwhich they sought to explore how social studies teachers perceive the use of controversial  \nissues in the social studies classroom.", 
  "Ultimately, the researchers found that \u2013 specific to the  \nsocial studies \u2013 their participants felt limited in the ability to use controversial public issues due  \nto a range of circumstances.", 
  "Likewise, Misco & Patterson (2012) explored how preservice  \nsocial studies teachers perceive their own academic freedom and the extent to which they felt  \ncomfortable integrating controversial issues into their classroom.", 
  "They, too, found that the  \nclimate of the school system influenced the extent to which their participants felt comfortable  \nteaching with controversial public issues.", 
  "The present study takes a similar approach to Byford  \n\fCONTROVERSIAL PUBLIC ISSUES  \n\net al.", 
  "and Misco & Patterson\u2019s studies (and ultimately has similar findings), but has been  \nconducted to include content areas outside of the social studies and to specifically focus on  \nstudents at the graduate level seeking to teach secondary education (grades 6-12).", 
  "Purpose of Study  \nThis study sought to explore the extent to which graduate students in a Middle & Secondary  \nMethods course associate the use of CPI in the K12 classroom with broad principles of democratic  \neducation.", 
  "Additionally, the study sought to gain an understanding of the extent to which  \nparticipants view the use of CPI as practical within the K12 classroom setting.", 
  "The research  \nquestions (RQs) for the present study are as follows:   \n1.", 
  "To what extent do K12 classroom teachers associate the use of Controversial Public  \nIssues with broad principles of democratic education?", 
  "(RQ1)  \na.", 
  "To what extent are such perspectives tied to issues of social justice and  \ncitizenship skills?", 
  "(RQ1a)  \n2.", 
  "To what extent do K12 classroom teachers view the use of Controversial Public  \nIssues as practical in the K12 classroom?", 
  "(RQ2)  \nWhat makes these research questions significant to the field of education is the participants of  \nthe study \u2013 as will be described thoroughly within the methods portion of this essay \u2013 involved  \naspiring teachers of the social studies, sciences, English and language arts, and mathematics  \nfields.", 
  "The research questions, therefore, were explored from the mindset of various content- \nareas and from educators with exceptionally different academic backgrounds and ultimate goals.", 
  "The findings, therefore, have potential to be transferable to many content-areas and influence  \neducators across the field of education.", 
  "CONTROVERSIAL PUBLIC ISSUES  \n\nBecause this study sought to understand relatively abstract and complex ideas, a  \nqualitative approach was used in an attempt to collect an array of robust and lively data (Stake,  \n1995; Yin, 2009).", 
  "Further, to best insure transferability (Guba, 1981) and both reliability and  \nvalidity (Miles & Huberman, 1994), a multi-case study was chosen, as it best allowed for data to  \nbe corroborated and for themes to emerge across cases (Merriam, 1998).", 
  "This section will  \ndescribe the specific methods used to conduct the study.", 
  "Participants  \nConvenience sampling was used for the present study (Merriam, 1998).", 
  "Fourteen (14)  \nparticipants were invited on the first day of the semester to participate in the study.", 
  "Of those  \ninvited, twelve (12) individuals agreed to take part in the study (9 females and 3 male).", 
  "Each  \nparticipant was a graduate student seeking their Masters in Teacher Education from a small,  \nliberal arts college located in the Northeast of the United States.", 
  "Two of the participants were  \nclassroom teachers seeking an advanced degree while twelve of the participants transitioned  \ndirectly into the graduate program from their undergraduate studies.", 
  "While two of the students  \nwere \u201ctraditional\u201d graduate students, ten were enrolled in a one-year \u201cfellowship\u201d program in  \nwhich a local district funds their graduate studies and the student (known as a \u201cfellow\u201d), in turn,  \nspends a year working in a school as an assistant to a classroom teacher.", 
  "Additionally, nine of the  \nparticipants had an undergraduate degree in a discipline related to education (e.g., elementary  \neducation, higher education) while the remaining three had degrees outside of education.", 
  "Table 1  \nprovides basic biographical information on the participants of the study.", 
  "CONTROVERSIAL PUBLIC ISSUES  \nParticipant demographics  Participant  Sex  Age  \n22  Massachusetts  \nHampshire  \n27  Massachusetts  \n26  Massachusetts  \n\n26  Massachusetts  \n22  Massachusetts  25  Massachusetts  22  Massachusetts  \nHampshire  \n22  Massachusetts  22  Massachusetts  \nCatalina  \nAnimal science, Pre-vet  Creative writing,  psychology minor  Communication with  minor in film  English with  certification  Business and English  B.A.", 
  "in English, Minor  in Ed and Sociology  \nHistory (European)  Political Science  \nHistory / SS  History / SS  History / SS  \n\nUndergrad  \n\nY  Math, minors in psych  \n& education  \nY  Math, minor in  \npsychology  \nScience   \nThe study took place in the Summer of 2016 at a small liberal arts college in the  \nNortheast of the United States.", 
  "The college \u2013 whose traditions are firmly rooted in the  \nAugustinian-Catholic tradition \u2013 places an emphasis on social justice throughout each academic  \nprogram.", 
  "Students of the college are expected to gain an understanding of social justice and ways  \nfor enacting positive change in and out of the classroom.", 
  "Amongst a variety of other objectives,  \nthe website of the institution states that the college\u2019s mission is to \u201cEngage other educational  \ninstitutions, industry, and agencies of social change in collaborative efforts fostering a just,  \npeaceful, and sustainable world\u201d (Institution Website, Retrieved 11 August 2016).", 
  "CONTROVERSIAL PUBLIC ISSUES  \n\nThe study was situated within a six-week course designed to prepare teachers at the  \nmiddle and high school level about the organization and curriculum of the secondary classroom.", 
  "More specifically, the course description as listed in the institution\u2019s course catalog describes the  \nclass as a way to introduce students to various practical and theoretical components of  \ncurriculum and instruction in the secondary classroom.", 
  "The instructor of the course \u2013 who served  \nas the sole researcher in the study \u2013 sought to blend theoretical underpinnings of the field of  \neducation with practical suggestions for how to teach effectively.", 
  "The course was designed to  \nhave students flesh out issues of democratic education, social justice, and higher order thinking  \nskills and was designed to be applicable to all students within the course regardless of their  \nacademic background or the content-area in which they intended on teaching.", 
  "Data Collection  \nThe data collected by the participants included \u2013 though was not limited to - one recorded  \ninterview and a follow-up questionnaire (to triangulate findings), course assessments (a unit plan,  \na teaching philosophy, several open-ended reading prompts) and any relevant in-class comments  \nmade.", 
  "In an attempt to prevent participants from being influenced by the researcher\u2019s own biases  \nwhich would inevitably be displayed through require readings, in-class comments, and course  \nassignments, the data was purposefully collected as early in the semester as possible.", 
  "Immediately after agreeing to participate in the study, participants were sent an email to set up a  \ntime to be interviewed.", 
  "All twelve interviews occurred within two weeks of the study beginning  \n(and before the fifth session of the semester) and prior to the lesson detailing the need for  \ndiscussion, controversy, and current issues within the classroom.", 
  "Further, students of the course  \n(including those who did not participate) were asked to write much of their evolving teaching  \n\fCONTROVERSIAL PUBLIC ISSUES  \n\nrationale and develop broad ideas for their unit plans early in the semester so that \u2013 even as they  \nevolved \u2013 the data would show their initial thoughts relevant to the research questions.", 
  "Data Analysis  \nAfter data collection had begun, individual case reports were generated for each  \nparticipant (Yin, 2009).", 
  "These case reports sought to synthesize critical data and ideas specific to  \neach participant.", 
  "As data was being collected, the researcher coded the data using an open-coding  \nmethod.", 
  "In other words, immediately after each piece of data was obtained, the researcher  \nblinded it, read through it, made informal notes within the margins, and then placed the relevant  \ndata into isolated documents for each participant.", 
  "Doing this allowed for each participant\u2019s  \nindividual \u201cstory\u201d to be exposed in a singular document in which relevant themes could be  \nproperly organized and verified.", 
  "Once these reports had been constructed, the researcher looked for key themes amongst  \nthe cases throughout the cross case analysis (Miles & Huberman, 1994; Patton, 2002).", 
  "The use of  \ncross-case analyses was done in order to best confirm any potential findings of the study (Miles  \n& Huberman, 1994).", 
  "To do this, an evolving document was created where a list of \u201cpossible  \nthemes\u201d was generated and consistently updated.", 
  "Themes were placed within this document if  \nthe researcher noticed consistencies among participants (e.g., \u201call participants described CPI as  \nessential to the secondary classroom) or inconsistencies amongst the data (e.g., participants\u2019  \nconfidence in using CPI varied on their content-area).", 
  "These themes continued to evolve during  \nthe data collection and were triangulated and confirmed shortly after data collection ended.", 
  "Findings  \nFive critical themes emerged throughout the course of the study.", 
  "Briefly, these findings  \nincluded: (a) Regardless of the content-area, novice educators consistently claim the purpose of  \n\fCONTROVERSIAL PUBLIC ISSUES  \n\neducation is to prepare students for the \u201creal world\u201d and their role as citizens; (b) Participants  \nview controversial issues as an essential component to an effective classroom; (c) Rather than  \nfeeling as though they could control the context of a classroom through their teaching, the  \nparticipants felt that context controlled how and what they taught; (d) Participants frequently  \nassociate CPI with issues of citizenship, not social justice; (e) Novice educators do not willingly  \ninclude CPI within their pedagogical decision-making without explicit prompts to do so.", 
  "The purpose of this section is to explore these five findings and connect them to the  \nunderlying research questions.", 
  "Ultimately, the findings will be synthesized into one clear and  \nconcise explanation as to how the field of education can help to prepare educators to understand  \nthe value of using CPI in the classroom, the relationship between exploring CPI and democratic  \neducation, and the ways in which CPI can be incorporated into all content-areas.", 
  "Finding I: The \u2018Real World\u2019 and Citizenship (RQ1 & RQ1a)  \nPrior to exploring how participants viewed CPI in the secondary classroom, it is first  \nimportant to emphasize the extent to which participants discussed preparing students for the \u201creal  \nworld\u201d within K12 education.", 
  "Regardless of the participant, data source, or point in the data  \ncollection, a constant theme was the emphasis participants placed on preparing students for the  \nwhat will happen in students\u2019 post-secondary experiences.", 
  "Rarely did participants discuss the  \npurposes of education without describing the need to prepare students to become ready for  \ncollege, career, or civic life.", 
  "In her interview, for instance, Jessica claimed that schools were meant to \u201cget [students]  \nready to speak in the real world\u201d (20 July 2016).", 
  "Lucy, in a similar manner, claimed that the  \npurposes of having a school system involve \u201cprepar[ing] students for the real world, honestly, to  \nmake them ready to the best of their capability\u201d (Interview, 12 July 2016).", 
  "Margo, too, noted that  \n\fCONTROVERSIAL PUBLIC ISSUES  \n\nthe purposes of schools could best be summarized by \u201cprepar[ing] students for the real world,  \nthat\u2019s kind of our goal\u201d (Interview, 8 July 2016).", 
  "Regardless of the participant, each made  \nreference at some point in data collection to the \u201creal world\u201d as being critical to a powerful  \ncurriculum and to the purposes of schooling.", 
  "Perhaps even more telling, participants were expected to complete teaching rationales for  \nthe course which sought to have them reflect on the questions of why they wanted to teach and  \ntheir ultimate goals for the classroom.", 
  "Of the 12 participants, all 12 used the term \u201creal world\u201d  \nwithin their rationales without any direction for doing so.", 
  "Further, each participant \u2013 to some  \ndegree \u2013 emphasized the need to either prepare students for the real world, make content  \napplicable to the real world, or integrate the real world into the curriculum.", 
  "The notion of  \npreparing students for the real world (in the broadest sense possible) certainly served as the  \nfoundation to many participants\u2019 thinking toward the purposes of education and their objectives  \nas educators.", 
  "As will be noted later in this essay, however, the extent to which these ideas were  \nconnected to principles of social justice are noteworthy for a variety of reasons.", 
  "Finding II: Using Controversial Issues is a Valuable Tool in the Classroom (RQ2)  \nRegardless of their content-area, each participant emphasized the need for bringing in  \nsome level of controversy into the K12 classroom as a means to both engage students and to  \ninform them on issues occurring in society.", 
  "Throughout data collection, participants consistently  \nnoted that CPI would be a positive addition to a secondary curriculum and that students would  \nbenefit from the exposure.", 
  "In many cases, the reason for doing this was because the participants  \ndid not trust whether students would research current events themselves or understood how to  \nfind informed opinions outside of the classroom (often citing the breadth of sources available to  \nstudents online).", 
  "Adele \u2013 an aspiring English teacher \u2013 for example, claimed that controversial  \n\fCONTROVERSIAL PUBLIC ISSUES  \n\npublic issues must be discussed in schools, stating that \u201cif we don\u2019t discuss them with students,  \nwho will?\u201d (Interview, 11 July 2016).", 
  "Steve \u2013 a future social studies teacher - in a similar sense,  \nnoted that \u201csome of [the students\u2019] parents would be misinformed and, you know, just start  \nspewing something from a sound bite they saw on the internet\u201d (Interview, 11 July 2016).", 
  "Likewise, Catalina \u2013 also focusing on the social studies - emphasized the need for incorporating  \nCPI into the classroom (referring to it as \u201cessential\u201d), explaining that students are \u201cusually pretty  \ncloseminded .", 
  ".", 
  ".", 
  "because all they know is there parents\u2019 opinions or people around them\u201d  \n(Interview, 12 July 2016).", 
  "Pam \u2013 who sought to teach math \u2013 similarly noted that discussing  \ncontroversial public issues (specifically, \u201cthe news\u201d) was important because \u201cit\u2019s important for  \nkids to be aware of them in school cause I know a lot of kids wouldn\u2019t \u2026 and don\u2019t watch the  \nnews or read the newspaper or whatever so I think talking about in school is important\u2026\u201d  \n(Interview, 20 July 2016).", 
  "Though the justification varied amongst participants, each individual stated that CPI did have  \na place in the curriculum.", 
  "However \u2013 and as will be discussed in the next finding - the extent to  \nwhich they emphasized the use of CPI in the classroom differed based on the participant, as will  \nbe explored within the next section.", 
  "Finding III: Context Matters for Using Controversial Public Issues (RQ2)  \nAn essential finding to the present study was the emphasis placed on \u201ccontext\u201d in the  \nclassroom.", 
  "Ultimately, what was found was that the participants did not feel as though they could  \ncontrol the context through their teaching.", 
  "Rather, they felt that the context controlled how they  \ntaught.", 
  "This section will explore this idea in three separate sub-sections.", 
  "A.", 
  "The Content-Area is Important (RQ2): This research is unique in that its participants  \nstem from a variety of content areas (i.e., mathematics, sciences, social studies, and English &  \n\fCONTROVERSIAL PUBLIC ISSUES  \n\nlanguage arts).", 
  "These differing backgrounds and teaching interests became essential to the  \nfindings.", 
  "Before exploring this idea, however, it should be the vast majority of participants \u2013  \nregardless of their academic focus - connected the purposes of education (broadly speaking) to  \nthe development of effective citizens.", 
  "Participants constantly wrote about and spoke of the role  \nschools play in teaching students to follow the news, vote, and engage in dialogue with one  \nanother.", 
  "And these ideas \u2013 when placed within context of controversial public issues \u2013 were  \noften effectively connected by participants.", 
  "Despite this, however, participants constantly  \ndemonstrated that CPI could (and, occasionally, \u201cshould\u201d) occur within certain content areas.", 
  "Pam (an aspiring math teacher), for instance, claimed, \u201cI don\u2019t necessarily know how I  \nwould do it in a math class because there isn\u2019t really much discussion on current relevant issues  \ncause most math was discovered like years and years ago, but I definitely think it\u2019s important\u201d  \n(Interview, 20 July 2016).", 
  "Further, Pam also noted that CPI are best suited for the social studies  \n(Post-Interview Questionnaire).", 
  "Similarly, Mallory \u2013 a fellow math educator \u2013 claimed \u201cI think it  \nwould be more difficult for a math classroom to discuss controversial public issues, but if the  \nissues had any relation to math I think it would be good to cover those topics as they came up\u201d  \n(Post-Interview Questionnaire).", 
  "Lucy (a science educator) noted that she would discuss various  \nissues with students, but only if \u201cit falls within the curriculum\u201d stating that \u201csomething like  \nevolution, which is in the main text\u201d (Interview, 12 July 2016).", 
  "Ultimately, the math educators did not see where math and CPI could overlap (despite  \nrecognizing the value in using CPI), the participants focusing on ELA noted that controversial  \nissues likely could only be spoke about within the context of an appropriate text, the science  \neducators felt as though relevant science topics (e.g., global warming) could cautiously be  \n\fCONTROVERSIAL PUBLIC ISSUES  \n\ndiscussed, and the social studies educators both felt as though they had more leeway and were  \neven charged by their peers with this responsibility given the nature of the social studies.", 
  "B.", 
  "The School, Student, and District Matters (RQ2): Despite the majority of participants  \nsuggesting that they felt somewhat comfortable discussing controversial public issues in their  \nclassroom with their students, they all seemed to hesitate when considering the practicality of  \ndoing so successfully within the larger context of their schools.", 
  "Participants frequently  \nmentioned the fear of upset parents, offended students, or unsupportive administrators.", 
  "There  \nexisted a sense of fear in the participants that they could get in trouble for \u201ccrossing the line\u201d or  \nencouraging students to think in a way that opposed the views instilled in them by their parents  \n(whether religious or political).", 
  "This finding reflects that of similar scholarship (e.g., Cornbleth,  \n2002) exploring specific issues that restrict constructivist and critically relevant pedagogy.", 
  "Both Gary and Catalina (each seeking to be social studies teachers), for instance, noted  \nthat they would only use CPI if he felt comfortable with the class and felt the students could  \nhandle discussing more sensitive issues.", 
  "Margo, too, noted that \u201cIt would depend on the class,  \nrealistically\u201d (Interview, 8 July 2016).", 
  "Likewise, Zak mentioned that he would feel comfortable  \nteaching CPI, but only in a relatively progressive environment.", 
  "Having grown up in a seemingly  \nopen-minded pocket in the Northeast, he hesitated when asked whether he would feel so  \nconfident doing so in the southeast, noting, \u201cit totally depends on where you are and the  \ncommunity you are working with\u2026 but I know that I am very comfortable to have the support of  \nthe vast majority of parents and teachers and administration\u201d (Interview, 18 July 2016).", 
  "Likewise, while discussing BlackLivesMatter, Jan discussed the climate of her school, noting,   \nI think if I brought in something like BlackLivesMatter or kind of anything  \npertaining to race I might get a little backlash from it.", 
  "I don\u2019t work at a particularly  \n\fCONTROVERSIAL PUBLIC ISSUES  \n\nliberal high school, which is bizarre for [this area] \u2026the high school that I work at  \nis oddly conservative, the students at least.", 
  "(interview, 18 July 2016).", 
  "As an interesting anecdote, Jan similarly described a situation in her field placement in which  \na parent complained about a text being read in class (In-Class Comment.", 
  "6 July 2016) Because of  \nthe parent, the student had to be assigned a separate reading and be removed from the class  \nwhenever the initial text was being discussed in class.", 
  "Jan, despite, expressing the importance of  \nusing CPI earlier in the semester, seemed influenced by this incident and made clear that she felt  \nsome issues were simply inappropriate for the classroom, a feeling likely perpetuated by the  \ncontext she was teaching within at the time.", 
  "C. Experience Matters when Considering CPI (RQ2): An additional theme relating to how  \ncontext mattered to the participants was that of their own background.", 
  "Many participants alluded  \nto the fact that they did not feel comfortable incorporating controversial issues into the classroom  \nearly in their career.", 
  "When asked if he would discuss CPI with his students this upcoming year,  \nSteve (an aspiring social studies teacher), for instance, claimed, \u201cprobably wouldn\u2019t talk about it  \nthis coming year because I\u2019m in a various precarious position as a fellow.", 
  "I don\u2019t have a fulltime  \njob I\u2019m not part of the union, I don\u2019t have tenure, it\u2019s also a private school so they could  \nprobably fire me at their discretion but they wouldn\u2019t.\u201d (Interview, 11 July 2016).", 
  "Upon being asked whether she would use a seemingly controversial text in her English  \nclassroom in her first year teaching, Jamie, similar to Steve, noted that she did not want to \u201crock  \nthe boat too much as a first year teacher\u201d (interview, 18 July 2016).", 
  "She, later, discussed how \u2013  \nin theory \u2013 using CPI in the classroom is a \u201cgreat idea\u201d, but feared offending someone as a new  \nteacher and, thus, would use the prescribed curriculum until she felt comfortable as a teacher.", 
  "Finding IV: Controversial Public Issues for Citizenship, Not Social Justice (RQ1 & RQ1a)  \n\fCONTROVERSIAL PUBLIC ISSUES  \n\nDespite attending an institution emphasizing the need for social justice and the  \noverturning of the status quo, the participants \u2013 by and large \u2013 connected the use of controversial  \npublic issues to practices of citizenship (e.g., voting, following the news, and engaging in  \nevidence-based dialogue with peers).", 
  "More often than not, the use of CPI in the classroom was  \nconnected to keeping students \u201cinformed\u201d and preparing citizens who \u201ccould make up their own  \nmind\u201d (each contextualized in the vaguest sense).", 
  "Rarely were controversial issues discussed in a  \nmanner that aligned with components of democratic education emphasizing equitable treatment  \nof historically marginalized groups or providing a voice to those who have traditionally been  \nsilenced.", 
  "Such a finding is representative of Nie, Junn, & Stehlik\u2019s (1996) essay outlining the  \ndichotomy between political engagement and democratic enlightenment (with the participants  \nheavily aligning with the former).", 
  "And though there is certainly nothing inherently wrong with  \nassociating the use of CPI with practices of citizenship, one could argue that it does students a  \ndisservice by not introducing them to the critical side of education.", 
  "This is not to say, however, that issues of social justice did not appear within the data.", 
  "Within their group unit plan, Margo, Adele, and Jamie (all aspiring English teachers) constructed  \na lesson plan framed \u201cjustice\u201d within To Kill a Mockingbird (a text also referenced by Zak in his  \ninterview).", 
  "Though the lesson was never explicitly connected to present day issues, the  \nparticipants did integrate themes relevant to many of today\u2019s struggles (e.g., legal reforms due to  \nracial profiling as seen in the \u2018Scottsboro Boys\u2019 of the 1930s).", 
  "Zak, similarly, when asked about issues that he would definitely talk about with his students  \nnoted that he \u2013 as a gay man \u2013 would discuss issues of sexual orientation with his own students  \nin the K12 classroom.", 
  "Zak noted that he would require students to read a text involving a same- \nsex couple and would not fear any repercussions for doing so.", 
  "To Zak, it seemed, simply  \n\fCONTROVERSIAL PUBLIC ISSUES  \n\nnormalizing LGBTQ individuals was an essential component to his teaching and a way in which  \nhe could prepare his students for the real world through engaging discussions.", 
  "While discussing  \nhis interest in discussing LGBTQ issues in the secondary classroom, Zak claimed,   \nThey are for the most part\u2026 the most tolerant and accepting generation the world  \nhas ever seen from my personal experience so I think that anytime there\u2019s an issue  \nabout injustice or inequality or something that is just inherently unfair it sparks  \ninterest in the students that I have an that interest pushes them to want to do well  \nand success so I would want to bring in current topics that kind of revolve around  \nthe issues of inequality and social justice and you know whatever you want to call  \nit.", 
  "And see what they take from that because based on my experience, I know  \nthey\u2019re goanna be fascinated on it.", 
  "(Interview, 18 July 2016)  \nReflecting Zak\u2019s ideas regarding LGBTQ issues in the curriculum, Catalina noted,    \nI did my undergrad thesis on incorporating LGBTQ and gender studies into the  \nUnited States History 9-12 curriculum so I think\u2026 although it\u2019s not taught right  \nnow\u2026 there are so many things going on in the world with LGBTQ issues,  \ngender issues, just popping up\u2026 present day things \u2026 past curriculum that we  \ncan just put it into the content and get it in with the standards as well\u2026  \n(Interview, 12 July 2016)  \nThough she never explicitly discussed integrating LGBTQ issues into her classroom or  \ncurriculum, Catalina\u2019s recognition of these issues demonstrates an understanding of their  \nimportance within the K12 school system.", 
  "Within her teaching rationale, as well, Catalina  \nclaimed students from \u201cevery identity groups\u201d should be included within the curriculum.", 
  "CONTROVERSIAL PUBLIC ISSUES  \n\nDespite these examples of participating seeking to integrate themes of justice, equity,  \nand equality into the secondary classroom, the vast majority of data demonstrated a lack of  \nassociation between the use of CPI and the broad principles of education that emphasize  \noverturning the status quo, assisting historically marginalized groups, and providing an equal  \neducation for all students regardless of their gender, sexual orientation, race, religion, or  \nsocioeconomic status.", 
  "Most examples of \u201ccitizenship\u201d and \u201creal world issues\u201d reflecting a less  \ncontroversial approach.", 
  "For instance, Jamie \u2013 in her teaching rationale \u2013 claimed:   \nThe content needs to matter to the students for them to remember it and revisit it  \nlater on in life.", 
  "The best way to do this is to incorporate real life events or age  \nappropriate struggles they may be going through.", 
  "For example, the novel Feed  \ntackles the controversial issue of being overly attached to technology.", 
  "(Teaching  \nRationale)  \nAgain, there is nothing inherently wrong with this objective or curricular strategy, but similar  \npedagogical decision-making overshadowed the references to critical pedagogy as described by  \nleading scholars in the field (e.g., Banks, Ladson-Billings, Freire).", 
  "Finding V: Though Valued in Practice, CPI were MIA in Practice (RQ2)  \nEach of the 12 participants in the present study noted that using CPI in the secondary  \nclassroom was a good, meaningful tool for students.", 
  "Thus, it could be expected that CPI would  \nbe integrated into the unit and lesson plans generated by participants for the course.", 
  "However,  \nof the four unit plans submitted at the end of the course, there lacked a single reference to  \ncontroversial public issues.", 
  "This is despite the fact that participants had an entire class session  \non using discussion and current issues and consisted of four different content-areas (social  \nstudies, science, math, English and language arts).", 
  "Additionally, this finding is surprising given  \n\fCONTROVERSIAL PUBLIC ISSUES  \n\nthe fact that the vast majority of participants acknowledged the use of CPI as being a powerful  \nteaching tool within their interviews and post-interview questionnaires.", 
  "More specifically, the units (and individual lessons within them) did not mention  \nhaving students read the news, discuss current issues, or even relate content to present day  \nissues.", 
  "Rather, the lessons constructed in each unit plan often played it \u201csafe\u201d by creating a  \nteacher-centered environment structured around engaging activities (e.g., using iPads, group  \nwork, source analysis).", 
  "Within the unit plans, there existed only two instances of students  \nexplicitly being expected to engage in discussion with one another, and both of these examples  \nfocused on students discussing prescribed content as opposed to present day issues.", 
  "Further, of the 12 teaching rationales submitted and analyzed, there existed only two  \npassing comments about the use of CPI in the classroom (all of which were written by students  \nhoused in the social studies) and were, again, not related to critical ideas in the field of  \neducation.", 
  "This shows \u2013 amongst a number of other findings - a concerning disconnect  \nbetween how the participants valued CPI and the extent to which they either felt comfortable  \nusing them or felt their use as being practical in the secondary classroom.", 
  "It should be noted that participants were purposefully not encouraged (at least not  \nexplicitly) to integrate CPI into their unit plans for fear of not having authentic data.", 
  "However,  \nit is telling that on they participants left CPI out entirely on their own volition.", 
  "This is despite  \nhaving several conversations about current issues, doing readings on the value of discussion  \n(specifically Diana Hess\u2019s 2004 piece on the use of discussions), and being interviewed about  \nthe use of CPI in the secondary classroom.", 
  "Implications  \n\fCONTROVERSIAL PUBLIC ISSUES  \n\nThe findings of the present study expose two key implications: (a) There exists a  \ndisconnect between the literature being published and presented within higher education and  \neducators\u2019 understandings of critical themes and ideas and (b) Though educators may value  \nusing CPI, they often struggle to understand how to incorporate such topics in the classroom or  \nfear what may happen if they do.", 
  "This section will briefly discuss these two points and suggest  \nways in which teacher education can better prepare educators to do so.", 
  "Despite frequently discussing \u201creal world\u201d issues throughout the course of data  \ncollection, these issues were rarely related to topics of race, gender, sexual orientation, religion,  \nor socioeconomic status.", 
  "Rather, \u201creal world\u201d typically was connected to political topics such as  \nvoting, reading the news, and understanding constitutional rights and privileges.", 
  "Though there is  \ncertainly nothing wrong with these tenets of the \u201creal world\u201d, it is essential for teachers to  \nunderstand the value of real world issues relating to diversity, equity and equality, and justice.", 
  "In  \norder for teacher education to fully develop educators capable of working toward a more just and  \nequitable society, novice teachers must develop a stronger grasp on broad concepts such as  \n\u201cdemocratic education\u201d and \u201ccritical theory\u201d that expand beyond citizenship skills (e.g., voting  \nand reading the news).", 
  "Additionally, they must gain a more explicit understanding of how and  \nwhy such ideals are important for a democratic experience within a K12 classroom.", 
  "Practically speaking, the findings of the present study suggest that teachers from all  \ncontent areas do want to use controversial public issues in their classroom, but are often  \nconcerned with doing so either because they do not understand its place in the curriculum, fear  \nthey may offend someone, or simply do not have the tools to do so effectively.", 
  "Because of this,  \nteacher educators need to better model how to lead discussions (see Avery, 2003) and  \nincorporate controversial public issues while simultaneously explaining to educators both their  \n\fCONTROVERSIAL PUBLIC ISSUES  \n\nrights and responsibilities in the classroom.", 
  "Teacher education, in other words, should not  \nassume that aspiring teachers can learn how or why to incorporate CPI into their own classroom.", 
  "Rather, it must be assumed that teachers must be taught through interactive modeling in order to  \nfully grasp ways in which to use CPI in their pedagogy.", 
  "Conclusion   \nWhile a robust body of literature detailing the need for using CPI does exist, there exists  \na noticeable gap in the literature on how teachers understand the connection between the use of  \nCPI within their pedagogy and the broad aims of a democratic education (i.e., creating citizens  \nwho can actively contribute to a pluralist society and are reform-oriented in nature).", 
  "This study  \ntakes an interdisciplinary approach to best understand how the traditional K12 teacher associates  \nbroad themes of democratic education with a key component to an effective educational  \nexperience.", 
  "For the field of education to better prepare teachers to use CPI, it must open a line of  \nresearch exploring how teachers understand the use of CPI in the classroom and perceive its  \nfeasibility within the traditional curriculum (Avery, 2003)  \nThe present study demonstrates a need for educators to be better trained to both  \nunderstand broad concepts in education (e.g., \u201cdemocratic education\u201d, \u201ccritical theory\u201d) and how  \nsuch ideologies apply to various forms of pedagogy.", 
  "Additionally, the study further proves that  \nteachers often do not integrate sensitive issues into their teaching on account of an overly  \ncautious environment and an underlying fear of offending parents or students (reflecting the  \nfindings of Cornbleth, 2002).", 
  "In order for educators to effectively integrate CPI into their  \nclassroom, they must feel supported to do so and more accurately understand the reasons for  \ndoing so and the ways in which such justifications align with the foundational principles of a  \ndemocratic education as told by leading scholars within the field.", 
  "CONTROVERSIAL PUBLIC ISSUES"
 ]
}