{
 "document_id": "1167036.1", 
 "sentences": [
  "\nAn Application of the Mixture Rasch Model: A Cross-Cultural Comparison of  \n8th Grade Mathematics in the TIMSS-2011  \nTurker Toker, University of U\u015fak and Kathy E. Green, University of Denver  \nPaper presented at the annual meeting of the American Educational Research  Association, San Antonio, Texas, April 2017  \n\fABSTRACT  \nThis study provides the results of a mixture Rasch model (MRM) analysis using data from the  \nTrends in International Mathematics and Science Study \u2013 2011 (TIMSS-2011) with a focus on the 8th  \ngrade mathematics section.", 
  "WinMira (2011) was used to determine if results obtained yielded distinct  \nlatent subgroups.", 
  "The data set used in the study was from just under 26,000 students in four diverse  \ncountries (Turkey, USA, Finland, and Singapore) participating in TIMSS-2011.", 
  "Analyses yielded class  \nresults that suggest TIMSS-2011 8th grade mathematics test items are differentially difficult by latent  \nclass.", 
  "MRM latent class was statistically significantly associated with nation for the three booklets  \nexamined in this study.", 
  "Large scale international assessment is a tool used by countries to see where they stand in  \ncomparison to their rivals and neighbors and to assess the progress made by changes in their own  \neducation systems.", 
  "Cross-cultural comparisons of results also help academicians to set international  \nstandards in education.", 
  "Results from TIMSS-2011 showed a gap in mathematics achievement between  \nthose in top performing countries and Turkey.", 
  "Turkey ranked 24th out of 56 participating countries but  \nranked 10th within advanced level students\u2019 results (Y\u00fccel, Karada\u011f, & Turan, 2013).", 
  "International  \nassessment practices affect grades, placement, advancement, instruction, curriculum, policy, and also  \nfunding (Toker & Green, 2014).", 
  "The quality of the assessment used for any of these purposes is critical.", 
  "The data created by international large scale assessment results are becoming increasingly useful  \nfor those who are the key players in an educational system such as academicians, administrators, policy  \nmakers, teachers, and also parents.", 
  "Cross-cultural comparisons of results help academicians to set  \ninternational standards in education.", 
  "International test results are used to guide modifications and  \ndevelopment in educational systems for entire nations.", 
  "It is critical, then, that the test used to assess  \nstudent performance for a nation has support for validity that makes results comparable cross-nationally.", 
  "Although it can easily be said that international test data might be useful for handling some policy  \nquestions, and most likely these data are the only way to test the impact of differences in educational  \nsystems that vary across countries, barriers to drawing causal inferences based on such data exist  \n(Schneider, 2009).", 
  "There is no persuasive evidence that questions in different languages are valid and  \nunderstood equally by all students or that the process used to respond to questions is the same (Holliday,  \n1999).", 
  "The mean score of these standardized tests summarizes the performance of students overall and so  \nshows that some standards differ greatly among countries and economies in ways that cannot simply be  \naccounted for by the countries\u2019 different stages of economic development.", 
  "Research shows that a  \ncountry\u2019s wealth and spending on education affects educational success; but GDP per capita accounts for  \nonly 6% of the differences between countries\u2019 average student performance.", 
  "The remaining 94% reflects  \nthe fact that two countries of similar economic levels can show very different educational results (OECD,  \n2010).", 
  "For example the total expenditure on the education of a typical 15-year-old Finnish student  \n\frepresents the international average and is lower than it is in the U.S.", 
  "However, the difference between  \nthese two nations in mean performance scores on the PISA science scale is about 50 points in favor of  \nFinland (OECD, 2009).", 
  "Nonetheless, the popularity of international assessments is rising and their utility  \nin making policy recommendations without considering such potential limitations is as well.", 
  "The existence of multiple latent classes in test data speaks to the validity of test scores.", 
  "If multiple  \nlatent classes are found in test data, distinct groups of participants may exist for whom the construct  \nvaries, making cross-country comparisons suspect.", 
  "A test with support for validity of cross-national  \ncomparisons would ideally yield a single latent class.", 
  "The use of an international mathematics assessment  \nfor four diverse participating countries (Turkey, U.S., Finland, and Singapore)wais reviewed in this study.", 
  "Four countries with diverse educational systems were selected with the idea that variation in item  \nresponse patterns might be found based on diversity in instructional systems (TIMSS 2011Technical  \nReport and User\u2019s Guide, 2012).", 
  "The main reason for the selection of the countries was to capture  \nextensive between-country variance so that the possible latent classes could be explored.", 
  "It is expected  \nthat the nations which are participating in the test can be compared using TIMSS results, but the presence  \nof multiple latent classes calls that comparability into question if items are differentially difficult or item  \nresponse patterns indicate different ways of solving problems based on nation.", 
  "The validity of test items is studied by organizers with the collaboration of participating  \ncountries.", 
  "There is agreement on the part of educators in mathematics and science for assessment of both  \n4th- and 8th-grade students.", 
  "This agreement means that the test items included in the tests measure  \nagreed-upon elements of mathematics and science (TIMSS 2011 International Results in Mathematics,  \n2012).", 
  "To achieve the goal of validity, organizers of TIMSS follow a strict procedure where they include  \nexperts from participating countries for curriculum coverage, translation, scoring, and other purposes.", 
  "Every step of the test is also controlled by the organizers in order to prepare and administer a valid and  \nreliable assessment.", 
  "These careful test construction procedures are intended to yield a test that functions  \nsimilarly across nations.", 
  "Reliability and validity procedures are not the main concerns of the current  \n\fstudy.", 
  "For comprehensive information related to the reliability and validity of the TIMSS exams, see the  \nTIMSS technical reports (TIMSS 2011 International Results in Mathematics, 2012).", 
  "The intent of the present study was to assess whether mixture Rasch model (MRM) analysis of  \ntest data would yield multiple classes.", 
  "If distinct latent classes are, indeed, identified, there is a suggestion  \nthat the construct measured may not be invariant across those classes.", 
  "And, if latent class is significantly  \nassociated with national origin, the validity of cross-national comparisons is called into question.", 
  "The  \nfollowing two research questions were addressed by this study using MRM with the TIMSS-2011 8th- \ngrade mathematics data.", 
  "1.", 
  "Does analysis of TIMSS-2011 8th-grade mathematics data from four proposed nations yield  \nmultiple latent classes using the MRM?", 
  "2.", 
  "Are there associations between the MRM latent classes and nation for TIMSS-2011 8th-grade  \nmathematics?", 
  "The Mixture Rasch Model   \nThe mixture Rasch model was first introduced by Rost in 1990.", 
  "The model was proposed to bind  \nthe Rasch model with latent class analysis.", 
  "It assumes that the Rasch model holds for all participants  \nwithin a latent class, but it allows for different sets of item parameters between the latent classes (Rost,  \n1990).", 
  "Since it assumes latent classes for which separate Rasch models hold, the model might be applied  \nto validate responses to a test or questionnaire.", 
  "Also, if a model with two or more latent classes identified  \nfits better than a model with one latent class, the measurement invariance assumption is violated and a  \nsingle Rasch model is not a fit.", 
  "When there are several latent classes in the data, separate Rasch models  \nwith separate sets of item difficulties are required.", 
  "These different sets are considered latent clusters in the  \nsense that they are not determined by covariates (Frick, Strobl, & Zeileis, 2015).", 
  "According to Rost (1990), item parameters might differ as a result of poor construction of items, use of  \ndifferent type of solving strategies by participants belonging to different latent classes, or different  \ncognitive processing styles of participants across subpopulations.", 
  "The mixture Rasch model is a  \nunidimensional model, though the supposed dimension changes across the classes.", 
  "Item difficulty  \n\festimates should remain constant for different clusters of people in a unidimensional Rasch model.", 
  "The  \nMRM, on the other hand, can account for data when difficulty patterns of items consistently differ in  \nsubclasses of the population.", 
  "This gives the MRM an advantage over a unidimensional Rasch model  \nwhere the MRM allows item parameters to differ across subclasses of the population, when the  \nunidimensional Rasch model does not fit for the entire population (Rost, 1990; Rost & von Davier, 1995).", 
  "Since the Rasch model has some strict item and homogeneity assumptions, the MRM becomes useful  \nwhen some item and population homogeneity assumptions are relaxed.", 
  "Mixture Rasch models can detect  \nparticipant heterogeneity and the related item structures, the size of latent classes, and the latent score  \ndistribution (Baghaei & Carstensen, 2013).", 
  "However, the MRM is still a Rasch model since each subset of population can be broken down  \nseparately with a unidimensional RM (Rost, Carstensen, & von Davier 1997).", 
  "According to Rost (1990),  \nrather than rejecting an entire data set for fit purposes, the MRM study can easily be applied in such  \nsituations and study different cognitive processes for latent classes of the population.", 
  "The probability of a  \ncorrect response to an item relies on more than one person ability dimension in multidimensional Rasch  \nand IRT models.", 
  "However, in the MRM the probability of a correct response to an item relies on one  \nperson ability dimension and also a categorical variable, called the latent class to which the participant  \nbelongs.", 
  "One disadvantage of latent class models is the requirement of consistent response probabilities  \nfor all individuals in a latent class.", 
  "Research has shown that for every cognitive structure or response  \nstrategy, multiple latent classes are needed in order to account for individual differences in ability.", 
  "Rost  \n(1990) suggests that a generalized latent class model allowing for ability differences within classes should  \nbe used in such cases.", 
  "The Rasch model (Rasch, 1960) is a useful tool to generate item difficulty estimates.", 
  "However it  \ncan be quite difficult to meet some assumptions of the Rasch model.", 
  "It is possible that some items might  \nbehave differently for subgroups or participants\u2019 responses might depend on the latent class to which they  \nbelong (von Davier & Yamamoto, 2007).", 
  "Basically the MRM is a Rasch model with an added latent class  \nstructure.", 
  "It is assumed that item parameters depend on the particular latent class.", 
  "This latent class  \n\fstructure is useful when item difficulty differs for different sub-groups and also if different participants  \nuse different strategies to answer items.", 
  "Because of the potential for different item parameters, a Q-index  \nis calculated for item fit for each class.", 
  "The Q index provides information about the relationship of items  \nto each latent class.", 
  "The Q index is calculated based on the log\u2212likelihood of the observed item-response  \npattern.", 
  "\u201cThe fit of an item i is measured with the conditional probability of its observed item response  \nvector\u201d (von Davier, 2001b, p. 76).", 
  "The Q index values are between 0 and 1, where 0 represents perfect fit  \nand 1 represents perfect misfit or negative discrimination.", 
  "A Q index of .50 shows no relation of the item  \nto the trait or participants\u2019 random response behavior.", 
  "The standardized form of the Q index (ZQ) with  \nzero mean and variance of unity (which can be assumed to be asymptotically normal) is also provided by  \nWINMIRA 2011.", 
  "The familiar \u00b11.96 standard error boundary of a 95% confidence interval can be used  \nfor the interpretation of a standardized Q index.", 
  "In this paper, TIMSS-2011 items were studied to explore  \nif items differed in terms of difficulty when there were data from multiple participating nations.", 
  "In the MRM, there are different sets of item parameters estimated for each class.", 
  "It is presumed  \nthat one participant only belongs to one latent class where the class membership is unknown.", 
  "Since class  \nmembership is unknown, the probabilities of being in each class are estimated.", 
  "However, one of the main  \ncritiques of the MRM is the difficulty of interpreting the qualitative meaning of the class membership  \n(Embretson, 2006).", 
  "The MRM can be used for different goals, e. g.,  \n\nto test fit of a Rasch model via comparing a one-class solution to two- or multi-class solution,  \n\nto identify a Rasch-scalable subpopulation,  \n\nto analyze rating data when different subsets have different response sets,  \nd.  for profile analysis purposes when a set of items have ordinal responses,  \n\nto measure a latent ability when different participants apply different solution strategies for  \nanswering questions (von Davier, 2001).", 
  "To estimate parameters in the MRM an iterative algorithm called estimation-maximization (EM  \nalgorithm) or iterative proportional fitting is used since latent classes are not known before the analysis is  \ndone.", 
  "The EM algorithm works in two steps:  \n\f1-  Within each (E)stimation\u2212step, for each subpopulation, the expected frequencies of the  \nsufficient statistics for the model parameters are calculated via computation of posterior  \nprobabilities given the current parameter estimates.", 
  "2-  Within each (M)aximization\u2212step, by using the sufficient statistics from the previous E\u2212step,  \nmaximum likelihood estimates in each subpopulation are calculated (Rost, 1990).", 
  "Several studies have examined international test data using latent class analysis or MRM.", 
  "Choi  \nand colleagues (2015) used a mixture three-parameter logistic model to explore possible latent classes  \nwithin the TIMSS-2007 mathematics dataset using internet access as their covariate.", 
  "Two latent classes  \nwere found, mainly formed around the test performance dimension.", 
  "In another study, data from the 2006  \nPIRLS assessment (International Association for the Evaluation of Educational Achievement, 2008) were  \nused to explore differential item functioning using possible latent classes.", 
  "PIRLS is an international exam  \nsimilar to TIMSS and PISA.", 
  "The latent class approach yielded three latent classes, showing proof of  \nheterogeneity in students\u2019 response patterns (Oliveri, Ercikan, Zumbo, & Lawless, 2014).", 
  "Additionally,  \nZhang, Orrill, and Campbell (2015) studied the PISA-2009 dataset using responses for students in China  \nwhere they explored two distinct latent classes via MRM analysis for both the mathematics and science  \nsections of the exam.", 
  "A simulation study along with analysis of real data was conducted where researchers compared  \nresults of latent transition analysis (LTA) which is similar to latent class analysis but with the inclusion of  \nlongitudinal data used to see changes in the latent classes over time, with a combination of LTA-MRM  \ntechniques (Cho et al., 2010).", 
  "MRM analysis provided more useful results in both simulation and real data  \napplications.", 
  "Additionally, the study with the real dataset showed that the MRM-related technique  \ndetected the intervention effect clearly.", 
  "To summarize, past research with LCA and MRM analyses have  \ntypically found multiple latent classes in international test data.", 
  "Participants   \n\nData used in this study were taken from the TIMSS-2011 8th grade mathematics section  \nadministered in 2011.", 
  "Students\u2019 responses to the items were used for analyses.", 
  "There were 26,596 8th  \ngrade students from four different nations.", 
  "For country specific descriptive information, see Table 1.", 
  "Turkey participated with 6,928 students 49% of whom were girls and 51% boys.", 
  "The USA participated  \nwith 10,477 students which were 51% girls and 49% boys.", 
  "Finland participated with 4,266 students which  \nwere 48% girls and 52% boys.", 
  "Singapore participated with 5,927 students which were 49% girls and 51%  \nboys.", 
  "The mean age for participating nations was 14.00 for Turkey, 14.20 for USA, 14.80 for Finland and  \n14.40 for Singapore.", 
  "For the analysis purposes only 1,225 students from Turkey, 1,990 students from  \nUSA, 1,229 students from Singapore, and 768 students from Finland were selected with a total of 5,212  \n(see Table 1).", 
  "Gender and Age of TIMSS-2011 Subjects (based on booklet selection)  \nGender (%)  \nMean Age  \nSelected  Population  \nSelected  Population  \nSelected  Population  \nSelected  Population  \nSingapore  \nNote: Gender is shown in percentages.", 
  "Instrument  \nThe TIMSS-2011 8th grade mathematics test consisted of 217 items which included 118  \nmultiple-choice items in 14 different booklets.", 
  "Each booklet contained 10-18 items.", 
  "Six of the  \nmathematics blocks were released.", 
  "Only Booklets One, Four, and Six were used in the current study due  \nto having a larger number of released items in those booklets.", 
  "According to TIMSS Technical Report  \n(2012), some items were kept confidential so organizers could use the items in the future for trend  \nanalysis purposes.", 
  "For item specific domain information please see  \n(http://timssandpirls.bc.edu/timss2011/downloads/T11_UserGuide.pdf ).", 
  "The total number of released  \n\fitems included in these booklets is 40.", 
  "One of the released items is shown as Figure 1.", 
  "The test had two  \nmain domains which were content and cognitive areas.", 
  "The content domain consisted of number, algebra,  \ngeometry, data, and chance.", 
  "The cognitive domain, on the other hand, covered knowing, applying, and  \nreasoning areas.", 
  "Such differences in domains and areas tested might also lead different classes.", 
  "Procedure  \nAn institutional review board (IRB) application was submitted prior to the study.", 
  "Since the data  \nwere available online to the public, the IRB committee decided that this project was exempt.", 
  "TIMSS 2011 is the fifth stage of the series of international studies done by International  \nAssociation for the Evaluation of Educational Achievement (IEA).", 
  "IEA strongly emphasizes that it is  \nimportant to work with participating countries on a one-on-one basis so any concern or question that  \narises can be solved quickly.", 
  "Each participating country assigns a National Research Coordinator to work  \ncollaboratively with the organizers of the exam.", 
  "Participating countries tested the items on a sample of  \nstudents and submitted the results to the TIMSS-2011 Science and Mathematics Item Review Committee  \nof subject area experts (TIMSS 2011 Technical Report, 2012).", 
  "Once items were approved the exam was  \nadministered.", 
  "After conducting the test in each participating country, data were released on the official  \nwebsite of TIMSS.", 
  "Data used in this study were taken from the internet release of item statistics and item  \nresponses (http://timss.bc.edu/timss2011/international-database.html).", 
  "Analysis   \nResearch Question One.", 
  "The three booklets were used to run the mixture Rasch model analysis  \nusing WINMIRA (von Davier, 2001a).", 
  "Since the data were sparse, competing models were selected by  \nmeans of information criterion values which were the Pearson Chi-square value and Cressie-Read statistic  \n(Cressie & Read, 1984).", 
  "(With the Cressie-Read statistics, the number of parameters is included in the  \nmodel as a penalty term for over parameterization (Kang & Cohen, 2007)).", 
  "WINMIRA calculates the  \ninformation indices using conditional likelihood estimation (von Davier, 2001b).", 
  "Information criteria used  \nin this study were the Pearson Chi-square value and Cressie-Read where larger values show better fit.", 
  "Once the latent classes were identified, item fit was examined.", 
  "Item fit statistics are handled  \nslightly differently in the MRM than in a simple Rasch analysis.", 
  "Each possible latent class yields its own  \nRasch analysis and its own set of item and person position estimates and fit statistics, along with point- \nscale indicators (comparable to discrimination indices).", 
  "An item that overfits (p < .05) does not provide  \nnew information about the participants.", 
  "An item that underfits (p > .95) has an item discrimination is  \nlower than it is assumed by Rasch model.", 
  "Research Question Two.", 
  "A two-way frequency table was constructed using class membership  \nresults from research question one using SPSS 22.", 
  "Class membership from MRM and nation were used  \nto examine the association.", 
  "A simple cross-tabulation was used to check whether the frequencies per each  \ncell were adequate to allow analysis to be performed.", 
  "Once cell frequencies were found adequate, the  \nvariable association was examined using the chi-square statistic.", 
  "Research Question One  \nNumber of Latent Classes   \nTo find the appropriate number of latent classes, competing models with one, two, three, and four  \nlatent classes were fit to the data for the three booklets.", 
  "Comparing item parameters across different  \nclasses is also critical when deciding on number of classes.", 
  "This comparison supplies information about  \nitem difficulties so that the researcher can focus on the items that are relatively more difficult in one class  \ncompared to others (Baghaei & Carstensen, 2013).", 
  "Booklet One.", 
  "The dataset consisted of 12 items with 1764 participants.", 
  "P-values for Booklet One of  \nCressie-Read and Pearson Chi-square were .20 and .58.", 
  "Since the three class model had the highest p- \nvalue, a three-class solution was selected for Booklet One (Table 2).", 
  "Class size values for each class  \nshows that class 1 was expected to include about 42% of the sample, class 2 about 36% of the sample, and  \nclass 3 about 22%.", 
  "According to the Q-index, there was no need to remove any items since all of the  \nitems fit each class well (.05 < p < .95) (See Table 3).", 
  "Table 2  p-values of Model Fit Indices for the MRM  \nBooklet One  \nBooklet Four  \nBooklet Six  \nItem fit assessed by the Q-index for all classes of Booklet One  \nClass -1  \nClass -2  \nClass -3  \nQ-index  Zq  \n\n(X>Zq)  Q-index  Zq  \n(X>Zq)  Q-index  Zq  \nFigure 2 shows that the three classes had different item difficulty parameters.", 
  "The lines display  \nitems on which the three classes converged and diverged.", 
  "Item difficulty estimates were substantially  \ndifferent for the majority of items.", 
  "It can be concluded that all classes found the items to be relatively easy  \nas logit position was generally negative (see Table 4 for specific values including standard error).", 
  "Booklet Four.", 
  "The dataset consisted of 10 items with 1746 participants.", 
  "P-values for Booklet Four of  \nCressie-Read and Pearson Chi-square were .13 and .15.", 
  "A two-class solution was selected for Booklet  \nFour.", 
  "Class 1 was expected to include about 66% of the sample and class 2 about 34%.", 
  "According to the  \nQ-index, there was one item (M032662) with a Zq value of 2.37 and p-value of .01 which shows lower  \ndiscrimination in class one.", 
  "In such cases, item removal is suggested from the scale only after examining  \nthe item content and additional information from the estimated model (von Davier, 2001b).", 
  "Item category  \n\fvalues for this item were acceptable.", 
  "Out of 1,746 responses 1,251 students answered the item false and  \n495 students answered correct.", 
  "Additionally, the item parameter value for class one was also acceptable  \nwith a value of .13.", 
  "After examining the item category values and item fit, it is decided not to remove the  \nitem from analysis.", 
  "All of the other items fit each class well (.05 < p < .95).", 
  "(See Table 5.)", 
  "Figure 3 shows that the two classes had similar item difficulty parameters for the first six items and  \ndifferent item difficulty parameters for the last four items.", 
  "These four items were slightly easier for first  \nclass than for the second class.", 
  "The majority of items were not markedly different in difficulty across  \nclasses.", 
  "In general all classes found the items to be relatively easy as logit position was generally negative  \n(see Table 6).", 
  "Item parameters of Booklet One by classes  \nEstimate  \nEstimate  \nEstimate  \n\fTable 5  Item fit assessed by the Q-index for all classes of Booklet Four.", 
  "Class -1  \nClass -2  \n(X>Zq)  Q-index  \nItem parameters of Booklet Four by classes  \nEstimate  \nEstimate  \nBooklet Six.", 
  "The dataset consisted of 18 items with 1701 participants.", 
  "P-values for Booklet Six of Cressie- \nRead and Pearson Chi-square were .48 and .90.", 
  "A two-class solution was fitted for Booklet Six.", 
  "Class 1  \nwas expected to include about 62% of the sample and class 2 about 38% of the sample.", 
  "According to the  \nQ-index, there were two items showing lower discrimination values as follows: M042077 with a Zq value  \nof 1.99 and p-value of .02 and M042067 with a Zq value of 2.05 and p-value of .02 in class two.", 
  "Based on  \nvon Davier (2001b), items were examined and it was decided that there was no need for removal of either  \nof the items.", 
  "Item category values for both items were acceptable.", 
  "For item M042077, out of 1,701  \n\fresponses 659 students answered the item false and 1,042 students answered correct.", 
  "For item M042067,  \nout of 1,701 responses 894 students answered the item false and 807 students answered correct.", 
  "Additionally, item parameter values for class two were also acceptable and as follows .29 and .31.", 
  "All of  \nthe other items fit each class well (.05 < p < .95).", 
  "(See Table 7.)", 
  "Item fit assessed by the Q-index for all classes of Booklet Six.", 
  "Class -1  \nClass -2  \n(X>Zq)  Q-index  \nIn general, the two classes had similar item difficulty parameters for the items (see Figure 4).", 
  "Specifically, items M042041, M042024, M042235, M042067, M032738, M032623, M032679,  \nM032507, and M032424 were similar in difficulty level for both classes.", 
  "On the other hand, items  \nM042016, M042077, M042150, M042260, M032352, M032295, M032331, M032047, and M032398  \nshowed different difficulty levels.", 
  "In general all classes found the items to be relatively hard as logit  \nposition was generally positive (see Table 8).", 
  "Table 20  Item parameters of Booklet Six by classes  \n\nEstimate  \nEstimate  \nResearch Question Two  \nBooklet One.", 
  "The MRM group membership values closely paralleled the nation variable but did  \nnot purely rely on it (see Table 9).", 
  "Finland and USA provided similar results where Singaporean students  \nwere mostly in class 1(65.0 %) and Turkish students were mostly in class 3 (50.7 %).", 
  "The chi-square test  \nof association was statistically significant, \u03c72(6) = 374.32, p < .001, \u0278 = .46.", 
  "Turkish students were  \noverrepresented in class three; Singaporean students were overrepresented in class one; U.S. and Finnish  \nstudents were overrepresented in class two.", 
  "Table 9  Crosstabulation of Nation vs. MRM Class Membership for Booklet One  \nNATION  Turkey  \n\n% within NATION  % within NATION  \nSingapore  Count   \n\n% within NATION  % within NATION  % within NATION  \nMRM GROUP MEMBERSHIP  \nBooklet Four.", 
  "The MRM analysis had a two-class solution for Booklet Four (see Table 10).", 
  "Based on that, a majority of the Turkish, American, and Finnish students fell into the first class, 82.9 %,  \n70.5% and 72.8 respectively.", 
  "However, Singaporean students were mostly in class 2 (64.6 %).", 
  "The chi- \nsquare test of association was statistically significant, \u03c72(6) = 232.42, p < .001, \u0278 = .37.", 
  "Turkish students  \nwere overrepresented in class one; Singaporean students were overrepresented in class two.", 
  "Table 10  Crosstabulation of Nation vs. MRM Class Membership for Booklet Four  \n% within NATION  \n\n% within NATION  \nSingapore  \n% within NATION  \n\n% within NATION  \n\n% within NATION  \nMRM GROUP MEMBERSHIP  \nBooklet Six.", 
  "The MRM analysis also had a two-class solution for Booklet Six (see Table 11).", 
  "A  \nmajority of the American, Singaporean, and Finnish students fell into the first class, 64.3 %, 86.1% and  \n\f62.1% respectively.", 
  "However, Turkish students were mostly in class 2 (65.8 %).", 
  "The chi-square test of  \nassociation was statistically significant, \u03c72(6) = 226.56, p < .001, \u0278 = .37.", 
  "Turkish students were  \noverrepresented in class two; Singaporean students were overrepresented in class one.", 
  "Table 11  Crosstabulation of Nation vs. MRM Class Membership for Booklet Six  \n% within NATION  \n\n% within NATION  \nSingapore  \n% within NATION   \n\n% within NATION  \n\n% within NATION  \nMRM GROUP MEMBERSHIP  \nDiscussion  \nResults of the current study show that examinees systematically differed in the ways they  \nunderstand or solve items.", 
  "For each booklet there was more than one class.", 
  "Having distinct classes means  \nthat pupils may employ different strategies to solve test items, an idea which has been emphasized by  \ncognitive psychologists doing psychometric studies for the past decades (Mislevy & Huang, 2007).", 
  "Results of this study are similar to those found by Zhang, Orrill, and Campbell (2015) in MRM analysis  \nof PISA test results.", 
  "While differences in item difficulty do not necessarily mean that the test construct  \ndiffers, further investigation is warranted.", 
  "Validity evidence is needed, such as international test responses  \nof examinees based on culture, tradition, and educational systems in different counties, and their  \ninteractions, for a more complete understanding and appropriate interpretations of the results.", 
  "In general, items were relatively easy for two booklets and relatively difficult for one booklet.", 
  "For  \nexample, raw mean scores for Booklet One show that participants in classes one and two had substantially  \n\fhigher mean scores than participants in class three.", 
  "Analysis showed that the mean of the raw scores of  \nclass 1 was high (M=9.02, SD=2.35), class 2 was medium (M=7.18, SD=2.26), and class 3 was low for  \nBooklet One (M=3.42, SD=1.61).", 
  "Also, for booklet three, class 1 was low (M=3.97, SD=1.77) and class 2  \nwas high (M=6.39, SD=1.32), and for Booklet Six class 1 was low (M=13.42, SD=3.16) and class 2 was  \nhigh (M=6.66, SD=2.63).", 
  "Also item logit positions show that the same item was differentially difficult for  \nparticipants in different classes.", 
  "For example, item M032047 of Booklet Six had an item difficulty  \nparameter of 1.07 and a standard error of 0.07 for class one and an item difficulty parameter of -0.34 and  \nstandard error of 0.08 for class two.", 
  "The difference in logit measures were around more than three  \nstandard errors different which can be interpreted as item being comparatively hard for the students in  \nclass one for Booklet Six (Masters & Keeves, 1999).", 
  "The MRM can be used for different purposes.", 
  "In this study, validity of the test was a concern of  \nthe researchers.", 
  "Possible latent classes were seen as threats to validity.", 
  "Messick (1989) states that validity  \nis not just guessing about some behavior but exploration of the strategies and processes that take part in  \nthe minds of participants during the exam.", 
  "The reason why students belong to different latent subgroups  \ncould be because they were from different educational systems (Mislevy & Huang, 2007), and those  \ndifferent educational systems are aligned with cultural, economic, religious, language, and social  \ndifferences.", 
  "There was a significant interaction between nation and MRM class membership for all three  \nbooklets.", 
  "Based on where nations stand within the TIMSS mean score placement, Singapore was in  \nmostly one class, the U.S. and Finland were combined in another class, and Turkey was by itself for three  \nclass solutions.", 
  "This was one advantage of the dataset where latent classes could be qualitatively defined  \nbased on students coming from different nations since the nation variable was provided before the  \nanalysis.", 
  "Overall, the MRM analysis and crosstabulation analysis of nation vs. the MRM results showed  \nthat most items were either easier or somewhat easier for classes where Turkish students are the majority.", 
  "The average TIMSS-2011 mathematics score of 452 (M=500, SD=100)  for Turkish 8th-graders could be  \n\finfluenced by lower scores on open-ended questions with which Turkish students are not familiar since  \nthe educational system mostly relies on multiple choice-based large-scale assessments.", 
  "Sampling techniques of TIMSS organizers is a limitation of this study.", 
  "One simple example  \nshows that number of students in Turkish and American educational systems are more than the whole  \npopulation of Singapore and Finland.", 
  "TIMSS requires each participant country to join with at least 4.500  \nstudents.", 
  "Although this number covers most of the Singaporean and Finnish 8th-grade population, it is  \nstill small for systems like the U.S. or Turkey (Rutkowski & Rutkowski, 2016).", 
  "Generalizability of the  \nresults are questionable when relatively few students\u2019 data are available.", 
  "Additionally, TIMSS organizers only released a small portion of the items.", 
  "Running the analysis  \nonly on this small set of released items also limited the interpretation and generalizability of the results.", 
  "Sample size was reduced due to the number of released items.", 
  "There were only three booklets used out of  \n14 booklets.", 
  "As a result of this, results found here may not be representative of other booklets in TIMSS- \n2011.", 
  "Therefore results of this study may show some limitations regarding generalizability to all of  \nTIMSS.", 
  "It is also important to note that countries in this study differed greatly in ability levels of students.", 
  "This also brings up generalizability questions related to whether it is possible to find distinct latent classes  \nif countries with more similar scores had been examined.", 
  "The same study should be conducted to see if countries whose education systems are similar also  \nprovide similar results.", 
  "Future research should also be conducted using data from other countries using  \ndifferent languages as well as at different ability levels.", 
  "Researchers who are interested in using MRM for  \nvalidity purposes can replicate the study using data from countries that differ on characteristics other than  \neducation systems.", 
  "Furthermore, studies are recommended to see if the results differ based on the science  \nsection of the test."
 ]
}