{
 "document_id": "1168983.1", 
 "sentences": [
  "Running\thead:\t\tEDUCATIONAL\tCHANGE\tAND\tACTION\tRESEARCH\tLEARNING\tCOMMUNITIES\t \nLeading\tand\tFacilitating\tEducational\tChange\tThrough\t \nAction\tResearch\tLearning\tCommunities\t \nCraig\tA.\tMertler\t Division\tof\tLeadership\tand\tInnovation\t Mary\tLou\tFulton\tTeachers\tCollege\t Arizona\tState\tUniversity\t Craig.Mertler@asu.edu\t \nPaper\tpresented\tat\tthe\tannual\tmeeting\tof\tthe\t \nAmerican\tEducational\tResearch\tAssociation,\tSan\tAntonio,\tTexas\t\t \nApril\t27\t\u2013\tMay\t1,\t2017\t \nAbstract\t \n\nEDUCATIONAL\tCHANGE\tAND\tACTION\tRESEARCH\tLEARNING\tCOMMUNITIES\t \nThis\tpaper\treviews\tthe\tconcepts\tof\taction\tresearch\tand\tprofessional\tlearning\tcommunities,\ttheir\t applications\tin\tschools,\tand\tthen\tpresents\tdiscussion\tof\tthe\tmerging\tof\tthe\ttwo\tconcepts\tinto\taction\t research\tlearning\tcommunities.", 
  "Action\tresearch\tlearning\tcommunities\tare\tprofessional\tlearning\t communities\tcomprised\tof\teducators\tand\tadministrators,\twhere\taction\tresearch\tserves\tas\tthe\t \u201cumbrella\u201d\tmechanism\tthat\tdrives\ta\tfaculty\tand\tstaff\ttoward\tits\tcommon\tmission\tand\tvision,\tand\t also\tserves\tas\tthe\tcommon\tthread\tfor\tthe\tfoundation\tof\tcollaborative\tteamwork\tand\tprofessional\t growth.", 
  "Roles\tfor\tteachers,\tbuilding-level\tadministrators,\tand\tdistrict-level\tadministrators\twithin\t action\tresearch\tlearning\tcommunities\tare\tdiscussed.", 
  "Finally,\tideas\tfor\tways\tto\tuse\tthese\tspecific\t learning\tcommunities\tto\tdeepen\tprofessional\tlearning\tand\timprove\tstudent\tlearning\tare\tpresented.", 
  "Keywords:\taction\tresearch,\tprofessional\tlearning\tcommunities,\tprofessional\tdevelopment,\t \n\ncollaboration,\tcontinuous\timprovement\t \n\fEDUCATIONAL\tCHANGE\tAND\tACTION\tRESEARCH\tLEARNING\tCOMMUNITIES\t \nLeading and Facilitating Educational Change Through  \nAction Research Learning Communities  \nThe climate that many PK-12 schools find themselves in today has resulted in  \nprofessional educators assuming roles that have the potential to lead to innovations and  \nwidespread school improvement.", 
  "In the past, these kinds of responsibilities typically fell on the  \nshoulders of district- or building-level administrators.", 
  "However, more and more teachers,  \nadministrators, and support personnel have begun to assume responsibilities for developing and  \nimplementing innovative solutions to local problems, for mentoring and providing support to  \ncolleagues, and for envisioning and leading changes to the status quo in our schools.", 
  "Some of these endeavors have been somewhat \u201creactive,\u201d in that professional educators  \nhave been pressed into these roles in reaction to federal or state mandates, or for a multitude of  \nother reasons.", 
  "Certainly, no one would fault educators for stepping into these vitally important  \nroles, but it is equally important that the educational community at large also consider ways to  \nengage in various prominent roles designed to make schools better in a more proactive manner.", 
  "This article presents discussion of a concept for leading and facilitating educational change  \nthrough the development and implementation of action research learning communities.", 
  "Merging Action Research & Professional Learning Communities  \nAction research and professional learning communities are educational practices that  \nhave gained a great deal of momentum in our schools and districts over the past 15 years or so.", 
  "Some might see these as isolated concepts\u2014ones that might not see any sort of side-by-side  \nimplementation.", 
  "For some educators, action research might be an unfamiliar concept.", 
  "For those  \n\fEDUCATIONAL\tCHANGE\tAND\tACTION\tRESEARCH\tLEARNING\tCOMMUNITIES\t \nwho know a little something about action research, they might see it simply as an approach to  \n\nconducting educational research in schools.", 
  "Still, others would not consider action research to be  \npart of their jobs, or even of interest to them.", 
  "A similar set of misunderstandings abound when considering the concept of professional  \nlearning communities.", 
  "Many educators believe that they are \"doing\" a professional learning  \ncommunity when they meet every Tuesday morning for an hour to discuss some common topic.", 
  "For those who have a deeper understanding of professional learning communities, there is still a  \nmisconception that these learning communities require an excessive amount of time, where the  \ninvestments far outweigh the benefits.", 
  "Unfortunately, many of these educators do not believe  \nthat professional learning communities should be part of their jobs.", 
  "However, many of us know that action research, as well as professional learning  \ncommunities, hold numerous potentials for vast improvements in our schools.", 
  "Consider for a  \nmoment the potential impact of merging the concepts of action research and professional  \nlearning communities.", 
  "If each of these possesses such great individual potential, it would stand  \nto reason that the likely benefits that could result from a merged set of practices might begin to  \ngrow exponentially.", 
  "Please understand, I do not want to mislead anyone into thinking that this is  \na situation where we are trying to mix oil and water, or where we are trying to force a square peg  \ninto a round hole.", 
  "On the contrary, action research and professional learning communities share so many  \nkey aspects of their foundational structure that finding a way to merge them into a single entity  \nseems to make perfect sense.", 
  "This merging into a single entity\u2014a concept that I have coined  \naction research learning communities\u2014holds an immense amount of power and potential when  \nit comes to enhanced professional growth and development for educators, increased student  \n\fEDUCATIONAL\tCHANGE\tAND\tACTION\tRESEARCH\tLEARNING\tCOMMUNITIES\t \nachievement, and school improvement.", 
  "Action research learning communities, or ARLCs,  \n\nessentially capitalize on all of the individualized benefits and strengths of action research and of  \nprofessional learning communities, and merge them into a single educational concept and  \npractice.", 
  "ARLCs have the potential to help educators everywhere experience:  \n\u2022  a common and collective focus and vision;  \n\u2022  sustained collaborative inquiry;   \nindividualized, customizable\u2014and meaningful\u2014professional growth; and  \ntrue empowerment that comes with this form of collaborative, inquiry-based, and  \nreflective practice.", 
  "Let me take a moment to highlight some of the key characteristics of action research and of  \nprofessional learning communities.", 
  "Action Research  \nThe term \u201cresearch\u201d itself typically makes many people\u2014especially educators\u2014 \nsomewhat uncomfortable.", 
  "They often equate it with endeavors more \u201cscientific\u201d in nature (e.g.,  \npeople in white lab coats with beakers and test tubes or perhaps lab animals); or, they may have  \nflashbacks to graduate courses in research methodology and/or statistical analysis.", 
  "While there  \nmay be some degree of accuracy in each of those mental interpretations and connotations,  \nresearch can provide us with a systematic mechanism for collecting meaningful student data, and  \nthen using those data as the basis for well-informed educational decision making.", 
  "After all, data- \ndriven educational decision making has become a primary focal point for the work that we  \ncollectively do as professional educators.", 
  "It really does not matter if you work as an early  \nchildhood educator, a middle school administrator, or a college or university professor\u2014 \n\fEDUCATIONAL\tCHANGE\tAND\tACTION\tRESEARCH\tLEARNING\tCOMMUNITIES\t \neducational decision-making is no longer reliant upon \u201cgut instinct and reaction\u201d; it now has its  \n\nbasis in hard data, gathered primarily from those whom we are charged to educate.", 
  "While there are numerous similarities between traditional educational research and action  \nresearch, there is one crucial difference.", 
  "Action research is educational research; however, it is  \nresearch that is conducted by educators for themselves (Mertler, 2017).", 
  "Individuals who are\u2014at  \nleast to some degree\u2014removed from the situation and setting that they are investigating often  \nconduct traditional educational research.", 
  "University professors or graduate research assistants  \nmay conduct more traditional forms of research in our schools.", 
  "In contrast, action research is  \nconducted by the individual or individuals who play an active role and who have a vested interest  \nin the particular setting.", 
  "Johnson (2008) has described action research as being true systematic  \ninquiry into one\u2019s own practice.", 
  "There are five broad ways in which action research can be successfully integrated into  \neducational settings (Mertler, 2017).", 
  "Action research can be used to\u2026  \n1)  Connect theory to practice \u2014 Action research is conducted firsthand by practicing  \neducators.", 
  "2)  Improve educational practice \u2014 A main focus of action research is the improvement of  \nclassroom practice, through professional reflection and critical examination of one\u2019s own  \n\n3)  Foster broad school improvement \u2014 Action research can also be facilitated so that it  \npromotes widespread types of improvements, in addition to improvements at the  \nindividual classroom level.", 
  "4)  Empower educators and engage them intellectually \u2014 Action research is very effective  \nat advancing the notion of educator empowerment, allowing professional educators to  \n\fEDUCATIONAL\tCHANGE\tAND\tACTION\tRESEARCH\tLEARNING\tCOMMUNITIES\t \nutilize their own unique sets of expertise, talents, and creativity so that they can  \nimplement instructional programs that will best meet the needs of their students.", 
  "5)  Cultivate professional growth \u2014 Action research provides educators with opportunities  \nto focus professional growth on specific things that an individual\u2014or, perhaps, a  \ncollaborative group of educators\u2014identifies as being an area of professional practice that  \nthey would like to improve.", 
  "It is the epitome of customizable and meaningful  \nprofessional development for educators (Mertler, 2013).", 
  "It is important to note that action research is often designed, implemented, and conducted  \nin a collaborative manner.", 
  "There are several key characteristics of collaborative action research  \n(Clauset, Lick, & Murphy, 2008, p. 2):  \n\u2022  Collaborative action research consists of practitioners working together as a team.", 
  "\u2022  The focus of the team is on a common issue, problem, or goal.", 
  "\u2022  There should be the development of a synergy that inspires one another.", 
  "\u2022  The focus should be on creating momentum toward more insight into the problem, and  \ngreater learning and growth relative to the common issue being examined by the team.", 
  "Professional Learning Communities  \nDuFour, DuFour, and Eaker (2008) have argued in favor of the valuable work that can  \nresult when the various members of schools and districts collectively commit to functioning as a  \nprofessional learning community (PLC).", 
  "They have defined a professional learning community  \n\fEDUCATIONAL\tCHANGE\tAND\tACTION\tRESEARCH\tLEARNING\tCOMMUNITIES\t \n\u2026 educators committed to working collaboratively in ongoing processes of collective  \ninquiry and action research to achieve better results for the students they serve.", 
  "Professional learning communities operate under the assumption that the key to  \nimproved learning for students is continuous, job-embedded learning for educators.", 
  "(DuFour et al., 2008, p. 14)  \nNotice that PLCs require a commitment on the part of educators.", 
  "Additionally, there is a  \nfocus on professional collaboration, not only in general, but also as it relates to ongoing  \ncollective inquiry and action research.", 
  "Also, notice that the ultimate focus of the work of a PLC  \nis on the achievement of better results for the students served by these educators.", 
  "Finally, a key  \nto improved student learning is job-embedded professional learning for educators.", 
  "These key  \nfeatures also represent earlier works by Hord (1997), who stated that the goal of the actions of a  \nprofessional community of learners is to enhance their effectiveness as professionals for the  \nstudents\u2019 benefit.", 
  "It is crucial to note that a PLC is not something you do for an hour a week.", 
  "It is more  \nthan simply sitting in the faculty lounge and having a conversation about an educational topic.", 
  "It  \nis much more about a way of professional life, about the way you approach and do the job of  \nbeing a professional educator, every minute of every day throughout the year.", 
  "This is the  \nprimary reason that the notion of a collective commitment on the part of educators is so vital to  \nthe success and effectiveness of any school\u2019s PLC.", 
  "When educators engage in a collaborative  \ncommitment to professional learning, it not only fosters professional learning in a community- \ntype environment, but it also becomes an integral part of their daily professional lives.", 
  "EDUCATIONAL\tCHANGE\tAND\tACTION\tRESEARCH\tLEARNING\tCOMMUNITIES\t \nDuFour et al.", 
  "(2008) discuss six characteristics, critical for the successful development  \nand implementation of PLCs.", 
  "These characteristics are:  \n\u2022  A shared mission, vision, values, and goals;  \n\u2022  A collaborative culture with a focus on learning;  \n\u2022  Collective inquiry into best practices and current reality;  \n\u2022  An action orientation (or, learning by doing);  \n\u2022  A commitment to continuous improvement; and  \n\u2022  An orientation focused on results.", 
  "I think that you can probably see the parallels between the concepts of collaborative  \naction research and professional learning communities.", 
  "Merging the Two Concepts  \nAn action research learning community (ARLC) takes all that is professionally beneficial  \nfrom action research and combines it with all that is beneficial from a professional learning  \ncommunity.", 
  "An ARLC is a PLC; however, the driving force behind an ARLC is that action  \nresearch serves as the over-arching focus, the \u201cumbrella\u201d mechanism that drives a faculty and  \nstaff to its common mission and vision, and the common thread that provides the foundation for  \ncollaborative teamwork and professional growth.", 
  "One of the benefits of this model is that it  \nprovides a common, collaborative focus (i.e., implementing an action research approach to  \nimprovement), while still permitting individual educators\u2014or collaborative groups of  \neducators\u2014to specify their own context, focus, and/or goals for their use of action research.", 
  "The  \nonly real difference between an ARLC and a \u201ctypical\u201d PLC is that the focus, mindset,  \nand culture are all based in and are created around collaborative action research in your schools.", 
  "EDUCATIONAL\tCHANGE\tAND\tACTION\tRESEARCH\tLEARNING\tCOMMUNITIES\t \nIn other words, the commonality shared by all participants in the ARLC is the fact that they  \n\nengage in collaborative action research for the purposes of improving their practice and  \nultimately improving student learning.", 
  "A diagram of an action research learning community is  \nshown in Figure 1.", 
  "Change & Growth Mindset through  \nAction Research Learning Communities  \nProfessional Learning  \nCommunities  \nCollaborative  \nLearning  \nCycles of  \nAction Research  \nFigure 1.", 
  "Structure and design of an action research learning community,  \nshowing the relationships between ongoing cycles of action research,  \ncollaborative learning, and professional learning communities, all embedded  \nwithin the ARLC.", 
  "As depicted in Figure 1, the heart or core of an ARLC is comprised of comprehensive,  \nsustained cycles of action research.", 
  "These ongoing cycles of action research serve as the core, in  \nthat they provide the common ground for the foundation of any action research learning  \n\fEDUCATIONAL\tCHANGE\tAND\tACTION\tRESEARCH\tLEARNING\tCOMMUNITIES\t \ncommunity in an organization (e.g., school or district).", 
  "All members of the organization  \n\ncontribute to the design, implementation, and conduct of action research\u2014the flexibility of  \nwhich allows for customization in order to meet and/or address specific, local, and personalized  \nproblems of practice.", 
  "While these cycles of action research can certainly be conducted by  \nindividuals in the organization, they are most often conducted by smaller, collaborative groups of  \nprofessional educators.", 
  "This, in turn, creates an environment that supports professional and  \ncollaborative learning amongst all members of the group/team.", 
  "Ultimately, collaboration is a  \nkey component in the collective success of an action research learning community.", 
  "However, collaboration\u2014in and of itself\u2014is not sufficient for the overall success of an  \naction research learning community.", 
  "This collaborative work must be embedded within the  \nnotion of professional learning communities, where collaboration is but one key ingredient.", 
  "The  \nnotion of a PLC takes the concept of collaboration and enhances it through the development of a  \nshared mission, vision, values, and goals, collective inquiry into best practices, and a  \ncommitment to continuous improvement.", 
  "There is a fine line, but a great difference, between  \nprofessional collaboration and a professional learning community.", 
  "Educators may \u201ccollaborate\u201d  \nfrequently, but they often do so without committing to common missions, visions, and goals.", 
  "Finally, the collective concepts of ongoing cycles of action research, collaboration among  \nprofessional educators, and a true professional learning community are further embedded with  \nthe over-arching ideas of educational change and a growth mindset as fostered by an action  \nresearch learning community\u2014a true professional learning community, based on collaboration,  \nsustained inquiry (in the form of persistent cycles of action research) into one\u2019s own professional  \npractice, and the development of common values and goals.", 
  "EDUCATIONAL\tCHANGE\tAND\tACTION\tRESEARCH\tLEARNING\tCOMMUNITIES\t \nRoles Within Action Research Learning Communities  \n\nWithin an ARLC, there are particular roles and responsibilities that should be specified  \nand/or openly negotiated.", 
  "Some suggestions are provided below.", 
  "Roles for Teachers in ARLCs  \nDesigning and developing a culture appropriate for an ARLC requires educators to  \nembrace reflective practice.", 
  "It requires a re-examination of long-held professional belief  \nsystems.", 
  "It necessitates a hard look at the various roles traditionally held by teachers and those  \nby students.", 
  "There may be some apprehension, some barriers, perhaps even some failures along  \nthe way.", 
  "Journeys of this magnitude require commitments by courageous professional  \neducators\u2014those not afraid to step outside their comfort zones, not afraid to critically examine  \ntheir own practice, and not afraid to make the occasional mistake (but to also learn from it at the  \nsame time).", 
  "In an action research learning community, planning time, collaboration time, and  \nprofessional development is not crammed into a 30- or 60-minute time slot at the end of the  \nday or first thing in the morning.", 
  "The commitment requires an \u201call day, every day\u201d attitude  \ntoward professional growth, development, and learning.", 
  "The ARLC mentality should be  \nintegrated into everyday practice; it should become indicative of how teachers do their jobs .", 
  ".", 
  ".", 
  "every day.", 
  "This becomes a fabulous opportunity for teachers to focus their attention, in a  \ncollaborative manner, on reinvesting in a profession where we can:  \n\nrecognize our professional limitations,   \n\u2022  work collaboratively to improve them, and (as a result)   \n\fEDUCATIONAL\tCHANGE\tAND\tACTION\tRESEARCH\tLEARNING\tCOMMUNITIES\t \n\u2022  make the lives of the students and families with whom we work better, more productive,  \nand more successful.", 
  "Roles for Building Administrators in ARLCs  \nAs with any PLC, principals and assistant principals in an ARLC take on key roles in  \nterms of its success.", 
  "Within an ARLC, building leadership must focus on the level of overall  \ncommitment to fostering and promoting the necessary change in culture.", 
  "Further, the leadership  \nshould focus on sustaining this commitment throughout the faculty and staff.", 
  "Focusing on the  \nschool\u2019s mission and vision\u2014all while leading by example\u2014is paramount in sustaining these  \ntypes of efforts.", 
  "Faculty and staff in the school must know and see\u2014on a daily basis\u2014that the  \nprincipal and assistant principal(s) are equally committed to the overall success of the learning  \ncommunity and that they will be supportive of faculty and staff needs.", 
  "Knowing that teachers  \nhave logistical and emotional support from administrators and their colleagues can be a huge  \ninfluential factor in the success of school improvement efforts throughout a building.", 
  "A few years ago, I worked closely with a school in Birmingham, Michigan, at the request  \nof the building principal.", 
  "The particular school was a science and technology school for grades  \n3-8, and the principal invited me to come to the school and spend a day working with the staff to  \nbegin implementing action research, and to do so using a learning community mindset.", 
  "The  \nprincipal and assistant principal challenged their teachers to individually or collaboratively  \ndesign and implement their own action research projects, in an effort to target self-identified  \nareas in need of improvement.", 
  "Not only did the principal and assistant principal support their  \nteachers\u2019 efforts by providing them with appropriate time and resources, but they also designed  \nand conducted their own action research project, examining their professional communication  \n\fEDUCATIONAL\tCHANGE\tAND\tACTION\tRESEARCH\tLEARNING\tCOMMUNITIES\t \nstyle within the school setting.", 
  "The fact that they joined in this empowering innovation  \n\nmindset\u2014alongside their teachers\u2014still impresses me to this day.", 
  "They have continued to build  \nand sustain the action research community that they began that year; it has become part of their  \nculture, and professional support has been a big piece of that.", 
  "Roles for District Administrators in ARLCs  \nIf the proposed ARLC is to be a district-wide effort, then district-level administrators  \nplay an essential role, as well.", 
  "They must be able to promote and facilitate not only enhanced  \nstudent learning, but also improvements in adult learning.", 
  "In other words, they must be the  \nambassadors for a shift in culture that promotes a new model of professional development for  \nfaculty and staff in the district.", 
  "They must be able to emphasize the importance of reflective  \npractice and self-guided inquiry into context-specific teaching and learning.", 
  "DuFour et al.", 
  "(2008) recommend the following keys for shaping a new culture within a  \nPLC\u2014and, specifically within an ARLC.", 
  "First, district leaders must capitalize on every aspect  \nof an effective change process in order to present a compelling rationale for moving forward.", 
  "Second, district leaders must communicate the priorities of the learning community effectively  \nand consistently.", 
  "Third, district leadership must be strategic in terms of limiting comprehensive  \ninitiatives in order to allow for the sustained focus necessary for an ARLC initiative.", 
  "Finally,  \ndistrict leaders must help school personnel build a collective capacity to achieve their missions  \nby embedding ongoing professional development as a routine part of the job of being a  \nprofessional educator.", 
  "EDUCATIONAL\tCHANGE\tAND\tACTION\tRESEARCH\tLEARNING\tCOMMUNITIES\t \nComprehensive change initiatives\u2014like designing and implementing an ARLC\u2014will  \nnever be stainable and effective without the support, driving influences, and leadership by  \nexample that comes from both the district and building levels.", 
  "Using ARLCs to Deepen Professional Learning and Improve Student Learning  \nIn today\u2019s schools, we must operate under the assumption that our professional educators  \nalready possess a good deal of professional knowledge and are capable of extending their own  \nlearning.", 
  "Furthermore, there are types of professional learning that can support educators in  \nterms of what they already know, but also encourage them to develop new knowledge,  \nsometimes on their own.", 
  "Action research lends itself very nicely to this concept, in that the  \nprocess requires educators to reflect on and evaluate what they are already doing, to assess their  \nown effectiveness, and then attempt new or different methods to enhance their effectiveness and  \ntheir students\u2019 learning.", 
  "The true benefit of action research as professional learning is that it provides the  \nmechanism for an educator to focus his or her professional growth specifically on aspects of the  \nteaching-learning process that have been identified by that teacher as an immediate need.", 
  "The  \nfocus of not only the action research, but also the professional learning, is on your school, your  \nclassroom, your students, and their improved achievement.", 
  "It is customizable professional  \ndevelopment, designed to meet your specific needs (Mertler, 2013).", 
  "Since it is geared  \nspecifically toward your needs and the needs of your students, there is the ability to take action  \nimmediately.", 
  "Not only is this customizable professional development, but it is also meaningful  \nprofessional development.", 
  "EDUCATIONAL\tCHANGE\tAND\tACTION\tRESEARCH\tLEARNING\tCOMMUNITIES\t \nIf we now throw into the mix the concept of a professional learning community, in my  \nopinion, we have just added the two final necessary ingredients to a highly-beneficial system of  \nprofessional learning\u2014collaboration and support.", 
  "Assuming the responsibility for one's own  \nprofessional learning requires collegial support, and perhaps a sense of collaborative work.", 
  "After  \nall, if you are experiencing a particular struggle in your classroom, I seriously doubt that you are  \nthe only teacher on earth\u2014let alone your own school or district\u2014who has that problem.", 
  "Collaboration is an incredibly powerful means of identifying, targeting, and resolving those  \nstruggles and challenges that we face in our classrooms on a daily basis.", 
  "It should follow logically from the previous section that, if we are targeting and  \nimproving specific aspects of our instruction based on data that we collect from our students, we  \nshould also be enhancing the learning experiences for students.", 
  "After all, this was the initial  \nbasis for us to determine specifically which aspects of our teaching we wanted to target for  \nimprovement.", 
  "If our students are not performing well in some aspect of our coursework or class,  \nwe want to see that improve.", 
  "For example, let us assume that I am a high school biology teacher\u2014which I actually  \nwas\u2026many, many years ago.", 
  "Although I loved to teach the processes of mitosis and meiosis,  \nmy students always struggled with it.", 
  "Year in and year out, the particular mix of students that I  \nhad in my class did not matter; they routinely did not do well on the unit test that covered these  \nconcepts.", 
  "If we had an action research learning community in my school, I could have used that  \nstructure\u2014along with my colleagues in the science department\u2014to critically evaluate and  \ninvestigate ways in which I could teach that material differently, reinforce those skills in  \nalternative ways, and possibly come up with a variety of assessments in order to give students  \nalternative mechanisms for demonstrating their mastery.", 
  "We comprised a relatively small  \n\fEDUCATIONAL\tCHANGE\tAND\tACTION\tRESEARCH\tLEARNING\tCOMMUNITIES\t \ndepartment in my school, and when I think back to the potential growth and learning\u2014from both  \n\nthe teachers and the students\u2014that we might have experienced had we been part of ARLC, my  \nmind races with possibilities.", 
  "Because action research can be individualized and it is so customizable, action research  \nlearning communities provide opportunities for schools to target a wide variety of reform  \ninitiatives and innovations.", 
  "Whereas some schools might focus their professional learning  \ncommunities on very specific curricular and/or social initiatives, schools which operate using an  \naction research learning community have the ability not only to target a variety of initiatives, but  \nthose initiatives can develop, change, and transform over time.", 
  "However, the important feature  \nhere is that the basic structure of the ARLC does not have to change year in and year out.", 
  "In  \nfact, the infrastructure of an ARLC can remain intact, theoretically for decades.", 
  "The reason for  \nthis is that the fundamental structure of an action research learning community\u2014action research  \nand collaboration within the environment of a professional learning community\u2014becomes the  \nmechanism for achieving an immense variety of school reform initiatives.", 
  "The power and potential that lies within your school and its staff once you undertake the  \ndevelopment and implementation of an action research learning community is simply limitless.", 
  "EDUCATIONAL\tCHANGE\tAND\tACTION\tRESEARCH\tLEARNING\tCOMMUNITIES"
 ]
}