{
 "document_id": "1168892.1", 
 "sentences": [
  "COURSE PLACEMENT: UNDERSTANDING THE PROCESS  \n\nObjective/Purpose:  \n\nTracking students into classes according to academic capability is a common practice in  \nAmerican schools.", 
  "While the impact of academic grouping on the lives of both teachers and  \nstudents is well documented, few of these studies closely examine the influence of teachers on  \nstudents\u2019 academic trajectories.", 
  "The purpose of this research was to investigate the process three  \nhigh school social studies teachers used to recommend students for high- and low-track classes.", 
  "The following research questions guided the study:    \n\u2022  What decision-making process guides how teachers recommend academic placement of  \nIn what ways do teachers\u2019 educational perspectives about ability grouping inform course  recommendation decisions?", 
  "\u2022  What meritocratic and non-meritocratic criteria guide teachers\u2019 course recommendation  \n\n\u2022  What perceptions do teachers have about the implications of their course placement  \nstudents?", 
  "decisions?", 
  "recommendations?", 
  "Conceptual Framework  \n\nOakes\u2019s (1992) de-tracking theory, which details its technical, normative, and political  \ndimensions, provides a unique lens to examine the academic placement process.", 
  "This framework  \ndraws attention to the meritocratic and non-meritocratic criteria guiding teacher\u2019s course  \nrecommendations (technical dimension), the educational perspectives influencing their decisions,  \n(normative dimension), and the school dynamics shaping teacher decision-making (political  \ndimension).", 
  "While research examining course recommendation criteria yields diverse findings, two  \nconclusions can be reached: both meritocratic and non-meritocratic measures of ability play an  \ninfluential role in the academic placement process (Gamoran, 1992; Kelly, 2007; Oakes, 2005;  \n\n\fCOURSE PLACEMENT: UNDERSTANDING THE PROCESS  \n\nOakes & Guiton, 1995); it is not unusual for course placement criteria to vary district to district,  \nschool to school, and even classroom to classroom (Gamoran, 1992; Hallinan, 1991; Kelly  \n2007).", 
  "Although these conclusions affirm the localized nature of the course recommendation  \nprocess, previous studies examining this topic do not focus on individual teacher\u2019s decision- \n\nTo explore the ways in which teachers\u2019 beliefs about ability grouping inform their course  \nrecommendation decisions, this study adopted the theoretical construct teacher perspective.", 
  "Janesick\u2019s (1977) describes this perspective as \u201ca reflective, socially defined interpretation of  \nexperience that serves as a basis for subsequent action\u2026.", 
  "a combination of beliefs, intentions,  \ninterpretations, and behavior that interact continually\u201d (Clark and Peterson, 1986, p. 287).", 
  "This  \nperspective takes into account both the beliefs teachers have about the purpose and goals of their  \nwork, and the ways they give meaning to these beliefs through their classroom behavior.", 
  "This  \nlens allows for a context-specific and action-oriented understanding of the course  \nrecommendation process.", 
  "Teaching involves a variety of complex decisions and the body of literature examining  \nthis process is extensive.", 
  "Some of these studies include: expert and novice decision-making,  \n(Westerman, 1991), interactive decision making (Clark & Peterson, 1986), the extent to which  \nteachers participate in administrative and educational decisions (Conley, 1991; Ingersoll, 2006;  \nLortie, 1975), teachers\u2019 expectations for participation in decision-making (Conley, 1991), and  \nthe influence of organizational factors on teachers\u2019 decision making processes (Conley, 1991;  \nIngersoll, 1994; 1996; 2006).", 
  "The relationship between teacher decision-making and academic  \nplacement, however, is not addressed in any meaningful way.", 
  "This study provides a much  \nneeded investigation of this topic.", 
  "COURSE PLACEMENT: UNDERSTANDING THE PROCESS  \n\nResearch methods  \n\nThis research utilized a comparative, qualitative multiple-case study (Merriam, 2009;  \nStake, 1995).", 
  "Case study is an ideal approach because it emphasizes in-depth description and  \nanalysis, triangulation of data sources, and what Cronbach (1975) calls \u201cinterpretation in  \ncontext\u201d (as cited in Merriam, 2009, p. 42).", 
  "Additionally, focusing on the teacher as the unit of  \nanalysis is well suited because teachers have direct experience with recommending students for  \nclasses and are likely to have unique perspectives about this process.", 
  "Four criteria were used to identify Barrington High School, the study\u2019s research site.", 
  "First, only high schools part of one large suburban district located in the Washington, DC metro  \narea were considered.", 
  "Second, only high schools with 40% - 60% of the student population  \nqualifying for free and reduced lunch were eligible for selection.", 
  "Conducting research in a school  \nwith economic variance, or what Darling-Hammond (2010) refers to as an \u201ceconomically  \nintegrated environment\u201d (p. 34), provided opportunities to examine the recommendation  \npractices of teachers instructing classes populated by large numbers of low-income students.", 
  "Third, the social studies department at the research site had to offer at least two different  \nacademic tracks.", 
  "Finally, social studies teachers at the research site needed to be directly  \ninvolved in the course recommendation process.", 
  "Participation in the study required a commitment to three tasks: completing a paper-based  \nsurvey; if contacted, taking part in two 75 minute semi-structured interviews; and discussing  \nresearch findings as part of a collaborative member checking process.", 
  "After reviewing the  \ndemographic portion of the survey, two criteria were used to select teachers to interview.", 
  "First,  \noverall teaching experience and length of employment at the research site was taken into  \naccount.", 
  "First year teachers and those in their initial year of employment at Barrington were not  \n\n\fCOURSE PLACEMENT: UNDERSTANDING THE PROCESS  \n\nconsidered for interviews.", 
  "Because this investigation focused on a process unique to the teaching  \nprofession, selected teachers needed to have prior experience recommending students for classes.", 
  "Additionally, teachers selected to participate in interviews were required to instruct at least three  \nor more 9th and/or 10th grade low-track social studies classes.", 
  "Data sources  \n\nData collection was developed in the following manner.", 
  "Initially, Barrington\u2019s 13 social  \nstudies teachers completed a two-part survey.", 
  "Part I collected demographic information  \nidentifying course(s) and grade level(s) being taught, years of overall teaching experience, and  \nyears teaching social studies; part II explored the study\u2019s research questions.", 
  "The development  \nsurvey drew heavily on instruments created by both Anaslone & Biafora (2004; 2008) and Ireson  \nand Hallam (2003) in their research investigating educators\u2019 beliefs, perceptions, and attitudes  \ntowards tracking and ability grouping.", 
  "Prior to administering the survey, it was piloted on a  \ngroup of secondary teachers during a monthly professional development workshop.", 
  "Next, utilizing demographic data from part I of the survey, three social studies teachers were  \nselected to participate in two interviews.", 
  "The timing of these interviews coincided with  \nBarrington\u2019s annual course recommendation process.", 
  "This strategy enabled \u201cthe researcher to  \nrespond to the situation at hand, to the emerging worldview of the respondent, and to new ideas  \non the topic\u201d (Merriam, 2009, p. 91).", 
  "In addition, both Barrington\u2019s principal and Director of  \nStudent Services each participated in one interview.", 
  "Although these individuals were not the  \nfocus of the study, their perspectives provided detailed insights about school policies,  \nprocedures, and norms influencing how students are recommended for and ultimately, assigned  \nto classes.", 
  "COURSE PLACEMENT: UNDERSTANDING THE PROCESS  \n\nDuring the second interview, teacher participants were asked to consider three hypothetical  \nstudent vignettes and explain the process they would use to recommend placement.", 
  "The use of  \nvignettes provided multiple opportunities to explore actions and decision making in context,  \nclarify responses, and provide a less threatening way of exploring a sensitive topic (Barter &  \nRenold, 1999).", 
  "Although hypothetical vignettes have methodological limitations, including their  \ninability to never fully capture how teachers would actually make recommendations and the  \npossibility of being considered narrow in scope, this process illuminated a number of cognitive  \nand affective dynamics shaping decisions  \nFinally, administrative documents providing insight into both the school\u2019s and social  \nstudies department\u2019s course placement process were examined.", 
  "These documents included both  \nBarrington\u2019s 2011-2012 course catalog and its website.", 
  "The researcher culled these resources  \nlooking for policies outlining the course placement process and documentation of the criteria  \nused to place students in classes.", 
  "Results/Conclusions  \nThe key finding of this research is that participants experienced a high-level of autonomy  \nwhen making course recommendations.", 
  "This autonomy, however, did not emanate from  \nrecognition of their expertise or familiarity with students academic capabilities; rather, it resulted  \nfrom ill-defined expectations, poor communication, and a lack of clear administrative policies.", 
  "Four specific conclusions were drawn from data.", 
  "First, participants were unaware of any administrative policies or social studies  \ndepartment guidelines detailing the course recommendation process.", 
  "As a result, they did not  \nhave an informed understanding of the system being utilized to assign students to classes.", 
  "Although this gap in communication provided a great deal of autonomy, it also resulted in  \n\n\fCOURSE PLACEMENT: UNDERSTANDING THE PROCESS  \n\nparticipants feeling disconnected from others in the school and reinforced the perception that  \ntheir recommendations did not actually influence students\u2019 course placements.", 
  "Second, participants utilized recommendation criteria they believed were best suited to  \ndetermine student success in high-track classes.", 
  "Descriptions of how criteria was selected and  \napplied confirmed participants had a tremendous amount of control over this decision-making  process.", 
  "While there was general agreement regarding the relevance of meritocratic criteria  when recommending placement, participants also acknowledged the importance of taking into  account non-meritocratic measures like motivation, interest in subject matter, and work ethic.", 
  "However, participants differed in how they defined these more subjective measures and which  should receive primary consideration when making decisions.", 
  "Contributing to this inconsistency,  \nparticipants did not rely on a pre-determined set of academic standards or assessments when  \nmaking decisions.", 
  "As a result, the criteria informing their recommendations was often selected  \narbitrarily and depended on the particular students being evaluated.", 
  "It can be argued that the  \nmethod participant\u2019s used to make recommendation was not consistent, fair, or accurate.", 
  "Third, because participants were unable to rely on school policies or social studies  \ndepartment guidelines when recommending placement, their decisions were weighted by  memories of being tracked in middle and high school.", 
  "Participants reported these memories  \ninformed their beliefs about the purpose of tracking and the advantages and disadvantages it  \nprovides for both teachers and students.", 
  "Lastly, when recommending placement, participants did not consider the long-term  \nimplications of their decisions.", 
  "While they all demonstrated a concern for their students  \nimmediate academic well being, they did not take into account the impact recommendations  \ncould potentially have on students\u2019 future educational trajectories.", 
  "This revelation is particularly  \ntroubling especially when considered within the context of research documenting the potential  \n\n\fCOURSE PLACEMENT: UNDERSTANDING THE PROCESS  \n\nimpact of course taking on high school academic trajectories (Kelly, 2008), college readiness and  \nenrollment (Adelman, 1999; Choy et.", 
  "al., 2000; King, 1996), and future employment and income  \n(Rose & Betts, 2004; Spring, 2009)  \nScholarly significance  \n\nFindings from this study can benefit classroom educators as well as college and  \nuniversity faculty preparing pre-service teachers.", 
  "First, encouraging teachers to consider the  potential impact of course recommendations will draw attention to the consequences of ability  grouping.", 
  "Although the study\u2019s findings may not alter teachers\u2019 perspectives about the need for  curricular tracking, it may persuade them to critically assess how their beliefs and school norms  influence the course placement process.", 
  "Recognition of these issues will draw attention to the  academic and social implications associated with curricular tracking.", 
  "Second, findings may encourage teachers to not only consider how ability grouping  \nimpacts students experience in school, but to also develop strategies to evaluate existing tracking  policies.", 
  "Oakes (1992) suggests, \u201cwhat educators say they need most is help in the form of  models\u2014well-defined, workable ways to organize and teach students without tracking\u201d (p. 17).", 
  "Conversations focused on re-thinking the course recommendation process would provide  meaningful opportunities for teachers to reflect on the purpose of tracking, its limitations, and its  drawbacks.", 
  "Third, findings may persuade teachers to begin conceptualizing educational performance  and academic potential from a longitudinal perspective.", 
  "Traditionally, teachers judge academic  capability within the context of individual classes and have little knowledge of whether a student  is succeeding or struggling in other academic classes.", 
  "Additionally, many students are never  engaged in meaningful conversations with teachers about the educational implications of their  \n\n\fCOURSE PLACEMENT: UNDERSTANDING THE PROCESS  \n\ncurricular choices.", 
  "One strategy for addressing this issue is to provide teachers with access to  data related to students\u2019 academic performance, course enrollment, and educational goals.", 
  "Because this information takes into account academic growth, individual potential, and personal  interests, it would be useful to consider when recommending academic placement.", 
  "Finally, this research may encourage faculty in teacher education programs to find  \nadditional ways to incorporate conversations about course placement into class discussions.", 
  "This  dialogue is often absent and consequently, beginning teachers have little knowledge or  understanding about the implications associated with tracking and spend little time considering  their beliefs about ability grouping.", 
  "Although graduate school cannot completely prepare  teachers for the numerous challenges they will likely encounter, it should, however, provide  exposure to important issues influencing the landscape of American education; how teachers  recommend academic placement of students is one of these critical issues."
 ]
}