{
 "document_id": "1169313.1", 
 "sentences": [
  "Investigating Factors Influencing Emotion Regulation in Math Homework  \nPurposes.", 
  "Homework typically evokes strong unpleasant emotional responses among  \nmany school-aged children across countries (Knollmann & Wild, 2007; Verma, Sharma, &  Larson 2002).", 
  "Indeed, for many children, doing homework becomes one of the most  disappointing aspects of school life (Cooper, 2006; Verma et al., 2002).", 
  "Yet, there have been  few attempts to systematically investigate a range of factors that influence students\u2019 emotion  regulation in homework (Knollmann & Wild, 2007; Xu, 2011).", 
  "Consequently, it would be  important to examine empirical models of emotion regulation in math homework for Chinese  students, particularly as Chinese students frequently surpass students in many other countries in a  series of international assessments of math achievement (Mull, 2014; Sellar & Lingard, 2013).", 
  "Perspectives.", 
  "In his model of emotion regulation, Gross (2002) has classified cognitive  change as one major family of emotion regulation strategies, which is defined as \u201cchanging how  we appraise the situation we are in to alter its emotional significance, either by changing how we  think about the situation or about our capacity to manage the demands it poses\u201d (Gross &  Thompson, 2007, p. 14).", 
  "Previous research has, however, largely focused on cognitive  reappraisal as one form of cognitive change (Gullone, Hughes, King, & Tonge, 2010), which  \u201cinvolves changing a situation\u2019s meaning in a way that alters its emotional impact\u201d (Gross &  Thompson, 2007, p. 14).", 
  "What has been overlooked is another form of cognitive change that  involves changing how we think about our capacity to manage emotion impact (i.e., emotion  management; Xu, Fan, & Du, 2016).", 
  "Recently, the study by Xu et al.", 
  "(2016) found that, in the context of middle school math  \nhomework, emotion management were empirically distinguished from cognitive reappraisal.", 
  "Furthermore, they were positively related to mastery and performance orientation, desirable  homework behaviors, learning strategies, and math performance in theoretically expected  directions.", 
  "Consequently, there is a critical need to examine models of factors that predict emotion  management and cognitive reappraisal, with the models informed by (a) research and theory on  emotion regulation (e.g., goals and self-concept; Diamond & Aspinwall, 2003; Pekrun, 2006)  and (b) findings from homework research that alluded to a number of factors that may influence  homework emotion such as adult monitoring (Trautwein, Ludtke, Schnyder, & Niggli, 2006) and  student attitude (Xu, 2011).", 
  "Methods and data sources.", 
  "Participants were 1,799 students in grade 10-11 (46 classes)  \nin southeast China.", 
  "Of these participants, 55.1% were female.", 
  "In the homework survey, students were asked to report (a) parents\u2019 education, from less  \nthan high school (6 years) to graduate degree (19 years), and (b) the frequency of family  homework help, from never (1) to routinely (5).", 
  "Furthermore, several multi-item scales were  applied in our investigation.", 
  "Teacher feedback.", 
  "Based on related literature (e. g., Trautwein et al., 2006), this scale  \nincluded three items to measure how much math homework was monitored by the teachers (\u03b1 =  .69; the amount of assignments being checked).", 
  "Reasons for doing homework.", 
  "This scale included three subscales (Xu, 2010): (a) peer- oriented reasons (3 items; \u03b1 = .67), concerning working with and seeking approval from peers;  (b) adult-oriented reasons (3 items; \u03b1 = .83), concerning seeking approval from teachers and  \nparents; and (c) learning-oriented reasons (9 items; \u03b1 = .90), concerning learning and reinforcing  math leaning and developing desirable study habits.", 
  "Homework environment.", 
  "This scale included five items to measure students' efforts to  structure homework environment (Xu, 2011), ranging from finding a conducive workspace to  locating materials for math homework (\u03b1 = .72).", 
  "Managing time.", 
  "This scale included four items to assess students' initiatives to plan  \nahead and to monitor time available for math assignments (\u03b1 = .76; Xu, 2011).", 
  "Monitoring motivation.", 
  "Four items measured students\u2019 efforts to enhance or sustain their  \nmotivation during math homework sessions (Xu, 2011; \u03b1 = .82), ranging from making  assignments more interesting for themselves to reassuring themselves for successful completion  of assignments.", 
  "Math self-concept.", 
  "Five items measured math self-concept, adapted from the work by  \nKnollmann and Wild (2007).", 
  "These items focused on the ability aspect of subject-specific self- concept beliefs (Eccles & Wigfield, 1995), knowledge and perceptions about one's ability in  math, math class, and math homework (\u03b1 = .83).", 
  "Emotion management.", 
  "This scale included three items (Xu et al., 2016; \u03b1 = .82), ranging  \nfrom up-regulating positive emotions (e.g., cheering myself up) to down-regulating unpleasant  emotions (e.g., not worrying about prior errors or mistakes).", 
  "Cognitive reappraisal.", 
  "Based on the literature on cognitive reappraisal (Gross, 2002), this  \nscale included three items (Xu et al., 2016; \u03b1 = .89), regarding reframing a negative stimulus in  less emotional ways (e.g., what I can learn from it).", 
  "For emotion management and cognitive reappraisal, multilevel analyses were conducted  \nto account for the nonindependence of observations by dealing with the variability associated  with nesting of students within classes (Raudenbush & Bryk, 2002).", 
  "To facilitate the  interpretation of the obtained regression coefficients, all continuous variables were standardized  (M = 0, SD = 1).", 
  "Two multilevel models were conducted, with emotion management and cognitive  \nreappraisal as the dependent variable.", 
  "Each model included twelve individual-level variables  (gender, prior math achievement, parent education, family help, teacher feedback, learning-,  adult-, and peer-oriented reasons, arranging the environment, managing time, monitoring  motivation, and self-concept) and four class-level variables (teacher feedback, parent education,  grade level, and self-concept).", 
  "Multilevel models in our investigation were random-intercept models, using full  \nmaximum likelihood.", 
  "Parent education, teacher feedback, and self-concept were centered at the  group mean.", 
  "Missing values ranged from 0.1% to 3.3%.", 
  "They were imputed using the  expectation-maximization.", 
  "Results and discussion.", 
  "Consistent with the previous findings (Xu et al., 2016),  \nconfirmatory factor analysis showed that emotion management and cognitive reappraisal are  separate yet related.", 
  "Compared with the one-factor model (i.e., emotion management and  cognitive reappraisal are factorially indistinct; CFI = 0.898; SRMR = 0.089; RMSEA = 0.154),  the two-factor model (i.e., they are factorially distinct) yielded a much better fitting model for the  data (CFI = 0.998; SRMR = 0.014; RMSEA = 0.026).", 
  "In Model 1, emotion management was the dependent variable.", 
  "The null model indicated  \nthat 6.3% of the variance in emotion management occurred at the class level.", 
  "Twelve student-level variables and four class-level variables were then included (see  \nTable 1).", 
  "As shown in Table 1, emotion management was positively associated with seven  student-level variables: monitoring motivation (b = .37, p < .01), learning-oriented reasons (b =  .18, p < .01), self-concept (b = .16, p < .01), arranging the environment (b = .12, p < .01),  managing time (b = .10, p < .01), teacher feedback (b = .06, p < .05), and prior math achievement  (b = .05, p < .05).", 
  "In addition, emotion management was negatively related to adult-oriented  reasons (b = -.07, p < .05).", 
  "Furthermore, emotion management was positively associated with  self-concept at the class level (b = .24, p < .01).", 
  "Overall, Model 1 explained 35.2% of the  variance in emotion management at the student level, 79.5% of the variance at the class level,  and 38.0% of the total variance.", 
  "_______________________  \nInsert Table 1 about here  \n_______________________  \nIn Model 2, cognitive reappraisal was replaced as the dependent variable.", 
  "The null model  \nrevealed that 2.1% of the variance in cognitive reappraisal occurred at the class level.", 
  "Twelve student-level variables and four class-level variables were introduced (see Table  1).", 
  "Cognitive reappraisal was positively associated with five student-level variables: monitoring  motivation (b = .31, p < .01), learning-oriented reasons (b = .18, p < .01), self-concept (b = .13, p  < .01), managing time (b = .9, p < .01), and teacher feedback (b = .05, p < .05).", 
  "In addition,  cognitive reappraisal was positively related to two-class level variables: parent education (b =  .20, p < .05) and self-concept (b = .16, p < .05).", 
  "Overall, Model 2 explained 24.6% of the  variance in cognitive reappraisal at the student level, 99.3% of the variance at the class level, and  26.6% of the total variance.", 
  "The results that emotion management and cognitive reappraisal were positively  \nassociated with monitoring motivation, managing time, and teacher feedback are consistent with  emotion regulation literature (Corno, 2004; Op\u2019t Eynde & Turner, 2006).", 
  "They are also  consistent with the findings regarding the importance of these three variables on homework  emotion management with US students (Xu, 2011).", 
  "Whereas theoretical models conceptualize self-concept as a proximal antecedent of  \nemotional experiences (e.g., to affect achievement emotions; Goetz et al., 2012; Pekrun, 2006),  few studies have explicitly linked self-concept to emotion regulation.", 
  "Thus, the current study  extends prior research, by lending empirical support to the association between self-concept and  emotion regulation (emotion management and cognitive reappraisal).", 
  "Furthermore, our investigation lent empirical support for the theoretical expectations  \nconcerning the influence of goals on emotion regulation (Diamond & Aspinwall, 2003) in that  learning-oriented reasons was positively related to emotion management and cognitive  reappraisal.", 
  "What is intriguing is that learning-oriented reasons was not related to emotion  management with US students (Xu, 2011).", 
  "In addition, whereas peer-oriented reasons was  positively associated with emotion management with US students (Xu, 2011), they were not  related in the present study.", 
  "Meanwhile, whereas adult-oriented reasons was negatively  associated with emotion management in the current investigation, they were not related with US  students (Xu, 2011).", 
  "One possible explanation for less apparent role of peer-oriented reasons on emotion  \nmanagement is that education system in China is quite competitive following nine-year  \ncompulsory education, competition for a spot at universities may lead to competition against  peers (Chen, 2008).", 
  "This competitiveness may undermine the role of peers for Chinese students,  with homework in particular.", 
  "Meanwhile, Chinese culture places a higher value on educational  activities (Ho, 1994), with a special emphasis on effort over ability (Chen & Uttal, 1988).", 
  "Thus,  it seems logical that the linkage between learning-oriented reasons and homework emotion  management is more apparent for Chinese students than for US counterparts.", 
  "How do we make out of the results that adult-oriented reasons was negatively associated  with emotion management with Chinese students, whereas these variables were not related with  US students (Xu, 2011)?", 
  "As Chinese culture places a higher value on education and academic  achievement (Wang, 2004), as Chinese parents' involvement is closely associated with their  control (Cheung & Pomerantz, 2011), Chinese students with higher adult-oriented reasons are  more likely to feel external pressure from adults to do well in homework.", 
  "Such external pressure  may adversely affect them (e.g., higher academic stress), making them less apt to take initiatives  to manage their homework emotion.", 
  "Educational significance.", 
  "The findings that emotion management and cognitive  \nreappraisal are empirically distinguishable suggest that there is a critical need to focus on both  types of emotion regulation strategies in homework.", 
  "As thinking explicitly about regulating  emotions was a novel experience for many younger adults (Gross, Richards, & John, 2006), it  would be important for high schools to make a more deliberate effort to assist students better  understand and apply these two forms of cognitive change in the homework process.", 
  "The results that learning-oriented reasons was positively associated with both emotion  management and cognitive reappraisal suggest that it would be important for teacher to make  homework more purposeful and meaningful to Chinese students.", 
  "In addition, as monitoring  motivation plays a predominant role in emotion management and cognitive reappraisal (i.e., the  regression coefficient for monitoring motivation was approximately twice as big as the next  largest predictor in each model), it would be particularly important for parents and teachers to  guide and to assist students to sustain homework motivation among other after-school activities,  activities that they may be not able to anticipate in advance or do not have direct control.", 
  "Finally, our investigation bridges a gap between large bodies of emotion regulation  research and self-concept research, in the context of homework.", 
  "The findings regarding the  importance of math self-concept on emotion management and cognitive reappraisal suggest that,  to help students to use emotion regulation strategies, teachers and parents need to pay close  attention to enhancing students\u2019 math self-concept (e.g., providing individualized attention to  help build their math skills, and assisting them to make appropriate self-attributions)."
 ]
}