{
 "document_id": "1169770.1", 
 "sentences": [
  "AERA Paper Proposal:  San Antonio, TX  2017  \nAn Indigenous-University Partnership:  How Universities Can Provide Equal Access to  \nTeacher Preparation for Indigenous Communities  \n1.", 
  "Objectives or purposes  \nThe purpose of this presentation is to share developing understandings from a  phenomenological study, which includes interviews of 15 co-researchers who have been  integral in the work of this Pueblo-University partnership in order to determine just what  elements were present to result in such success.", 
  "Co-researchers representing both the  Pueblo School District and the University will present results.", 
  "Pueblo:  Engaging Teachers and Community (PETAC) is a partnership funded by the  W.K.", 
  "Kellogg Foundation between a University and a Pueblo Public School District  (PPSD).", 
  "PETAC is completing its third year, and funding for an additional year is  currently being requested.", 
  "PETAC takes a blended approach toward teacher professional  development by grounding the instruction in culturally sustainable pedagogy (McCarty &  Lee, 2014) in order to create a solution for Indigenous communities dealing with how to  create strong curriculum that balances local Indigenous culture with the wider need for  Western knowledge and skills.", 
  "To this end, the project established five goals:    \na) Provide a social and cultural orientation for current and future teachers in the  Pueblo; b) Reestablish a sense of empowerment among principals and teachers;   c) Facilitate collegial and collaborative work across the district;   d) Recruit current Pueblo students to become teachers; and   e) Provide educational opportunities through support for teachers and future  teachers to obtain graduate and undergraduate degrees.", 
  "The hope of the project has been to provide a strong core of professional development  and new teacher cultivation that can serve as a foundation for the long-term development  of the Pueblo schools and the Pueblo itself.", 
  "2.", 
  "Perspective(s) or Theoretical Framework  \nExclusionary practices of formal education systems often fail to meet the needs of  Indigenous populations.", 
  "When insiders in Indigenous communities are excluded from  decision making, curriculum design, selection of teachers, selection of teaching methods,  and definition of standards, and when Indigenous worldviews, knowledge systems, and  ways of knowing are not recognized, and educational needs of Indigenous students and  \n\fcommunities are not met (Saunders, 2012).", 
  "Indigenous culture must be used to teach  children rather than teaching children about their Indigenous culture.", 
  "Bicultural partnerships between Indigenous and non-Indigenous groups can be effective,  but they must preserve the integrity, prestige, and authority of Indigenous cultures.", 
  "True  collaboration between cultural insiders and outsiders in the context of culturally  responsive research and evaluation methodology includes breaking down walls that have  been created by a history of exclusion, control, harm, and influence in Indigenous  communities (Demmert, 2005).", 
  "3.", 
  "Methods, techniques, or modes of inquiry  \nWe employed (and are employing) collaborative phenomenology using long interviews to  reach the essence of this experience for the co-researchers.", 
  "We chose phenomenology as  our research methodology because phenomenology is the study of lived experiences.", 
  "In  phenomenology researchers conduct studies with several individuals to explore a  particular concept or phenomenon (Creswell, 1998; Moustakas, 1994; van Manen, 1990).", 
  "In phenomenology, researchers seek to discover the essence of the experience for the  participants (Creswell, 1998).", 
  "Edmund H\u00fcsserl (as cited in Moustakas, 1994), one of the  early founders of phenomenology, believed that any phenomenon can be a beginning for  investigation.", 
  "The phenomenon researched in this study is the Pueblo-University  partnership (PETAC) and the factors that have resulted in its success.", 
  "We are currently collecting data by conducting one long interview with each co- researcher.", 
  "Each co-researcher chooses the location of his or her interview, thus  increasing comfort levels during the interviews.", 
  "In order to allow for reflexivity, we are  conducting reflexive dyadic interviews so we can include our own personal experiences  and reflections during the data collection process.", 
  "In this format, the interview is more  conversational, as between two equal parties.", 
  "The interviewer is allowed to share  personal experiences and thoughts during the interview not only to help establish rapport,  but also to participate in the disclosure of personal experiences and details (Gubrium &  Holstein, 1997).", 
  "The final product of such reflective dyadic interviews \u201cincludes the  cognitive and emotional reflections of the researcher, which add context and layers to the  story being told about participants\u201d (Ellis & Berger, 2002, p. 854).", 
  "4.", 
  "Data sources, evidence, objects, or materials  \nData sources for this study are 15 co-researchers who fit into one or more of the  following categories:  a) Pueblo School District Administrative Leaders, b) Pueblo  School District Teacher Leaders, c) University Faculty, d) University Leaders.", 
  "Long  interviews are in the process of being conducted to obtain data regarding this Pueblo- \n\fUniversity partnership.", 
  "Transcriptions will follow, including analysis through coding of  themes (Moustakas, 1994).", 
  "5.", 
  "Results and/or substantiated conclusions or warrants for arguments/point of view  \nPreliminary findings indicated that when provided the opportunity to co-plan with  educational leaders, teachers, community members, and educational assistants, we can be  partners impacting classroom instruction.", 
  "By providing the tools of effective instructional  strategies to the cultural experts, participants are empowered to create relevant lessons in  their classrooms.", 
  "The opportunity to partner with cultural relevance and rigor resulted in  meaningful, culturally appropriate, community-grounded learning in classrooms has  changed our practice as teacher educators.", 
  "6.", 
  "Scientific or scholarly significance of the study or work  \nThe significance of the results of this phenomenological study is emerging as we  continue to interview and code for themes.", 
  "This work is framed within working with  diverse learners who teach PK-12 Indigenous students and framed within our  development as teacher educators working in an institution that places more value on  \u2018western knowledge\u2019 and less value, in practice, on Indigenous knowledge.", 
  "The  importance of listening and learning from the Pueblo members, understanding their  needs, then seeking ways to meet those needs in a culturally appropriate, respectful way  is significant."
 ]
}