{
 "document_id": "1170418.1", 
 "sentences": [
  "Deliberative Curriculum Innovation as Boundary Crossing   \nManfred Lang,  IPN, Kiel, Germany.", 
  "langmanfred@gmail.com  \nAbstract  \nCurriculum innovation has become increasingly mandated and controlled by accountability  measures.", 
  "The alternative to be analysed here is deliberative innovation as collaborative  process.", 
  "It leads to the research question about how deliberative settings for eliciting  pedagogical innovation beyond boundaries, was realized in practice and with what kind of  effects.", 
  "As a basis for analysis we used evidences from the European project XXXX.", 
  "The  setting for each case study took into account the boundary crossing elements in activity theory  (Engestr\u00f6m, 2001): subjects from different communities, sharing meaning about objects, using  mediating artefacts and rules.", 
  "The ten national projects used different collaborative settings  shaping schools' norms, values and practices for innovation in teaching and teacher  professional development.", 
  "Key words: deliberation, boundary crossing, teacher professional development, science  education  \n\fPurpose of the study  \nCurriculum innovation has become increasingly mandated and controlled by accountability  measures and standards in official policy rhetoric (Ball, 2012).", 
  "Research-based models for the  improvement of learning and teaching in schools are proclaimed, that try to impose theoretical  approaches on teacher education.", 
  "In this way teachers should gain competencies for  innovation.", 
  "Teachers in this system are part of an implementation for the realization of pre- described standards or theories.", 
  "Already in 1970 Schwab criticized the reliance on such  theoretical constructions because they are in his opinion inappropriate to problems of actual  teaching and learning.", 
  "As an alternative for educational decisions he proclaimed the method  of deliberation of practical problems.", 
  "Recently Connelly (2013) was similarly concerned  about the use of formal standards and achievements as a \"flight from the field\" of curriculum  policy.", 
  "The alternative to be analysed here is a framework for deliberative innovation.", 
  "This requires  new public spaces for teacher engagement to professionally collaborate with discursive rules  across the continuum of teacher education.", 
  "It leads to the research question in this study about  how deliberative settings, designed by teacher educators for eliciting pedagogical innovation  beyond boundaries, were realized in practice and with what kind of effects.", 
  "Theoretical background  \nAs a basis for analysis we develop arguments and use evidences from the European project  CROSSNET (Crossing Boundaries in Science Teacher Education) in favor of a pedagogical  turn toward deliberative curriculum innovation as boundary crossing that is in contrast to the  mentioned official contemporary policy of accountability measures for improvement.", 
  "Curriculum innovation is deliberative in the sense of Schwab (2013), if decisions in school are  primarily guided by practical principals of complex and concrete problems and less of applied  theoretical principals.", 
  "It requires \"the formation of a new public and new means of  communication among its constituent members\" (p. 618).", 
  "Such a \"new public\" is open to a  variety of actors that need to detect and justify alternatives in a democratic public space  without boundaries.", 
  "Deliberation for curriculum innovation focuses on a process of shared meaning making,  defined by boundary crossing in activity theory (Engestr\u00f6m, 2001).", 
  "Activity theory seeks to  analyse the complexity of relations, customs, beliefs, practices, norms and values when  different communities of practice interact in multi-disciplinary and multi-level interactions,  such as, found when teacher educators and teachers meet in boundary crossing spaces for  shared understandings, trust and moral capacities to critique and work productively together.", 
  "In essence, it is this (re)working of contradictions and dissonances that is the driver of  innovation (Postholm, 2015; Xing et al., 2014).", 
  "Key components within a system of activity are represented as triangles with subject-object  relations at the centre.", 
  "A complete system consists of all possible relations between a subject,  belonging to a community, dealing with an object of an intended activity, using artefacts or  tools for this activity and recognizing rules and division of labour (Figure 1).", 
  "MEDIATING  ARTEFACTS  \nboundary   object 2  \nboundary   object 2  \nOBJECT 1  \nOBJECT 1  \n\nCOMMUNITY  \nDIVISION OF  \nDIVISION  OF LABOR  \nOBJECT 3 as shared   \nFigure 1: Two interacting activity systems as minimal unit of analysis for expansive design  (Engestr\u00f6m, 2001, p. 131)  \nmeaning making  \nIn activity theory different components are challenging innovation that takes place in a  process of boundary-crossing between schools and other educational institutions, such as,  school university partnerships.", 
  "In the following analysis these components are introduced in a  newly conducted reanalysis of the project CROSSNET (Hansen et al., 2012).", 
  "Method of case studies  \nThe CROSSNET project followed a case study approach with ten national case studies in  seven European countries (Austria, Denmark, Germany, Poland, Ireland, Portugal and Spain).", 
  "Each case study was organized and maintained by a national coordinator.", 
  "They developed a  case study design and agreement about the procedures for the selection of project schools,  development of a collaborative setting in these schools, data collection, documentation and  reports.", 
  "In each case study, teachers from two to four secondary schools participated in the  project.", 
  "These teachers and the coordinator from each case study engaged in deliberative  communication across boundaries according to the agreement in the project.", 
  "The setting for each case study took into account the elements for boundary crossing in  activity theory: teachers, student teachers, experienced in-career teachers, beginning teachers,  teacher educators, researchers and other educational actors were viewed as subjects from  different communities, sharing meaning about different objects for science and mathematics  teaching, using different mediating artefacts and rules.", 
  "The discursive practices for  deliberation are ascribing rules of discursive ethics for boundary crossing, based on equal  partnership, not to exert power, to find a consensus and to be honest (L\u00f6wisch, 2000).", 
  "The  aim of the case studies was to elicit teachers\u2019 innovative practices in these settings.", 
  "In CROSSNET the national case studies were analyzed and described by each of the  coordinators using qualitative and quantitative methods.", 
  "In addition to these national results  cross-national interviews and questionnaire inquiries were conducted.", 
  "Two instruments in three partly overlapping samples with 44 schools and 132 teachers were  employed to collect cross-national data.", 
  "SUBJECT MEDIATING ARTEFACTS COMMUNITY \fThe first instrument was a telephone interview, conducted at an early stage of the project.", 
  "The  intention was to get basic data about the background projects in each country and to elaborate  the aspects relevant for boundary crossing.", 
  "These were the categories used for the interviews:  approaches and curricular perspectives of background projects, communities of practice,  boundaries, boundary objects, boundaries crossing and collaborative settings.", 
  "The second instrument was a teacher questionnaire, completed by 33 contracted CROSSNET  teachers.", 
  "It used a series of rating scales about teachers\u2019 collaborative practice, observed  outcomes and the respective school context.", 
  "The ten national projects used different settings for meetings in different groups, mediating  tools and concepts of boundary crossing exemplifying innovative processes in teaching and  teacher professional development.", 
  "In Germany three project partners were developing concepts and research questions about  integration of science subjects, learning of Biology in context and introduction of standards in  science education.", 
  "In different groups experienced teachers or student teachers with different  science subjects were cooperating with teacher educators, educational researchers or heads of  subject departments.", 
  "In Austria different schools cooperated in one study about language  awareness as a boundary crossing event for science teaching and in another study about action  research in university courses for changing the culture of teaching.", 
  "In Denmark teachers from  different schools came together for the conduct of science fares or museum visits, supported  by the teacher training institute CVU, administrators, technicians and university teachers.", 
  "In  Ireland a number of Curriculum Workshops were held with teachers, teacher educators,  researchers and policy leaders to engage in a critical discourse with regard to using school- university partnership as a boundary crossing vehicle for the continuing education and  professional development of student teachers, beginning teachers and experienced teachers.", 
  "In  Poland two partners from Chemistry and Biology education cooperated in school-based in- service courses for integrated teaching of science subjects.", 
  "Teams of teachers developed  integrated science units at their schools in cooperation with the educational department of the  university.", 
  "In Portugal ICT was a tool for boundary crossing towards active learning about  chemical equilibrium.", 
  "Student teachers cooperated with experienced teachers about the  improvement of active learning in chemistry, trying to overcome traditional passive  disciplinary learning.", 
  "The cooperation was supported by the ICT platform EquilibrAction,  maintained by the university.", 
  "In Spain boundary crossing was studied as part of the project  Material Science as a school university - partnerships.", 
  "Cross-case analyses provided evidence about partially successful settings for boundary  crossing and innovation in teacher education.", 
  "Data from the questionnaire specified the  collaborative climate in the school as a basic pre-condition for educational change.", 
  "Teachers  regularly met with colleagues and principals.", 
  "Researchers and teacher educators from the  university, partners from in-service education and colleagues from other schools in a few  cases collaborated regularly with the teachers of the project.", 
  "Only few teachers collaborated  with policy makers and educational administrators.", 
  "As a result teachers increasingly engaged  in dialogue with colleagues for higher order curriculum planning that went beyond the day to  day survival.", 
  "The predictors for collaboration among teachers of a school were similar as in the mentioned  study of Sawyer et al.", 
  "(2007).", 
  "Collaboration was judged to be of high importance in  accordance with above average ratings especially of activities for shaping the schools\u2019 norms,  \n\fvalues and practices with colleagues, cooperative efforts, mutual support and active planning  at their school (Table 1).", 
  "Table 1: Mean ratings from 33 teachers of issues about a collaborative context in CROSSNET  on a four point scale, adapted from the \u2018Teacher sense of school community scale\u2019 of Sawyer  et al.", 
  "(2007).", 
  "(Source: Hansen et al.", 
  "2012, p.57)   \nCollaborative context   \nIn my school there is a feeling that everyone is working together toward common  \nThe governing body of the school supports teacher initiatives  \nTeachers take an active role in planning at this school  \nTeachers are supportive of one another  \nThere is a great deal of cooperative effort among staff members  \nTeachers frequently consult with and help one another  \nWe as teachers take a major role in shaping the school's norms, values and  practices  \nIn spite of the positive view of collaboration different barriers were observed, especially time  and work load, organizational problems and diverging norms.", 
  "Nevertheless these barriers did  not prevent boundary crossing in favor of the innovative CROSSNET approach.", 
  "More than  50% of the teachers acknowledged at the end better communication among colleagues, an  improvement of diversity of teaching methods and more collaborative curriculum planning of  integrated science (Hansen et al.", 
  "2012, p.62).", 
  "Conclusions  \nWe see in these studies that the process of educational change requires new skills and roles  for teachers, teacher educators and others, which lie beyond a specific classroom level and  involve crossing boundaries in collaboration between different communities of practice.", 
  "This  focus on interacting communities is a new way of looking at educational change as a process  of shared meaning making.", 
  "Changes in this sense are not primarily a result of technical  planning but of changes in a context of socio-cultural dynamics in the school system.", 
  "This  implies far reaching consequences for innovation.", 
  "Deliberative innovation requires boundary crossing of different communities in public space  to move practice beyond existing boundaries and practices.", 
  "A consistent driving factor in  every of the cases was the interaction of engaged teachers with a university or research and  development institution.", 
  "Teachers in the projects became agents of change and activist  professionals through these collaborative partnerships crossing narrow school boundaries.", 
  "This is not usual in many schools, where teachers often work in isolated private spaces of  their classrooms and collaborate in informal contexts as a result of spontaneous conversation  and seldom with formal rules on more teacher-oriented topics (Sawyer et al., 2007).", 
  "If we have a reform of the science curriculum in mind that is based on deliberation and  settings for boundary crossing, we need to continuously support a culture of teacher  collaboration in local initiatives for collaboration that expand to a wider network."
 ]
}