{
 "document_id": "1170611.1", 
 "sentences": [
  "\nRunning Head: MTSS IN URBAN SCHOOLS   \n\nMulti-tiered System of Supports (MTSS): Teachers in Urban Schools Speak Up  \nGina Braun, Skip Kumm, Christerallyn Brown, Samantha Walte, Daniel M. Maggin, Marie  \nTejero Hughes  \nUniversity of Illinois at Chicago  \nAbstract  \nDespite multi-tiered systems of support (MTSS) being implemented across the country  \nfor more than decade, practitioners are continuously challenged with implementing the  \nframework to successfully meet the academic needs of their students.", 
  "This exploratory  \nqualitative study aimed to examine the perspectives of educators in high-need urban schools  \nregarding the implementation of academic MTSS.", 
  "Nineteen educators were interviewed,  \nincluding special, general, and bilingual educators, reading specialists, and MTSS coordinators.", 
  "The interviews were analyzed to identify teachers\u2019 general understanding of the MTSS process  \nand how clear they felt it was, interventions used at the different tiers, and successes and  \nchallenges they faced with MTSS.", 
  "Two major themes emerged while educators discussed the  \ndifficulty of implementing MTSS in urban settings: (a) due to frequent changes in school-wide  \nMTSS implementation, educators felt confused about the process and (b) educators thought Tier  \n2 interventions were effective for students needing limited assistance, but schools struggle to  \nintensify interventions for non-responders.", 
  "Further research should be conducted to provide  \neducators in high-need urban settings with high-quality and evidence-based practices.", 
  "MTSS IN URBAN SCHOOLS   \nMulti-tiered Systems of Support (MTSS)   \n\nMTSS models have been used in schools for decades, but became an integral part of the  \nnationwide conversation on education in 2004 as a part of a revision to IDEA (Fuchs & Fuchs,  \n2006).", 
  "MTSS provides a data-driven process that helps educators identify struggling students,  \nand provides targeted interventions in their current educational setting to help prevent them from  \nfalling further behind (Sugai, & Horner, 2009).", 
  "MTSS has created a framework in schools that  \nguide administrators and educators to make databased decisions and monitor student  \nachievement on targeted skills, thereby increasing instructional supports and positive outcomes  \nfor students (Cusumano, Algozzine, & Algozzine, 2014).", 
  "Challenges to successful MTSS   \nHigh-poverty urban settings can present inherent challenges to successful MTSS,  \nincluding a large, densely-populated student body with more frequent academic and behavioral  \nneeds; frequent staff turnover; underqualified teachers; and inefficient structural and  \nadministrative systems (Steinberg, 2010).", 
  "Even in urban schools with MTSS systems in place,  \noutcomes for students are not positive, indicating a need for deeper knowledge about how to  \nmake MTSS work in complex urban settings (Balu, Zhu, Doolittle, Schiller, Jenkins, & Gersten,  \n2015; Maier et al., 2016).", 
  "Little research is available that focuses on how schools are  \nimplementing MTSS, particularly in urban schools (Greenfield et al., 2010).", 
  "Thus, for this study,  \nwe wanted to learn from educators about the implementation of Tiers 2 and 3 in MTSS for  \nacademics in urban schools.", 
  "In particular, we were interested in how urban elementary educators  \nperceived their school's MTSS process.", 
  "AERA\t\r \u00a02017\t\r \u00a0 \nMethods and Data Sources  \nMTSS IN URBAN SCHOOLS   \n\nParticipants.", 
  "Educators across nine urban school districts were contacted by email about  \nparticipating in an interview regarding their experiences with MTSS.", 
  "This study purposefully  \nincluded K-5 school districts in which a minimum of 60% of the students were low-income, and  \n75% were from underrepresented groups.", 
  "In total, 19 general and special education teachers  \nassociated with their schools MTSS participated in the study (one participant withdrew after the  \ninterview).", 
  "Six of the participants taught special education and 13 taught general education.", 
  "Interviews.", 
  "Semi-structured interviews were conducted to determine how teachers of  \nhigh-needs urban youth perceive the clarity of the implementation process of Tiers 2 and 3 in  \nMTSS for academics in grades K-5.", 
  "Researchers asked six open-ended questions about their  \ngeneral knowledge of the MTSS process at their school and their perception of its clarity,  \nsuccessful and unsuccessful MTSS cases, and a description of the process when a student  \ntransitions from one tier to another.", 
  "During the interview, researchers followed up with one or  \ntwo probes to build a deeper understanding of teachers\u2019 perspectives.", 
  "Researchers then  \ntranscribed the conversations and, to ensure validity, conducted member checks by sending  \nparticipants transcriptions of the interview, so they could review and make changes as needed.", 
  "Data Analysis.", 
  "Data from interviews were gathered and coded using constant  \ncomparative methodology, which was done by categorizing participant\u2019s actions and events such  \nas their roles in the MTSS process and their understanding of moving students through tiers  \n(Miles, Huberman, & Salda\u00f1a, 2014).", 
  "Findings   \nTwo major themes emerged when educators discussed MTSS in urban settings.", 
  "First,  \ndue to frequent changes in school-wide MTSS implementation leave educators confused.", 
  "Second, educators expressed that schools struggle to intensify interventions for non-responders.", 
  "AERA\t\r \u00a02017\t\r \u00a0 \nMTSS IN URBAN SCHOOLS   \nFrequent Changes Lead to Confusion  \n\nWhen asked to describe how well the educators in her school understood the MTSS  \nprocess, Ms. Davis stated, \u201cThey don\u2019t know because, being in an urban school, you get a lot of  turnover.\u201d  Ms. Perez described learning about her schools MTSS flow chart in her orientation,  only to discover most of the people left the school several years prior.", 
  "Many other educators also  \nreported new initiatives being rolled out on a yearly basis.", 
  "Challenges to delivering urban MTSS.", 
  "\u201cThis year was kind of an overhaul from last  \nyear, in that all the interventionists and all the teams were dismantled\u2026so we had to start from  \nscratch,\u201d Ms. Moore said when describing her school\u2019s newly redesigned MTSS process.", 
  "Several other educators also expressed frustration due to frequent structural changes in their  \nschool\u2019s process, including schools changing intervention tools, and variations in which  \neducators delivered the intervention.", 
  "Educators also expressed concern regarding insufficient  \ncommunication when administrators made school-wide changes.", 
  "Ms. Smith stated, \u201cI think it is a  \nlittle bit ambiguous, there are a lot of changes structurally, and a lot of time communication from  \nthe top doesn\u2019t get translated to the bottom.\u201d   \nEducators describe confusion.", 
  "Collaboration among educators was another issue  \nfrequently discussed.", 
  "Specifically, teachers were frustrated with the clarity of general education  \nteacher\u2019s involvement in Tier 2 and ongoing interactions between special educators and general  \neducators.", 
  "Without meaningful collaboration, some educators view the process as being vague.", 
  "Ms. Smith described it as, \u201cWe need an outline for us educators to follow that makes it clearer  \nand what steps to follow.\u201d   \nLiving in Tier 2  \nAERA\t\r \u00a02017\t\r \u00a0 \nMTSS IN URBAN SCHOOLS   \n\nWhen describing successful MTSS stories, educators often said the process was most  \neffective for students needing small group instruction or a little extra time targeting a specific  \ndeficit.", 
  "However, when asked to describe a time MTSS was unsuccessful, most educators shared  \nan experience about a student spending extended time in Tier 2.", 
  "Educators either did not have  \nthe knowledge to intensify interventions, lacked sufficient resources, or their school did not have  \na clear process to transition students to more intensive interventions in Tier 3.", 
  "Additionally,  \nmany educators expressed frustration about special education not fitting into their schools MTSS  \nprocess.", 
  "Confusing or nonexistent transition process.", 
  "A majority of the educators thought their  \nschool\u2019s process for transitioning students from Tier 2 to Tier 3 had considerable obstacles or, in  \nsome cases, was completely absent.", 
  "Ms. Ross specifically identified transition from Tier 2 to  \nTier 3 as the point where her schools MTSS process breaks down.", 
  "Educators felt there was a  \nlack of clarity in their school\u2019s system for intensifying intervention programs, insufficient  \nresources, and insufficient training on providing students with intensive interventions when not  \nresponding in Tier 2.", 
  "Many educators mentioned that once a student enters Tier 2, regardless of  \nwhether the interventions are successful, the students sometimes stay there for months or even an  \nentire school year.", 
  "Ms. Williams said, \u201cThe students have to have at least three or four meetings  \nbefore that happens...and I think it\u2019s like months of not showing any improvement before they  \ncan even have a meeting to discuss any other interventions.\u201d    \nTier 2 works for students with less intensive needs.", 
  "Most educators thought the MTSS  \nprocess was successful for students requiring Tier 2 interventions but not for students who need  \nmore intensive interventions.", 
  "For instance, several educators gave examples of their students  \nreceiving extra supports and services in Tier 2, and as a result, transitioning back to Tier 1  \nAERA\t\r \u00a02017\t\r \u00a0 \nMTSS IN URBAN SCHOOLS   \n\nservices.", 
  "No educators cited Tier 3 interventions or supports when asked to provide a successful  \nMTSS experience, although two educators mentioned referrals to special education as positive  \noutcomes.", 
  "Separation of special education from the MTSS process.", 
  "Although special and  \ngeneral educators have critical roles and shared responsibilities within the MTSS framework,  \neducators in this study said there were significant discrepancies over their roles and a lack of  \nclarity in how collaboration between these educators should look.", 
  "Some educators stated  \nstudents in Tier 3 only receive services from special education teachers and others stated students  \nrequiring an IEP leave their school\u2019s MTSS system.", 
  "In several cases, general and special  \neducators stated their schools\u2019 MTSS process did not follow students referred for special  \neducation services, and as a result, the students received fewer services than they were receiving  \nin Tier 2.", 
  "Special educator Ms. Drake said, \u201cAny tiered service they were getting just goes  \naway, and I become their service.\u201d   \nScholarly Significance  \nEducators need more effective tools for reaching students with severe and persistent  \nlearning needs.", 
  "There is an increasing wealth of research about evidence-based practices  \n(Horner et.", 
  "al., 2005), but researchers need to find better ways to get those practices into  \nclassrooms.", 
  "To do so, researchers need to determine the causes of the research-to-practice gap  \nand how to improve the reach and fidelity of the practices.", 
  "Both in the large-scale scope of a  \nschool-wide MTSS process and in the specific evidence-based practices used for students with  \nintensive needs, researchers need to look at how to consistently get these strategies to students.", 
  "Since urban settings present their own unique challenges that presumably contribute to  \nthe gap, more research should be conducted to determine how to get quality interventions to  \nAERA\t\r \u00a02017\t\r \u00a0 \nMTSS IN URBAN SCHOOLS   \n\neducators and students in high-need settings.", 
  "The lack of a cohesive definition of \"urban\" has  \ncontributed to the paucity of research that truly addresses the issues the word implies.", 
  "Within  \nand outside of the realm of special education, more research needs to be done to determine what  \nfactors occurring in urban settings are truly having the biggest influence on education.", 
  "Over just the last decade, MTSS has become a staple of the elementary school system and  \nnow the challenge is to make it better (Burns, Jimerson, VanDerHeyden, & Deno, 2016).", 
  "It has  \nbeen helpful in identifying students who are struggling and getting them increased assistance  \nbefore they fall too far behind.", 
  "However, students with the most severe and persistent learning  \nneeds in urban settings are not being served by MTSS (Gamm, Elliott, Halbert, Price-Baugh,  \nHall, Walston, Uro, & Casserly, 2012).", 
  "Especially high-need urban settings, the challenges to  \neffective MTSS can be many, as such, it is important for the field to continue to do research that  \ndelivers quality education and services to all kids, including those with intensive needs in under- \nresourced school.", 
  "AERA\t\r \u00a02017\t\r \u00a0 \nMTSS IN URBAN SCHOOLS"
 ]
}