{
 "document_id": "1170553.1", 
 "sentences": [
  "The Behavior Intervention Support Team (BIST): Observations from the Field  \nRaol J. Taft  \nUniversity of Missouri-Kansas City  \nDaesik Lee  \nGyeongin National University of Education  \nRita Barger  \nUniversity of Missouri-Kansas City  \n\fIntroduction  \nThe field of education has a history of swinging from one unproven practice to another  \npractice (Cuban, 1990; Mostert & Crockett, 2000; Slavin, 1989).", 
  "In many cases regulations have  \npushed the field harder toward the side of proven practices.", 
  "For instance, the No Child Left  \nBehind (NCLB) Act of 2001 introduced the movement towards evidence-based practices.", 
  "Since  \nthen, the field of special education, in particular behavior management, also attempted to move  \ntowards the use of evidence-based practices (EBP) by classroom teachers (Carnine, 1994; Cook  \n& Odom, 2013; Horner, Carr, Halle, McGee, Odom, & Wolery, 2005).", 
  "To implement EBP is not  \nonly a way to meet legal obligations, but also a way to ensure educational accountability.", 
  "The  \nIndividual with Disabilities Education Act (IDEA), 2004, strongly urged the use of scientifically  \nbased instructional practices to guarantee that students with disabilities have \u201cthe skills and  \nknowledge necessary to improve the academic achievement and functional  \nperformance.\u201d(Section 1400(c)(5)(E))  \nThe U. S. Department of Education's Institute of Education Sciences (IES) states the field  \nof education in the United States contains a huge assortment of educational interventions that  \nclaim to improve various educational outcomes.", 
  "Many of these interventions state they are based  \non and supported by evidence.", 
  "However, the IES notes that these interventions often consist of  \npoorly-designed and/or advocacy driven studies.", 
  "Specifically, the Coalition for Evidence Based  \nPolicy (CAEP), 2003, notes that, in many instances, educators have implemented interventions  \nwhich claim they are able to produce dramatic gains but which actually produce little in the way  \nof lasting and positive change.", 
  "CAEP notes the need to provide practioners with the tools to be  \nable to identify evidence-based practices.", 
  "The Council for Exceptional Children (CEC) also understands the need for practitioners  \n\fto be able to understand and identify evidence-based practices and has developed standards for  \nidentifying evidence-based practices (CEC, 2014).", 
  "Both CEC and CAEP have guidelines for  \ndetermining whether a practice is scientifically based, research based, or evidence-based.", 
  "Freeman and Sugai (2013) also note that teachers often have a difficult time understanding and  \nbeing able to discern what is and what is not evidence based best practices.", 
  "Kretlow and Blatz  \n(2011) looked at the definitions and descriptions of educational practices as described in CAEP  \n(2003) and CEC (2014) and discuss in detail the differences between these terms and specifically  \nstate that teachers need to understand there are differences between scientifically-based,  \nresearch-based, and evidence-based practices.", 
  "Scientifically-based is a term which requires three quality indicators (systematic cause- \nand-effect research design using observable, measurable outcomes, replication by other  \nscientists, and approval by a panel of independent experts).", 
  "If the program meets these three  \nindicators it can claim to be scientifically-based.", 
  "Research-based is the broadest term of the three; it is used to describe programs which  \nhave been studied in some way but might not use the quality indicators of scientifically-based  \nresearch.", 
  "Research-based studies may only have a single study to refer to which might not have  \nbeen reproduced, may have designs that do not allow cause and effect assessment and studies  \nthat might not have been examined by independent experts.", 
  "Evidence-based practice on the other hand has the most stringent criteria for determining  \nif a practice or program is in fact an effective evidence-based practice.", 
  "According to Kretlow and  \nBlatz (2011), the type and magnitude of research are the two most important variables related to  \ndetermining if a program/practice is evidence based.", 
  "Type of research refers to systematic  \nintervention and measurement of effectiveness.", 
  "The research must be quantitative with direct  \n\fmeasurement of effects of the intervention which show a cause and effect relationship of  \nimproved outcomes.", 
  "If large numbers of participants are not available for studies, then smaller  \nstudies need to be replicated a sufficient number of times to demonstrate a cause and effect  \nrelationship between interventions and dependent variables.", 
  "Magnitude refers to number of  \nstudies that show a reliable relationship between intervention and academic or behavioral  \noutcomes.", 
  "Magnitude is assessed by synthesizing the results of a compilation of studies as to the  \neffectiveness of a practice or program.", 
  "An agreement about the effectiveness of a program or  \npractice can then be determined based on that research synthesis.", 
  "Kretlow and Blatz (2011) caution that, even with evidence-based programs, fidelity of  \nimplementation is crucial.", 
  "High fidelity results in improved outcomes and inconsistent  \nimplementation results in poor student performance.", 
  "Once a program is chosen, the practitioners  \ncannot pick and choose which components they will use cannot modify the program.", 
  "Doing so  \nwill most likely result in poor student outcomes.", 
  "Unfortunately, the approaches for managing students\u2019 disruptive or aggressive behaviors  \nhave shown exactly the same pattern as seen in the field of education, swinging from one  \napproach to another approach.", 
  "Historically, when dealing with inappropriate behaviors, corporal  \npunishment, suspension, and exclusion in and from the classroom were among some of the most  \ncommonly used responses teachers use to manage inappropriate behaviors.", 
  "Even though some of  \nthese approaches are far short as evidence-based behavior supports, punitive practices are still  \ncommonly used in our schools today.", 
  "The good news is that there is a substantial research base  \nthat provides information on how to use and implement knowledge on managing disruptive  \nbehaviors effectively by implementing evidence-based approaches to classroom behavior  \nmanagement (Cook & Odom, 2013; Horner et al., 2005; Maag, 2012; Yell, Meadows, Drasgow,  \n\f& Shriner, 2013).", 
  "The purpose of this paper is to analyze one such school-wide behavior management  \nsystem, Ozanam\u2019s Behavior Intervention Support Team (BIST).", 
  "This paper asks three research  \nquestions: 1) Is there a research base that demonstrates that BIST is effective in today\u2019s schools?", 
  "2) What do direct observations in the field and informal interviews/discussions with  \nschool/education professionals say about the efficacy of BIST in practice?", 
  "And 3) What, if any,  \nare the differences in the theoretical implementation of BIST and the reality of BIST being  \npracticed in the schools?", 
  "Data from direct observations, informal/discussions with education  \nprofessionals, and a review of the literature indicate that BIST is neither scientifically-based nor  \nresearch-based and should not be considered evidence-based practice according to definitions of  \nthese terms as defined and described by Kretlow and Blatz, 2001.", 
  "Data Collection  \nFrom fall 2012 to fall 2015, Raol Taft, while completing an Applied Behavior Analysis  \n(ABA) course, spent roughly 2000 hours in classrooms and homes with Behavior Consultants as  \na field supervisor.", 
  "As a field supervisor for Behavior Consultants, a significant amount of time  \nwas spent in schools conducting functional behavior assessments (FBA) on students with serious  \nbehavioral concerns, writing behavior intervention plans (BIP), and working with school faculty  \nand administration officials on implementation of the BIPs.", 
  "The schools involved included urban  \ncore schools, suburban schools, and small rural schools.", 
  "During these observations, it was noted  \nthat teachers were using a behavior management system where they often removed a student  \nfrom the room, many times without any apparent reason that could be observed.", 
  "The observations raised several concerns.", 
  "First, no consistent use of specific management  \ntechniques could be observed across the different schools which had implemented this  \n\fschoolwide behavior system.", 
  "Second, it seemed that some of the well-known basic principles of  \nbehavior management were not being used or were ignored, and finally, no positive  \nreinforcement of any kind was observed as a tool to proactively address behavior in these  \nschools.", 
  "Rather than using proactive strategies, these schools seemed to be using a system that  \nrelied on reactive punitive measures to address student behaviors.", 
  "When queried about the  \nmanagement approach being used, the first author was repeatedly told that Behavior Intervention  \nSupport Team (BIST) was the schoolwide behavior system that had been implemented in the  \nschool.", 
  "Curiosity, and concern as a professional in the field, about this method of behavior  \nmanagement led to the current discussion of BIST.", 
  "Informal interviews and observations were conducted with administrators, teachers,  \nspecial education graduate students in a master\u2019s program, and a professor who supervised  \ngraduate students in teaching placements.", 
  "Informal interview settings included teacher\u2019s  \nclassrooms, breakrooms, administrator offices, and a university classroom.", 
  "The interviews with  \nteachers and administrators were casual chats/conversations which took place between classes or  \ntimes of convenience (i.e.", 
  "students were engaged in independent activities, etc.).", 
  "These  \nconversations were discussions about the school behavior management system and occurred  \nacross all school settings including classrooms, administrator\u2019s office, lunchrooms, playground,  \nand hallways.", 
  "All informal interviews were recorded with technical and reflective field notes  \nimmediately following sessions.", 
  "Informal observation settings took place in 16 classrooms in 10  \nurban, suburban, and rural schools districts and the use of the schoolwide behavior management  \nsystem as implemented in practice in the classroom was the behavior of interest.", 
  "Following completion of the ABA certification preparation course, as a part of the first  \nauthor\u2019s ongoing professional development, he interacted with teachers and administrators to  \n\fmake sense of his experiences as a means of improving his practice and the quality of his  \ninteractions in teacher education focused on special education.", 
  "This current study thus comprises  \nan archival exploration of Taft\u2019s earlier experiences of interacting in the field to gain insight into  \nBIST.", 
  "While scenarios from his previous observations and informal interviews will be  \nconsidered, the concentration will be on his own experiences and his reflections on such  \nexperiences in order to underline his own journey of development in this significant area and as a  \nsense-making endeavor.", 
  "No real names of people or places will be included.", 
  "Scenarios are  \ndiscussed solely from the vantage of narrative and interpretive experiential recreation  \nWhat is BIST?", 
  "Ozanam states that Behavior Intervention Support Team (BIST) is an evidence-based  \npractice.", 
  "BIST is a widely used, person-centered, preventative problem solving, school-wide  \nbehavior intervention program.", 
  "It is an outreach program developed by professionals at Ozanam  \nalternative residential center for students with serious behavior issues (Ozanam, 2011).", 
  "In 1948,  \nOzanam was formed by a social worker in order to provide long-term care, educational  \nopportunities, and guidance to emotionally disturbed adolescent boys in the Kansas City area.", 
  "Over time Ozanam developed into a residential treatment provider which now includes a group  \nof agencies specializing in treatment services for children with emotional behavior disorders.", 
  "According to a list of schools and districts served, provided by Ozanam, as of October 1, 2015,  \nthere were 326 schools in 58 districts, and 5 states that had implemented BIST, with 312 of them  \nbeing public schools and 15 of them private, charter, or parochial schools.", 
  "It is important to  \nrecognize that schools and districts using BIST are using it in general education school settings.", 
  "That is totally different from the educational setting and student population for which BIST was  \noriginally created.", 
  "BIST is based on the premise that children act out for three reasons: 1) They do not know  \na better way to act, 2) They need to test limits, and 3) They don\u2019t have alternative ways to  \nmanage their feelings (Behavior Intervention Support Team, 1998).", 
  "Typically, BIST follows a  \nprescribed intervention strategy that utilizes a series of steps to address the inappropriate  \nbehaviors students exhibit because they do not have the proper information, need consistency  \nand/or are unable to manage their feelings.", 
  "These sequential steps are; 1) a caring confrontation  \nwhich is meant to allow the teacher to respond to the student\u2019s anger and escalation of behavior,  \nand give directives to address behavior; 2) the student is directed to a safe seat within the  \nclassroom: 3) the student is removed to a buddy room; 4) the student is sent to a recovery room;  \n5) finally, the student is sent to the office.", 
  "This process introduces a series of increasingly punitive time out procedures.", 
  "The safe  \nseat is virtually the same as an inclusionary or exclusionary time out (depending how the room is  \nset up) where the student is removed from a reinforcement setting, usually away from peers.", 
  "The  \nbuddy room is a more severe exclusionary time out in that the student is removed from his or her  \nroom and sent to another classroom.", 
  "Next, removal of the student to a recovery room, is a more  \nintense form of exclusionary time out and is more restrictive.", 
  "The final punishment is being sent  \nto the office.", 
  "In one instance at least, one student was removed from the recovery room to a  \nsmaller more restrictive isolation room where his behavior escalated even more than when he  \nwas sent to the recovery room (Taft, Ramsey, & Schlein, 2016).", 
  "Ozanam's claim that the BIST model is evidence-based is founded on one paper  \npublished in a peer reviewed journal.", 
  "Boulden (2010) analyzed the BIST model of behavior  \nmanagement and found it to be theoretically sound.", 
  "However, the paper by Boulden was not an  \nempirical research study with independent and dependent variables and measurable outcomes.", 
  "There is very little empirical data to back this intervention model.", 
  "A study by Maag (2012)  \nclassified BIST as an exclusionary obedience model of behavior management.", 
  "Maag notes that  \nthere is little evidence to support the use of exclusion obedience models of behavior  \nmanagement.", 
  "Obedience models focus on rules and consequences.", 
  "Maag notes that exclusion is  \noften used for students who exhibit less disruptive behavior rather than severe behaviors.", 
  "According to Maag, the research on exclusionary discipline programs with large exclusion  \ncomponents is scant and does not provide evidence as to its effectiveness.", 
  "A search of the literature confirmed Maag's (2012) findings and revealed a paucity of  \nresearch on BIST.", 
  "What was found were four doctoral dissertations (Condra, 1999; Coult, 2015;  \nJacoby, 2008; Price, 1998) which found BIST to be an exclusionary, punitive behavior program  \nthat resulted in little to no positive changes in student behavior, academic performance, or self- \nconcept.", 
  "No empirical studies with independent and dependent variables were found in  \npublished, peer reviewed journals.", 
  "Price (1998) investigated the effect of BIST on attendance, academics, and self-esteem  \nusing a group of students in a school that had implemented the BIST model of behavior  \nmanagement for a least four years and comparing results to students in a non-BIST comparison  \nschool and student group with similar demographic characteristics.", 
  "Analysis of measurements  \nfor the BIST and non-BIST students on all dependent variables (attendance, academic  \nperformance, and self-concept) indicated that there were no statistically significant differences  \nbetween student groups.", 
  "Specifically, there were no significant differences in hourly attendance  \nrate, academic achievement in reading or mathematics, or self-concept.", 
  "Price\u2019s data suggest that  \nBIST was not effective at improving these variables in a school that implemented the BIST  \nmodel even after four years.", 
  "Condra (1999) examined the impact of the BIST model of behavior management on  \nstudent academic achievement in schools where the model had been in place for longer periods  \nof time.", 
  "Specifically, Condra asked \"do problem students in an elementary school where the  \nmodel is fully implemented experience more academic success\" (p. 6).", 
  "This researcher compared  \nachievement of fourth, fifth, and sixth grade students identified as problem students (students  \nwith either chronic behavior problems or infrequent but severe behaviors) to their school\u2019s  \ngeneral population.", 
  "The Missouri Mastery Achievement Test (MMAT) scores were the  \ndependent variables.", 
  "According to Condra, data from the study indicated that the BIST model  \ndid not increase academic achievement of problem students.", 
  "Finally, Condra posits that potential  \ndesign flaws in the model may impact academic achievement of problem students.", 
  "Specifically,  \nstudents are often out of their classrooms for extended time periods.", 
  "This may be a variable (time  \naway from instruction) that impacts these students\u2019 achievement.", 
  "A study by Jacoby (2008) investigated the effect of BIST on tardiness and academic  \nperformance of reading comprehension achievement of sixth, seventh, and eighth grade students  \nin a suburban public school.", 
  "Data showed that while office referrals were reduced and there was  \na positive impact on the number of in-school and out-of-school suspensions, there was no  \nsignificant difference in reading comprehension achievement gains when compared to gains  \nbetween the treatment school and three other district middle schools.", 
  "Coult (2015) investigated the effects of BIST on office referrals compared to the PBIS  \nmodel of behavior management.", 
  "Coult compared the time it took to process administrative office  \nreferrals between the BIST, traditional classroom discipline methods, and PBIS models of  \nbehavior management.", 
  "This researcher wanted to see if the BIST discipline model provided more  \nfree time for administrators to use for other duties rather than spending time on discipline  \n\fproblems.", 
  "Data were collected from thirty-three schools on time spent with office referrals and  \ntime spent with talking to parents after an office referral.", 
  "Mean comparisons of monthly time  \nspent processing office referrals between BIST (338 minutes), district created plans (236  \nminutes) and PBIS (252 minutes) indicated that the BIST model actually took more time per  \nmonth to process office referrals than PBIS.", 
  "The higher amount of time suggests that the BIST  \nprogram in not a better time saver for principles than the other two disciplinary programs.", 
  "Ultimately, Coult states that there is no significant difference in time saved between discipline  \nmodels and recommends the data may provide a guide for districts in deciding which behavior  \nmanagement plan to use regarding time taken for processing office referrals.", 
  "Further, Coult also  \nsuggests one area of consideration might be the time students are removed from the classroom  \nand/or loss of instructional time.", 
  "Observations from the Field  \nObservations from the field provided the opportunity to collect data of real experiences  \ninvolving the use of BIST in schools.", 
  "Three sources of stories in this study are 1) informal  \ndiscussions/chats with in-service teachers enrolled in a Master's degree program in special  \neducation, classroom teachers, and administrators in the schools where FBA observations took  \nplace, 2) a University professor supervising pre-service teachers in local schools, and 3) direct  \nobservations made in schools while conducting FBAs.", 
  "In-service Teachers  \nLinda, an in-service teacher with several years\u2019 experience in a BIST school, was  \nconcerned that there was no discussion about the problem behavior that got the student in trouble  \nin the first place.", 
  "She stated:  \nI saw children sent to another room (or my room) and they were told to just sit and do  \nnothing for hours, even days \u2013 it was used more as an out of classroom suspension rather  \nthan a problem solving experience.", 
  "Very occasionally the children may have been asked  \nto write an apology letter to whomever they had upset, but the actual behavior or problem  \nwas never discussed.", 
  "Cheryl told a very similar story at the school where she was teaching:  \nI also see BIST used as an out of classroom suspension \u2013 but it lasts a lot shorter \u2013  \nchildren usually only remain for 2-3 hours or less in the other classroom.", 
  "What I have  \nnoticed though is that the children are usually rewarded in the \u201cbuddy room\u201d classroom.", 
  "If they leave their room for being disruptive and then are sent to the buddy room and  \nbehave well in the buddy room then the buddy room teachers usually give them candy, let  \nthem participate in read alouds, invite them back for the class snack and so on.", 
  "Still another teacher, LaTonya, complained about the buddy room and the way it is used:  \n\"I even had one child who was sent to the principal and suspended for kicking a girl in music.", 
  "When the he got to the principal\u2019s office and wouldn\u2019t speak because he was angry, she gave him  \na piece of candy to pacify him.\u201d  \nOne complaint of all three teachers was echoed by Samantha.", 
  "There was no processing of  \nbehavior with the offending student.", 
  "They were concerned that their students were not learning  \nfrom the behavior events.", 
  "Samantha stated her feelings:  \nOne thing I\u2019ve never seen happen in a buddy room is the problem/behavior being  \ndiscussed.", 
  "Most often the buddy room teachers are too busy with their own class to stop  \nand pay attention to someone else\u2019s student.", 
  "So instead the student is rewarded to ensure  \nthey won\u2019t be a distraction in the buddy classroom.", 
  "These observations and comments mirrored Raol's observations in multiple school  \nsettings whether they were urban schools, suburban schools, or rural schools.", 
  "Jessica, a teacher in  \nsmall rural middle school classroom with thirteen students provides an unsettling picture.", 
  "While  \ncollecting direct observation data for an FBA, a student (not the student being observed for the  \nFBA) talked back to the teacher when she told the class to get out their math books.", 
  "He said he  \ndidn't want to do math.", 
  "She told him to go to the safe seat for talking back to her.", 
  "He went to the  \nsafe seat and the teacher told him to get his book and get to work.", 
  "He pushed his paper off of the  \ndesk on to the floor.", 
  "She sent him to the buddy room.", 
  "A second student dropped his book on the  \nfloor and was sent to the safe seat where he dropped his book on the floor again.", 
  "He was sent to  \nthe buddy room.", 
  "Three more students were sent to the buddy room in quick succession, all for  \nthe same behavior.", 
  "As the fifth student walked out the door, a sixth student, who was working  \nwell, laughed a little.", 
  "The teacher sent him straight to the buddy room.", 
  "He was visibly upset and  \nargued he hadn't done anything.", 
  "She then told him he was arguing and if he didn't go to the  \nbuddy room he would be sent to the office (skipping the recovery room).", 
  "Only seven students out  \nof 13 were left in the room for the teacher to teach.", 
  "No students returned to the classroom during  \nthe ensuing three hours.", 
  "In another school an intervention had been implemented for a young student who had  \nsome behavior concerns.", 
  "The intervention worked for a little while but then the student's  \nbehaviors started escalating.", 
  "Tamiya, the special education teacher, reported that the student was  \nsent to the office after one behavior event and his behavior worsened after that.", 
  "She found out  \nthat the principal (in an attempt to de-escalate the student) had given the student a piece of candy  \nand then let him read his favorite comic book.", 
  "A conversation with an experienced associate professor who was a supervisor of  \n\fpreservice teachers, provided the following story.", 
  "Cheryl was in a classroom in an urban school  \ntalking to a classroom teacher when a student came in.", 
  "When asked who that student was, the  \nteacher could not remember the student\u2019s name because he had been sent to the buddy room so  \noften.", 
  "The child's own teacher simply forgot his name.", 
  "A friend of the student\u2019s sister was able to  \nremind the teacher what the young man\u2019s name was.", 
  "Data from the direct classroom observations, from the discussions with teachers, and  \nfrom the associate professor indicate that BIST, as defined by Boulden (2010), was not effective  \nin schools where observations occurred.", 
  "In the end, student behaviors were not changed.", 
  "It would  \nappear that even though a restrictive, zero tolerance, punitive behavior management system may  \nwork in an alternative residential facility, in these public school classrooms it was ineffective.", 
  "Two variables may be responsible for this; 1) Lack of program implementation fidelity and 2)  \nlack of knowledge/understanding of basic behavior principles which severely hampered  \nintervention effectiveness.", 
  "The next section will compare evidence-based behavior principles  \nwith the BIST management system.", 
  "Principles of Behavior and BIST  \nBehavior and It\u2019s Function  \nAccording to Alberto & Troutman (2013) the function of any behavior is to make a  \ndesired change in the environment.", 
  "If a behavior gets the desired change, chances are that the  \nbehavior will increase.", 
  "The change the student wants may be either to obtain something or to  \nescape something.", 
  "If the behavior is inappropriate, educators will design interventions to address  \nor change the inappropriate behavior.", 
  "The educator may use what they think is a punishment  \nprocedure to decrease the inappropriate behavior.", 
  "However, what they think is a punisher which  \nwill decrease the target behavior may actually be a consequence that acts as a reinforcer which  \n\fwill increase the occurrence of the behavior.", 
  "The actual effect of the intervention will depend  \nupon the function of the behavior.", 
  "For instance, if the function of a student\u2019s behavior is to obtain attention, then a  \npunishment procedure such as time out from reinforcement might decrease the student\u2019s  \nattention seeking behavior.", 
  "If the function of the student\u2019s behavior is escape, then that same  \ntime out procedure may act as reinforcement of the behavior.", 
  "In this case, the punishment, or  \nwhat the educator thinks is punishment, is actually a consequence (reinforcement) that will  \nmaintain the behavior.", 
  "In the case of BIST, routinely sending a student to a buddy room could  \nbe reinforcing the student's behavior.", 
  "The behavior principle here is that the function of the behavior cannot be ignored when  \ndesigning an intervention to address challenging behavior.", 
  "In the example above, for instance,  \nfailure to identify the behavior\u2019s function might result in the teacher using punishment to  \ndecrease the target behavior or a new more intense inappropriate behavior may be substituted for  \nthe behavior the teacher wanted to eliminate.", 
  "If the cause and effect relationship between the  \nindividual\u2019s environment and the behavior are not determined, the alterations in that relation may  \nnot lead to appropriate changes in the occurrence of the behavior.", 
  "Reinforcement  \nReinforcement can be defined as the contingent introduction of a stimulus immediately  \nfollowing a response which increases the future frequency of the behavior (Alberto & Troutman,  \n2013: Cooper, Heron, & Heward, 2007; Yell et al.,2013).", 
  "Reinforcement is a relationship  \nbetween two environmental events.", 
  "The relationship between the two events is only  \nreinforcement if a consequence results in an increase in a target behavior.", 
  "Positive Reinforcement.", 
  "The most commonly thought of term for reinforcement is  \n\fpositive reinforcement where the contingent introduction of a stimulus increases the likelihood of  \nan increase in the future occurrence of the target behavior.", 
  "When a behavior results in a desired  \nconsequence, then an individual will be motivated to repeat or use the behavior again.", 
  "It doesn\u2019t  \nmatter if the behavior is considered appropriate or inappropriate (Alberto & Troutman, 2012).", 
  "It  \ncan be said, then, if a student exhibits an inappropriate behavior and the teacher uses time out,  \ndepending on the function of the behavior (obtain attention or escape the room or task) then what  \nthe teacher thought was punishment is actually positive reinforcement for the student, and it  \nincreases the possibility that the behavior will increase  \nNegative Reinforcement.", 
  "The principle of negative reinforcement is one of the most  \nmisunderstood behavior principles.", 
  "While positive reinforcement is the contingent presentation  \nof a stimulus following a behavior that increases the probability of the behavior being repeated,  \nnegative reinforcement is the contingent removal of an aversive stimulus immediately following  \na response that increases the probability of the occurrence of the behavior.", 
  "Teachers often use  \nnegative reinforcement without realizing it.", 
  "Most teachers would state that negative  \nreinforcement and punishment are the same (Maag, 2012).", 
  "They do not understand the  \nconsequence is only a punishment if it decreases a behavior.", 
  "If a behavior terminates an aversive  \nstimulus, it will increase the occurrence of the behavior.", 
  "Teachers often feel it is difficult or unpleasant to deal with student behavior.", 
  "Sending a  \nstudent to a safe seat or out of the room is an effective way to deal with unpleasant student  \nbehavior (the aversive).", 
  "Thus the teacher\u2019s behavior of removing the student from a classroom  \nhas been negatively reinforced by terminating an unpleasant interaction and the teacher's  \nbehavior (removing the student) is likely to occur again.", 
  "In other words, the teacher is negatively  \nreinforced by removing the student since they escape the unpleasant interaction so they will be  \n\fmore likely to use punishment in the future.", 
  "Maag (2001) states that continued use of ineffective  \nexclusionary practices have little to do with student behavior and more to do with teacher  \nbehavior.", 
  "Maag (2012) notes that teachers view seclusion as a punishment and that placing students  \nin seclusion, therefore, is punishment.", 
  "That view is incorrect since often inappropriate student  \nbehavior does not decrease by using seclusion.", 
  "However, if students find the classroom  \nunpleasant or an assignment unpleasant, misbehavior gets them removed from the room and the  \nconsequence of removal acts as negative reinforcement.", 
  "A pattern of student misbehavior to  \nescape the classroom and teachers removing students from the classroom to escape the  \nunpleasantness of the interaction can be very difficult to break, more so if teachers have multiple  \nlevels of exclusion at their disposal (Maag, 2009) as they have in BIST.", 
  "Punishment  \nPunishment can be defined as the contingent introduction of a stimulus that reduces the  \nfuture frequency or probability of the occurrence of a behavior or the elimination of the target  \nbehavior (Alberto & Troutman, 2013: Cooper, Heron, & Heward, 2007; Maag, 2001; Yell et al.,  \n2013).", 
  "Punishment is considered aversive and should not be used unless all other methods of  \nbehavior reduction have been tried.", 
  "(Yell et al.)", 
  "Alberto and Troutman (2013) discuss four levels of alternative methods for addressing  \nproblem behaviors.", 
  "The use of the levels of interventions are based on the principle of behavior  \nreduction that the least level of intrusiveness is used first and then one can proceed up the  \nhierarchy to more increasing levels of intrusiveness as determined using data-based decisions.", 
  "The first level uses reinforcement-based strategies such as differential reinforcement of other  \nbehavior (DRO), differential reinforcement alternative behaviors (DRA) etc.", 
  "Level II is  \n\fExtinction (withholding reinforcement that maintains the target behavior), Level III (punishing  \nconsequences) is the use of response cost procedures or time out procedures, and finally Level  \nIV (only used when all other methods have failed or there is imminent danger to the student or  \nothers) employs the presentation of aversive stimuli.", 
  "Further, a problem with the use of  \npunishment (Level III) is that it will be ineffective if the function of the behavior is not known.", 
  "Finally, Alberto and Troutman (2013) state that \u201cgiven the extensive and published  \nresearch base on the effectiveness of Level I reinforcement based procedures during the past  \ndecade, the use of aversive procedures in school has little support\u201d (p. 258).", 
  "BIST uses Level III  \ntime out procedures (punishment) immediately (safe seat, buddy room, recovery room, and so  \non) without first using Levels 1 or II as prescribed by Alberto and Troutman.", 
  "According to the  \nresearch, that is not best practice.", 
  "There are concerns with the use of punishment that must be considered.", 
  "First, there is  no  \nteaching with punishment.", 
  "The punished behavior is repressed, there is no replacement behavior  \ntaught, there may be intermittent application of the procedures, the behavior slides (still tries to  \nfind its function) and there may be no outlet for the behavior if no replacement behavior is  \ntaught.", 
  "Still other concerns may be termed counter control behaviors such as the punishment  \nreinforces the punisher, student behavior may become more aggressive, the student may engage  \nin avoidance or escape behavior, the teacher is modeling negative behavior, and results are  \nunpredictable.", 
  "(Alberto & Troutman, 2007; Cooper, Heron, & Heward, 2007; Yell et al., 2013).", 
  "Replacement behavior  \nA functionally equivalent replacement behavior can be defined as a socially appropriate  \nbehavior the student can use to replace the inappropriate target behavior.", 
  "A replacement behavior  \nis an essential component of any behavior intervention plan that is put in place to address  \n\fchallenging and inappropriate behavior (Alberto & Troutman, 2013; Yell et al., 2013).", 
  "Failure to  \nteach a functionally equivalent replacement behavior can result in erratic success and ineffective  \nintervention plans.", 
  "The student must be taught and learn a functionally equivalent replacement  \nbehavior that results in the same consequence as the inappropriate behavior in order for the  \ninappropriate behavior to be eliminated (Alberto & Troutman; Cooper & Herron, 2007; Yell et  \n\nTime out  \nTime out, according to Alberto and Troutman, (2013) is a procedure used to reduce  \ninappropriate behavior by denying the student access, for a fixed period of time, to the  \nopportunity to receive reinforcement.", 
  "Another definition is offered by Ryan, Sanders,  \nKatsiyannis, & Yell (2007).", 
  "They define time-out as a behavior reduction procedure or form of  \npunishment which denies students access to all opportunities for reinforcement contingent on  \nexhibiting appropriate behavior.", 
  "Typically teachers view time-out as a procedure to allow a  \nstudent to calm down by being quiet and disengaging from current stressors; a way to reduce  \ninappropriate behaviors by removing a student from a reinforcing environment.", 
  "They fail to  \nconsider the fact that time-out can be a complicated method of intervention that comes with its  \nown set of issues and concerns.", 
  "Generally, schools are reluctant to use the term time-out because  \nit is a punishment procedure, has negative connotations, and has been associated with misuse  \n(Nelson & Rutherford, 1983).", 
  "Schools today package time-out in euphemism that are more  \nacceptable to the schools.", 
  "There are four major types of time out (Ryan et al., 2007; Ryan, Peterson, & Rozalski,  \n2007).", 
  "Inclusion time out (safe seat) is the least intrusive form of time out and involves removing  \nreinforcement from the student rather than removing the student from the environment.", 
  "The  \n\fstudent continues to observe classroom activities but cannot participate or receive reinforcement  \nfrom teacher or peers.", 
  "The second form of time-out is exclusion time-out where the student is  \nremoved from the reinforcing setting, usually away from peers (buddy room).", 
  "The student is  \nremoved from instructional activities and is not allowed to watch, associate with, or be seen by  \npeers.", 
  "The third type of time-out is the seclusion time-out where the student is removed from  \nthe room, placed in a specified time-out room or area and is prohibited from leaving until time is  \nserved (recovery room and in some cases an even more restricted isolation room within the  \nrecovery room.", 
  "Finally, if behavior cannot be addressed by these methods the fourth type of  \ntime-out, restraint time-out, is employed.", 
  "Restraint time-out is a physical time-out where  \nstudent\u2019s movement is suppressed.", 
  "It combines physical restraint with time-out procedures.", 
  "Generally, BIST follows these time-out procedures (i.e., safe seat, buddy room, recovery room,  \nThere are many issues that must be considered with the use of time-out procedures.", 
  "First  \nand foremost it is a punishment procedure and is a Level III hierarchy of interventions as defined  \nby Alberto and Troutman, 2013.", 
  "It should only be used after Level 1 and II procedures have  \nproven ineffective.", 
  "Problems and considerations with the use of time-out include insufficiently  \nreinforcing classrooms, time-out may be a positive reinforcer, the teacher may be reinforced by  \nusing time-out, and use of punishment may lose its effectiveness.", 
  "A major concern when using time-out is the potential impact on a student\u2019s behavior.", 
  "With the use of time-out, the student has three behavior options in the face of aggressive stimuli:  \n1) The student may become more aggressive, aversive stimuli may trigger an escalation of the  \nsituation.", 
  "Removal from the area, activity, or room may act as a trigger to physical aggression; 2)  \n\fThe student may become withdrawn or tune out the punisher, which decreases learning; and 3)  \nThe student may engage in escape/avoidance behavior.", 
  "(i. e. if I run out of the classroom, a  \npunisher has no immediate effect (Alberto & Troutman, 2013: Yell et al., 2013).", 
  "Even though BIST states it is research-based and best practice, the findings of this study  \nindicate that is not the case.", 
  "Evidence-based criteria as defined by Kretlow & Blatz (2011) have  \nnot been met.", 
  "There were no empirical research studies found that were published in peer  \nreviewed journals to support the claims of BIST for being research or evidence based best  \npractices.", 
  "In fact, the studies that were found on BIST were unpublished doctoral dissertations.", 
  "Overall, these studies found that BIST was ineffective in improving the academic performance,  \ntardiness, absenteeism, and self-esteem of students in BIST schools.", 
  "Further, data from these  \nstudies demonstrated no differences between control schools and BIST schools in student  \nperformance.", 
  "One study indicated that BIST actually increased administration time for dealing  \nwith office referrals.", 
  "Direct observations and stories of experiences of school professionals as discussed  \nindicate that important behavioral principles (positive and negative reinforcement, punishment,  \nteaching appropriate replacement behaviors) were not taught to teachers, or if taught, either  \nteachers did not understand these principles and how they affected student and/or teacher  \nbehaviors and interactions or they were ignored.", 
  "A very important behavioral principle accepted as necessary for behavior change is the  \nfact that students who misbehave must be taught a socially appropriate replacement behavior to  \nuse that serves the same function (gets the student what they want in an appropriate manner) as  \nthe inappropriate behavior.", 
  "Further, students should not only learn specific prosocial behaviors or  \n\fsocial skills, but also practice those skills enough and with positive feedback so they can use the  \nnew learned behavior/skills (Alberto & Troutman; Cooper & Herron, & Heward, 2007; Yell et  \nal., 2013).", 
  "The BIST manual did not provide any guide indicating that it attempts to directly  \nteach a specific behavior or social skills.", 
  "It is not logical to blame the lack of knowledge of  \nprosocial behaviors as a cause of disruptive behaviors but not teach those appropriate prosocial  \nbehaviors to students.", 
  "It is not certain that students can know or learn how to behave by only  \nreflecting and planning.", 
  "In addition, in many cases, knowing how to behave does not guarantee  \nthe presence of an appropriate behavior.", 
  "Several examples from the informal interview and direct observations highlight the  \nproblems with implementation of BIST.", 
  "The principal in one school who gave the student a  \nmassage, candy, and his favorite comic books to read in an effort to \"calm him down\" clearly did  \nnot understand the purpose of the recovery room or the principle of reinforcement of behavior.", 
  "The teacher who sent six of 13 students directly to the buddy room (bypassing the safe seat) did  \nnot take into the account the possibility of positive or negative reinforcement.", 
  "In these cases,  \nneither the teacher nor the principal understood or considered behavioral function.", 
  "No  \nreplacement behavior was even considered by these two educators.", 
  "These examples were not  \noutliers, rather, they were the norm in classrooms where observations took place and in stories of  \nexperiences from in-service educators and other education professionals gleaned from these  \nindividuals during informal discussions.", 
  "Conclusion  \nHistory has shown that educators in the United States often implement programs of  \ninstruction, such as whole language and facilitated communication that have a paucity of  \nempirical research to demonstrate their efficacy and value to our student population (Stahl,  \n\fMcKenna, & Pagnucco, 1994).", 
  "There is also a long list of examples of ineffective interventions  \nthat have been blindly adopted by general and special educators (Mostert & Crockett, 2000).", 
  "Even the IES CAEP (2003) report acknowledges this fact.", 
  "It is perplexing that such  \ninterventions persist and appear regularly (Mostert, 1994; Mostert & Crockett, 2000).", 
  "This study  \nstrongly suggests that BIST may fit on that list.", 
  "In special education, especially, it is critically important that only effective practices are  \nadopted, and then that those practices are implemented with fidelity.", 
  "Credibility and integrity are  \ncrucial for the field of special education if parents and the public are to respect the work that  \nspecial educators do.", 
  "More importantly, the children that special educators serve are entitled to  \nthe best services and interventions available.", 
  "Only interventions that have a solid base of valid  \nempirical research studies to demonstrate that they are, in fact, best practices should be used with  \nchildren with special needs who may have behavioral issues.", 
  "A schoolwide management system  \nlike BIST may not adequately meet the individual needs of this disability population, especially  \nif basic behavioral principles are ignored.", 
  "Special educators need to help their colleagues and  \nadministrators understand the limitations of BIST, not only for students with special needs, but  \nfor all students in the school.", 
  "Further, more and more research shows that commonly used strategies such as  \nsuspensions, expulsion, and other reactive punitive strategies are ineffective in addressing  \nproblems behaviors and in fact may make them worse (Anderson & Kincaid, 2005).", 
  "Consequence based programs using strategies such as reprimands, detention, suspension, and  \nloss of privileges that do not teach the student the correct way to behave have proven ineffective  \nin reducing problem behaviors.", 
  "The principals of ABA, on the other hand, have been shown to  \nbe very effective in addressing problem behaviors when used in school wide positive behavior  \n\fprograms (Anderson & Kincaid).", 
  "It would seem counterintuitive to implement a program that  \ndoes not teach well known principles of behavior.", 
  "Research has also demonstrated that there are proven and sound interventions that can be  \nused to address challenging behaviors.", 
  "These include opportunities to respond (OTR)  \n(Sutherland & Wehby, 2001), behavioral momentum (Cooper, Herron, & Heward, 2007),  \nproximity control, use of positive reinforcement, principles of applied behavioral analysis,  \nschool-wide positive behavior intervention and supports (SWPBIS), the use of functional  \nbehavioral analysis to determine the function of behaviors, and the use of qualified applied  \nbehavioral analysts (Alberto & Troutman, 2013; Yell et al., 2013) are just a few of the proven  \ninterventions and tools available for educators who work with children with challenging  \nbehaviors.", 
  "It seems, however, that some are willing to \"try what works\" in an effort to find an  \nintervention that better meets the needs presented by children with challenging behaviors.", 
  "Perhaps Mostert and Crockett (2000) state it best when they suggest that special  \neducators need to remember their history of adopting less than empirically sound practices.", 
  "Teacher preparation programs must also make sure that pre-service candidates learn and  \ndemonstrate the \"three critical components of informed practice: what has worked, what has not,  \nand the ability to tell the difference\" (p. 142).", 
  "The authors of this paper agree with Mostert and  \nCrockett that the use of programs or therapies which have not been empirically proven should be  \nemployed with caution and an understanding that these practices are by no means \"best  \npractices\u201d or \u201cevidence-based practices.\u201d Educators should not assume that such programs will  \nresult in significant behavioral changes for these student populations until further research is  \nconducted."
 ]
}