{
 "document_id": "1170647.1", 
 "sentences": [
  "Running head: THE IMPACT OF PRINCIPAL INFLUENCE ON ORGANIZATIONAL  \nThe Impact of Principal Influence on Organizational Climate in Schools   \nPatricia V. Escobedo, Ed.D.", 
  "Southwest Independent School District  \nDonald E. Goess, Ed.D.", 
  "The University of Texas at San Antonio  \nElisabeth M. Krimbill, Ed.D.", 
  "Northeast Independent School District   \nPaper presented at the annual meeting of the American Educational Research Association, San Antonio,  May 1, 2017  \n\n\fTHE IMPACT OF PRINCIPAL INFLUENCE ON ORGANIZATIONAL                       \n\n2                                    \nAbstract   \nSchools have dynamic and changing social environments which present a variety of  \nchallenges to campus leaders.", 
  "Administrators have a multitude of responsibilities to school  \nstakeholders for all facets of organizational life on the campus.", 
  "School leaders can benefit from a  \nbetter understanding of how greater levels of principal influence serve as a tool for leaders to  \neffectively implement change in school systems.", 
  "This study measures the relationship between principal influence and four facets of  \norganizational climate.", 
  "The general hypothesis of this study was that principal influence will be  \npositively related to each dimension of organizational climate.", 
  "Data was collected from teachers at 109 elementary schools in Texas and 3 elementary  \nschools in Ohio using the Organizational Climate Index and the Persuasion Index.", 
  "Multiple  \nlinear regression analyses were conducted in order to examine the relationships between  \nprincipal influence and each component of organizational climate.", 
  "The independent variables  \n(principal influence, SES and school size) and the dependent variables (institutional  \nvulnerability, collegial leadership, professional teacher behavior, and achievement press) were  \nanalyzed.", 
  "The correlational analysis demonstrated statistically significant relationships between the  \nindependent variables of principal influence, SES, and school size, and the dependent variables  \nof institutional vulnerability, collegial leadership, achievement press, and professional teacher  \nbehavior.", 
  "Moreover, multiple linear regression demonstrated that the independent variables  \ncombined to form a model that explained a significant portion of the variance in the elements of  \norganizational climate examined in the present study, and thus provided a more refined vision of  \nthe ways in which principal influence may impact the overall school environment.", 
  "THE IMPACT OF PRINCIPAL INFLUENCE ON ORGANIZATIONAL                       \n\n3                                    \nThe Impact of Principal Influence on Organizational Climate in Schools  \nPublic education is consistently challenged by accountability reforms mandated by local,  \nstate and federal policies (Tschannen-Moran & Gareis, 2015).", 
  "The push for higher levels of  \naccountability began with reports such as the curriculum standards set by the National Council of  \nTeachers of Math in 1981 and A Nation at Risk (1983), which served as the definitive marker of  \nthe present period.", 
  "The latter landmark report was followed by other publications such as the  \nGoals 2000 Report (1993), the No Child Left Behind Act of 2001, and most recently, the  \nCommon Core Standards (2010).", 
  "These mandates, in concert with other state and local  \ninitiatives, introduced pressures into schools prompting a high degree of anxiety for students,  \nparents and staff.", 
  "To that end, a deep body of research reveals that the attitudes of both principals  \nand teachers represent significant moderating factors that create positive educational  \natmospheres and nurturing organizational climates for schools under pressure from such  \nmandates (Price, 2012).", 
  "School administrators routinely confront heavy organizational demands stemming from  \nboth internal and external forces.", 
  "At times, these challenges seem insurmountable in light of  \nrapidly escalating calls for systemic changes.", 
  "Indeed, the press for greater accountability and  \nincreased student achievement pose formidable tests for school leaders.", 
  "In addition to resolving  \nsuch factors, school administrators are also responsible for sustaining healthy campus climates,  \nwhich encourage effective learning.", 
  "To that end, the literature points to a positive climate as a  \nsalient component of well-functioning schools (Goddard, Sweetland, & Hoy, 2000; Hoy,  \nHannum & Tschannen-Moran, 1998; Hoy, Smith & Sweetland, 2002; Hoy, Tarter, & Kottkamp,  \n1991; Cornelius-White, 2007; MacNeil, Prater & Busch, 2009; Thapa, Cohen, Guffey &  \nHiggins-D\u2019Alessandro, 2013; DePaola & Tschannen-Moran, 2014).", 
  "Accordingly, a positive  \n\fTHE IMPACT OF PRINCIPAL INFLUENCE ON ORGANIZATIONAL                       \n\n4                                    \nclimate affects school stakeholders by reinforcing productive organizational behaviors and  \nencouraging higher levels of student performance.", 
  "Furthermore, climate factors influence the  \nsystem\u2019s ability to adapt to the sudden and abrupt changes mandates often thrust upon schools.", 
  "A  \ngrowing body of research illustrates the importance of climate and its impact on the social milieu  \nof schools (Hoy et al., 1998; Hoy & Sabo, 1998; Hoy, Sweetland & Smith, 2002; Hoy et al,  \n2002; MacNeil, Prater & Busch, 2009; Zullig, Koopman, Patton & Ubbes, 2010; Mitchell,  \nBradshaw & Leaf, 2010; Caldarella, Shatzer, Gray, Young & Young, 2011; Lynch, Lerner, &  \nLeventhal, 2013; John, & Taylor, 2014; Bradshaw, Waasdorp, Debnam & Johnson, 2014).", 
  "It is interesting to note that the investigation of organizational climate directly links with  \nearly psychometric endeavors to assess the concept.", 
  "Specifically, the work of Halpin and Croft  \n(1963) transitioned the study of climate to schools and paved the way for measuring climate at  \nthe campus level.", 
  "They conceptualized an instrument to operationalize climate in elementary  \nschools by identifying variations in teacher-to-leader and teacher-to-teacher interactions.", 
  "Thus,  \nthe Organizational Climate Description Questionnaire (OCDQ) was designed to assess these  \nimportant interactions between school stakeholders.", 
  "Statement of the Problem   \nSchools have dynamic and changing social environments which present a variety of  \nchallenges to campus leaders.", 
  "School leaders can benefit from a better understanding of how  \ngreater levels of principal influence serve as a tool for leaders to effectively implement change in  \nschool systems.", 
  "In such atmospheres, tensions surface and learning is challenged.", 
  "Likewise,  \ncampus leaders are subject to myriad situations that affect the education of students.", 
  "As schools  \nbecome more diverse and in an attempt to equitably educate all children, the campus principal  \n\fTHE IMPACT OF PRINCIPAL INFLUENCE ON ORGANIZATIONAL                       \n\n5                                    \nemerges as a critical catalyst in manufacturing the proper educational milieu to promote both  \neffective teaching and learning.", 
  "The need for greater levels of principal influence surfaces as the complexity of public  \neducation increases, and school stakeholders look to the administrative leader to impact both  \ninternal and external constituencies.", 
  "Specifically, research demonstrates that school climate can  \neither supplement or detract from effective schooling (Anderson, 1982).", 
  "In concert with principal  \ninfluence, school climate factors such as institutional vulnerability, collegial leadership,  \nprofessional teacher behavior, and achievement press weigh heavily into the effective schools  \nequation; their presence or absence in the organization can prove critical to administrative  \nprerogatives.", 
  "Thus, two salient problems confronting educational organizations are to identify  \npositive social aspects of school leadership, and determine how to constructively apply them  \nwithout creating environmental turbulence that discomforts the efficient operation of the  \ninstitution.", 
  "In general, schools seek administrative leaders that are both persuasive and effective in  \nnurturing positive school climates.", 
  "However, the question remains whether influential principals  \nare aligned with factors influencing school climate.", 
  "This study examined the impact of principal influence on school climate.", 
  "The power of  \npersuasion yielded by a principal affects the overall climate of a school.", 
  "Anderson (1982)  \nemphasized the influence of the principal as a key factor in formulating an effective learning  \nenvironment.", 
  "The data analysis may serve as a resource for school leaders who seek to improve  \norganizational climate in order to address inequity and improve educational outcomes for all  \nstudents.", 
  "THE IMPACT OF PRINCIPAL INFLUENCE ON ORGANIZATIONAL                       \n\n6                                    \nReview of the Literature   \nSchool climate has been the subject of educational research for over a century, and the  \nimportance of its effects on the social milieu of educational institutions continues to be explored.", 
  "The literature points to the climate of the school as a significant factor influencing educational  \noutcomes (Collins & Parson, 2010; Marshall, 2004).", 
  "Originating from the work of Perry (1908)  \nand Dewey (1916), the seminal climate research targeted both social dimensions, and the internal  \nenvironments of schools (Cohen & Geier, 2010).", 
  "Primarily, the early researchers focused on the  \nrelationships between the school environment and student learning.", 
  "However, recent shifts in  \nscholarly pursuits have refocused the research on the persuasive factors in the school  \nenvironment, including the influence of the school principal (Collins & Parson, 2010).", 
  "Organizational climate has been an area of interest explored by psychologists,  \nsociologists, and researchers for many years.", 
  "Early on, the seminal work targeted both industrial  \nand business organizations, and eventually extended to educational institutions.", 
  "Early research  \nby Argyris (1958) captured the organizational climate in a banking environment, and prompted  \nother scholars to investigate climate at the institutional level.", 
  "Indeed, Argryis\u2019 (1958) seminal  \nresearch paved the way for other researchers to explore organizational climate (Brown & House,  \n1967; Deer, 1980; Finlayson, 1971; 1973; Getzels & Thelen, 1960; Gilmer, 1966;   Goodlad,  \n1955; Halpin and Croft, 1963; Litwin & Stringer, 1968; Novotney, 1965; Sinclair, 1970; Thomas  \n& Slater, 1972; Tye, 1974).", 
  "In 1966, Gilmer defined organizational climate as characteristics unique to an  \norganization which influence employee behavior.", 
  "Subsequently, Litwin and Stringer (1968)  \naugmented the definition with the concept of perception.", 
  "Taguri (1968) identified key terms to  \nfurther enhance the organizational climate definition, maintaining climate was a social system  \n\fTHE IMPACT OF PRINCIPAL INFLUENCE ON ORGANIZATIONAL                       \n\n7                                    \ncomprised of inimitable qualities similar to the personality of an individual.", 
  "As conceptualized  \nby Deer (1980), organizational climate refers to the perceived quality of the work environment  \nby the employees of the organization (Anderson, 1982).", 
  "The impact of an organization\u2019s climate on the work lives of institutional stakeholders is  \nof particular interest in the field of education, as the implications span many areas including job  \nattitudes, organizational citizenship behaviors, ethics, safety, innovation, individual and team  \nperformance, and trust (Kuenzi & Schminke, 2009).", 
  "Likewise, the ability of a campus principal  \nto positively influence these areas is also important, as administrative leaders oftentimes assist in  \nshaping the organizational climate of the school.", 
  "Accordingly, Schneider (2000) posits, climate  \nresearch examines the subjective perceptions of individuals regarding their work environment  \nand how these perceptions drive their behaviors and attitudes.", 
  "Organizational Climate   \nAccording to Hoy & Tarter (1992), there is no one standard definition of organizational  \nclimate, as the concept is considered to be both complex and vague.", 
  "However, according to Hoy  \n& Tarter (1992) school climate may be defined as the innate attributes which ultimately set one  \nschool apart from another, and which influences the behavior of the members of the campus.", 
  "Different from the organizational climate in a school setting is that of the organizational culture,  \nwhich represents teacher perceptions of the work environment.", 
  "These perceptions are influenced  \nby the leadership of the organization, including teachers\u2019 working relationships with each other,  \nand other trust factors (Hoy & Tarter, 1992).", 
  "Similar studies such as that of Owens (1970)  \ndescribe organizational culture as the atmosphere or the tone of the organization.", 
  "The caliber of a school\u2019s environment is partially dependent upon the climate, which is  \nconsidered to be unique to each school.", 
  "Climate is the \u201cfeel\u201d of the school, and is sensed by the  \n\fTHE IMPACT OF PRINCIPAL INFLUENCE ON ORGANIZATIONAL                       \n\n8                                    \nstakeholders.", 
  "Halpin and Croft (1963) condense climate through an analogy by stating,  \n\u201cpersonality is to the individual what \u2018climate\u2019 is to the organization\u201d (p.1).", 
  "Similarly,  \nAshkanasy (2007) conceptualizes organizational climate as the focus of the agreed upon  \nperceptions of the organizational environment of the group or team members.", 
  "Nwankwo (1979)  \npurports climate is that which \u201crepresents the interactive life of the school or the general \u2018we\u2019  \nfeeling\u201d (p. 268).", 
  "To be sure, \u201cdefinitions of climate in the literature tend to be verifiable  \nintuitively rather than empirically\u201d (Anderson, 1982, p. 369).", 
  "In viewing the recent organizational literature in regards to organizational climate, there  \nexists what is referred to as the health of the institution, a historically researched venue for  \nassessing the climate of organizations.", 
  "The basis for examining school health stems from the  \ntheoretical framework of Parsons and his colleagues (1963, 1967).", 
  "These researchers posit that  \nall organizations must solve four basic problems if they are to develop and flourish.", 
  "The issues to  \nbe addressed include a need for all members of the organization to cope successfully with their  \nenvironments; they must realize their goals; they must maintain unity of the work force; and they  \nmust develop a cohesive value system within the organization (Hoy & Tarter, 1992).", 
  "When these  \nfour principles are well orchestrated, the end result is a positive climate, including enhanced  \nstakeholder morale, openness, and trust.", 
  "If these entities are not present, the organization is  \nchallenged, and difficulties surface.", 
  "Influence and Leadership   \nThe influence of the principal also emerges as a key factor in formulating an effective  \nlearning environment (Anderson, 1982).", 
  "To that end, the concept of influence is often coupled to  \nfactors such as the ability to achieve compliance and to gain leverage through the techniques of  \n\fTHE IMPACT OF PRINCIPAL INFLUENCE ON ORGANIZATIONAL                       \n\n9                                    \npersuasion.", 
  "Specifically, Cialdini\u2019s (2009) work identifies a number of factors, which cause a  \nperson to positively commit to another person or specific organizational prerogatives.", 
  "The work of Ogowa & Bossert (1995) also supports prior research by Parsons (1963) that  \npostulates influence to be \u201ca way of having an effect on the attitudes and opinions of others  \nthrough intentional, though not necessarily rational action\u201d (p. 38).", 
  "The results of their research  \nindicate that influence is not limited to those in formal leadership roles within an organization,  \nbut rather that all members of an organization have both the potential and ability to influence the  \ndecisions of others within the institution (Jackson & Marriott, 2012).", 
  "Is influence the same as persuasion?", 
  "Cialdini\u2019s (2001a) groundbreaking work in the area  \nof influence condensed years of research, and lead him to posit that the art of persuasion is  \ndirected by a set of six principles which can be taught, learned, and applied.", 
  "The work of Hoy &  \nSmith (2007) further refined Cialdini\u2019s six basic principles of influence, and introduces four  \nadditional strategies that apply to educational institutions, resulting in ten basic strategies for  \neducational leaders to use in persuading and influencing campus stakeholders.", 
  "These ten  \nprinciples are defined as follows.", 
  "The principle of attraction is defined as being drawn to others  \nwho are similar and have common interests.", 
  "Reciprocity is represented by individuals who feel  \nobligated to return a good deed.", 
  "Colleagueship is demonstrated by listening and following the  \nlead of colleagues who are well respected.", 
  "Finally, commitment refers to those self-motivated  \nindividuals who act on their commitments.", 
  "Several other facets of persuasion are indicated by Hoy and Smith (2007).", 
  "The principle  \nof expertise is defined as deference to those known as experts in their field.", 
  "Scarcity is described  \nas a desire for what is not in abundance.", 
  "Trust is shown by individuals who place their faith in  \nothers.", 
  "Fairness outlines an individual\u2019s desire to be treated in an unbiased manner.", 
  "Self-efficacy  \n\fTHE IMPACT OF PRINCIPAL INFLUENCE ON ORGANIZATIONAL                       \n\n10                                    \nis expressed by those who believe in themselves as well others.", 
  "Finally, optimism is shown  \nwhen people see problems as possibilities.", 
  "These ten principles offer a beginning in the use of  \ninfluence as a means of orchestrating successful school leadership (Hoy & Smith, 2007).", 
  "Research Question and Hypotheses  \nAlthough organizational climate and principal influence are recognized as key elements  \ncapable of affecting the milieu of the school, this study focused exclusively on the possible  \nrelationships among four specific aspects of school climate, as well as principal influence, school  \nsize, and SES.", 
  "Thus, the relationships between organizational climate and principal influence  \nwere pursued in order to identify salient factors that positively impact effective principal  \nbehaviors capable of affecting the social environment of the school.", 
  "The independent variable in the study is principal influence, while the dependent variables  \nare aspects of organizational climate: institutional vulnerability, collegial leadership, professional  \nteacher behavior and achievement press.", 
  "In addition, socioeconomic status and school size were  \nemployed as controls in the analysis.", 
  "The central research question of the present study asks,  \n\u201cHow does the influence of the campus principal predict the organizational climate of the  \nschool?\u201d To answer this question, Principal Influence, SES, and school size were regressed  \nagainst the four factors of school climate.", 
  "SES and school size were entered as control variables.", 
  "The hypotheses tested by the regression analysis are as follows:   \nH1: Principal influence, socioeconomic status, and school size will combine to provide a  \nsignificant set of predictors of institutional vulnerability, collegial leadership, achievement press,  \nand professional teacher behavior.", 
  "H2: Principal influence will emerge as the best predictor of institutional vulnerability,  \ncollegial leadership, achievement press, and professional teacher behavior.", 
  "THE IMPACT OF PRINCIPAL INFLUENCE ON ORGANIZATIONAL                       \n\n11                                    \nData Collection  \nMethodology  \nIn order to test the empirical hypotheses conceptualized, data was collected from a set of  \n109 elementary schools in Texas and 3 elementary schools in Ohio.", 
  "The data employed was  \ndisaggregated from a larger and more comprehensive exploratory examination that targeted  \nsocial processes in 154 elementary, middle, and secondary schools.", 
  "The omnibus study probed  \napproximately 30 variables proven to affect the social milieu of schools.", 
  "In this analysis,  \norganizational climate and principal influence were the specific empirical variables utilized.", 
  "This investigation focused on elementary schools in a large southwestern and Midwestern  \nstate.", 
  "Data was drawn from a sample of one hundred and nine schools in south central Texas and  \nthree schools in Ohio.", 
  "The schools were selected by means of convenience sampling, which is  \nappropriate for educational research due to the fact that participants are included based on their  \navailability and willingness to participate in the investigation.", 
  "Specifically, twelve school  \ndistricts were asked to participate in this study and nine opted to participate.", 
  "Thus, 109  \nelementary schools aggregated from the participating nine districts in Texas and 3 elementary  \nschools in one district in Ohio took part in this multi-state study.", 
  "Although the selection of  \nschools was not random, the participating campuses were representative of urban, suburban, and  \nrural schools as defined by the Locale Codes of the National Center for Education Statistics  \n\nParticipants  \nIn each of the one hundred and twelve elementary schools included in the sample,  \nsurveys were administered only to faculty members.", 
  "Thus, administrators and teachers\u2019 assistants  \nwere not designated as participants in the study.", 
  "Teachers who were absent during the time of the  \n\fTHE IMPACT OF PRINCIPAL INFLUENCE ON ORGANIZATIONAL                       \n\n12                                    \nadministration of the surveys were not accorded opportunities to complete the surveys at a later  \ntime.", 
  "Notwithstanding, the majority of certificated teaching staff of each participating school  \nresponded to the survey.", 
  "The sample of teachers represents a group who are diverse in age,  \ngender, race, degree acquisition, and years of experience.", 
  "Operational Measures  \nAs a means of testing the hypotheses, operational measures of both principal influence  \nand organizational climate are required.", 
  "The Persuasion Index (PI) scale was designed to  \nmeasure faculty perceptions of the levels of influence that their principals exert (Hoy & Smith,  \n2007).", 
  "The Organizational Climate Index (OCI) was conceptualized to gauge faculty perceptions  \nof organizational climate in schools (Hoy et al., 2002).", 
  "The reliability and validity of both  \ninstruments has been demonstrated in previous studies (Hoy et al., 2002; Hoy & Smith, 2007).", 
  "Data Analysis  \nDescriptive statistics, which include mean, range, and standard deviation, were calculated  \nfor principal influence and the four subsets of organizational climate.", 
  "In order to test the  \nhypotheses, correlation coefficients were computed for principal influence with each dimension  \nof climate.", 
  "In order to determine if patterns emerged between the variables, a Pearson product- \nmoment correlation matrix was established.", 
  "Multiple linear regression was employed to answer the central research question of the  \npresent study, \u201cHow does the influence of the campus principal predict the organizational  \nclimate of the school?\u201d To answer this question, Principal Influence, SES, and school size were  \nregressed against the four elements of school climate, with each of the four dependent variables  \nbeing entered in separate regressions.", 
  "Due to their ubiquity in educational research, SES and  \nschool size were entered as control variables.", 
  "THE IMPACT OF PRINCIPAL INFLUENCE ON ORGANIZATIONAL                       \n\n13                                    \nResults and Discussion  \nAs this study suggests, principal influence can make a difference.", 
  "In other words, the  \npower of persuasion yielded by a principal will affect the overall climate of a school.", 
  "Indeed, the  \ninfluence of the principal emerges as a key factor in formulating an effective learning  \nenvironment (Anderson, 1982).", 
  "When coupled with other important institutional qualities such as  \nthe ability to achieve compliance and gain leverage utilizing the tenets of persuasion, school  \nleaders evidence potent tools for campus success.", 
  "In light of the regression results obtained from  \neach climate factor in this study, the discussion shifts to some possible reasons why leaders  \nshould become influential and the significance of the findings from a school practitioner\u2019s  \nperspective.", 
  "Correlations  \nIt was predicted that the four factors of organizational climate (collegial leadership,  \nprofessional teacher behavior, achievement press, and institutional vulnerability) would be  \nrelated to principal influence, SES, and school size.", 
  "Individual elements of organizational  \nclimate were indeed correlated with the individual variables of principal influence, SES, and  \nschool size; however, there were some exceptions.", 
  "Collegial leadership was statistically and  \nsignificantly related to principal influence (r=.968, p<.01), SES (r=-.264, p<.01), professional  \nteacher behavior (r=.558, p< .01), achievement press (r=.561, p<.01), and institutional  \nvulnerability (r=-.269, p<.01), whereas professional teacher behavior was statistically and  \nsignificantly related to principal influence (r=.573, p<.01), SES (r=-.428, p<.01), and  \nachievement press (r=.711, p<.01).", 
  "In addition, achievement press was statistically and  \nsignificantly related to principal influence (r=.585, p<.01), school size (r=.202, p<.05), SES (r=  \n\fTHE IMPACT OF PRINCIPAL INFLUENCE ON ORGANIZATIONAL                       \n\n14                                    \n.586, p<.01), and institutional vulnerability (r=.192, p<.05).", 
  "Institutional vulnerability was  \nstatistically and significantly related to school size (r=.190, p<.05), SES (r=-.371, p<.01), and  \nprincipal influence (r=-.219, p<.05).", 
  "SES was statistically and significantly related to school size   \n(r=-.370, p<.05).", 
  "Finally, principal influence was statistically and significantly related to SES   \n(r=-.311, p<.05).", 
  "Overall, climate differentiates one school from another and influences group behaviors.", 
  "Hoy, et al.", 
  "(1991) propose a variation on this theme by contending, \u201cOrganizational climate of a  \nschool is the faculty\u2019s consensus in perceptions of school behavior\u201d (p.13).", 
  "As this  \nconceptualization implies, stakeholders\u2019 perceptions are the foundation of climate studies.", 
  "Indeed, Litwin and Stringer (1968) suggest, \u201cperception\u201d is a critical part of climate analysis and  \nrepresents \u201ca set of measurable properties of the work environment, based on the collective  \nperceptions of the people who live and work in the environment and demonstrated to influence  \ntheir behavior\u201d (Hoy, et al., 1991, p. 3).", 
  "Therein, climate reflects a vital environmental measure,  \nwhich may affect the overall quality and effectiveness of the school.", 
  "Multiple Linear Regression  \nIn order to acquire a more precise depiction of principal influence, it was regressed  \n(along with SES and school size) on the four organizational climate variables of institutional  \nvulnerability, collegial leadership, achievement press, and professional teacher behavior,  \nrespectively.", 
  "Although the results demonstrated that a linear combination of the independent  \nvariables made a significant contribution to the variance in each of the four elements of  \norganizational climate, principal influence emerged as the best predictor in only two of the four  \nregressions.", 
  "An analysis of the data indicated that principal influence (when regressed against  \ninstitutional vulnerability) made a statistically significant independent contribution to the  \n\fTHE IMPACT OF PRINCIPAL INFLUENCE ON ORGANIZATIONAL                       \n\n15                                    \nvariance (\u00df =.-368, p<.001), but SES proved to be the largest contributor to that variance (\u00df=.- \n.467, p<.001).", 
  "Similarly, principal influence (when regressed against achievement press) also made a  \nstatistically significant independent contribution to the variance (\u00df=.446, p<.001), but was again  \nthe second largest contributor to that variance, behind SES (\u00df=-.449, p<.001).", 
  "An examination of  \nthe remaining two regressions demonstrated that principal influence was indeed the single largest  \nstatistically significant individual contributor when regressed against professional teacher  \nbehavior (\u00df=.485p<.001), and collegial leadership (\u00df=.980, p<.01) respectively, thus confirming  \ntwo areas of Hypothesis Two.", 
  "Overall, Hypothesis Two was not confirmed in its entirety.", 
  "However, principal influence  \ndid make statistically significantly independent contributions to the variance in all four  \ndependent variables.", 
  "In this study, principal influence emerged as an important feature of  \norganizational climate.", 
  "Implications and Recommendations  \nIncreasingly, principals are held accountable for the overall success of their schools.", 
  "Most  \ncertainly, student achievement results and maintaining the harmony of the working relationships  \nof campus stakeholders emerge as top concerns, and research demonstrates that the attitudes of  \nprincipals and teachers combine to produce environments capable of accelerated learning, high  \nlevels of organizational trust, and positive campus behaviors (Price, 2012).", 
  "Research also reveals  \nthat organizational environments of trust, shared vision, and openness establish positive school  \nclimates and foster collegiality (Price, 2012, Tschannen-Moran & Gareis, 2015).", 
  "Hence, both the climate of the school and the ability of the principal to influence serve as  \ncritical components to developing positive and open learning environments (Hoy et al., 1991;  \n\fTHE IMPACT OF PRINCIPAL INFLUENCE ON ORGANIZATIONAL                       \n\n16                                    \nTschannen-Moran & Gareis, 2015).", 
  "Although the current literature relates certain aspects of  \nhealthy school climates with the influence of the principal, the research is relatively thin (Hoy &  \nMiskel, 2008; Tschannen-Moran & Gareis, 2015; Hitt & Tucker, 2015).", 
  "Thus, one aspect of the  \neffective schools research that has yet to be sufficiently probed is how principal influence and  \norganizational climate intersect to affect schools.", 
  "The findings of this research have significant implications for both researchers and  \npractitioners.", 
  "They add additional validity to established constructs.", 
  "The credibility of Cialdini\u2019s  \n(2001b) work in the area of influence in fields such as business, psychology, and sociology  \ncombined with the educational conceptualizations and research of Hoy and Smith (2007) focus  \nmuch light on the power of influence.", 
  "The skillful implementation of these ten influential  \nprinciples adds value to school leaders who can effectively orchestrate changes in the social  \ncontext of their schools through persuasion.", 
  "Hence, principals who persuasively encourage  \nhealthy school climates are leaders who forward openness, respect their faculties, and protect  \nthem from negative external forces (Roney, Coleman & Schlichting, 2007; Smith, Hoy &  \nSweetland, 2001; Tschannen-Moran, 2001).", 
  "Without question, the art of persuasion can be very  \nbeneficial for leaders when utilized in an appropriate manner.", 
  "Practical Implications  \nThe analysis of principal influence, school size, and SES combined to form a significant  \nset of predictors of institutional vulnerability, collegial leadership, achievement press, and  \nprofessional teacher behavior.", 
  "The present study consisted of a quantitative investigation using  \ntwo valid and reliable instruments.", 
  "Principals seeking to gauge the health of their school and  \ndetermine the strengths and weaknesses in pursuit of campus improvement are advised to utilize  \nthe aforementioned climate and perception assessment instruments.", 
  "The Persuasion Index will  \n\fTHE IMPACT OF PRINCIPAL INFLUENCE ON ORGANIZATIONAL                       \n\n17                                    \nprovide campus leaders with insights through the lens of the staff as to the extent their faculties  \nview their leadership as influential.", 
  "However, administrators must be prepared to view the results  \nwith an open mind to implement honest and authentic changes in their schools.", 
  "Moreover, the  \nOrganizational Climate Index will provide administrators with an effective tool to understand the  \nsocial relationships among teachers, the principal, students, and the community (Hoy et al.,  \n\nThe principal is charged with creating a campus climate that is inviting for students, staff,  \nand parents, and fostering trust within the organization (Henderson, 2005).", 
  "This research focused  \non the power of persuasion and influence (Hoy & Smith, 2007) to help the principal with that  \nundertaking.", 
  "Both instruments are easily administered, and require a minimal amount of time to  \ncomplete.", 
  "In addition to the ease of administration, the surveys offer administrators a timely  \nmanner in which to gather anonymous and confidential responses from staff to help them assess  \nthe climates of their schools, and the robustness of their administrative influence.", 
  "However, a  \nmajor caveat is in order.", 
  "The surveys do not offer explanations as to why the data sums as it  \ndoes.", 
  "Thus, it is up to those who collect the data to interpret it and develop action plans to  \naddress the concerns the data reveals.", 
  "To be truly effective, school leaders are advised to develop  \na profile of the campus and to target areas in need of improvement at the administrative level,  \nand to assess the overall school climate as influenced by teacher interactions with students and  \nparents.", 
  "Future Research Implications    \nThe purpose of this research was to examine principal influence and assess its possible  \nrelationship to organizational climate in schools.", 
  "To that end, the study adds to the extant  \nresearch on organizational climate and principal influence.", 
  "Yet, much is to be gleaned from  \n\fTHE IMPACT OF PRINCIPAL INFLUENCE ON ORGANIZATIONAL                       \n\n18                                    \nadditional research.", 
  "Indeed, further study in the areas of principal influence and dimensions of  \nschool climate remains an abundant area of possible research.", 
  "The examination of principal  \ninfluence and organizational climate pose further empirical prospects.", 
  "This study focused on 109  \nelementary schools in Texas and 3 elementary schools in Ohio.", 
  "It is recommended this same  \nstudy be carried out at middle school feeder pattern campuses of the elementary schools in Texas  \nand Ohio to determine if similar findings emerge, and to determine whether and why the patterns  \ncross from one campus to another.", 
  "Other possible questions for future study include the  \nfollowing:   \n1.", 
  "Would the results be statistically significant and different if particular elements of school culture  \nsuch as campus traditions were included as a variable?", 
  "2.", 
  "How significantly different would the results be for principals with 2-4 years of administrative  \nexperience versus a principal with 5 or more years of experience?", 
  "3.", 
  "Does the manner or style of principal influence differ if the leader is on an elementary campus as  \nopposed to a secondary campus?", 
  "If so, why?", 
  "4.", 
  "How closely would a principal\u2019s pre-assessment of their level of influence with students, faculty,  \nand staff differ from a post assessment versus the findings of a study?", 
  "In other words, how  \naccurate are principals with their self-assessments regarding their collegial relationships with  \ntheir staff.", 
  "It is important for school leaders to have a deep understanding and realistic picture of  \nwhat the perceptions are of their leadership from the perspective of teachers, students, and  \nparents.", 
  "Lacking multiple perspectives can distort reality and may hinder the implementation of  \norganizational changes necessary for both student and school success.", 
  "THE IMPACT OF PRINCIPAL INFLUENCE ON ORGANIZATIONAL                       \n\n19                                    \nConclusion  \nThis study represents a quantitative analysis of four relevant aspects of organizational  \nclimate and principal influence.", 
  "It was hypothesized that principal influence would be positively  \nrelated to each dimension of organizational climate.", 
  "Thus, the central research question of the  \nstudy was: \u201cHow does the influence of the campus principal predict the organizational climate of  \nthe school?\u201d Further, since minimal research exists that examines principal influence and  \norganizational climate in elementary schools, this study was developed to add to the body of  \nliterature regarding how these factors and behaviors contribute to further salient social  \nrelationships.", 
  "By increasing the awareness of these constructs and the corresponding  \nrelationships, the findings assist both educators and scholars in developing conceptual models for  \nfuture study, as well as identifying focused strategies for principal practitioners.", 
  "Schools represent important institutions that no longer deal exclusively with educating  \nstudents.", 
  "Educational institutions are now charged with an escalating array of additional duties  \nincluding: societal socialization processes, incorporating health awareness initiatives,  \nguaranteeing safe spaces for all students, and adopting normative imperatives of the local  \ncommunity.", 
  "Aside from forwarding basic education for all students, educational institutions are  \nsaddled with the social and emotional needs of students (Chapman, 2007).", 
  "This requires both  \nhigh levels of flexibility, and fluid institutional structures capable of shifting suddenly to meet  \ncurrent educational needs.", 
  "Coupled with an increased accountability press, it is also imperative  \nfor school organizations to negotiate possible turmoil stemming from disruptions in the school\u2019s  \nsocial milieu.", 
  "Thus, the wellbeing of students may well depend on highly functional campus  \nleaders possessing the abilities to influence constituencies both inside and beyond school walls.", 
  "THE IMPACT OF PRINCIPAL INFLUENCE ON ORGANIZATIONAL                       \n\n20                                    \nAmerican education is changing, and dynamic leadership is critical in forwarding  \neffective means of increasing the academic achievement of students.", 
  "Ultimately, as campus  \ninstructional leaders, principals are a key factor for successful students and improved schools.", 
  "It  \nis the principal who is charged with the responsibility to make needed changes and provide the  \nvision and plan for student success.", 
  "This study was designed to investigate how social processes  \nmight improve the performance of school leadership interested in influencing stakeholders.", 
  "Specifically, this investigation centered on the prospects of influence and its effects on school  \nclimate.", 
  "In order for principals to implement and drive change there must be first and foremost  \ntrust, followed by fairness, self-efficacy, and optimism for the future, which are the tenets of  \ninfluence as developed by Hoy and Smith (2007).", 
  "As schools continue to receive mandates, which can quickly transition a positive  \natmosphere to one of negativity, it is in a principal\u2019s best interest to be aware of the tools of  \ninfluence, the power of persuasion, and how to ethically utilize them for the greater good of the  \nschool.", 
  "Sustaining open and healthy school climates takes the same amount of daily effort and  \ndue diligence as does maintaining one\u2019s own health.", 
  "In sum, this investigation offers a mere  \nbeginning to the further exploration of two salient school properties known to affect the flow of  \nproductive education, and seeks to supplement a growing body of knowledge targeting healthy  \nand productive learning environments.", 
  "THE IMPACT OF PRINCIPAL INFLUENCE ON ORGANIZATIONAL                       \n\n21"
 ]
}