{
 "document_id": "1170450.1", 
 "sentences": [
  "Understanding How Students Manage the Transition from Early College High School to a  University Environment1  \nRoberta M. Rincon  The University of Texas at Austin  \nIntroduction  \nThe purpose of this study was to understand how students manage the transition from an early  college high school to a four-year institution of higher education.", 
  "Researchers have noted the  changing  demographics  of  the  country,  stressing  the  need  to  improve  college  access  and  completion rates of low-income and minority students to ensure the continued strength of the U.S.  economy (MacLaggan, 2014; Zumeta, Breneman, Callan, & Finney, 2012; Haveman & Wilson,  2007).", 
  "However, many students are entering college that are not adequately prepared to take  college-level  coursework,  particularly  those  graduating  from  high  schools  in  low-income  communities.", 
  "Various options have been explored to help smooth the transition from high school  to  college,  including  dual  credit  models  like  Advanced  Placement  and  the  International  Baccalaureate program.", 
  "However, such models are not as accessible to students in low-income  areas of the country.", 
  "The early college high school model was launched in 2002 to address the needs of low-income  and minority students while attempting to close gaps in college access and completion.", 
  "Early  college high schools are seeing tremendous growth because they offer more streamlined access to  college credit coursework than most dual credit options.", 
  "This model requires a partnership between  a high school and a college to provide students with coursework that allows them to earn up to two  years of college credit tuition-free.", 
  "Research has shown that the return on investment to states that  implement this model is approximately two times that of the return on investment from traditional  high  schools,  making  this  option  very  attractive  to  both  lawmakers  and  parents  (Palaich,  Augenblick, Foster, Anderson, & Rose, 2006).", 
  "Data available on early college high school students show that they are graduating from high  school at higher rates than their local public school counterparts, and most graduate with two or  more years of college credit (JFF, 2012).", 
  "Though they also have higher aspirations of completing  a college degree, academic preparation and college aspirations are only part of what makes a  student successful in college.", 
  "Non-academic factors, such as self-confidence, social involvement,  and social supports are also factors that affect a student\u2019s likelihood of staying in college (Conley  & French, 2014; ACT, 2004; Sedlacek & Adams-Gaston, 1992).", 
  "Statement of the Problem  \nSince 2002, over 280 early college high schools have opened in the United States (JFF, 2016).", 
  "Over half of those schools are located in Texas.", 
  "The first early college high schools in Texas  opened during the 2006-07 school year, targeting at-risk students.", 
  "As of the 2016-17 school year,  over 160 early college high schools were operating in Texas (TEA, 2017).", 
  "While data show that                                                    1 This paper is based on my dissertation, completed in 2016.  \n\fgraduates from these high schools are more successful when it comes to high school completion  and college attendance compared to their traditional peers, there is concern that students are being  directed on the assumption that \u201ccheaper, earlier, faster is better\u201d (Mangan, 2014).", 
  "Many of these  graduates  are  younger  than  their  college  peers,  entering  university  classrooms  as  juniors  and  seniors rather than traditional freshmen.", 
  "It is important to understand the non-cognitive factors that  can help lead early college high school graduates through a successful transition into a university  environment.", 
  "Purpose of the Study  \nThe early college high school model continues to grow in popularity, but little research has been  done to determine how students with large amounts of college credit are handling the transition  to a four-year university when entering at younger ages.", 
  "The purpose of this study was to  understand how students manage the transition from an early college high school to a four-year  university.", 
  "This study addressed the following research questions:  \nstudents\u2019 transition from an early college high school to a four-year university?", 
  "1)  What individual (internal) factors seem to help or hinder early college high school  2)  What external (institutional) factors help or hinder their transition?", 
  "Theoretical Framework  \nThe researcher used Schlossberg\u2019s Transition Theory 4S System as a framework to understand  the transition of students in the study.", 
  "Prior applications of this model in educational transitions  have typically focused on older students, but the model is applicable to this student population as  it focuses on adult development and understanding how individuals cope with transition  (Schlossberg, Lynch, & Chickering, 1989; Graham, 1994; Chickering & Schlossberg, 2001).", 
  "The  four factors included in the model (Situation, Self, Support, and Strategies) were used to gain a  better understanding of the internal and external factors that affect a student\u2019s successful  transition from an early college high school to a four-year university \u2013 particularly Self,  Supports, and Strategies, as the Situation faced (transition from high school to college) was  shared by all students as an anticipated event.", 
  "Methodology  \nTo investigate the aspects of Schlossberg\u2019s model in the transition of early college high school  students, a qualitative research design was used.", 
  "Using qualitative case study methodology to  analyze the data collected, the researcher investigated the nuanced characteristics associated with  students\u2019 successful transition.", 
  "Utilizing semi-structured one-on-one interviews with university students, the researcher was able  to explore the research questions in depth.", 
  "Basic background questions and open-ended questions  were asked to gain an understanding of the efficacy of student characteristics and external  supports.", 
  "All interviews were transcribed and analyzed using open and axial coding in Dedoose.", 
  "The constant comparative method was applied to identify categories, emerging themes, and  patterns.", 
  "Enrolled  Since 2009  \n\nData Sources  \nThis study was conducted at Desert Mountain University (DMU)2, a public university located in  a large metropolitan city in Texas.", 
  "Over 80 percent of the students that attend the university are  residents of the county and approximately 80 percent are of Hispanic ethnicity.", 
  "In fall 2014,  DMU enrolled almost 20,000 undergraduates and over 2,300 graduate students.", 
  "As of the time of this study, DMU was receiving graduates from four of seven area early college  high schools.", 
  "Each year, DMU receives between 100 and 200 early college high school graduates  per year as new university students.", 
  "Table 1 lists the breakdown of study participants by school  compared against the early college high school graduate population attending the university.", 
  "Table 1: DMU ECHS Students Enrolled versus Study Participants  Participants  %  \nEarly College  High School  Morpheus  \n% of Total  Enrolled  \n\nOne-on-one semi-structures interviews of students were the primary source of data collection.", 
  "Purposive sampling was used to identify interview participants.", 
  "With assistance from the DMU  staff that worked with early college high school students, students were notified of the study and  invited to participate.", 
  "Participants were DMU students enrolled for the 2014-15 academic year  that had graduated from an early college high school and enrolled in DMU with the intent to  pursue a bachelor\u2019s degree.", 
  "Students had to be at least 18 years of age to participate in this study.", 
  "Figure 1 provides select descriptor data for the study participants.", 
  "2 Desert Mountain University is a pseudonym.", 
  "All student names and early college high school  names used in this paper are pseudonyms.", 
  "Figure 1: Descriptor Data for Study Participant  \nNote: The GPA listed for the Graduate Student was at the time of graduation with a bachelor\u2019s degree.", 
  "Findings  Research Question #1: Individual (internal) factors  For this study, individual factors include the \u201cSelf\u201d and \u201cStrategy\u201d elements of Schlossberg\u2019s  transition theory\u2019s 4 S System.", 
  "Schlossberg\u2019s transition theory is based on the belief that every  individual has both assets and liabilities, or resources and deficits.", 
  "\u201cSelf\u201d factors, including  demographic characteristics such as age, socioeconomic status, and ethnicity, can affect how an  individual perceives or assesses life, while a person\u2019s outlook on life can help or hinder a  person\u2019s ability to cope with transition.", 
  "Among the demographic characteristics analyzed, age appeared to have a large impact on the  ease with which many study participants were able to develop social relationships with non-early  college high school students at the university.", 
  "The majority of those interviewed graduated with  enough credits to enter junior-level courses at DMU.", 
  "Though most students felt confident in the  classroom, their relative youth was an intimidating factor in their personal interactions with other  students.", 
  "\u201c\u2026it wasn\u2019t so much the coursework that scared me, but the people\u2026 seeing  people that are late 20s, early 30s working in junior classes and I\u2019m like 16-17  years old, barely learning how to drive, it was intimidating.\u201d \u2013 Horatio  \n\u201c\u2026 we are younger than most people \u2013 most students here.", 
  "We are excluded in  some of the activities.", 
  "Like, sometimes we\u2019re invited to dance clubs or bars.", 
  "And  we can\u2019t go because we\u2019re underage.\u201d \u2013 Diana  \n\nOptimism is believed to have a positive impact on achievement and mental health.", 
  "The level of  optimism that many students interviewed possessed was relatively high, which Schlossberg  indicates is a characteristic that helped students persevere.", 
  "\u201cI just learned that it was a way of life, and that everybody is gonna have challenges  and difficulties with everything.", 
  "Even, you know, regardless of how good you might  be with something.\u201d \u2013 Melissa  \n\u201c\u2026I always think that there\u2019s better things to come, if you don\u2019t get it.", 
  "Then there\u2019s  something else.", 
  "There\u2019s a plan or destiny.", 
  "So there\u2019s always something else that\u2019s  probably better, and you just have to look for it.\u201d \u2013 Betty  \n\nSelf-efficacy is closely related to an individual\u2019s perception of control over an event\u2019s outcome.", 
  "The idea of having some control over what happens in one\u2019s life can help an individual through a  transitional experience.", 
  "Two-thirds of the students interviewed believed that they were in control  of what was happening in their lives.", 
  "For some, the feeling comes from the belief that they have  control over their decisions.", 
  "As one student stated, \u201cWell, I think that I can choose whichever  path I want.", 
  "And I think I\u2019m responsible for anything that I do.\u201d Another student interviewed  felt that her experience in an early college high school helped to develop her sense of control:  \n\f\u201c\u2026 That\u2019s one of the really great things I felt about going to the early college high  school is we were given a lot of freedom very early on, which, for me at least, it  made me realize that I needed to be responsible, that I needed to be aware of the  consequences of all of my choices.", 
  "\u2026 I\u2019ve always felt everything is very much up to  me.", 
  "I get to pick what I do next or what I don\u2019t do next.", 
  "It\u2019s terrifying, but exciting  at the same time.\u201d \u2013 Jasmine  \n\nIndividuals apply various strategies to help them cope with the stress and strains of life.", 
  "For  example, some students interviewed shared experiences where they had to advocate for  themselves to solve a problem.", 
  "\u201c\u2026 I\u2019ve matured so much over the years.", 
  "I feel like it\u2019s okay to speak out more.", 
  "That it\u2019s okay to be able to say everything that\u2019s on my mind.\u201d \u2013 Fatima  \n\nHowever, for some students, the ability to speak up and advocate for oneself was difficult  because of the way they were raised.", 
  "\u201c\u2026 I was always told, \u2018Oh, no, quiet.\u2019 You can\u2019t really have an opinion, so I guess  I just kind of grew up with that mentality.", 
  "So now it\u2019s kind of like in me, and it  something that I try to work on, but it\u2019s really hard.\u201d \u2013 Teresa  \n\nFor many students interviewed, the ability to ask for help when a problem arises is an essential  coping strategy.", 
  "\u201cYou\u2019re struggling, go ask for help.", 
  "And that\u2019s one thing that also opened up my  eyes, is you know you do struggle with life, homework, school, everything.", 
  "But you  have to ask for help.\u201d \u2013 Carol  \n\u201c\u2026I learned when we have a problem or we\u2019re having trouble with something, the  first thing you do is go talk to [the professors].", 
  "I know that some people are like  \u2018No, I don\u2019t want to ask the professor.", 
  "I\u2019ll be okay.\u2019 I\u2019m just like, \u2018No, go ask.", 
  "That\u2019s  what they\u2019re there for.\u2019\u201d \u2013 Veronica  \n\nFor some students, asking for help is not an easy option.", 
  "In many cases, it is a last resort.", 
  "One  student stated, \u201c\u2026I feel bad not knowing things.", 
  "So I think it\u2019s better for me to learn them on my  own and like, struggle with them by myself.\u201d  \nA few students shared their experiences with having been reluctant to ask for help, especially as  an early college high school student, but realized the importance of being able to ask when it\u2019s  needed.", 
  "\u201c\u2026I was just shy because \u2013 what would everybody think?", 
  "Everybody thinks I\u2019m too  young.", 
  "Not even that, but just the fear of \u201cWhat would people think?\u201d So there was  a point where I just thought \u201cOkay, enough is enough.", 
  "I don\u2019t care if I get any kind  of criticism.", 
  "I\u2019m just gonna go get help.\u201d And I did.", 
  "And honestly, it just felt great.", 
  "I feel like all that weight that was accumulating from that first semester of DMU  \u2018til then just\u2026 I don\u2019t know.", 
  "It just felt really nice.\u201d \u2013 Melissa  \n\nThe students interviewed offered specific examples of how their personal and demographic  characteristics as well as their coping strategies helped and, in some cases, hindered their  transition from early college high school to a four-year university.", 
  "Many provided evidence of a  positive outlook on life and the ability to not dwell on things that were out of their control, but  rather formulate a plan of action to overcome challenges.", 
  "Research Question #2: External (institutional) factors  For this study, external factors include the \u201cSupports\u201d element of Schlossberg\u2019s transition  theory\u2019s 4 S System.", 
  "Support systems can be useful in stressful situations.", 
  "Supports analyzed in  this study that can assist a student with the transition from an early college high school to a four- year university included family, friends and peers, early college high school, and university  supports.", 
  "Many of the students interviewed indicated that family, including parents, grandparents, and  siblings, provided much support when they faced a difficult situation.", 
  "Family supports ranged  from the availability of financial support to emotional support given during times of stress, to  just being a constant and reliable presence.", 
  "For most of the students that discussed family support  systems, parental support was the most common.", 
  "Students also indicated that friends and school peers were people in their lives that they felt they  could rely upon for support, particularly of a non-academic nature.", 
  "Some students mentioned the  financial support they received from friends and classmates.", 
  "\u201c\u2026There are some times when I don\u2019t have the book and I don\u2019t have money to buy it, or  they don\u2019t have the book and then they don\u2019t have money to buy it.", 
  "We all share the  book.\u201d \u2013 Wanda  \n\u201cI think my friends have been very supportive.", 
  "Like the time that I was homeless in high  school, my friend\u2026she took me into her home, and I was living with her\u2026.My friend\u2019s  mom, \u2026 for Christmas she bought me a laptop, and like no one has ever bought me  something that big, not even my family.", 
  "So they\u2019ve been very supportive.\u201d \u2013 Teresa  \nMany of those interviewed mentioned how beneficial it was to have friends who had also  attended early college high schools.", 
  "They supported one another through shared struggles.", 
  "\u201c\u2026All my friends are in the same boat that I am.", 
  "So we\u2019ve always encouraged each  other\u2026.", 
  "As competitive as we are, because we all want to get somewhere \u2013 if one of us  falls behind, it\u2019s like, pick it back up and let\u2019s keep going.", 
  "So there\u2019s never been  knocking each other down.\u201d \u2013 Hannah  \n \u201c\u2026There were a lot of people with the same mindset that I had, which was, you know, to  pursue higher education and career and so forth.", 
  "You know, everybody just really  motivated one another.\u201d \u2013 Melissa  \nMost students interviewed indicated continued support from teachers and staff at the early  college high school.", 
  "The supports received were both academic and emotional, and they seemed  to continue after high school graduation and into college.", 
  "A number of students referred to early  college high school teachers and staff as family because of the support they offered outside of the  classroom.", 
  "\u201c\u2026When I had problems \u2013 even personal problems \u2013 I was really able to go up to them  and talk to them about it.", 
  "And, you know, those teachers \u2013 they build a lot of blocks for  you\u2026 Even though sometimes it can be hard because, I mean, they can\u2019t be the nicest  teachers in the world and give you the A\u2019s that you want.", 
  "But, you know, when you would  get like a C in their class, they\u2019d talk to you about it\u2026 You were always able to go up to  them and \u201cOh, I don\u2019t understand the subject,\u201d and you would get more help.\u201d \u2013 Fatima  \n\u201cThey were always there.", 
  "I don\u2019t know how.", 
  "I don\u2019t know if that\u2019s all their life or  something, but they were always there surprisingly.", 
  "And they understand.", 
  "They know  what we\u2019re going through.\u201d \u2013 Amanda  \n\nA few students mentioned appreciating when early college high school administrators treated  them as college students rather than high school students, allowing for more independence and  encouragement.", 
  "\u201cThe principals, we had three or four principals.", 
  "There was one, Ms. S. She was really  good.", 
  "I liked her.", 
  "She controlled the school.", 
  "She was thinking that since we were in early  college, we should be treated as college students because that\u2019s what we are.", 
  "So they  shouldn\u2019t be restricting us.", 
  "We shouldn\u2019t be raising our hands to go to the restroom and  things like that.", 
  "I really liked her.\u201d \u2013 Mario  \n\u201cAs soon as you start in your freshman year [of early college high school], they throw  you into a biology course that you usually take in your freshman year at college.", 
  "So that  was tough to do.", 
  "But as our principal used to say, it\u2019s like running a marathon.", 
  "The first  time you do it, it\u2019s really tough.", 
  "But after you start practicing and practicing, it just  becomes second nature.", 
  "And eventually that turned into what all of our student\u2026 like, all  the student body there at Morpheus became like\u2026 just taking college classes came  naturally.\u2019 \u2013 Benjamin  \n\nThe push to apply for financial aid and scholarships was mentioned by numerous students  interviewed as valuable support that they received from their early college high school.", 
  "Students  expressed an overall appreciation for the early college high school experience, stating that it may  have been rough at times, but they believed that it had prepared them for the transition to the  university.", 
  "However, a few indicated that they encountered challenges during their transition due  to poor academic advisement from their high school counselors on college courses to take.", 
  "\u201cWhen I came to DMU after I got my associate\u2019s, it was a liberal arts associate\u2019s.", 
  "At that  moment, I didn\u2019t know you could decide to get a science and mathematics associate\u2019s, but  \n\fI was never told that.", 
  "So we graduated and got the associate\u2019s, and I was like \u2018What?", 
  "We  can do that?\u2019 So I graduated with Associate of Arts.\u201d- Mario  \u201cEverything had been\u2026planned out in high school that \u2013 of course \u2013 [I thought] it  would\u2019ve been planned out [at DMU].", 
  "Because I wouldn\u2019t, I wouldn\u2019t have thought that  [my high school counselor] had chosen all the easy courses and then just left all the  difficult ones to the end.\u201d \u2013 Diana  \n\nFor a number of students interviewed for this study, the issue of too many credits was not an  uncommon complaint.", 
  "In some cases, students felt that their options for choice of major or  programs was limited due to the number of semester credit hours they graduated from the early  college high school, while others intended to stay and complete their degree of choice, regardless  of the number of credits required to do so.", 
  "\u201cI took many credits that I didn\u2019t even need, so that\u2019s why have like a lot of credits and  I\u2019m still a junior.\u201d \u2013 Mario  \u201c\u2026The 75 credit hours that I earned in high school for the associate\u2019s, they didn\u2019t \u2013 all  of those credits don\u2019t apply to my degree plan.", 
  "So there\u2019s a bunch of classes that I pretty  much took, but for \u2013 as far as my bachelor\u2019s goes, they don\u2019t really apply\u2026.I will  graduate with, like, 180 credits.", 
  "But my degree plan is only 120 or 125.\u201d - Isabel  \n\nThe university also offered a number of supports to early college high school students,  particularly with tutoring, scholarships, and role models.", 
  "\u201c\u2026It\u2019s kind of cool having DMU bring people that went to our school to talk about what  they\u2019re doing now\u2026.", 
  "It gives you motivation that \u201cHey, one day maybe you can be up  there.", 
  "If not, somewhere else presenting something, where \u2018I came from here, and this is  what I\u2019m doing now.\u2019\u201d \u2013 Carol  \n\u201cMy senior year we got a scholarship\u2026 scholarship/financial aid person that came from  DMU, here from DMU, to our early college and help us if we had any questions about  anything.", 
  "She would help us.", 
  "She would have like a little office, and she would help us in  case we had questions about any scholarships that DMU offered.", 
  "That was really  helpful.\u201d \u2013 Rosa  \n\nInterestingly, many students spoke of their high involvement in clubs and organizations when  they attended early college high school, but there was an overall lack of engagement in student  organizations as university students.", 
  "Most students indicated that this lack of involvement was  due to living off campus, working, or courseload.", 
  "\u201c\u2026Sometimes I think that if I lived on campus, I could be more involved, not  academically, but in the stuff they do, the activities they do.\u201d \u2013 David   \n\u201cI haven\u2019t really been able to do much, just because most of my time is devoted to work  and classes and homework\u2026 Just that my thing is if I\u2019m not gonna be able to contribute  \n\fto the club, then I don\u2019t see it fair.", 
  "So if I\u2019m gonna go and go to one meeting every three  months, then I just don\u2019t see the point.\u201d \u2013 Luis  \nThe impact of external supports available to students can significantly impact the ease with  which students make the transition from early college high school to a four-year university.", 
  "However, the low levels of student engagement outside of the classroom seemed to impact many  students\u2019 ability to develop social networks that could help them feel more connected to the  university and provide a type of nonacademic support that seemed absent for many students.", 
  "Discussion  The students in this study were all either in the process of transitioning to DMU or had  completed the transition.", 
  "One of the primary concerns associated with early college high schools  is centered on the young age of students entering a four-year university.", 
  "Though age did not  appear to hold students back academically, this study found that age was a barrier to the  development of social relationships with other students outside of the classroom.", 
  "Students were  also less engaged at DMU than they had been in high school, making it more of a challenge to  develop a social network to help ease the transitional experience.", 
  "The researcher found that the study participants possessed characteristics that would lend  themselves to a successful transition, and that these were the same characteristics that likely  helped them successfully meet the demands of an early college high school.", 
  "Characteristics such  as resilience, optimism, a sense of control, and the ability to ask for help, were illustrated through  interview responses.", 
  "The literature on student retention and educational transitions has shown  that such characteristics can have a great impact on educational outcomes (Tinto, 1997;  Terenzini, Rendon, Upcraft, Millar, Allison, Gregg, & Jalamo, 1994; Cabrera & La Nasa, 2001).", 
  "The majority of study participants provided evidence of a positive outlook on life, coupled with a  sense of control.", 
  "Students that were able to look at obstacles and not dwell on aspects that were  out of their control, but instead formulate a plan of action, appeared to adjust to the transition to  DMU more smoothly.", 
  "The level of expectation, both self-expectations as well as those of parents  and early college high school teachers and administrators, appeared to be a strong contributor in  students\u2019 ability to identify their academic goals and having a sense of purpose.", 
  "Study participants shared an appreciation for their early college high school experience.", 
  "Many  expressed gratitude for the opportunity to earn college credit at no cost and qualify for special  DMU scholarship opportunities.", 
  "Study participants had taken advantage of this opportunity by  earning large amounts of college credit in high school, most earning more than required to earn  an associate\u2019s degree by taking DMU courses while still in high school.", 
  "This agreement between  the early college high schools, the community college, and DMU benefited many students by  exposing them to university peers and upper level coursework expectations.", 
  "However, it also  presented obstacles for those with large amounts of credit through program option and financial  limitations.", 
  "The level of support received from parents, friends, the early college high school, and the  university were important factors in helping students successfully adjust to the increased  \n\fexpectations at DMU.", 
  "Study participants that were able to name someone that they could turn to  when they encountered a setback, whether a parent or teacher, seemed to have the most  optimistic view of their transitional experience.", 
  "Early college high school graduates usually had  the same teachers for multiple years while in high school, receiving academic, emotional,  administrative, and financial support from these individuals, and often described them as  \u201cfamily\u201d.", 
  "Hoffman et al.", 
  "(2008) discussed the importance of this type of strong support structure  in helping students to successfully transition from high school to college, and many of the  students in this study shared how essential they felt the early college high school had been in  their transition.", 
  "Cole, Duffy, Keating, & Berger (2012) explained the importance of providing adequate guidance  to early college high school students who typically do not have access to the social networks  necessary to navigate college choice, field of study preparations, financial aid processes, etc.", 
  "Early college high school counselors play an important role in preparing students in an academic  sense for their transition to a four-year university.", 
  "Students that attended an early college high  school that provided them with good academic advising prior to their transition complained less  of unknowingly having taken courses that did not apply towards their major or encountering  other related issues in their programs at DMU.", 
  "The transition can be negatively impacted when  communication between the early college high school and the university fails to provide clear  direction on academic program requirements and limitations associated with taking certain  courses prior to entering the university.", 
  "These communication channels must provide clear  pathways for students and help align expectations to ensure a smooth transitional experience for  all students (Cole et al., 2012).", 
  "Conclusions  \nAs the number of early college high schools appearing across Texas and the nation continues to  grow at an exponential rate, it is critical that policymakers and those involved in the development  of these schools understand the factors that affect an early college high school student\u2019s transition  to a four-year university.", 
  "We continue to encourage younger and younger students to obtain college  credit and speed up their journey to obtain a bachelor\u2019s degree, but we must be cognizant of the  additional supports necessary at the high school and college levels to ensure that these students are  equipped  to  handle  not  just  the  academic  expectations,  but  also  the  social  and  emotional  expectations of a four-year university as young upper level college students.", 
  "Schlossberg\u2019s Transition Model was used to gain an understanding of how early college high  school students cope with the transition to a four-year university.", 
  "By applying this model to young  adults, the researcher was able to examine student experiences and identify internal and external  factors shared by successful students in coping with the transition.", 
  "The following four policy  recommendations are based on the findings from this study:  \n\n1.", 
  "Address barriers and miscommunication around academic programs through improved  academic advising before and during the transition.", 
  "2.", 
  "Ensure clear communication exists between the university and early college high school  students prior to the transition, particularly around programs and services offered and  eligibility requirements.", 
  "3.", 
  "Prevent policies that would negatively influence the support system that exists within early  college high schools, including those that would impact the relationships between students  and staff that provide the support structure that many students rely upon.", 
  "4.", 
  "Encourage  early  college  high  school  graduates  to  become  more  involved  in  campus  activities to ease the development of social relationships with university peers.", 
  "The findings from this study suggest that early college high school graduates possess certain  characteristics  that  help  them  manage  the  transition  into  a  four-year  university,  including  resilience, optimism, and a level of comfort in asking for help when needed.", 
  "Students that lack  such characteristics may be less likely to successfully reach the point of graduating from an early  college high school.", 
  "What is unclear and requires further research is whether and how an early  college  high  school  can  help  strengthen  these  traits  in  students  and  ensure  their  successful  graduation and continued pursuit of a four-year college degree."
 ]
}