{
 "document_id": "1170202.1", 
 "sentences": [
  "\nObjective  \nThe purpose of the proposed presentation is to discuss the daily attendance rates in six small high  schools over a ten-year period and evaluate how stable they are.", 
  "Time series analysis is used.", 
  "\u2018Stability\u2019 is approached from two vantage points: pulse models are fitted to estimate the impact  of sudden perturbations and their reverberation through the series; fractional differencing  techniques are used to detect dependencies over the long range of the series.", 
  "The analyses are  meant to exemplify the utility of time series approaches in educational research, and to show  what we can learn about school attendance by considering its time dimension.", 
  "Theoretical Framework  \nDewey (1929) characterized the temporal span of growth and change as \u2018the factor most  important in education\u2019 (p. 67-68), and we have paid heed to this insight by investigating  educational effectiveness longitudinally.", 
  "However, traditional mean and variance computations  are not always sufficient to characterize the distribution of frequently repeated within-subject  observations, because they ignore the possibility of error dependency (Beran, 1994), or  instability in the system of interest (Goldstein, 1988).", 
  "Time series analysis has been specifically  designed to deal with these issues (Cryer & Chan, 2008; Mandelbrot, 1997).", 
  "Yet, the field of  education lacks a tradition of collecting and analyzing time series data, in spite of the fact that  the merits of this technique to the field were pointed out quite some time ago (Glass, 1972).", 
  "Since 2004 and up to the time of this writing, New York City Department of Education has  publicized the daily attendance rates for each of its schools on its website.", 
  "These data not only  address an important contributor to educational success, they also exhibit the degree of resolution  needed to detect underlying systems dynamics that are hidden in the conventionally reported  weekly, monthly or yearly average rates.", 
  "The study presented here investigates stability and  change in daily attendance rates in six small high schools over a ten-year period (2005-2014)  focusing on two aspects: sudden perturbation and its impact on the series, and the presence of  long-term dependencies suggesting unpredictable cycles (meta-stability).", 
  "This analysis utilizes two complimentary statistical approaches.", 
  "The first is the estimation of  short-term dependencies as well as cyclical and long memory processes in daily attendance rates  using autoregressive fractionally integrated moving average (ARFIMA), or fractional  differencing models.", 
  "The second is an assessment of the impact of temporary perturbations on  the series through pulse models (intervention analysis).", 
  "Fractional Differencing (ARFIMA)  \nAssuming a time series trajectory Yt, Yt-1, Yt-2, \u2026 , Yt-n, with  \u03bc = E(Yt) = 0, and a backshift  operator B defined as B(Yt) = Yt-1, B2(Yt-1) = Yt-2, \u2026, the conventional ARIMA (p, d, q) model  estimates short-term autocorrelation and moving average processes, with p specifying the  number of autoregression (AR) coefficients, q specifying the number of moving average (MA)  coefficients as shown in the equation shown below.", 
  "The differencing term d = 0 in case of  stationarity (i.e., constant statistical properties across the time spectrum) and is set to d = 1, 2, .", 
  ".", 
  "in the non-stationary case as the first or second, ..(etc.", 
  "), difference removes non-stationarity from  the series (Cryer & Chan, 2008).", 
  "Fractional differencing incorporates an estimation of d into the ARIMA model to address the  long-term dependencies in the series as follows:  \n\n(1 + \u03c61B + \u03c62B2 + \u2026 + \u03c6pBp)(1 \u2013 B)d Yt  = (1 + \u03b81B + \u03b82B2 + \u2026 \u03b8qBq) et  \nThe two sets of terms on the left side of this equation represent the autoregressive and the long  memory process, respectively; the terms on the right show the moving average component.", 
  "Fractional differencing involves an estimation of d based on the data (-.5 < d < .5), such that d =  0 (no long term autocorrelation), d > 0 (positive long term autocorrelation or persistence) or d <  0 (negative long term autocorrelation, or anti-persistence, Beran, 1994; Sowell, 1992).", 
  "Pulse Models (Intervention Analysis)  \nOne of the attractive features of time series analysis is that it permits the incorporation of outliers  into the modelling process with an explicit estimation of their impact on the series.", 
  "This process  involves two steps: the designation of particular observations as outliers, and the estimation as to  whether or not their impact on the series endures beyond the particular point of occurrence.", 
  "For  any type of outlier, the relationship of its residual \ud835\udc52\ud835\udc61 to the unperturbed model \ud835\udc4c\ud835\udc61 is estimated  using a regression model:  \nand the following test statistic:  \n\ud835\udc52\ud835\udc61 =  \ud835\udf14\ud835\udc4c\ud835\udc61 +   \ud835\udc4e\ud835\udc61  \n\ud835\udc47 =   \ud835\udf14\ud835\udc57 \n\ud835\udc47 /(\u221a\ud835\udc49\ud835\udc4e\ud835\udc5f(\ud835\udf14\ud835\udc57 \n\ud835\udc47 )                ~ \ud835\udc41(0, 1)                                  \n\nThe subscript j classifies the outlier types included in the estimation (IBM SPSS, 2016).", 
  "Three Scenarios  \nThree types of perturbation are of particular concern to the present analyses: Additive outliers,  which mark a one-time departure from the unperturbed series at a given time point, level shift  outliers, marking a \u2018permanent\u2019 departure from the unperturbed series at a given time point, and  \n\ftransient change outliers, which indicate a change at a given point followed by a \u2018recovery\u2019  toward the central tendency of the unperturbed series.", 
  "These three scenarios can be further  explicated as follows (Pe\u00f1a, 2001):  \nAdditive Outliers (AO)  \nIf an AO outlier occurs at a given time point T = t, then the observed process can be represented  \n\u2032 =   \ud835\udc4c\ud835\udc61 +  \ud835\udf14\ud835\udc43\ud835\udc61 \n\n\ud835\udc4c\ud835\udc61 is the unperturbed process,  \ud835\udc43\ud835\udc61 which case \ud835\udf14 represents the deviation from the unperturbed process.", 
  "\ud835\udc47 is a pulse function which equals 0 if T \u2260 t, and 1 if T = t, in  \nLevel Shift Outliers (LS)  \nIf an LS outlier occurs at the time point T = t, then the observed process can be represented as  \n\u2032 =   \ud835\udc4c\ud835\udc61 +  \ud835\udf14\ud835\udc46\ud835\udc61 \n\ud835\udc46\ud835\udc61  \n\n1 \u2212 \ud835\udc35 \n\nAnd the pulse function \ud835\udc43\ud835\udc61 departure from the unperturbed process.", 
  "\ud835\udc47 equals 0 if t < T and 1 if t \u2265 T. In the latter instance, \ud835\udf14 represents the  \nTransient Change (TC)  \nIf a TC outlier occurs at time point T = t, then the observed process can be represented as  \n\n\u2032 =   \ud835\udc4c\ud835\udc61 +  \ud835\udf14\ud835\udc37\ud835\udc61 \n1 \u2212 \ud835\udeff\ud835\udc35 \n\nAt T = t, \ud835\udc43\ud835\udc61 process and \ud835\udeff is the rate of recovery (0 < \ud835\udeff < 1).", 
  "\ud835\udc47 equals 1, in which case \ud835\udf14 represents the initial deviation from the unperturbed  \nOverview of the Analysis  \nFor each of the six schools, the analysis consisted of the following steps.", 
  "1.", 
  "Initial exploration of the statistical properties of the original attendance trajectories and  \ntesting of their stationarity based on the Augmented Dickey-Fuller (ADF) test;  \n2.", 
  "Outlier detection and estimation of their impact, done mechanically using the IBM-SPSS  \nForecasting feature with ARIMA (0, 0, 0) specification (pulse model);  \n\f3.", 
  "Generation of the residuals from the pulse model, uncontaminated by extreme values.", 
  "This second series was subjected to further analysis;   \n4.", 
  "A stepwise model selection process comparing the following types of models:  \na.", 
  "Unconditional ARIMA (0, 0, 0) models assuming independent observations;  b.  ARIMA (p, 0, q) models estimating autoregressive and moving average processes  \nto estimate dependencies between immediately neighboring observations;  \nc.  Lag 5 and 10 models to assess the contribution of weekly cycles to the variability  \nin the series;  \nd.  Models with and without d included to estimate the long memory process.", 
  "5.", 
  "Computation of Akaike\u2019s Information Criterion (AIC) and inspection of Autocorrelation  \nFunction (ACF) plots to evaluate the goodness of fit of the models;  \n6.", 
  "Parameters of the best fitting models were interpreted for each of the six schools.", 
  "Data Sources  \nBased on enrollment information provided by NYCDOE over the past seven years (from 2007- 08 to 2013-14), all schools serving each of grades 9-12 in all of those seven years were initially  selected.", 
  "For each of those years, the schools were divided into four groups: Small (size falls  below the 25th percentile at that year), Small to Medium (between the 25th and 50th percentile),  Medium to Large (between the 50th and 75th percentile) and Large (greater than or equal to the  75the percentile).", 
  "A random sample of ten high schools was drawn from the population of  schools whose size was below the 25th percentile in each of those seven years.", 
  "Of these ten, six  had ten years\u2019 worth of attendance data (September 2004 through June 2014).", 
  "Table 1  summarizes the demographic characteristics of those six schools.", 
  "Median imputation was conducted to the series of each school to replace single missing  observations in cases where up to three neighboring values within a week were missing from the  trajectory; the entire week was removed from the series if more than three subsequent values  were missing.", 
  "Periods without attendance (vacation, intersession) were removed, resulting in  fully continuous trajectories.", 
  "Table 2 provides basic summary statistics of these trajectories,  including a confirmation of the stationarity of the series of all six schools (see ADF test results \u2013  the alternative hypothesis is stationarity).", 
  "Also in Table 2 are the number and type of outliers  detected in each school.", 
  "Figure 1 shows the original attendance series for all six schools, illustrating the downward pull  from the extreme values in each school.", 
  "The residuals from the pulse models in Figure 2 show  the \u2018uncontaminated version\u2019 of these series.", 
  "Yet, as the ACF plots in Figure 3 indicate, short- term and weekly cyclical patterns remain in those residuals; Figure 4 shows their successful  removal through ARFIMA.", 
  "Table 3 summarizes the ARFIMA model selection process of each of the six schools.", 
  "Comparing  Model 1 and 2 to the other models indicates that in none of the schools, adding d to the  unconditional model was sufficient; some combination of short term and cyclical parameters of  the autoregressive and moving average processes needs to be included.", 
  "It can be seen that in all  schools except School 5, the best fitting models include weekly cycles.", 
  "Moreover, in Schools 1,  3, 4 and 6, a parameter for long term memory processes should be included.", 
  "Table 4 lists the  parameter estimates for the best-fitting models.", 
  "Schools 1, 2 and 6 show strong autocorrelation  and moving average effects at the fifth lag, while in School 3 and 4, weaker dependencies are  observed at the 5th lag (moving average) and at the 10th lag (autocorrelation).", 
  "Where applicable,  the differencing parameters indicate a mild persistence ranging from d = .14 in School 3 to d =  .18 in School 6.", 
  "To illustrate the pulse analysis, Tables 5 and 6 show the coefficients for the outliers in one of the  schools (School 2), and their location on the time spectrum.", 
  "There is one downward LS toward  the beginning of the series (t=19, October 7, 2004) and one upward at t=819 (February 2, 2009).", 
  "Twelve TC outliers indicate perturbation with recovery throughout the series, except for the last  two years, in which case only AOs were observed.", 
  "All but two of the TC outliers occur in mid- September, late December and early January, marking, respectively, the beginning of the school  year and the Christmas break.", 
  "Figure 5 illustrates these processes for the first, second, ninth and  tenth year in School 2.", 
  "The fitted values (dashed lines) show how the LS and TC outliers produce  instability in these trajectories in the first two years (Figures 5a and b), while in Year 9 and 10,  attendance appears to be pretty stable with only AOs that do not further impact the series  (Figures 5c and d).", 
  "Significance  \nThe analyses presented here call into question the stability assumption, reflected in the reporting  of weekly, monthly or yearly average attendance rates.", 
  "In these six schools, complex dependency  patterns are observed, including weekly cycles, perturbation, shifts in the central tendency and  gaps produced by extreme values.", 
  "Furthermore, in four of the six schools persistence was  observed, pointing to cycles whose scale is unpredictable (Mandelbrot, 1997).", 
  "This latter pattern  may suggest a vulnerability to the influence of a complex pattern of exogenous variables (Beran,  1994) such as parental support, instructional quality and school leadership in those four schools,  while the other school may be relatively immune to this.", 
  "A triangulation with data from other  sources is required to confirm this speculation, as is the examination of the circumstances under  which particular outliers occur.", 
  "Practical implications and limitations of the study are discussed."
 ]
}