{
 "document_id": "1171103.1", 
 "sentences": [
  "Privacy versus the Integrity of Research and Evaluation in Schools  \nGlynn D. Ligon, Ph.D., ESP Solutions Group, Inc.", 
  "Presented at the Annual Meeting of the American Educational Research Association  \nSan Antonio, Texas, April 27, 2017  \nThe \u201cPoster Supplement\u201d handed out at the poster session where this paper                                  was presented at the Annual Meeting is included in Exhibit C.      \nAbstract: Researchers and evaluators can be frustrated to find that crucial data elements are missing  from student records provided by education agencies.", 
  "De-identification to protect personally identifiable  information removes key characteristics of individuals.", 
  "This study identified how education agencies  manage their own databases and those for the public and researchers.", 
  "Recommendations are made for  a specific set of data to be created with identified records for authorized and authenticated researchers  and evaluators.", 
  "FERPA doesn\u2019t deny researchers and evaluators access to students\u2019 personally identifiable information  (PII).", 
  "FERPA doesn\u2019t mandate that education agencies provide external researchers and evaluators only  de-identified databases.", 
  "However, to protect personally identifiable information, some education  agencies may have de-identified or masked so many data elements within their databases that research  and evaluation (research and evaluation) is at risk.", 
  "These education agencies have defaulted to this  strategy as the ultimate protection against unintentionally revealing confidential data.", 
  "They may also  have adopted this policy as the easiest or most equitable response to the quantity of requests they  receive for data.", 
  "Unfortunately, this stance may also be the result of a lack of a full understanding of  FERPA and the mutually beneficial alternatives available for creating sets of data that can meet  everyone\u2019s needs.", 
  "Set: A dataset or database containing a group, or subset, of data elements.", 
  "The elements may  be granular within individual records or aggregate statistics in entity records or within tables.", 
  "The specific elements in a set are selected to match the needs and authorized uses of the  persons who will be provided access to the dataset.", 
  "FERPA: The Family Educational Rights and Privacy Act (1974) that is the foundation for  protecting education records  \nPII (Personally Identifiable Information): Information or data elements that can be used on  their own or with others to identify, contact, or locate a single person, or to identify an  individual in context  \nResearch and Evaluation: Within the context of this paper, investigative studies testing  hypotheses about education, instruction, program development, assessment, and other issues  broadly informed using data available from schools and education agencies  \nThis paranoia by education agencies and the over-de-identification process it creates either prevents the  collection of necessary data elements or removes them from the student records available to  \nPrivacy versus the Integrity of Research and Evaluation in Schools                           Page 1  \n\fresearchers and evaluators.", 
  "At times, the de-identification is even ineffective.", 
  "Ineffective in the sense  that a clever analyst can recover the data from marginal totals and other remnants left in the database  or related tables.", 
  "Other times, it is unnecessary.", 
  "Unnecessary in the sense that the elements removed  were not actually personally identifiable.", 
  "Almost always, as this paper describes, there is a better  methodology available.", 
  "This study is applied research into the problem of how agencies can protect PII while preserving the  integrity of data for research and evaluation.", 
  "In this case, the problem studied is both institutional for  education agencies and professional best practice for researchers and evaluators.", 
  "This places the issue  squarely in the charter of AERA\u2019s Division H.  The audience for privacy, confidentiality, de-identification,  or research and evaluation using school district, state education agency, and university-based databases  has grown to include almost everyone in the educational research community.", 
  "Meanwhile, the research  and evaluation profession has been championing the protection of PII often to its own disadvantage.", 
  "Applied Research: Study that seeks to solve practical problems    \nSignificance of This Problem: An education agency has two challenges when de-identifying the records  within a database.", 
  "Simultaneously, the agency should:  \n1.", 
  "Remove the personally identifiable characteristics of individuals, and  2.", 
  "Retain the integrity of the records for analysis and reporting.", 
  "As soon as an agency sets out to establish the business rules for de-identifying individual records, the  paradox of these goals becomes apparent.", 
  "Removing the PII of individuals degrades the integrity of the  records for analysis and reporting.", 
  "For example, a researcher requests a database to study gender and  race differences for military connected students.", 
  "The Every Student Succeeds Act (ESSA) requires states  to identify and report students whose parents have military connections.", 
  "The education agency may  read FERPA and remove the students\u2019 names, addresses, and birthdates because those are PII.", 
  "Then  they remove the students\u2019 race, ethnicity, gender, and enrollment dates because those are conditionally  PII data elements.", 
  "The researcher\u2019s resultant analyses will not be very precise.", 
  "Conditional PII: A data element that on its own is not personally identifiable but when combined  with others becomes personally identifiable  \nIsaac Newton\u2019s Third Law of Motion: For every action, there is an equal and opposite reaction  (Mathematical Principles of Natural Philosophy, 1687) (46)  \nLet\u2019s restate Isaac Newton\u2019s Third Law of Motion simply for databases.", 
  "Every action we take to de- identify a data element in our records creates an equal and opposite reaction against our capability to  analyze and report from our database.", 
  "Unfortunately, Mr. Newton lived long before we discovered that  the reactions within databases are exponential.", 
  "Therefore, deleting a single data element from a  database can in reality disable untold combinations and permutations of relationships and causalities  available to a researcher to explore.", 
  "In other words, we should be so lucky, Mr. Newton, to suffer only a  single equal and opposite reaction for each data element we tamper with in our database.", 
  "Take for example the case of John Snow back in 1854 who ended a cholera outbreak by noticing that the  addresses of victims centered around a water pump.", 
  "(47)  What if HIPAA and FERPA had prevented the  provider of his database from revealing the personally identifying data element of address for the  \nPrivacy versus the Integrity of Research and Evaluation in Schools                           Page 2  \n\findividuals in Chicago?", 
  "Imagine if a future example is the discovery that students born within a specific  date range in a certain city perform significantly better in a phonics program; however, that finding is  never made because birthdate and address were masked within the research database provided the  program evaluators?", 
  "Therefore, students are never regrouped to their academic advantage.", 
  "How do we resolve the paradox of faithfully performing our data stewardship to protect PII while  preserving the data integrity within databases for research and evaluation?", 
  "If they cannot assure  politicians and parents that PII is secure and confidential, then education agencies are at risk of losing  the authority to collect and store those data as in Louisiana.", 
  "(1)  In that state, a restrictive law was  passed reducing the authority of the state education agency to collect PII.", 
  "If that occurs, then  researchers and evaluators, both internal and external, lose the ability to conduct the studies that  contribute to school improvement.", 
  "The schools may also have gaps in their accountability reporting of  official statistics to the public, the state, and the federal government.", 
  "The Senate\u2019s 2015 Student Privacy Protection Act proposed to prohibit funding for any agency that  \u201cappends\u201d PII through data matches, and any student data from being included in state longitudinal  data sets unless they are first \u201caggregated, anonymized, and de-identified.\u201d AERA Executive Director  Felice J. Levine protested, \u201cAt the heart of our concern is to avert putting student privacy and the quality  of student data on a collision course.\u201d Ultimately, the Every Student Succeeds Act (ESSA) said little about  PII, deferring to a future update of FERPA (2, 3, and 4).", 
  "Division H is AERA\u2019s champion for conducting the applied research to inform issues like this one.", 
  "For  local education agencies (LEAs), the issue is very basic: Will parents opt out of providing data (e.g.,  participation in assessments, surveys, studies, directory information, etc.)?", 
  "How can we assure them our  systems are confidential and our governance processes protect their children\u2019s PII?", 
  "When responding to  requests from external researchers, does a de-identified database support research and evaluation  findings that improve instruction and support decision making by the LEA?", 
  "Are new state privacy laws  reasonable or reasonably implemented?", 
  "(5 and 6) What practice is successful now on each side of the  issue?", 
  "Is the best solution a compromise, i.e., a compromised database?", 
  "Does this sacrifice some degree  of confidentiality along with some sacrifice of desired data elements?", 
  "Currently, education agencies are  too often choosing either a compromise that underserves researchers and evaluators, or choosing to  avoid all risk by de-identifying and not accommodating research and evaluation at all.", 
  "Theoretical Framework: Research and evaluation must work with policy makers to achieve mutual  goals.", 
  "They both must work with information technology (IT) professionals as well.", 
  "This study crafted a  theoretical framework of politimetrics and polititech to design a solution model that researchers and  evaluators, policy makers, and IT professionals can endorse.", 
  "IT: IT, Information Technology, the development, maintenance, and use of computer systems,  software, and networks for the processing and distribution of data/information  \nPolitimetrics: Decisions made through science (psychometrics) and policy (politics)    \nExamples are adopting a proficiency score, how many credits to require for graduation, and  what cell size protects confidentiality.", 
  "Neither the pure psychometricians nor the pure  politicians should make these decisions independent of the data and wisdom of the other.", 
  "(7)  \nPrivacy versus the Integrity of Research and Evaluation in Schools                           Page 3  \n\fPolititech: Merging of policy (politics) and technology to create data governance policies and  processes    \nPolititech is important because data governance is the solution to resolving the paradox of  protecting PII while maintaining the integrity of the contents of the longitudinal data system for  analytics.", 
  "(8)  \nData governance, which includes managing PII into and out of databases, is quintessential polititech.", 
  "Designing a database model to fit the political (e.g., FERPA and HIPAA) mandates, the compliance  reporting rules of enabling legislation, and the analytical requirements of researchers is polititech.", 
  "Likewise, there should be complete agreement that a single data governance policy overseeing  everything is essential.", 
  "Data governance (including politimetrics) is an essential process for education  agencies to manage their information resources, including how research and evaluation is conducted.", 
  "Data Governance: An education agency\u2019s policies and processes for overseeing the collection,  storing, accessing, and reporting of its data  \nFERPA and HIPAA do not restrict an education agency from collecting and storing personally identifiable  data on its students, employees, and those it certifies; however, there are some restrictions on how  those data persist and are shared when the individuals terminate their relationship with the agency.", 
  "This paper is not about the laws.", 
  "This is about polititech\u2014how the laws intersect with technology.", 
  "So  our focus will be on data governance issues.", 
  "Conceptual Framework: The conceptual framework for this study was to (A) describe extant models of  education agencies publishing data and responding to data requests, (B) evaluate them for efficacy  related to both protection of PII and support of research and evaluation, and (C) identify/develop an  architecture that satisfies both requirements.", 
  "This framework was supported by a review of longitudinal  data systems, their associated data governance policies, and literature on de-identification of PII.", 
  "The  de-identification methodologies implemented within the data systems and the masking techniques  employed during the reporting processes were documented.", 
  "This provided the content for the  conceptual framework for understanding and designing strategies that successfully addressed the stated  problem.", 
  "De-Identification: Any method used to remove or obscure data elements or values associated with a  single individual  \nDe-identification is important because individuals or their parents want to preserve the  confidentiality of information about them.", 
  "Study Design: The study design incorporated a review of the literature of confidentiality, de- identification, and data model architecture.", 
  "Viable solutions for education agencies that ensure  confidentiality for PII were identified.", 
  "The Office of Management and Budget issued their \u201cStatistical  Policy Working Paper 22 - Report on Statistical Disclosure Limitation Methodology.", 
  "Federal Committee  on Statistical Methodology\u201d (13), which describes in detail multiple methods.", 
  "The National Center for  Education Statistics (NCES) has issued several guidance documents with methods for education  agencies.", 
  "(10) (11) (12) (14) (15) (16)   \nPrivacy versus the Integrity of Research and Evaluation in Schools                           Page 4  \n\fThe study team was in a unique position to access descriptions of longitudinal data systems across the  nation from its direct work with nine contracts for vertical reporting (state reporting from schools/LEAs  to state education agencies (SEAs) in Alaska (17), Arizona (18), Connecticut (19), Iowa (20), Idaho (21),  Missouri (22), Ohio (23), Utah (24), and Wyoming (25)) and 11 other contracts to design and/or build  longitudinal data systems (Alaska (26), Colorado (27),   Delaware (28), Idaho (29), Louisiana (30),  Missouri (31), Montana (32), South Dakota (33), Tennessee (34), Texas--ESC Region 10 (35), and  Wyoming (36)).", 
  "In addition, descriptions were available of other systems funded by IES/NCES (37).", 
  "Vertical Reporting: The process of reporting data from one level of government to the next  higher level (e.g., from districts to states or from states to the federal government)  \nData Collection and Analysis Procedures: The study methodology involved direct examination of the  metadata dictionaries of each organization to determine the PII collected and maintained in their  operational data stores.", 
  "Business rules for de-identification and masking for reporting were examined.", 
  "This included details of the data elements reported by the LEAs and stored in the SEA databases.", 
  "These  data elements and the derived official statistics published in public reports were also examined.", 
  "Analysis  procedures used content analytics of the metadata and descriptive documentation of these systems.", 
  "For  this study, the focus was mainly on the de-identification processes implemented both within the  databases and upon reporting.", 
  "The study investigated methodologies to discover unique processes  across the agencies.", 
  "The practices documented were compared and contrasted with theory and  guidance provided in the literature.", 
  "(38) (39)  The conceptual framework was followed to produce the  four-set architecture that was recommended.", 
  "Findings: The findings are presented within the theoretical framework described for research and  evaluation, policy makers, and IT.", 
  "IT must be able to deliver a solution that both policy makers and  research and evaluation can use effectively.", 
  "The first finding from the review of the literature, relates to  the analysis of HIPAA\u2019s guidance and its relationship to PII in education records.", 
  "HIPAA: The Health Insurance Portability and Accountability Act (1996) that protects health  \nHIPAA guidance (included in Exhibit A) simplistically specifies 18 data elements to remove from a  database to achieve safe harbor status.", 
  "(40, 41)  With those data elements gone, a database is  considered to protect identities.", 
  "Unfortunately, suppressing all these data elements did not suffice for  these education agencies.", 
  "The concept that introduces the most question is that of conditionally  identifiable elements.", 
  "Conditional PII: Data elements that on their own are not PII, but become personally identifiable  when known in combination with other data elements  \nFERPA defines these as elements that when combined with other elements can identify the identity of  an individual.", 
  "Gender, race/ethnicity, and disability conditions are not first-line PII in FERPA; however,  they may be defined, and are frequently by education agencies, as conditional PII elements.", 
  "These are  not among HIPAA\u2019s safe harbor elements.", 
  "They are elements education agencies deem linkable to  individuals.", 
  "Privacy versus the Integrity of Research and Evaluation in Schools                           Page 5  \n\fMany of the 18 data elements are typically essential co-variables or classification variables in education  studies.", 
  "Suppressing them in a database is a disabling methodology from the perspective of research  and evaluation.", 
  "The review of governance practices for extant systems built by SEAs from the data collected from LEAs  showed these practices for protecting PII when responding to requests for data.", 
  "1.", 
  "Refusal of Requests   \n\u2022  Not all agencies had clear data governance policies describing the application, review,  \napproval, and appeal process.", 
  "Controlling and protecting PII was managed at times  simply by not approving requests for data.", 
  "2.", 
  "Redacted Reports  \n\u2022  For one-time, ad hoc requests, an efficient response is to provide an unpublished report  \nwith confidential sections redacted.", 
  "3.", 
  "Tables with Small Cells Masked  \n\u2022  A common practice is to follow standard masking techniques for small cells.", 
  "This is the  \npractice evident on agencies\u2019 public websites.", 
  "4.", 
  "Ad Hoc Responses  \n\u2022  Requests that require custom analyses generate unique responses\u2014and are considered  \n\u201cone-time\u201d activities that are not posted for other audiences to share.", 
  "These do not  become standard processes or reports.", 
  "5.", 
  "Ad Hoc De-Identified Databases  \n\u2022  Requests for records that contain PII require custom de-identification.", 
  "These are  \ntypically handled through the agency\u2019s research request review and approval process.", 
  "6.", 
  "De-Identified Research Databases  \n\u2022  Some agencies have a prepared de-identified database available for researchers.", 
  "Even  these may be accessible within a very controlled environment.", 
  "For example, users may  be required to access them within a controlled lab environment.", 
  "7.", 
  "Extract of Identified Records   \n\u2022  Authorized researchers with approved research studies infrequently are provided a  \ndatabase.", 
  "\u2022  Technically, some precoding databases provided to assessment vendors are in this  \ncategory.", 
  "8.", 
  "Authorized, Authenticated Access to Identified Internal Databases  \n\u2022  This was only found to be infrequently available to limited vendors and individuals  \nunder contract with the agency after signing a confidentiality statement.", 
  "These eight responses should be guided by the agency\u2019s data governance policy.", 
  "There are three  fundamental processes within an education agency that the data governance policy must support.", 
  "1.", 
  "Operations and Official Reporting from the Agency\u2019s Authoritative Data Source(s) (e.g., human  \nresources, finance, student information system, longitudinal data system, etc.)", 
  "The agency must have operational data systems with their authoritative sources of data.", 
  "These data would support on-going operations with real-time and longitudinal data\u2014 unmodified records for official purposes and reporting.", 
  "For security, these systems  \nPrivacy versus the Integrity of Research and Evaluation in Schools                           Page 6  \n\fwould be behind a firewall and inaccessible to unauthorized personnel.", 
  "Researchers  and evaluators would not access these raw data sources.", 
  "Authoritative Data Source: The single set of data upon which the agency  depends to be its official record and to which all other data are compared for  accuracy  \nOperational Data System: The data system that runs to day-to-day operations  and functions of the agency, e.g., payroll, grade reporting, bus routing, etc.", 
  "Longitudinal Data System (LDS): Data warehouse, database, datastore,  datamart, dashboard, portal\u2014any and all combinations of these systems that  collect, store, and report data across years (With an S in front, the SLDS  designates a statewide system.", 
  "With P20W, the P20W SLDS designates a  multiagency statewide system.", 
  "W refers to the workforce.)", 
  "2.", 
  "Research and Evaluation  \nThe agency must accommodate four classes of researchers and evaluators.", 
  "a.", 
  "The first class includes their own internal employees with a need to know based  \nupon their position and role within the organization.", 
  "b.", 
  "The second class is external persons who request permission, in compliance  \nwith the agency\u2019s Governance Policy, FERPA, and all other applicable  regulations, to conduct a study requiring access to data that includes PII.", 
  "c.  The third class is external persons who request permission, in compliance with  the agency\u2019s Governance Policy, FERPA, and all other applicable regulations, to  conduct a study requiring access to data that does not include PII.", 
  "d.  The fourth class is persons making requests under freedom of information  \nprovisions.", 
  "These would receive records without PII.", 
  "To be efficient and compliant, the agency must have a de-identified database to provide  with confidence to external researchers in the third and fourth classes.", 
  "Providing a  readily available de-identified database for external analysts is a practical and cost- efficient process for an agency to respond to freedom of information requests as well as  academic proposals.", 
  "External researchers would include anyone with a legitimate  request meeting the data governance policy\u2019s guidelines or a freedom of information  request\u2019s criteria.", 
  "3.", 
  "Public Reporting  \nFor publications deriving from any source, the data governance policy must specify  acceptable processes for de-identifying small numbers in reports that might reveal  personally identifiable information.", 
  "The message in this paper about de-identification is:  \n\u2022  Do it with full knowledge of the degradation of the research and analytic value of the database;   \u2022  Do it at the least disturbed level allowable; or  \u2022  Better yet, don\u2019t do it where it is avoidable.", 
  "Privacy versus the Integrity of Research and Evaluation in Schools                           Page 7  \nIf you don\u2019t do it, then what\u2019s the alternative?", 
  "There\u2019re four steps to protecting the identities of  individuals and still allowing their personal information to reside intact in a database.", 
  "1.", 
  "Secure the database from unintended access.", 
  "2.", 
  "Authenticate the users upon accessing the data.", 
  "3.", 
  "Authorize the users for approved purposes.", 
  "4.", 
  "Mask the data in any small reported fields or cells.", 
  "Whatever the choice, the agency\u2019s Data Governance Policy should protect the PII within an agency\u2019s  databases without question.", 
  "However, an enlightened Data Governance Policy will also enable access to  identified data for authorized purposes by authenticated individuals.", 
  "So, this study\u2019s guidance is to de- identify a database for research and evaluation purposes when necessary, but to rely as often as  possible on vetting the researcher for access to the full data.", 
  "Then police the masking of published  results to hide small cells, and never forget to apply rules that require cells to be reliably large as well.", 
  "Too often we forget that if our reporting followed protocols for publishing statistically reliable numbers,  that those numbers would always be large enough to protect the identities of the individuals in the  reported cells.", 
  "Thus, data governance should not overlook establishing and enforcing reliability rules for  reporting.", 
  "Fortunately, an education agency has the option of having more than one database.", 
  "The \u201cdon\u2019t do it\u201d  admonition doesn\u2019t really apply unless an agency is going to restrict itself to a single data store.", 
  "Overall Contribution to the Field: This study provides education agencies an architecture to respond to  both FERPA\u2019s mandate to protect PII and research and evaluation\u2019s requirement for internal integrity in  databases.", 
  "Education agencies that now over-suppress the data within their longitudinal databases and  as a consequence disable the ability of research and evaluations to conduct useful studies can follow this  blueprint to implement a four-set architecture.", 
  "The contributions to the field from this study are  twofold.", 
  "The data governance processes in an education agency that must be in place to satisfy the  requirements of FERPA/HIPAA are demonstrated.", 
  "The characteristics of confidential databases viable  for research and evaluation have also been defined.", 
  "The overall contribution of this study is a description of a four-set architecture that is responsive to the  requirements for protecting PII and maintaining analytic integrity.", 
  "Exhibit B provides descriptions for  each of these sets.", 
  "Each is described by the users targeted, some sample questions they might ask, and  the typical de-identification methods that could be employed.", 
  "Set 1: Authoritative Data Source(s)\u2014Core data system containing identified records for  operations and official statistics and reports   \nInternal research and evaluation is conducted using these fully identified data.", 
  "Agency  staff use these data for official statistics and accountability.", 
  "Privacy versus the Integrity of Research and Evaluation in Schools                           Page 8  \n\fSet 2: Research and Evaluation Database\u2014Individual records selected for longitudinal analysis  with identities and demographics provided    \nAuthorized and authenticated external researchers may access these data (#7 above).", 
  "Security measures assure that PII are safe and confidential.", 
  "(42)  \nSet 3: De-Identified Research Database\u2014Available to researchers and persons making open- records requests   \nData governance policy guides how users access these data through portals or  downloads (#5 and 6 above).", 
  "Record Code Substitution (Tokenization) (43) allows re- identification where appropriate for matching of records across years to longitudinal  records and across files for analyses across programs and agencies.", 
  "Data suppression  (removing data) degrades the research integrity of the database.", 
  "More sophisticated  statistical disclosure control methods perturb the data (e.g., MASSC (44) and multiple  imputation (45)).", 
  "Set 4: Publicly Reported Statistics with Small Cells Masked (Aggregate Public Reporting Data  Portal)\u2014Reports with aggregate statistics, small cells masked   \nData portals may be implemented in many ways to present reports (#3 and 4 above).", 
  "Masking (reconfiguring data) techniques include categorization of continuous variables,  substituting individual values for group averages, controlled rounding, combining cells,  top/bottom coding, redaction, disclosure avoidance (denying data), and disapproval of  requests.", 
  "Business rules are enforced to ensure cells with too few individuals are not  reported and cannot be recalculated from other cells.", 
  "Recommendations for future research include:  \n\u2022  Comparing security and confidentiality rules of Set 2 databases;  \u2022  Comparing the efficacy of Set 3 de-identification rules used by different agencies, especially  \nwhen additional years of data are added to longitudinal databases; and  \n\u2022  Comparing the effectiveness of masking strategies for Set 4 reporting methods.", 
  "Summary and Conclusions  \nLet\u2019s return to the paradox that created the controversy.", 
  "FERPA reflected back in 1974 a growing  awareness that education agencies were gathering revealing data about students.", 
  "Test scores are often  at the center of that concern because they carry their own controversies about access, use, and  disclosure.", 
  "Technology has expanded the issues and processes surrounding FERPA.", 
  "As a consequence of  all this, the external researcher becomes an endangered species.", 
  "How many education agencies have  the solid data governance policy and structure in place to oversee both the protection of personally  identifiable data and the need to support quality research and evaluation for program and instructional  improvement and accountability?", 
  "Therefore, Newton\u2019s Third Law of Motion for databases was expanded to be that every action taken to  de-identify a database creates an equal and opposite reaction against our capability to analyze and  report from that database.", 
  "Reactions within databases occur exponentially.", 
  "Thus, deleting a single data  \nPrivacy versus the Integrity of Research and Evaluation in Schools                           Page 9  \n\felement can in reality disable untold combinations and permutations of relationships and causalities  discoverable by research and evaluations.", 
  "Researchers and evaluators must become engaged in the data governance of education agencies to  ensure that the research integrity of databases is protected.", 
  "The public, parents, and politicians should  be satisfied with security controls protecting PII inside a Set 1 and Set 2 database, which allow quality  data with the integrity required for operations, official statistics, and valid research and evaluation  designs.", 
  "A Set 3 de-identified research database should satisfy confidentiality concerns while providing  data for many analytic and informational purposes.", 
  "A Set 4 aggregate public reporting data portal  should provide public reporting of official statistics with protection of PII.", 
  "This four-set solution of  enhanced statistical and technical methodologies can be successfully implemented within a data  governance system that employs the wisest politimetrics and polititech to protect both PII and the  integrity of data for research and evaluation.", 
  "Privacy versus the Integrity of Research and Evaluation in Schools                           Page 10  \n\fEXHIBIT A   HIPAA Methods for De-Identification  \nImplementation specifications: requirements for de-identification of protected health information: A  covered entity may determine that health information is not individually identifiable health information  only if:  \n\n1.", 
  "Expert Determination  \n A person with appropriate knowledge of and experience with generally accepted statistical and  scientific principles and methods for rendering information not individually identifiable:  (i) Applying such principles and methods, determines that the risk is very small that the  information could be used, alone or in combination with other reasonably available information,  by an anticipated recipient to identify an individual who is a subject of the information; and  (ii) Documents the methods and results of the analysis that justify such determination.", 
  "2.", 
  "Safe Harbor  \n(2)(i) The following identifiers of the individual or of relatives, employers, or household members  of the individual, are removed:  \n(A) Names  \n(B) All geographic subdivisions smaller than a state, including street address, city, county,  precinct, ZIP code, and their equivalent geocodes, except for the initial three digits of the  ZIP code if, according to the current publicly available data from the Bureau of the Census:  (1) The geographic unit formed by combining all ZIP codes with the same three initial digits  contains more than 20,000 people; and  (2) The initial three digits of a ZIP code for all such geographic units containing 20,000 or  fewer people is changed to 000  \n(C) All elements of dates (except year) for dates that are directly related to an individual,  including birth date, admission date, discharge date, death date, and all ages over 89 and  all elements of dates (including year) indicative of such age, except that such ages and  elements may be aggregated into a single category of age 90 or older  \n(D) Telephone numbers  \n(L) Vehicle identifiers and serial numbers, including  license plate numbers  \n(E) Fax numbers  \n(M) Device identifiers and serial numbers  \n(F) Email addresses  \n(N) Web Universal Resource Locators (URLs)  \nPrivacy versus the Integrity of Research and Evaluation in Schools                           Page 11  \n\f(G) Social security numbers  \n(O) Internet Protocol (IP) addresses  \n(H) Medical record numbers  \n(P) Biometric identifiers, including finger and voice  \n(I) Health plan beneficiary numbers  (Q) Full-face photographs and any comparable images  \n(J) Account numbers  \n(K) Certificate/license numbers  \n(R) Any other unique identifying number,  characteristic, or code, except as permitted by the  section \u201cRe-identification\u201d; and  \n(ii) The covered entity does not have actual knowledge that the information could be used alone  or in combination with other information to identify an individual who is a subject of the  information.", 
  "Satisfying either method would demonstrate that a covered entity has met the standard in \u00a7164.514(a)  above.", 
  "De-identified health information created following these methods is no longer protected by the  Privacy Rule because it does not fall within the definition of PHI.", 
  "Re-identification  \nA covered entity may assign a code or other means of record identification to allow information de- identified under this section to be re-identified by the covered entity, provided that:  \n\n(1) Derivation.", 
  "The code or other means of record identification is not derived from or related to  information about the individual and is not otherwise capable of being translated so as to identify  the individual; and  (2) Security.", 
  "The covered entity does not use or disclose the code or other means of record  identification for any other purpose, and does not disclose the mechanism for re-identification.", 
  "Privacy versus the Integrity of Research and Evaluation in Schools                           Page 12  \n\fExhibit B  Definition of the Sets  \nSet 1: Authoritative Data Sources(s)  \nHistory Lesson: FERPA was passed in 1974 primarily to ensure parents\u2019 rights to access and  control access to their children\u2019s records.", 
  "HIPAA was not passed until 1996 partly to protect the  confidentiality of patients\u2019 records.", 
  "When FERPA emerged, most student records were on paper.", 
  "The Federal Migrant Student Record Transfer System began collecting individual records in  1969.", 
  "Local education agencies have collected automated individual records in their student  information systems since those first emerged in the 1970\u2019s.", 
  "Florida and Texas were the first  states with mass collections of individual records in the 1980\u2019s.", 
  "Before the No Child Left Behind  Act of 2001, the collection of individual student records by state education agencies was the  exception, not the rule as it is today.", 
  "The practical reasons for education agencies to collect  individual records instead of aggregate statistics are efficiency and data quality.", 
  "This is the education agency\u2019s core data store.", 
  "An education agency\u2019s longitudinal data system (LDS)  must have unmodified records for calculating complete official statistics and reporting.", 
  "Every mandated  detail must be maintained in the database for reporting and audit purposes.", 
  "If data elements are de- identified, then the burden falls back to a prior level of reporting for audit purposes.", 
  "Providing access to authorized experts with purposes consistent with the data governance policy serves  the goals of the agency.", 
  "These experts would include agency analysts as well as approved external  researchers.", 
  "Identity management systems can control each person\u2019s authority to access specific areas  of the database and the actions each person can perform.", 
  "Each person is authenticated upon sign on  and authorized as to the permissions assigned.", 
  "A key component of the data governance of the LDS is the agency\u2019s metadata dictionary.", 
  "This essential  guide contains and manages the definitions, business rules, transformation formulas, table formats,  ownerships, and other relationships for all collections, repositories, and outputs (i.e., reports,  publications, and other media coming from the LDS or any of its related data marts or dashboards).", 
  "Authoritative Data Source(s)  \n\nInternal  \nProgram Officers, IT Staff, Agency Officials  \nExternal  \nAuthenticated & Authorized Researchers, Contractors  \nQuestions  \nInternal  \n\u2022  What are our agency\u2019s official statistics?", 
  "\u2022  What students meet early warning criteria?", 
  "\u2022  What schools met annual accountability objectives?", 
  "\u2022  How many busses are needed each day?", 
  "\u2022  How many lunches were served; full price, reduced, free?", 
  "\u2022  What is the fund balance for the fiscal year?", 
  "Privacy versus the Integrity of Research and Evaluation in Schools                           Page 13  \n\fExternal  \n\u2022  Did X Reading Program outperform Y Reading Program for individual  \nsubgroups in district Z?", 
  "\u2022  What was the impact of changes in graduation requirement policies  \nfor individual subgroups in District Z?", 
  "Identification  Methodology  \nSet 2: Research and Evaluation Database  \nResearch and Evaluation Database  \n\nInternal  \nResearch and Evaluation Staff  \nExternal  \nAuthenticated & Authorized Researchers  \nQuestions  \nInternal  \n\u2022  What modifications to the current growth model would improve the  \naccountability system?", 
  "\u2022  Which LMSs have the best ROI?", 
  "External  \n\u2022  Are my dissertation hypotheses supported?", 
  "\u2022  Are English language learners migrating into or out of the inner city?", 
  "Identification  Methodology  \nSet 3: De-Identified Research Database  \nThe agency must have a de-identified database to provide with confidence to external researchers.", 
  "Providing a readily available de-identified database for external analysts is a practical and cost-efficient  process for an agency to respond to freedom of information requests as well as academic proposals.", 
  "External researchers would include anyone with a legitimate request meeting the data governance  policy\u2019s guidelines or a freedom of information request\u2019s criteria.", 
  "De-Identified Research Database  \n\nInternal  \nResearch and Evaluation Staff  \nExternal  \nResearchers, FOI Requestors   \nQuestions  \nInternal  \n\u2022  Have statewide performance level trends changed?", 
  "External  \n\u2022  Did X Reading Program outperform Y Reading Program statewide?", 
  "\u2022  What was the impact of changes in graduation requirement policies  \nstatewide?", 
  "Privacy versus the Integrity of Research and Evaluation in Schools                           Page 14  \n\f\u2022  Has enrollment in charter schools changed?", 
  "Identification  Methodology  \n\u2022  Safe Harbor  \n\u2022  Expert Determination  \no  Anonymization  o  Blurring  o  Record Code  o  Suppression  o  Any Other  \nHIPPA has made it clear that there are two methods to achieve de-identification in accordance with  their privacy rule.", 
  "The two methods contrast greatly in their specificity.", 
  "The first is to have an expert  determine a method that works and certify it.", 
  "What constitutes an expert and what criteria that expert  uses are entirely up to the agency.", 
  "On the other hand, the second method, safe harbor, is to suppress  in the records 18 specified data elements for the individual or the individual\u2019s relatives, employers, or  household members; and to certify that the agency has no actual knowledge that the information could  be used alone or in combination with other information to identify the individual.", 
  "Exhibit A is the full  description of HIPAA\u2019s methods and the data elements they define to be removed.", 
  "Under expert determination, what methods might be acceptable for education agencies?", 
  "The Privacy  Technical Assistance Center has defined several methods in its brief, \u201cAn Overview of Basic Terms.\u201d   \nMethods have been defined, precisely and poorly, by multiple authors over the years.", 
  "So much so that  citing them selectively would over emphasize their completeness and official stature.", 
  "So this paper will  summarize the terms and definitions in a manner not pretending to be comprehensive, but merely  introductory.", 
  "The contribution made here will be to attempt to differentiate the terms and methods  from each other; whereas, in the literature to date, some have been loosely applied.", 
  "\u2022  Anonymization  \u2022  Categorization of Continuous Variables  \u2022  Substituting Individual Values for Group Averages  \u2022  Controlled Rounding  \u2022  Combining Cells  \u2022  Suppression  \u2022  Top/Bottom Coding  \u2022  Transformation Algorithm  \u2022  Data Swapping  \u2022  Random Misclassification  \u2022  Record Code Substitution (Tokenization)  \u2022  Redaction  \u2022  Encryption  \nPrivacy versus the Integrity of Research and Evaluation in Schools                           Page 15  \n\fNoticeably absent from this list are some commonly referenced terms (e.g., masking, perturbation,  noise, disclosure limitation, and disclosure avoidance).", 
  "However, these terms refer to generalized  categories of techniques inclusive of the ones defined above, not methods themselves.", 
  "These include the following.", 
  "\u2022  Masking (reconfiguring data)  \no  Categorization of Continuous Variables  o  Substituting Individual Values for Group Averages  o  Controlled Rounding  o  Combining Cells  o  Top/Bottom Coding  \n\u2022  Perturbation/Noise (changing data)  \no  Data Swapping  o  Transformation Algorithm   o  Random Misclassification  \n\u2022  Disclosure Limitation (holding back data)  \no  Anonymization   o  Suppression  o  Redaction  \n\u2022  Disclosure Avoidance (denying data)  \no  Disapproval of Requests  \n\nAnother somewhat confusing concept in the discussion of de-identification is the distinction between:  \n\u2022  Treatments to data in fields within a database and   \u2022  Treatments to reported data in published tables.", 
  "The best way to conceptualize this might be that all de-identification techniques apply to databases  because all data from their raw state to their derived statistics in tables are stored in databases.", 
  "Therefore, the need to de-identify the same data represented in published tables in their representation  in an underlying database exists.", 
  "Thus, all the de-identifying techniques are mentioned in this section,  but only those that are particularly appropriate for published tables are included in Section 3.", 
  "Just to restate, this isn\u2019t a user manual on how to perform these functions.", 
  "So, what follows is an  overview of what each technique is and how it is appropriately applied.", 
  "Masking and blurring are terms too often thrown around loosely as if they really refer to specific  techniques.", 
  "Instead, masking is a category of methods for reconfiguring data.", 
  "The purpose of masking is  simply to minimize the possibility that anyone could reconstitute the identity of an individual in a  reconfigured group.", 
  "These techniques apply more to group measures of central tendency than to  individual\u2019s values.", 
  "Therefore, they would modify aggregate statistics within a database more often than  a field within an individual\u2019s record.", 
  "However, as seen below, because one of the techniques itself is  substituting individual values for group values, these can be applied to fields for individual records.", 
  "In Section 3 examples of some of these techniques, which are used in public reporting, are presented.", 
  "These very brief definitions help differentiate these techniques from each other.", 
  "Privacy versus the Integrity of Research and Evaluation in Schools                           Page 16  \no  Categorization of Continuous Variables  \n\u0004  Converting a continuous variable into categories can prevent someone from  \nrecovering a cell\u2019s/field\u2019s value using a total and other cell/field values.", 
  "o  Substituting Individual Values for Group Averages  \n\u0004  With only the group average, recovering the precise value for an individual  \nwithin a group is less likely.", 
  "o  Controlled Rounding  \n\u0004  Rounding individual values that are represented as decimals can prevent  someone from recalculating a cell\u2019s/field\u2019s value using a total and other  cell/field values; or recalculating an individual value within a cell/field.", 
  "o  Combining Cells  \n\u0004  Combining two or more small cells/fields to create a larger group that meets  \nthe minimum size for reporting effectively achieves the confidentiality  mandate.", 
  "o  Top/Bottom Coding  \n\u0004  Creating a range of values at the top or bottom that includes a large number of  \nindividuals and reporting ranges throughout prevents identification of  individuals when few appear at the very top or bottom of the range.", 
  "\u2022  Perturbation/Noise (changing data)  \no  Data Swapping  \n\u0004  Values are exchanged between individuals.", 
  "o  Transformation Algorithm   \n\u0004  A formula is used to create sample data or to rearrange data.", 
  "o  Random Misclassification  \n\nIndividuals are randomly moved among classes/groups.", 
  "\u2022  Disclosure Limitation (holding back data)  \no  Anonymization  \n\u0004  An individual\u2019s personally identifiable information is removed.", 
  "\u2022  Record Coding/Tokenization  \no  A random, identifier with no intrinsic meaning is substituted for  \nan official one to enable longitudinal or cross file linking.", 
  "\u0004  Re-Identification   \n\u2022  The original identifier is reinstated; however,  \nthis reconstitutes the record as personally  identifiable.", 
  "\u2022  Safe Harbor  \no  Measures are followed to meet HIPAA\u2019s criteria (see Exhibit A).", 
  "o  Suppression  \n\u0004  Data are removed from a record.", 
  "o  Redaction  \n\u0004  Data are edited from the results of an analysis or report.", 
  "\u2022  Disclosure Avoidance   \no  Denial of Requests  \n\u0004  A decision is made not to respond positively to a request for data.", 
  "Privacy versus the Integrity of Research and Evaluation in Schools                           Page 17  \n\fSet 4: Publicly Reported Statistics with Small Cells Masked (Aggregate Public Reporting Data Portal)  \nFor publications deriving from any source, the data governance policy must specify acceptable processes  for de-identifying small numbers in reports that might reveal personally identifiable information.", 
  "Publicly Reported Statistics with Small Cells Masked (Aggregate Public  \nReporting Data Portal)  \n\nInternal  \nAll Staff  \nExternal  \nResearchers, All External Data Users  \nQuestions  \nInternal  \n\u2022  Have statewide performance level trends changed?", 
  "External  \n\u2022  Did X Reading Program outperform Y Reading Program statewide?", 
  "\u2022  What was the impact of changes in graduation requirement policies  \nstatewide?", 
  "\u2022  Has enrollment in charter schools changed?", 
  "Identification  Methodology  \n\u2022  Cell Suppression  \n\u2022  Sample  \n\nLimit Detail  \n\u2022  Top/Bottom Coding  \n\u2022  All Others  \nWhat techniques are available for de-identifying small cells without allowing for recalculation or  excessive obfuscation?", 
  "When are there too few individuals in a subgroup to allow disaggregating that  will not reveal personally identifiable information for those individuals?", 
  "Every education agency\u2019s data  governance policies and processes must clearly describe the answer for these questions.", 
  "Back in 2001,  the intent in NCLB was to remove the possibility that this accountability system would require states to  violate the established federal protection of student privacy as mandated under section 444 (b) of the  General Education Provisions Act (Family Educational Rights and Privacy Act (FERPA) of 1974).", 
  "Thus, if a  subgroup is so small that publishing the percent proficient would reveal how an individual student  scored, the state is not required to disaggregate the subgroup, and the school is neither responsible for  reporting on this subgroup, nor responsible for this subgroup\u2019s meeting the annual objectives.", 
  "The majority of the content in this section is drawn from three prior papers.", 
  "Ligon, G. D., Clements, B. S. (2008).", 
  "Revisions to FERPA Guidance.", 
  "ESP Solutions Group, Inc.  Ligon, G. D. (1998).", 
  "Small Cells and Their Cons (Confidentiality Issues): NCES Summer Data  Conference.", 
  "Ligon, G. D., Clements, B. S., & Paredes, V. (2000).", 
  "Why a Small n is surrounded by  Confidentiality: Ensuring Confidentiality and Reliability in Microdatabases and Summary Tables.", 
  "Privacy versus the Integrity of Research and Evaluation in Schools                           Page 18  \n\fPaper presented at the Annual Meeting of the American Educational Research Association, New  Orleans.", 
  "This discussion makes several assumptions that should guide the polititech of an agency\u2019s data  governance policies and processes.", 
  "\u2022  The Family Educational Rights and Privacy Act (FERPA) is the primary federal mandate to be  \nfollowed.", 
  "\u2022  The values for subgroups with too few individuals to protect the identities of those individuals  \nshould be de-identified in all public reports.", 
  "\u2022  De-identified values should not be recoverable through calculations using other published  statistics, e.g., the values of other subgroups or values published in separate documents.", 
  "\u2022  The existence of a de-identified subgroup should not require the de-identification of other  \nsufficiently large subgroups to satisfy the previous assumption.", 
  "\u2022  The same minimum number of individuals should apply to all schools and districts, and the state  in the calculation of accountability determinations.", 
  "(This is an equity issue and a control to avoid  manipulation of the rules to benefit individual schools or districts.)", 
  "Data collected by governmental agencies must remain confidential in order to protect the privacy of  individuals.", 
  "For the Census Bureau, that information may be related to geographic region, such that  information reported for a sparsely populated area can easily be tracked to the few individuals who live  in that area.", 
  "For the Internal Revenue Service, it may be related to income, in that certain income levels  are only attained by a few individuals.", 
  "For educators, it can be information about test scores, disabilities,  or socioeconomic status that must be reported in a way that does not reveal information about  individual students or employees.", 
  "If, for instance, there are two Asian students in the fourth grade of a school and the percent proficient  for Asian fourth graders is 50%, the parents of each of those students, knowing their own child\u2019s  proficiency level, can easily figure the other child\u2019s.", 
  "Alternatively, if there are 100 Hispanic students in  the fourth grade, and the percent proficient for Hispanic fourth graders is 100%, then it can be easily  determined that each Hispanic student scored at the proficient level.", 
  "However, important information  on subgroups must be reported.", 
  "Certainly the taxpayers of a school district want to know if students of  one gender or ethnicity lag behind others in test achievement.", 
  "The task becomes finding a way to report  enough information while still protecting the privacy of individuals.", 
  "Evans, Zayatz, and Slanta (1996) address data confidentiality issues faced by the Bureau of the Census.", 
  "As in education, \u201cThe disclosure limitation problem is to prevent data users from being able to recover  any respondent\u2019s reported values using values appearing in the published tables\u201d (Evans, et al., 1996).", 
  "They note that cell de-identification is a choice, but while de-identifying individual cells can be done  relatively easily, de-identifying those cells in associated documents can be overwhelming.", 
  "In this case, if  the number of subjects in any cell is fewer than a certain number, that cell is de-identified from any data  presented to the public.", 
  "While this is fairly simple, it becomes more complicated because those cells  may be carried over onto other data tables, and must be de-identified there, as well.", 
  "In addition,  revealing any cells which could lead to the exposure of the values in a small cell must also be de- \nPrivacy versus the Integrity of Research and Evaluation in Schools                           Page 19  \n\fidentified.", 
  "It is conceivable that this situation could lead to the loss of information for all subgroups.", 
  "As  noted earlier, it is unacceptable in an accountability system to lose information unnecessarily.", 
  "Adding noise to data tables is suggested as an alternative by Evans, et al.", 
  "(1996).", 
  "This means multiplying  the data from each establishment by a noise factor before tabulating the data.", 
  "Over all establishments,  the number of positive (>1) and negative (<1) multipliers would be equal, so that they would cancel each  other out in the end.", 
  "Cells which appear in more than one data table would carry the same value to all  tables.", 
  "Zayatz, Moore, and Evans point out, however, that if the number in a cell is too small (1 or 2) it  can still be possible to discern a unique contributing entity.", 
  "Winkler (1997) observes that introducing  enough noise to prevent re-identification of records may also make the files analytically invalid.", 
  "Moore (1996) identifies three other methods used by the Census Bureau.", 
  "They are (1) release of data for  only a sample of the population, (2) limitation of detail (Table 1), and (3) top/bottom-coding (Table 2).", 
  "The first is not practical for the field of education.", 
  "Information released must be based upon all students  in all schools.", 
  "The second, limitation of detail, is practical and useful in education.", 
  "The Bureau restricts  release of information which would be restricted to a subgroup less than 100,000.", 
  "Educators use a much  smaller limit, but as mentioned above they do, in fact, restrict release of information about subgroups  which do not meet a certain size.", 
  "The third method, top/bottom-coding, is very appropriate to the field  of education.", 
  "The Census Bureau limits reported levels of income because they might identify  individuals.", 
  "So incomes above a certain level, which might lead to identification of individuals, are  reported as \u201cover $100,000.\u201d  \nTable 1: Limitation of Detail Using Categories/Ranges for Number of Students  \nStudents  \nAmerican  \nHispanic  White  \n\nAmerican  \n\nProficient  or Above  \nNumber of  Students in  \n26 to 35  \n51 to 60  \n16 to 25  \n\nTable 2: Top/Bottom Coding  \nScore Range  \nStudents  \n\n75-94  50-74  25-49  <25  \nPercent of Total  \nNumber of Students in Subgroup  \nPrivacy versus the Integrity of Research and Evaluation in Schools                           Page 20  \n\fNumbers of students in a subgroup can be reported in a similar way.", 
  "The following is an example of a  way to report information about the percent of students who passed an assessment with a score of  \u201cproficient\u201d using limitation of detail.", 
  "See Table 3.", 
  "Table 3: Limitation of Detail Using Ranges for Number of Students  \nStudents  \nAmerican  \nHispanic  White  \n\nAmerican  \n\n% Proficient  \nor Above  \nNumber of  Students in  \n26 to 35  \n51 to 60  \n16 to 25  \n\nFor all of the above subgroups except American Indian, the number of students in the group is more  than five.", 
  "Therefore, the percent proficient or above is reported.", 
  "Because there are fewer than five  American Indian students, the percent proficient or above is not reported.", 
  "In addition, the actual  number of students is not reported.", 
  "In this way, it becomes far more difficult to deduce the percent or  number of American Indian students scoring proficient or above.", 
  "If actual numbers of students in each  subgroup were reported, it might become possible, using numbers in groups and percentages, to  discern confidential information.", 
  "In that situation, more cells would have to be de-identified.", 
  "This  method allows for the maximum amount of information to be reported while still protecting the privacy  of individuals.", 
  "Assessment scores can also be reported using top/bottom coding.", 
  "Here, the issue is reporting  information about how well a subgroup performed without revealing the exact scores of that group.", 
  "If a  range is reported rather than specific score levels the purpose (how the group did on the test) is met,  but individual scores cannot be determined.", 
  "Note that this is especially important at the top and bottom  of the scale (scores of zero or 100).", 
  "See Table 4.", 
  "Table 4: Top/Bottom Coding  \nScore Range  \nPercent of Total  \nStudents  \n25-49  <25  \nPrivacy versus the Integrity of Research and Evaluation in Schools                           Page 21  \n\fNumber of Students in Subgroup  \nAs noted earlier, if this particular subgroup were small, and the average score were 100, it would be  obvious that all students earned a score of 100.", 
  "If, however, a score level of >94 was reported, even if all  subgroup students scored in that category, it would be impossible to determine an individual\u2019s score.", 
  "The reported score range or number of students reported in a group range would depend upon the total  number of students in the group.", 
  "The following could be considered for implementation of the above  rules if six or more were used as the number of students in a subgroup for confidentiality purposes.", 
  "See  Table 5.", 
  "Table 5: Recommended Ranges for Obfuscating Actual Values  \nIf Total Number of  Students is\u2026  \nUse Percent Above  Cut-Point Intervals  \nUse Ranges of Number  of Students of\u2026  \nThese statements have been summarized from the review of methodologies used by statistical agencies  for de-identifying the values of small groups and their relevance to education.", 
  "1.", 
  "From a pure and simple statistical perspective, a minimum subgroup size of three protects the  identity of the subgroup\u2019s members (degrees of freedom = 2).", 
  "For example, knowing the value  for one member of the subgroup still leaves two values unknown, so the value of any one of the  other two cannot be determined.", 
  "An example of a situation that contradicts the use of three as  a minimum is a subgroup containing twins.", 
  "The family of these two students would know the  values for two rather than just one student.", 
  "2.", 
  "Most state education agencies, school districts, and other types of agencies exceed this  \nminimum \u201cto be cautious.\u201d This protects against someone knowing the values of more than one  student in a subgroup.", 
  "3.", 
  "A minimum cell size of five will meet the requirements of confidentiality, exceed the statistical  \nminimum of three, and provide states a comfort zone above that minimum.", 
  "See Table 6.", 
  "4.", 
  "Minimum cell sizes above five may inappropriately reduce the number of subgroups for which a  school is responsible.", 
  "Excessively high minimums will violate the intent of accountability systems  by excluding subgroups and the individual students in them from accountability mandates.", 
  "Privacy versus the Integrity of Research and Evaluation in Schools                           Page 22  \nTable 6: Minimum Subgroup Size of Five (5) for Confidentiality  \nStudents  \nAmerican  \nHispanic  \nIslander  \nAmerican  \nEconomically  Disadvantaged  \n\nProficient  \n\nAdvanced  \nAssessed  \n\nObjective?", 
  "Reported  \nNOTE: This table is irrespective of statistical  \nStatistics Not Reported  \nreliability decisions.", 
  "Publicly  \n5.", 
  "For reporting, if a small n is present, blanking out that cell in a table may not be an adequate  \nsolution.", 
  "The cell value may be restorable based upon the values of other cells that are  reported.", 
  "See Table 7.", 
  "Privacy versus the Integrity of Research and Evaluation in Schools                           Page 23  \n\fTable 7: Reconstituting De-Identified Cell Values  \nStudents  \nAmerican  \nHispanic  \nIslander  \nAmerican  \nEconomically  Disadvantaged  \n% Proficient  or Advanced  \nAssessed  \nObjective?", 
  "Reported  \nNOTE: This table is irrespective of statistical  \nStatistics Not Reported  \nValues That Can be  \nreliability decisions.", 
  "Publicly  \nCalculated  \nIf a school has a small subgroup, blanking out that subgroup and all others that might be used to  derive that subgroup\u2019s value could result in the loss of all subgroups.", 
  "This should be  unacceptable in an accountability system.", 
  "See Table 8.", 
  "Table 8: Loss of Valid Cells to Avoid Disclosing De-Identified Cell Values  \nStudents  \nAmerican  \nHispanic  \nIslander  \nAmerican  \nEconomically  Disadvantaged  \n% Proficient  or Advanced  \nAssessed  \nPrivacy versus the Integrity of Research and Evaluation in Schools                           Page 24  \n\fMet 75%  Objective?", 
  "Reported  \nNOTE: This table is irrespective of statistical  \nStatistics Not Reported  \nValues That Can be  \nreliability decisions.", 
  "Publicly  \nCalculated  \nValues De-Identified to Avoid Calculation of De-identified Values  \nPrivacy versus the Integrity of Research and Evaluation in Schools                           Page 25  \n\f7.", 
  "As an alternative to blanking out all subgroups when one is too small to report, the values can  be reported in ranges (with ranges for the n\u2019s as well) that obfuscate the actual values enough  to prevent calculations.", 
  "See Table 9.", 
  "Table 9:  Loss of Valid Cells to Avoid Disclosing De-Identified Cell Values  \nStudents  \nAmerican  \nHispanic  \nIslander  \nn Indian  \nEconomically  Disadvantage \n\nProficient  Advanced  \nAssessed  \nObjective?", 
  "Reported  \n\n0 to 20%  \nNot met  Not Met  \nNOTE: This table is irrespective of statistical reliability  \nStatistics Not Reported  \ndecisions.", 
  "Publicly  \nValues That Can No  \nLonger be  \nCalculated  \nValues De-Identified to Avoid Calculation of De-Identified Values  \nPrivacy versus the Integrity of Research and Evaluation in Schools                           Page 26  \n\fEXHIBIT C    POSTER SUPPLEMENT  \nPrivacy versus the Integrity of Research and Evaluation in Schools  \nAERA Annual Meeting, San Antonio, April 27, 2017     \nPoster Session 3 Applied Research in Schools: Education Policy and School Context  \nGlynn D. Ligon, Ph.D.  ESP Solutions Group, Inc., Austin, Texas gligon@espsg.com  \n\u201cWho was that masked man?\u201d  \nThat question was asked over 3,000 times at the end of episodes of a familiar radio, TV,  and movie series.", 
  "The rancher whose property had just been saved from outlaws  would turn to his neighbor and say, \u201cOh, he\u2019s the Lone Ranger.\u201d    \nHowever, if John Reid (the Lone Ranger) were a public school student and FERPA had  been in force, the rancher would have added, \u201c\u2026and his real name and face are  masked because they are personally identifiable information.\u201d  Simply put, the Lone  Ranger\u2019s mask hid his identity back in the 1930\u2019s similar to how education agencies use  identification numbers and de-identification techniques following FERPA mandates  beginning in the 1970\u2019s.", 
  "Another Example   If Jean Grey, the metamutant X-Men super hero, saved your child on  the playground, her school wouldn\u2019t tell you her real name was Jean Elaine Grey, who  first appeared in X-Men #1 in 1963, and she\u2019s ranked #13 on IGN Entertainment\u2019s list of  super heroes.", 
  "Her parents, Elaine and John, raised her in Annandale-on-Hudson, New  York until she began protecting Alphabet City.", 
  "In fact, they wouldn\u2019t even confirm that  she\u2019s female and white\u2014or that she is the figment of the imagination of Stan Lee and  Jack Kirby.", 
  "That\u2019s because any of those data elements alone or in combination with  others might allow you to identify Jean and then discover other information about her  in their database or published statistics.", 
  "Without personally identifiable data elements, a researcher interested in super heroes would be unable  to answer fascinating questions such as\u2026  \n\u2022  Does the Body Mass Index (BMI) of super heroes differ significantly by gender, race, and  \nethnicity?", 
  "I hypothesize that it does.", 
  "My preliminary analysis is confirmatory.", 
  "\u0004  Super heroes may reflect their creators and illustrators\u2019 stereotypes.", 
  "Super Hero Examples   Continuing with the super hero theme, I researched 10 individuals.", 
  "Figure 1  presents their actual records from this database.", 
  "Typical of an education database, there are some  missing data that were never revealed in the super heroes\u2019 publications.", 
  "To ensure as complete and  accurate data as possible for each one, I searched sources on the Internet, then visited Dragon\u2019s Lair  (2438 West Anderson Lane, Suite B1, Austin, TX 78757, 512-454-2399).", 
  "Their resident expert, Bobby,  was generous in verifying the existing data and agreeing that certain data are missing from recorded  history.", 
  "He was able to fill in a few fields I could not.", 
  "Privacy versus the Integrity of Research and Evaluation in Schools                           Page 27  \n\fFigure 1: Individual Records  \nPrivacy versus the Integrity of Research and Evaluation in Schools                           Page 28  \n\fAbbreviations in Figure 1   \n  PI?", 
  ": Is the data element personally identifiable?", 
  "The codes are:  \nP: Personally Identifiable\u2014a data element that meets FERPA\u2019s definition of  identifying an individual  \nC: Conditionally Personally Identifiable\u2014a data element that when combined  with one or more other data elements becomes personally identifiable  \nN: Not Personally Identifiable-a data element that does not identify an  individual  \nRemember That BMI Hypothesis?", 
  "Looking at our 10 super heroes\u2019 BMI data in Figure 1  and graphed in Figure 2, we get a glimpse at whether there might be bias in their  height and weight by gender, race, and ethnicity.", 
  "But wait, the point of this paper is  that we may not get to see this detail.", 
  "Figure 2: BMI by Gender Percentile Rank  \nPrivacy versus the Integrity of Research and Evaluation in Schools                           Page 29  \n\fSets to Meet Varied Requirements   The full paper recommends that education agencies create four  \u201csets\u201d (or databases) of data to ensure that at least one of them meets the needs of researchers and  evaluators.", 
  "Set 1: Identified Internal Longitudinal Data Store(s)\u2014Core data system  containing identified records for official purposes  \nInternal research and evaluation is conducted using these fully identified  data.", 
  "Agency staff use these data for official statistics and accountability.", 
  "These data are used to run the business processes of the organization.", 
  "Set 2: Identified Longitudinal Data Store for Research and Evaluation\u2014Selected sample of  identified records for unrestricted research and evaluation  \nAuthorized and authenticated users follow established data governance guidelines to  conduct approved analyses   \nSet 3: De-Identified Research Database\u2014Database of records without PII and conditional  information available to persons making open-records requests   \nData governance policy guides how users access these data through portals or  downloads.", 
  "Record Code Substitution (Tokenization) allows re-identification where  appropriate for matching of records across years to longitudinal records and across files  for analyses across programs and agencies.", 
  "Data suppression (removing data) degrades  the research integrity of the database.", 
  "More sophisticated statistical disclosure control  methods perturb the data (e.g., MASSC and multiple imputation).", 
  "Set 4: Aggregate Public Reporting Data Portal\u2014Reports with aggregate statistics, small cells  \nData portals may be implemented in many ways to present reports).", 
  "Masking  (reconfiguring data) techniques include categorization of continuous variables,  substituting individual values for group averages, controlled rounding, combining cells,  top/bottom coding, redaction, disclosure avoidance (denying data), and disapproval of  requests.", 
  "Business rules are enforced to ensure cells with too few individuals are not  reported and cannot be recalculated from other cells.", 
  "Our Heroes\u2019 Data   Let\u2019s look at our group of 10 super heroes.", 
  "They are diverse by gender,  race/ethnicity, and other PII.", 
  "As interesting as that would make our social interaction with  them, it makes our reporting of their data problematic.", 
  "All of their disaggregated cells will  be fewer than 10.", 
  "Thus, if we self-impose a rule of masking small cells below 10, that will  prevent our reporting anything except the grand total of 10 in our tables.", 
  "In Figure 1, the first seven data elements are P, personally identifiable\u2014Date of 1st  Appearance, for example.", 
  "The next eight are conditional.", 
  "These on their own may not  identify the hero, but in combination with other data elements single out one of them.", 
  "Privacy versus the Integrity of Research and Evaluation in Schools                           Page 30  \n\fOur Heroes\u2019 Data in the Four Sets   Walking through each of the four sets is illustrative.", 
  "Figure 1 is equivalent to Set 1\u2014all the data elements with no restrictions.", 
  "For an  authorized and authenticated researcher or evaluator, Set 2 could be a duplicate of Set 1.", 
  "Just for the sake of example, let\u2019s say that the organization chooses not to include in Set 2  the data elements Mother\u2019s Name and Father\u2019s Name.", 
  "Those are useful to the  organization, but their de-identification or deletion most likely devalues the analytic  nature of Set 2 very little.", 
  "Set 3, however, would contain only the six data elements designated as not personally identifiable or  conditionally personally identifiable.", 
  "This would disable any analyses for Set 3 users for questions about  gender, race, ethnicity, cities, dates of first appearance, rankings, or creators.", 
  "Set 4 is the interesting case.", 
  "Set 4 is not a subset of the records in Figure 1, but the aggregate statistics  derived from them.", 
  "Set 4 official statistics for an organization should be created from Set 1.", 
  "The Data  Governance Policy should determine how the published statistics are masked using a small number rule.", 
  "Therefore, any and all statistics can be calculated, then the small cell size rule can be imposed prior to  publication.", 
  "This allows more cells to be calculated and be eligible for publication than if the de- identified Set 3 is used for calculating statistics.", 
  "This is a crucial distinction.", 
  "This means that researchers  using Set 3 typically cannot replicate all of the official statistics in Set 4.", 
  "Using our small group of 10 super heroes as an example, their PII is de-identified for users of Set 3.", 
  "That  doesn\u2019t just impose masking of small cells for reporting, it prevents even the initial calculating of  statistics for subgroups using the data elements that have been de-identified.", 
  "Imagine now that there are 10 groups of super heroes just like ours.", 
  "If they are  combined into a megateam of 100, then they could be reported in subgroups large  enough to meet the rule of 10.", 
  "A researcher using Set 2 would be able to do this.", 
  "One  restricted to Set 3 would yet again have only a grand total\u2014now for 100.", 
  "Examples of a  Set 4 official statistic, Body Mass Index, are in Figures 3A, 3B, and 3C.", 
  "Figure 3A shows  the BMI level frequencies calculated and displayed from Set 2, our 10 heroes with no  masking.", 
  "Figure 3B shows the reporting for our megateam of 100 heroes with their  data fully identified in Set 2.", 
  "Finally, Figure 3C shows that using masked data from Set  3, only the grand total of 100 super heroes could be calculated with no breakouts.", 
  "Researchers Need PII in Set 2!", 
  "This is why authorized and authenticated researchers need access to a  Set 2 database.", 
  "This is why a Set 3 database with both PII and conditional PII deleted probably destroys  the integrity of the data for most research and evaluation questions of significance.", 
  "Unfortunately, Set 3  is the default for many education agencies today.", 
  "Please see the full paper for the traditional treatment of the issues.", 
  "www.ARNIEdocs.info   \nPrivacy versus the Integrity of Research and Evaluation in Schools                           Page 31  \n\fFigure 3A: Body Mass Index Levels by Gender & Race/Ethnicity, 10 Super Heroes   \nBody Mass  \nWhite  Hispanic  \nJapanese  \nOverweight  \nAmerican  \nAmerican  \nFigure 3B: Body Mass Index Levels by Gender & Race/Ethnicity, Megateam of 100 Super Heroes  \nBody Mass  \nHispanic  \nJapanese  \nOverweight  \nAmerican  \nAmerican  \nFigure 3C: Body Mass Index Levels by Gender & Race/Ethnicity, Set 3, De-Identified, 100 Super Heroes  \nBody Mass  \nHispanic  \nJapanese  \nOverweight  \nAmerican  \nAmerican  \nPrivacy versus the Integrity of Research and Evaluation in Schools                           Page 32"
 ]
}