{
 "document_id": "1171764.1", 
 "sentences": [
  "\n\nToward\tUnderstanding\tthe\tImpact\tof\tVisual\tThemes\tand\t \nEmbellishment\ton\tPerformance,\tEngagement,\tand\t \n\tSelf-Efficacy\tin\tEducational\tGames\t \n\tDominic\tKao\tand\tD.\tFox\tHarrell\t Massachusetts\tInstitute\tof\tTechnology\t \nAbstract\t \nThe\tresults\tof\tover\ttwenty-five\tyears\tof\tresearch\tseem\tclear:\t\tthe\taddition\tof\t seductive\tvisual\tdetails\tin\tvideo\tgames\thinders\tperformance\tof\tlearners\t(Garner,\t Gillingham,\t&\tWhite,\t1989;\tThalheimer,\t2004;\tRey,\t2012).", 
  "Yet,\tcountless\tother\t research\tresults\tpropose\tthe\topposite:\tthat\tvisual\tembellishments\tand\twell- designed\tambiguity\tinstead\timprove\tlearners\u2019\tperformance,\tengagement,\tand\tself- efficacy\t(Tierney,\tCorwin,\tFullerton,\t&\tRagusa,\t2014;\tWilson\tet.", 
  "al\t2009;\tScott\t&\t Ghinea,\t2013).", 
  "To\tshed\tlight\ton\tthis\tapparent\tcontradiction,\twe\tdevised\ta\tparticular\t experiment\tusing\tgame\tskins\tto\timplement\tvariations\tin\tvisual\tthemes\tof\ta\t computer\tgame.", 
  "Game\tskins\tare\tcoherent,\tinterchangeable\tsets\tof\tgraphical\tassets\t that\tall\timplement\tthe\tsame\tunderlying\tgame\tstructure\twhile\tvarying\tthe\tvisual\t appearance\t(for\tinstance,\tsee\tFigure\t3).", 
  "In\tparticular,\twe\timplemented\tthe\tfollowing\t four\tgame\tskins\tlabeled\tand\tdescribed\tas\tfollows:\t1)\tGeneric\ttheme\twith\tno\t embellishments\t(simple\tflat\tcolor\tbackground),\t2)\tFantasy\tgame\ttheme\t(forest,\t snow,\tand\tdesert\tadventure\tbackgrounds),\t3)\tSTEM-oriented\ttheme\t(computer\t circuitry\tbackground),\tand\t4)\tChoice\t(the\tuser\tpicks\tone\tof\tthe\tprevious\tthree\t options).", 
  "Our\tgoal\tis\tdetermining\tif\tthere\tare\tdifferences\tin\tperformance,\t engagement,\tand\tself-efficacy\tbetween\tconditions.", 
  "The\tupshot\tis\tthat\tthe\tgeneric\t \n\fMotivation\t \ncondition\tparticipants\thad\thighest\tperformance\t(levels)\tand\thad\thighest\t programming\tself-efficacy\u2014followed\tby\tchoice,\tfantasy\tgame\tsetting,\tcircuitry.", 
  "However,\tordering\tof\tconditions\tfor\tengagement\twas\tprecisely\topposite\tthe\ttrend\t for\tperformance.", 
  "We\tconclude\tby\tdiscussing\tthe\ttrade-offs\tbetween\tthe\ttwo\t diametrically\topposed\tapproaches\tto\tgame\tthemes\tand\tembellishment:\t instrumental\tgame\tskins\tvs.\tthematic\tand\tdeliberately\tembellished\tgame\tskins.", 
  "One\tof\tthe\tlargest\tparadigm\tshifts\tin\tthe\tlast\tthirty\tyears\thas\tbeen\tmovement\taway\t from\tthe\tlearning\tas\tan\tacquisition\tmetaphor\t(Sfard,\t1998)\tand\tinstead\ttoward\ta\t concept\tof\tlearning\tas\tfundamentally\tcontextually\tsituated\t(Lave,\t1991;\tLemke,\t 1997;\tWalkerdine,\t1997;\tWenger,\t1998;\tBarab\t&\tDuffy,\t2000;\tGreeno,\t1998;\tLave\t&\t Wenger,\t1991;\tResnick,\t1987;\tYoung,\t1993).", 
  "One\tresultant\targument\tis\tthat\tpeople\t develop\tdeep\texpertise\u2014islands\tof\texpertise\u2014that\tthen\tlead\tto\tthe\tformation\tof\t overarching\tthemes,\tabstract\tenough\tthat\tthey\tengender\tfurther\tlearning\tboth\t within\tand\toutside\tof\tthe\toriginal\ttopic\tof\tinterest\t(Crowley\t&\tJacobs,\t2002;\tShaffer,\t 2006).", 
  "Given\tthe\tvast\tproliferation\tof\teducational\tgames,\tadaptive\tlearning\tsystems,\t and\tMassive\tOpen\tOnline\tCourses\t(MOOCs)\tin\trecent\tyears\t(Yuan\t&\tPowell,\t2013),\tit\t is\tincreasingly\timportant\tto\tunderstand\tthe\tsignificance\thow\teducational\tcontent\tis\t situated\twithin\tcomputer-based\tlearning\tenvironments\t(Wilson\tet.", 
  "al,\t2009;\tGarris,\t Ahlers,\t&\tDriskell,\t2002;\tMalone\t&\tLepper,\t1987;\tRieber,\t1996;\tDriskell\t&\tDwyer,\t 1984),\te.g.,\tranging\tfrom\tSTEM-oriented\tto\tfantasy\tsettings\tin\teducational\tgames.", 
  "For\tdecades\tresearchers\thave\tfound\tthat\tembellishing\tinstruction\twith\tfantasy\t \n\fcontent,\timproves\tinstructional\tefficacy,\te.g.,\tas\tin\t(Cordova\t&\tLepper,\t1996;\tScott\t&\t Ghinea,\t2013;\tAsgari\t&\tKaufman,\t2004;\tDaanen\t&\tGrant,\t2007;\tResnick\tet.", 
  "al,\t2009).", 
  "Games\tare\ttouted\tto\tmove\tbeyond\tthe\t\u201ccontent\tfetish\u201d\t(Gee,\t2008)\tso\tprevalent\tin\t society\tand\tto\timmerse\tplayers\tin\tan\texperience\twhere\tthere\tis\t intentional\t inefficiency\tin\tconveyed\tcontent.", 
  "That\tis,\tinstead\tof\ttrying\tto\trush\ttoward\t \u201cinstrumentalized\u201d\tgames\t(Zimmerman,\t2011),\tit\tis\tspecifically\tthe\tembellished\t ambiguities\tthat\tcreate\topportunities\tto\texplore\t(Fullerton,\t2014).", 
  "Yet,\tin\tmaking\tthis\targument\twe\tneed\tto\taccount\tfor\tthe\tfact\tthat\tthis\tis\tthe\t opposite\tof\twhat\tsome\tresearchers\tin\tthe\tlearning\tsciences\twould\tpostulate.", 
  "The\t opposing\tviewpoint\tholds\tthat\tthat\tsuch\tembellishments\twould\tconstitute\tseductive\t details\tthat\timpede\teducational\tefficacy\t(Garner,\tGillingham,\t&\tWhite,\t1989;\t Thalheimer,\t2004;\tRey,\t2012;\tPark,\tMoreno,\tSeufert,\t&\tBr\u00fcnken,\t2011;\tDewey,\t 1913;\tSanchez\t&\tWiley,\t2006;\tHarp\t&\tMayer,\t1998;\tRummer,\tSchweppe,\t F\u00fcrstenberg,\tSeufert,\t&\tBr\u00fcnken,\t2010;\tLehman,\tSchraw,\tMcCrudden,\t&\tHartley,\t 2007).", 
  "The\tcoherence\tprinciple\tof\tmultimedia\tlearning\tis\ta\tculmination\tof\tthis\tline\tof\t work.", 
  "It\tadvises\tremoving\tany\tillustration\tnot\tof\tfundamental\timportance\tto\tthe\t instructional\tgoal\t(Mayer,\t2005;\tClark\t&\tMayer,\t2011).", 
  "Here,\tour\tgoal\tis\tto\texplore\tand\tinvestigate\tthese\topposing\tviewpoints.", 
  "We\t consider\t how\t three\t different\t game\t skins\t affect\t participants\u2019\t performance,\t engagement,\tand\tself-efficacy.", 
  "We\tfind\tthat\tthe\tmore\tembellished\tand\tmore\t ambiguous,\tgame\tskins\tthwart\tperformance,\tbut\t improve\tengagement.", 
  "Our\tresults\t suggest\tthat\tsimpler\tgame\tskins\timprove\tperformance,\tbut\t reduce\tengagement.", 
  "Such\ta\ttrade-off\tis\tparticularly\timportant\tin\teducational\tgames,\tin\twhich\tboth\t \n\fThe\tGame\t \nperformance\tand\tengagement\tare\thighly\tdesirable\tto\tthe\tend\tgoal\t(Harteveld,\t2015;\t Blumenfeld,\tKempler,\t&\tKrajcik,\t2005).", 
  "We\tconclude\twith\ta\treflective\tdiscussion\ton\t how\teducators\tand\tdevelopers\tmight\tnavigate\tthis\tdual\tgoal.", 
  "The\texperiment\ttakes\tplace\tin\ta\tSTEM\tlearning\tgame\tcalled\tMazzy\t(Kao\t&\tHarrell,\t 2015e).1\tMazzy\tis\ta\tgame\tin\twhich\tplayers\tcomplete\tmaze-like\tchallenges\tby\t creating\tshort\tcomputer\tprograms.", 
  "In\ttotal,\tthere\tare\t12\tlevels\tin\tthis\tversion\tof\t Mazzy.", 
  "Levels\t1-5\trequire\tonly\tbasic\tcommands.", 
  "Levels\t6-9\trequire\tusing\tloops.", 
  "Levels\t10-12\trequire\tusing\tall\tpreceding\tcommands\tin\taddition\tto\tconditionals\t(see\t Figures\t1\tand\t2).", 
  "Mazzy\thas\tbeen\tused\tpreviously\tas\tan\texperimental\ttestbed\tfor\t evaluating\tthe\timpacts\tof\tavatar\ttype\ton\tperformance\tand\tengagement\tin\tan\t educational\tgame\t(Kao\t&\tHarrell,\t2015a-d;\tKao\t&\tHarrell,\t2016a-d).", 
  "Our\texperiment\tcompared\tthe\timpacts\tof\tfour\tgame\tskin\tconditions:\t(a)\tGeneric\t Theme,\t(b)\tFantasy\tTheme,\t(c)\tSTEM\tTheme\t(circuit\tboard),\tand\t(d)\tUser\tChoice.", 
  "The\tgoal\twas\tto\tsee\tif\tparticipants\tusing\tdifferent\tgame\tskins\tvary\tin\tperformance,\t engagement,\tand\tself-efficacy.", 
  "We\tsuspected\tthat\t(1)\tthe\tgeneric\tskin\twould\thave\t the\thighest\tperformance,\tbut\tthat\t\t(2)\tthe\tembellished\tskins\twould\thave\tthe\thighest\t engagement.", 
  "1\tGameplay\tvideo:\thttp://tinyurl.com/mazzyquick\t \n\fGame\tSkin\tConditions\t The\tfour\tgame\tskin\tconditions\twe\ttested\twere:\t a.", 
  "Generic\tTheme\t b.", 
  "Fantasy\tTheme\t c.  STEM\tTheme\t d. User\tChoice\t The\tgeneric\ttheme\twas\tspecifically\tmade\tto\thave\tno\tembellishments,\tjust\tflat\tcolor.", 
  "The\tfantasy\ttheme\tand\tSTEM\t(circuitry)\ttheme\twere\theavily\tembellished\tin\ttheir\t respective\tthemes\t(see\tFigures\t3,\t4\tand\t5).", 
  "A\tchoice\tcondition\twas\tincluded\tto\ttest\tif\t users\tgiven\tchoice\tof\tgame\tskin\thave\timproved\tperformance\t(Ryan\t&\tDeci,\t2000;\t Martin\tet.", 
  "al,\t2003;\tJolivette\tet.", 
  "al\t2001;\tHardre\t&\tReeve,\t2003;\tFlowerday\t&\tSchraw,\t 2000;\tEshel\t&\tKohavi,\t2003;\tDeci\t&\tRyan,\t1985;\tBecker,\t1997;\tAssor\tet.", 
  "al,\t2002;\t Kernan\tet.", 
  "al,\t1991;\tPatall,\tet.", 
  "al,\t2008;\tCordova\t&\tLepper,\t1996).", 
  "This\tlattermost\t condition\tbegins\twith\tplayers\tselecting\ta\tgame\tskin\u2014choices\talways\tappear\tin\ta\t random\torder\u2014afterwards\tall\taspects\tof\tthe\tgame\tare\texactly\tidentical.", 
  "See\tFigure\t 6.", 
  "The\tplayer\tavatar\tis\ta\tblue\ttriangle\t(Munsell\tcolor\t7.5PB\t5/18)\u2014the\tavatar\tcolor\t was\tchosen\tto\tminimize\tinteraction\teffects\twith\tgame\tskins.", 
  "This\twas\tlater\tchecked\t post-game,\te.g.,\tvirtually\tall\tplayers\tirrespective\ttheir\tcondition\t(given\ta\trange\tof\t1:\t Strongly\t Disagree\tto\t 5:\t Strongly\t Agree)\tstrongly\tdisagreed\tthat\tthe\tavatar\tclashed\t with\tthe\tbackground\t(M=1.46,\tSD=0.89).", 
  "Quantitative\tand\tQualitative\tMeasures\t \nPerformance\twas\tmeasured\tas\ta\tfunction\tof\tlevels\tcompleted,\tnumber\tof\tattempts,\t and\tnumber\tof\thints.", 
  "Engagement\twas\tmeasured\tusing\tthe\tPlayer\tExperience\tof\t Needs\tSatisfaction\t(PENS)\tscale\t(Ryan,\tRigby,\t&\tPrzybylski,\t2006)\tand\tthe\tGame\t Experience\tQuestionnaire\t(GEQ)\t(IJsselsteijn,\tKort,\tPoels,\tJurgelionis,\t&\tBellotti,\t 2007).", 
  "Self-Efficacy\twas\tmeasured\tusing\tthe\tComputer\tProgramming\tSelf-Efficacy\t Scale\t(CPSES)\t(Ramalingam,\t&\tWiedenbeck,\t1998).", 
  "Our\tinstrument\twas\ta\tselected\t portion\tof\tthe\toriginal\tCPSES\tscale.", 
  "Principal\tcomponents\tanalysis\t(PCA)\twas\t performed\tto\tassess\tconstruct\tvalidity,\twith\thigh\tvalidity\tmetrics;\treliability\tusing\t Cronbach\u2019s\talpha\twas\talso\thigh,\t94.4\tpercent.", 
  "See\tTable\t1.", 
  "Participants\t 1172\tparticipants\twere\trecruited\tthrough\tMechanical\tTurk\t(demographics\tTable\t2).", 
  "Participants\twere\treimbursed\t$1.50\tto\tparticipate\tin\tthis\texperiment.", 
  "A\tbetween-subjects\tdesign\twas\tused:\tgame\tskin\tcondition\twas\tthe\tbetween-subject\t factor.", 
  "Participants\twere\trandomly\tassigned\tto\ta\tcondition.", 
  "Prior\tto\tstarting\tthe\tgame,\tplayers\twere\tinformed\tthat\tthey\tcould\texit\tthe\tgame\tat\t any\ttime\tvia\ta\tred\tbutton\tin\tthe\tcorner\tof\tthe\tscreen.", 
  "When\tparticipants\twere\tdone\t playing\t(either\tby\texiting\tearly,\tor\tby\tfinishing\tall\t12\tlevels),\tparticipants\treturned\t \nProtocol\t \n\fto\tthe\texperiment\tinstructions,\twhich\tthen\tprompted\tthem\twith\tPENS,\tGEQ,\tand\t CPSES,\tthen\ta\tdemographics\tsurvey.", 
  "Analysis\t Data\twas\tanalyzed\tin\tSPSS\tusing\tMANOVA.", 
  "The\tdependent\tvariables\tare\tlevels\t completed,\tnumber\tof\tattempts,\tnumber\tof\thints,\tand\tthe\tPENS,\tGEQ,\tand\tCPSES;\tthe\t independent\tvariable\tis\tgame\tskin\tcondition.", 
  "All\tthe\tdependent\tvariables\tare\t continuous\tvariables.", 
  "The\tindependent\tvariable\tgame\tskin\tcondition\t(i.e.,\t0=generic,\t 1=fantasy,\t2=circuitry,\t3=choice)\twas\ta\tquadchotomous\tvariable.", 
  "A\tMANOVA\twas\t run\tfor\tperformance\tand\tfor\teach\tquestionnaire.", 
  "Before\trunning\tMANOVAs,\tall\tthe\t variables\tincluded\tin\tthe\tanalyses\twere\tchecked.", 
  "There\twere\tunivariate\toutliers\tand\t also\tmultivariate\toutliers,\tbut\tno\toutlier\twas\tstatistically\tsignificant\tso\tthey\twere\t retained.", 
  "One\tparticipant\twas\tremoved\tfor\tinvesting\tminimal\teffort\t(0\tattempts,\t0\t levels\tcompleted).", 
  "Prior\tto\trunning\tour\tMANOVAs,\twe\tchecked\tboth\tassumption\tof\t homogeneity\tof\tvariance\tand\thomogeneity\tof\tcovariance\tby\tthe\ttest\tof\tLevene\u2019s\tTest\t of\tEquality\tfor\tError\tVariances\tand\tBox\u2019s\tTest\tof\tEquality\tof\tCovariance\tMatrices.", 
  "Levene\u2019s\ttest\twas\tmet\tby\tthe\tdata\t(p>.05),\tbut\tBox\u2019s\ttest\t(p<.05)\twas\tfound\t untenable.", 
  "To\taddress\tthis\tviolation,\tPillai\u2019s\tTrace\twas\tused\tinstead\tof\tWilk\u2019s\t \nBoth\t embellishment\t and\t ambiguity\t appear\t to\t improve\t engagement\t but\t decrease\t \nperformance.", 
  "Performance\t was\t ordered:\t generic\t >\t choice\t >\t fantasy\t >\t STEM.", 
  "Self- \nefficacy\twas\tordered\tthe\tsame.", 
  "Engagement\twas\tordered:\tSTEM\t>\tfantasy\t>\tchoice\t>\t \ngeneric.", 
  "This\t was\t consistent\t across\t several\t measures.", 
  "The\tfollowing\tlists\tdescribe\t these\tresults\tin\tterms\tof\tperformance,\tself-efficacy,\tand\tengagement\tin\tfuller\tdetail.", 
  "Performance\t \u2022  Average\tplaytime\t21.2\tminutes\u2014no\tnotable\tdifferences\tacross\tconditions.", 
  "\u2022  Overall\tMANOVA\twas\tsignificant,\tp<0.001\t(Table\t3).", 
  "\u2022  Univariate\ttests\tfound\tall\tmeasures\tto\tbe\tsignificant,\tp<0.05\t(descriptives\t Table\t4,\tposthocs\tTable\t5).", 
  "\u2022  Across\tall\tperformance\tmeasures,\tperformance\twas\tconsistently\tordered:\t generic\t>\tchoice\t>\tfantasy\t>\tSTEM\t(see\tFigure\t7).", 
  "\u2022  Moreover,\tthis\teffect\twas\tfound\tto\tbe\ttrue\tthroughout\tthe\tentire\tgame.", 
  "\u2022  Overall\tMANOVA\twas\tsignificant,\tp<0.05\t(Table\t6).", 
  "\u2022  Univariate\ttests\tfound\teight\t(of\ttwelve)\tCPSES\tquestions\tto\tbe\tsignificant,\t p<0.05\t(descriptives\tTable\t7,\tposthocs\tTable\t8).", 
  "\u2022  On\taverage,\tsimilar\tordering\tto\tperformance:\tgeneric\t>\tchoice\t>\tfantasy\t>\t STEM\t(see\tFigure\t8).", 
  "Engagement\t(GEQ)\t \u2022  Overall\tMANOVA\twas\tsignificant,\tp<0.001\t(Table\t9).", 
  "Self-Efficacy\t \n\fEngagement\t(PENS)\t \n\u2022  Univariate\ttests\tfound\teighteen\tGEQ\tquestions\tto\tbe\tsignificant,\tp<0.05\t (descriptives\tTable\t10,\tposthocs\tTable\t11).", 
  "\u2022  On\taverage,\tengagement\twas\tordered:\tSTEM\t>\tfantasy\t>\tchoice\t>\tgeneric\t(see\t Figure\t9).", 
  "\u2022  Overall\tMANOVA\twas\tsignificant,\tp<0.001\t(Table\t12).", 
  "\u2022  Univariate\ttests\tfound\tsix\tPENS\tquestions\tto\tbe\tsignificant,\tp<0.05\t (descriptives\tTable\t13,\tposthocs\tTable\t14).", 
  "\u2022  Consistently,\tacross\tall\tquestions\ton\tautonomy,\trelatedness,\tand\tpresence,\t conditions\twere\tordered:\tSTEM\t>\tfantasy\t>\tchoice\t>\tgeneric\t(see\tFigure\t10).", 
  "\u2022  Choice\thad\tno\tnotable\tinfluence\ton\tperformance,\tself-efficacy,\tengagement.", 
  "\u2022  True\teven\twhen\taccounting\tfor\tthe\tskewed\tdistribution\tof\tchoices\u2014generic\t (25%),\tfantasy\t(52%),\tSTEM\t(23%)\t(descriptives\tTable\t15).", 
  "\u2022  One\tpotential\texplanation\tis\tthat\tthe\tchoice\tpresented\twas\tnot\tvery\t meaningful\tto\tparticipants\t(Flowerday\t&\tSchraw,\t2000;\tKatz\t&\tAssor,\t2007;\t Rose\t&\tMeyer,\t2002;\tEvans\t&\tBoucher,\t2015).", 
  "Discussion\t Here,\twe\tdiscuss\tthe\timportance\tof\tour\tfindings,\twhy\tthey\tmay\thave\tarose,\tand\t reflect\ton\thow\tdevelopers\tand\teducators\tmight\tnavigate\tthe\ttrade-offs\tinvolved\tin\t two\tdiametrically\topposed\tapproaches\tto\tgame\tthemes\tand\tembellishment.", 
  "We\tfirst\tsummarize\tour\tfindings:\t \u2022  Generic\tskin\tcondition\tparticipants\thad\thighest\tperformance\t \u2022  Generic\tskin\tcondition\tparticipants\thad\thighest\tself-efficacy\t \u2022  STEM/Fantasy\tcondition\tparticipants\thad\thighest\tengagement\t \tWhy\tis\tthis\timportant?", 
  "Games\tare\tclearly\tbecoming\tubiquitous\u2014in\t2015,\tthe\t Entertainment\tSoftware\tAssociation\t(ESA)\testimates\tthat\t155\tmillion\tAmericans\t play\tvideo\tgames,\t4/5\tU.S.\thouseholds\town\ta\tdevice\tused\tto\tplay\tvideo\tgames,\tand\t 42%\tof\tAmericans\tplay\tvideo\tgames\tregularly\t(3\thours\tor\tmore\tper\tweek)\t(ESA,\t 2015).", 
  "Moreover,\teducators\tare\tincreasingly\ttrying\tto\tharness\tthe\tpotential\tof\t games\tfor\teducation;\tembedding\tcontent\tin\tfantasy\tsettings\tis\tquickly\tbecoming\t pervasive\t(Cordova\t&\tLepper,\t1996;\tScott\t&\tGhinea,\t2013;\tAsgari\t&\tKaufman,\t2004;\t Daanen\t&\tGrant,\t2007;\tResnick\tet.", 
  "al,\t2009;\tHarrell\t&\tVeeragoudar\tHarrell,\t2009;\t Gee,\t2008).", 
  "This\tapproach\thas\talso\tbeen\tcommercialized,\te.g.,\tClasscraft\t(2016),\t CodeCombat\t (2016),\t etc.", 
  "However,\t developers\u2019\t knowledge\t of\t how\t such\t embellishments\tmay\taffect\tusers\tin\tgame-like\tenvironments\tis\tlacking.", 
  "In\tthe\tstudy\t reported\ton\there,\twe\tfound\tthat\tembellishments\tmay\thave\tsignificant\teffects\ton\t user\tperformance,\tengagement,\tand\tprogramming\tself-efficacy.", 
  "The\timplications\tare\t \n\fimportant,\te.g.,\tself-efficacy\tis\ta\tstrong\tpredictor\tof\twomen\u2019s\tcareer\tchoices,\t especially\tin\tregards\tto\tSTEM\tfields\t(Betz\t&\tHackett,\t1986;\tPajares,\t1996;\tBrauner,\t Leonhardt,\tZiefle,\t&\tSchroeder,\t2010).", 
  "Moreover,\tperformance\tand\tengagement\tare\t measures\tstrongly\tcorrelated\twith\tlearning\tand\tmotivation\t(Harteveld,\t2015;\t Blumenfeld\tet.", 
  "al\t2005).", 
  "Thus,\tlevels\tof\tembellishment\tappear\tto\tsignificantly\t influence\tusers\ton\ta\twide\tvariety\tof\tcrucial\tconstructs.", 
  "Why\tdid\tthis\thappen?", 
  "We\tposit\tthat\tone\tcause\tis\t seductive\t details,\twhich\t interfere\twith\tproblem\tsolving\tabilities\tin\thigh\tcognitive\tload\tenvironments\t(Park\t et.", 
  "al\t2011;\tPark,\tFlowerday,\t&\tBr\u00fcnken,\t2015).", 
  "This\thappens\tbecause\tof\tthree\t things\t(Harp\t&\tMayer,\t1998):\tdistraction\t(taking\tattention\taway\tfrom\tthe\trelevant\t and\tmoving\tit\ttowards\tthe\tirrelevant)\t(Sanchez\t&\tWiley,\t2006),\tdisruption\t(making\t it\tharder\tto\tcreate\tcorrect\tmental\tschemas)\t(Lehman\tet.", 
  "al,\t2007),\tand\t diversion\t (priming\tprior\tknowledge\tthat\tis\tunhelpful)\t(Rowland,\tSkinner,\tDavis-Richards,\t Saudargas,\t&\tRobinson,\t2008;\tHarp\t&\tMayer,\t1998).", 
  "This\tis\twell-known\tin\t instructional\tmedia,\twhere\tembellishment\tis\tknown\tto\tdistract\tand\talso\tcreate\t ambiguity\t(e.g.,\tline\tsketches\tvs.\t3D\tgraphics)\t(Butcher,\t2006;\tMayer,\tHegarty,\t Mayer,\t&\tCampbell,\t2005;\tScheiter,\tGerjets,\tHuk,\tImhof,\t&\tKammerer,\t2009;\tMayer,\t Heiser,\t&\tLonn,\t2001).", 
  "Yet\tsome\tresearchers\targue\tthat\tembellishment\thas\t motivational\taffordances\t(Park\tet.", 
  "al,\t2011;\tGoetz\t&\tSadoski,\t1995;\tOzdemir\t&\t Doolittle,\t2015;\tFullerton,\t2014).", 
  "Our\tresults\tprovide\tvalidity\tto\tboth\targuments\u2014in\t our\tstudy\tcomparing\tgame\tskins,\tour\tresults\tsuggest\tthat\tembellished\tthemes\tmay\t reduce\tperformance\tall\tthe\twhile\timproving\tparticipant\tengagement.", 
  "from\t different\t research\t \nWhat\tshould\tdevelopers\tdo\tnow?", 
  "The\timplications\tare\tpowerful.", 
  "That\tthe\t mere\tgraphical\tskin\tof\ta\tgame\tcan\timpact\tusers\tin\ta\tvariety\tof\timportant\tways\t means\tthat\twe\tcan\tno\tlonger\tsimply\tassume\tthat\tembellishing\tin\tfantasy\tis\t necessarily\tpositive,\te.g.,\t(Garris\t&\tAhlers,\t2001;\tParker\t&\tLepper,\t1992;\tRieber,\t 1996;\tWestrom\t&\tShaban,\t1992;\tVirvou,\tKatsionis,\t&\tManos,\t2005;\tWilson\tet.", 
  "al,\t 2009),\tnor\tthe\tinverse.", 
  "Instead,\twe\tadvocate\tto\tview\tembellishment\tholistically.", 
  "In\t fields,\t multiple,\t seemingly\t literature\t considering\t dichotomous\tperspectives\tare\treconcilable\tunder\tthe\ttenet\tthat\tno\tglobal\tmaximum\t exists.", 
  "Embellishment\tmay\taffect\tperformance\tadversely,\tall\tthe\twhile\taffecting\t engagement\tbeneficially.", 
  "Our\tresults\talso\tsuggest\tanother\tpath\tforward.", 
  "Developers\tmust\tinvest\tin\t compelling\tand\tcoherent\tdesign.", 
  "We\tcan\timagine\ta\ttype\tof\ttheme\tor\tskin\tthat\tis\t elegant,\timaginative,\tand\tdomain-coherent\tthat\tis\ta\ttype\tof\tbest\tof\tboth\tworlds\ttheme\t that\twould\tlead\tto\thigh\tlevels\tof\tboth\tperformance\tand\tengagement\u2014themes\tthat\t avoid\tunnecessary\tcomplexity\tand\tembellishment\twhile\tmaintaining\telegant\t thematic\tcoherence.", 
  "In\tthe\tfuture,\twe\thope\tto\tfurther\tuntangle\tthe\tcomplicated\t constructs\tinvolved\tin\tassessing\tvisual\tthemes.", 
  "Ultimately,\tsuch\tstudies\tmay\tbe\t valuable\tfor\teducational\tdesigners\twhen\tit\tcomes\tto\tcreating\tdiverse\ttypes\tof\t computer-based\tenvironments\tfor\tlearning.", 
  "We\tthank\tthe\tanonymous\treviewers\tfor\ttheir\tvaluable\tfeedback.", 
  "This\twork\tis\t supported\tby\tNSF\tSTEM+C\tGrant\t#1542970\tand\tan\tNSERC\tfellowship.", 
  "Acknowledgements\t \n\fFigure\t1\t&\t2\t \nMazzy\tScreenshots\t \n\t\t\t\t\t\t\t\t\t\t\t\t\t\t \n\fFigure\t3\t \nLevels\t1-4\t \n\fFigure\t4\t \nLevels\t5-8\t \n\fFigure\t5\t \nLevels\t9-12\t \n\fFigure\t6\t \nChoice\tCondition\t \n\t\t\t\t\t\t\t\t\t\t\t\t\t\t\t\t\t\t\t \n\fFigure\t7\t \nPerformance\u2014Graphs\t \nFigure\t8\t \nSelf-Efficacy\u2014Graph\t \n\t\t\t\t\t\t\t\t\t\t\t\t\t\t\t \nFigure\t9\t \nGEQ\u2014Graph\t \n\t\t\t\t\t\t\t\t\t\t\t\t\t\t\t \nFigure\t10\t \nPENS\u2014Graph\t \n\t\t\t\t\t\t\t\t\t\t\t\t\t\t\t \n\nFactor\t1:\tIndependence\tand\tpersistence\t(alpha\t=\t0.84)\t \n1.", 
  "Complete\ta\tprogram\tif\tI\thad\tno\thelp\tat\tall.", 
  "2.", 
  "Complete\ta\tprogram\tonce\tthe\ttutorial\thelped\tme\tget\tstarted.", 
  "3.", 
  "Complete\ta\tprogram\tif\tsomeone\tshowed\tme\thow\tto\tsolve\tthe\tproblem\tfirst.", 
  "Factor\t2:\tComplex\tprogramming\ttasks\t(alpha\t=\t0.85)\t \n1.", 
  "Write\ta\tprogram\tfor\tan\textremely\tdifficult\tproblem.", 
  "2.", 
  "Organize\tmy\tprogram\tin\ta\tclean\tway.", 
  "3.", 
  "Mentally\ttrace\tthrough\tthe\texecution\tof\ta\tlong,\tcomplex,\tprogram\tgiven\tto\t \tFactor\t3:\tSelf-regulation\t(alpha\t=\t0.85)\t \n1.", 
  "Come\tup\twith\ta\tsuitable\tstrategy\tfor\ta\tgiven\tproblem\tin\ta\tshort\ttime.", 
  "2.", 
  "Manage\tmy\ttime\tefficiently\tif\tI\thad\ta\tpressing\tdeadline\ton\ta\tproblem.", 
  "3.", 
  "Find\ta\tway\tto\tconcentrate\ton\tmy\tprogram,\teven\twhen\tthere\twere\tmany\t distractions\taround\tme.", 
  "Factor\t4:\tSimple\tprogramming\ttasks\t(alpha\t=\t0.86)\t \n1.", 
  "Write\tlogically\tcorrect\tblocks\tof\tcode.", 
  "2.", 
  "Write\ta\tprogram\tfor\ta\tsimple\tproblem.", 
  "3.", 
  "Write\ta\tprogram\tfor\ta\tmoderately\tdifficult\tproblem.", 
  "Category\t Black\tor\tAfrican\tAmerican\t Asian\tIndian\t American\tIndian\t Vietnamese\t Japanese\t Filipino\t \n\t1172\tparticipants\twere\trecruited\tthrough\tMechanical\tTurk.", 
  "The\tdata\tset\tconsisted\t of\t692\tmale,\tand\t480\tfemale\tparticipants.", 
  "Participants\tself-identified\ttheir\t races/ethnicities\tas\twhite\t(944),\tblack\tor\tAfrican\tAmerican\t(66),\tAsian\tIndian\t(40),\t Chinese\t(18),\tKorean\t(8),\tAmerican\tIndian\t(9),\tVietnamese\t(7),\tJapanese\t(3),\t Filipino\t(5),\tand\tother\t(72).", 
  "Participants\twere\tbetween\tthe\tages\tof\t18\tand\t71\t (M=30.1,\tSD=8.8),\tand\twere\tall\tfrom\tthe\tUnited\tStates.", 
  "Participants\twere\t reimbursed\t$1.50\tto\tparticipate\tin\tthis\texperiment.", 
  "Demographics\t \nCharacteristic\t Ethnicity\t \n\t\t\t\t\t\t\t\t\t \n\fPartial\tEta\t \nHypothesis\t \nNumericCondition\t \nPerformance\u2014MANOVA\tMultivariate\tF-tests\t Intercept\t .871\t2615.055a\t .129\t2615.055a\t 6.734\t2615.055a\t 6.734\t2615.055a\t \nError\tdf\t Pillai's\tTrace\t 1165.000\t Wilks'\tLambda\t 1165.000\t Hotelling's\tTrace\t 1165.000\t Roy's\tLargest\t 1165.000\t Pillai's\tTrace\t 3501.000\t Wilks'\tLambda\t 2835.454\t Hotelling's\tTrace\t 3491.000\t Roy's\tLargest\t 1167.000\t a.", 
  "Exact\tstatistic\t b.", 
  "The\tstatistic\tis\tan\tupper\tbound\ton\tF\tthat\tyields\ta\tlower\tbound\ton\tthe\tsignificance\tlevel.", 
  "c.\tDesign:\tIntercept\t+\tNumericCondition\t \n\fCondition\t \nStd.", 
  "Error\t \n95%\tConfidence\tInterval\t Lower\tBound\t Upper\tBound\t \nPerformance\u2014Descriptive\t \nDependent\tVariable\t Levels\tCompleted\t \nHints\tRequested\t \nAttempts\t \n\n\t\t\t\t\t\t\t\t\t\t\t\t\t\t\t\t\t\t\t\t\t\t\t\t\t\t\t\t \n\fTable\t5\t Performance\u2014Posthocs\t Dependent\tVariable\t Conditions\t p\t<\t.005\t Levels\tCompleted\t Generic\t>\tCircuit\t Levels\tCompleted\t Choice\t>\tCircuit\t Hints\tRequested\t Generic\t<\tFantasy\t p\t<\t.001\t Hints\tRequested\t Generic\t<\tCircuit\t Hints\tRequested\t Choice\t<\tCircuit\t Hints\tRequested\t Fantasy\t<\tCircuit\t p\t<\t.001\t Attempts\t Generic\t<\tChoice\t p\t<\t.001\t Attempts\t Generic\t<\tFantasy\t p\t<\t.001\t Attempts\t Generic\t<\tCircuit\t p\t<\t.001\t Attempts\t Choice\t<\tCircuit\t p\t<\t.001\t Attempts\t Fantasy\t<\tCircuit\t p\t<\t.001\t \tAttempts\t \tFantasy\t<\tCircuit\t \tPost\thoc\tcomparisons\t(LSD)\trevealed\tthat\tparticipants\tin\tthe\tgeneric\tcondition\t in\t the\t circuit\t condition,\t p<.005.", 
  "completed\t more\t Participants\tin\tthe\tchoice\tcondition\talso\tcompleted\tmore\tlevels\tthan\tparticipants\tin\t the\tcircuit\tcondition,\tp<.05.", 
  "Participants\tin\tthe\tgeneric\tcondition\tused\tless\thints\t than\tparticipants\tin\teither\tthe\tfantasy,\tp<.05,\tor\tcircuit,\tp<.001,\tconditions.", 
  "Participants\tin\tthe\tchoice\tcondition\tused\tless\thints\tthan\tparticipants\tin\tthe\tcircuit\t condition,\tp<.01.", 
  "Participants\tin\tthe\tfantasy\tcondition\tused\tless\thints\tthan\t participants\tin\tthe\tcircuit\tcondition,\tp<.05.", 
  "Participants\tin\tthe\tgeneric\tcondition\t used\tless\tattempts\tthan\tparticipants\tin\tthe\tchoice,\tfantasy,\tor\tcircuit\tconditions,\t p<.001.", 
  "Participants\tin\tthe\tchoice\tcondition\tused\tless\tattempts\tthan\tparticipants\tin\t the\tcircuit\tcondition,\tp<.001.", 
  "Participants\tin\tthe\tfantasy\tcondition\tused\tless\t attempts\tthan\tparticipants\tin\tthe\tcircuit\tcondition,\tp<.001.", 
  "levels\t than\t participants\t \nPartial\tEta\t \n\nSelf-Efficacy\u2014MANOVA\tMultivariate\tF-tests\t Hypothesis\t Error\tdf\t Intercept\t .934\t 1358.838a\t Pillai's\tTrace\t 12.000\t 1156.000\t .066\t 1358.838a\t Wilks'\tLambda\t 12.000\t 1156.000\t Hotelling's\tTrace\t 14.106\t 1358.838a\t 12.000\t 1156.000\t Roy's\tLargest\t 14.106\t 1358.838a\t 12.000\t 1156.000\t Pillai's\tTrace\t 36.000\t 3474.000\t Wilks'\tLambda\t 36.000\t 3416.259\t Hotelling's\tTrace\t 36.000\t 3464.000\t Roy's\tLargest\t 12.000\t 1158.000\t a.", 
  "Exact\tstatistic\t b.", 
  "The\tstatistic\tis\tan\tupper\tbound\ton\tF\tthat\tyields\ta\tlower\tbound\ton\tthe\tsignificance\tlevel.", 
  "c.\tDesign:\tIntercept\t+\tNumericCondition\t \nNumericCondition\t \n\t\t\t\t\t\t\t\t\t\t\t\t\t\t\t\t\t\t\t \n\fSelf-Efficacy\u2014Descriptives\t \nDependent\tVariable\t Answer.EfficacyQ1\t \nAnswer.", 
  "EfficacyQ2\t \nAnswer.", 
  "EfficacyQ3\t \nAnswer.", 
  "EfficacyQ4\t \nAnswer.", 
  "EfficacyQ5\t \nAnswer.", 
  "EfficacyQ6\t \nAnswer.", 
  "EfficacyQ7\t \nAnswer.", 
  "EfficacyQ8\t \nAnswer.", 
  "EfficacyQ9\t \nAnswer.", 
  "EfficacyQ10\t \nAnswer.", 
  "EfficacyQ11\t \nAnswer.", 
  "EfficacyQ12\t \nCondition\t \nStd.", 
  "Error\t \n95%\tConfidence\tInterval\t Lower\tBound\t Upper\tBound\t \n\fTable\t8\t Self-Efficacy\u2014Posthocs\t Conditions\t Dependent\tVariable\t Generic\t>\tCircuit\t Complete\ta\tprogram\tif\tI\thad\tno\thelp\tat\tall\t Choice\t>\tCircuit\t Complete\ta\tprogram\tif\tI\thad\tno\thelp\tat\tall\t Generic\t>\tCircuit\t Write\ta\tprogram\tfor\tan\textremely\tdifficult\tproblem\t p\t<\t.005\t Generic\t>\tCircuit\t Come\tup\twith\ta\tsuitable\tstrategy\u2026\t Generic\t>\tCircuit\t Manage\tmy\ttime\tefficiently\u2026\t Choice\t>\tCircuit\t Manage\tmy\ttime\tefficiently\u2026\t p\t<\t.005\t Generic\t>\tCircuit\t Write\ta\tprogram\tfor\ta\tsimple\tproblem\t Choice\t>\tCircuit\t Write\ta\tprogram\tfor\ta\tsimple\tproblem\t Fantasy\t>\tCircuit\t Write\ta\tprogram\tfor\ta\tsimple\tproblem\t p\t<\t.001\t Write\ta\tprogram\tfor\ta\tmoderately\tdifficult\tproblem\t Generic\t>\tCircuit\t Write\ta\tprogram\tfor\ta\tmoderately\tdifficult\tproblem\t Fantasy\t>\tCircuit\t Generic\t>\tCircuit\t Mentally\ttrace\tthrough\tthe\texecution\tof\ta\tlong\u2026\t Mentally\ttrace\tthrough\tthe\texecution\tof\ta\tlong\u2026\t Generic\t>\tFantasy\t Write\tlogically\tcorrect\tblocks\tof\tcode\t Generic\t>\tChoice\t \tWrite\tlogically\tcorrect\tblocks\tof\tcode\t \tGeneric\t>\tCircuit\t \tPost\thoc\tcomparisons\t(LSD)\trevealed\tthat\tparticipants\tin\tboth\tthe\tgeneric\tand\t choice\tconditions\tscored\thigher\ton\t\u201cComplete\ta\tprogram\tif\tI\thad\tno\thelp\tat\tall\u201d\tthan\t participants\tin\tthe\tcircuit\tcondition.", 
  "p<.05.", 
  "Participants\tin\tthe\tgeneric\tcondition\t scored\thigher\ton\t\u201cWrite\ta\tprogram\tfor\tan\textremely\tdifficult\tproblem\u201d\tthan\t participants\tin\tthe\tcircuit\tcondition,\tp<.05.", 
  "Participants\tin\tthe\tgeneric\tcondition\t scored\thigher\ton\t\u201cCome\tup\twith\ta\tsuitable\tstrategy\tfor\ta\tgiven\tproblem\tin\ta\tshort\t time\u201d\tthan\tparticipants\tin\tthe\tcircuit\tcondition,\tp<.005.", 
  "Participants\tin\tboth\tthe\t generic\tand\tchoice\tcondition\tscored\thigher\ton\t\u201cManage\tmy\ttime\tefficiently\tif\tI\thad\ta\t pressing\tdeadline\ton\ta\tproblem\u201d\tthan\tparticipants\tin\tthe\tcircuit\tcondition,\tp<.05.", 
  "Participants\tin\tthe\tgeneric,\tchoice,\tand\tfantasy\tconditions\tscored\thigher\ton\t\u201cWrite\ta\t program\tfor\ta\tsimple\tproblem\u201d\tthan\tparticipants\tin\tthe\tcircuit\tcondition,\tp<.05.", 
  "Participants\tin\tboth\tthe\tgeneric\tand\tfantasy\tcondition\tscored\thigher\ton\t\u201cWrite\ta\t program\tfor\ta\tmoderately\tdifficult\tproblem\u201d\tthan\tparticipants\tin\tthe\tcircuit\t condition,\tp<.05.", 
  "Participants\tin\tthe\tgeneric\tcondition\tscored\thigher\ton\t\u201cMentally\t trace\tthrough\tthe\texecution\tof\ta\tlong,\tcomplex,\tprogram\tgiven\tto\tme\u201d\tthan\tboth\tthe\t circuit\tand\tfantasy\tconditions,\tp<.05.", 
  "Participants\tin\tthe\tgeneric\tcondition\tscored\t higher\ton\t\u201cWrite\tlogically\tcorrect\tblocks\tof\tcode\u201d\tthan\tparticipants\tin\tboth\tthe\t choice\tand\tcircuit\tconditions,\tp<.05.", 
  "2477.999a\t 2477.999a\t 2477.999a\t 2477.999a\t \nPartial\tEta\t \n\nGEQ\u2014MANOVA\tMultivariate\tF-tests\t Error\tdf\t Pillai's\tTrace\t Intercept\t 1126.000\t Wilks'\tLambda\t 1126.000\t Hotelling's\tTrace\t 1126.000\t Roy's\tLargest\t 1126.000\t Pillai's\tTrace\t 3384.000\t Wilks'\tLambda\t 3374.672\t Hotelling's\tTrace\t 3374.000\t Roy's\tLargest\t 1128.000\t a.", 
  "Exact\tstatistic\t b.", 
  "The\tstatistic\tis\tan\tupper\tbound\ton\tF\tthat\tyields\ta\tlower\tbound\ton\tthe\tsignificance\tlevel.", 
  "c.\tDesign:\tIntercept\t+\tNumericCondition\t \nHypothesis\t \nNumericCondition\t \n\t\t\t\t\t\t\t\t\t\t\t\t\t\t\t\t\t\t\t \n\fTable\t10\t GEQ\u2014Descriptives\t Dependent\tVariable\t Answer.g7flow\t \nAnswer.h8flow\t \nAnswer.i9flow\t \nAnswer.j10flow\t \nAnswer.k11flow\t \nAnswer.l12flow\t \nAnswer.m13imm\t \nAnswer.n14imm\t \nAnswer.o15imm\t \nAnswer.p16imm\t \nAnswer.q17imm\t \nAnswer.r18imm\t \nAnswer.s19comp\t \nCondition\t \nStd.", 
  "Error\t \n95%\tConfidence\tInterval\t Lower\tBound\t Upper\tBound\t \nAnswer.t20comp\t \nAnswer.u21comp\t \nAnswer.v22comp\t \nAnswer.w23comp\t \nAnswer.x24comp\t \nAnswer.y25chal\t \nAnswer.z26chal\t \nAnswer.za27chal\t \nAnswer.zb28chal\t \nAnswer.zc29chal\t \nAnswer.zd30chal\t \nAnswer.ze31tens\t \nAnswer.zf32tens\t \nAnswer.zg33tens\t \n\fAnswer.zh34tens\t \nAnswer.zi35tens\t \nAnswer.zj36tens\t \nAnswer.zk37pos\t \nAnswer.zl38pos\t \nAnswer.zm39pos\t \nAnswer.zn40pos\t \nAnswer.zo41pos\t \nAnswer.zp42pos\t \nAnswer.zq43neg\t \nAnswer.zr44neg\t \nAnswer.zs45neg\t \nAnswer.zt46neg\t \nAnswer.zu47neg\t \nAnswer.zv48neg\t \n\fFantasy\t \n\t\t\t\t\t\t\t\t\t\t\t\t\t\t\t\t\t\t\t\t\t\t\t\t\t\t\t\t\t\t\t\t\t\t\t\t\t\t\t\t\t\t\t\t \n\fTable\t11\t GEQ\u2014Posthocs\t Conditions\t Dependent\tVariable\t Circuit\t>\tGeneric,\tFantasy\t \u201cI\tforgot\teverything\taround\tme\u201d\t(flow)\t p\t<\t.001\t Circuit,\tFantasy,\tChoice\t>\tGeneric\t \u201cIt\twas\taesthetically\tpleasing\u201d\t(immersion)\t p\t<\t.005\t Circuit\t>\tGeneric,\tChoice\t \u201cI\tfelt\tthat\tI\tcould\texplore\tthings\u201d\t(immersion)\t Circuit,\tFantasy,\tChoice\t>\tGeneric\t \u201cI\tfound\tit\timpressive\u201d\t(immersion)\t Circuit,\tFantasy\t>\tGeneric\t \u201cIt\tfelt\tlike\ta\trich\texperience\u201d\t(immersion)\t Generic,\tChoice,\tFantasy\t>\tCircuit\t \u201cI\twas\tgood\tat\tit\u201d\t(competence)\t p\t<\t.005\t \u201cI\twas\tfast\tat\treaching\tthe\tgame\u2019s\ttargets\u201d\t(competence)\tGeneric,\tChoice,\tFantasy\t>\tCircuit\t p\t<\t.001\t Generic,\tChoice,\tFantasy\t>\tCircuit\t \u201cI\tfelt\tcompetent\u201d\t(competence)\t p\t<\t.005\t \u201cI\tthought\tit\twas\thard\u201d\t(challenge)\t Circuit\t>\tGeneric,\tChoice,\tFantasy\t \u201cI\tfelt\tchallenged\u201d\t(challenge)\t Circuit\t>\tGeneric,\tFantasy\t \u201cI\thad\tto\tput\ta\tlot\tof\teffort\tinto\tit\u201d\t(challenge)\t Circuit\t>\tGeneric,\tChoice\t Circuit\t>\tGeneric,\tChoice,\tFantasy\t \u201cI\tfelt\ttime\tpressure\u201d\t(challenge)\t p\t<\t.005\t \u201cI\tfelt\ttense\u201d\t(tension)\t Circuit\t>\tGeneric,\tChoice,\tFantasy\t \u201cI\tfelt\trestless\u201d\t(tension)\t Circuit\t>\tChoice,\tFantasy\t p\t<\t.005\t \u201cI\tfelt\tirritable\u201d\t(tension)\t Circuit\t>\tFantasy\t p\t<\t.005\t \u201cI\tfelt\tfrustrated\u201d\t(tension)\t Circuit\t>\tFantasy\t Circuit\t>\tGeneric,\tChoice,\tFantasy\t \u201cI\tfelt\tpressured\u201d\t(tension)\t p\t<\t.005\t \u201cI\tfelt\ttense\u201d\t(tension)\t Circuit\t>\tGeneric,\tChoice,\tFantasy\t p\t<\t.005\t \u201cI\tfelt\ttense\u201d\t(tension)\t Circuit\t>\tGeneric,\tChoice,\tFantasy\t p\t<\t.005\t \u201cI\tfelt\ttense\u201d\t(tension)\t Circuit\t>\tGeneric,\tChoice,\tFantasy\t \tCircuit\t>\tFantasy,\tChoice\t \t\u201cIt\tgave\tme\ta\tbad\tmood\u201d\t(negative\taffect)\t \tPost\thoc\tcomparisons\t(LSD)\trevealed\tthat\tparticipants\tin\tthe\tcircuit\tcondition\t scored\thigher\ton\t\u201cI\tforgot\teverything\taround\tme\u201d\t(flow)\tthan\tparticipants\tin\tthe\t generic\tand\tfantasy\tconditions,\tp<.05.", 
  "Participants\tin\tthe\tcircuit,\tfantasy,\tand\tchoice\t conditions\tscored\thigher\ton\t\u201cIt\twas\taesthetically\tpleasing\u201d\t(immersion)\tthan\t participants\tin\tthe\tgeneric\tcondition,\tp<.001.", 
  "Participants\tin\tthe\tcircuit\tcondition\t scored\thigher\ton\t\u201cI\tfelt\tthat\tI\tcould\texplore\tthings\u201d\t(immersion)\tthan\tparticipants\tin\t the\tgeneric\tand\tchoice\tconditions,\tp<.005.", 
  "Participants\tin\tthe\tcircuit,\tfantasy,\tand\t choice\tconditions\tscored\thigher\ton\t\u201cI\tfound\tit\timpressive\u201d\t(immersion)\tthan\t participants\tin\tthe\tgeneric\tcondition,\tp<.05.", 
  "Participants\tin\tthe\tcircuit\tand\tfantasy\t conditions\tscored\thigher\ton\t\u201cIt\tfelt\tlike\ta\trich\texperience\u201d\t(immersion)\tthan\t participants\tin\tthe\tgeneric\tcondition,\tp<.05.", 
  "Participants\tin\tthe\tgeneric,\tchoice,\tand\t fantasy\tconditions\tscored\thigher\ton\t\u201cI\twas\tgood\tat\tit\u201d\t(competence)\tthan\t participants\tin\tthe\tcircuit\tcondition,\tp<.01.", 
  "Participants\tin\tthe\tgeneric,\tchoice,\tand\t fantasy\tconditions\tscored\thigher\ton\t\u201cI\twas\tfast\tat\treaching\tthe\tgame\u2019s\ttargets\u201d\t (competence)\tthan\tparticipants\tin\tthe\tcircuit\tcondition,\tp<.005.", 
  "Participants\tin\tthe\t generic,\tchoice,\tand\tfantasy\tconditions\tscored\thigher\ton\t\u201cI\tfelt\tcompetent\u201d\t (competence)\tthan\tparticipants\tin\tthe\tcircuit\tcondition,\tp<.001.", 
  "Participants\tin\tthe\t circuit\tcondition\tscored\thigher\ton\t\u201cI\tthought\tit\twas\thard\u201d\t(challenge)\tthan\t participants\tin\tthe\tgeneric,\tchoice,\tand\tfantasy\tconditions,\tp<.005.", 
  "Participants\tin\t the\tcircuit\tcondition\tscored\thigher\ton\t\u201cI\tfelt\tchallenged\u201d\t(challenge)\tthan\t \n\fparticipants\tin\tthe\tgeneric\tand\tfantasy\tconditions,\tp<.05.", 
  "Participants\tin\tthe\tcircuit\t condition\tscored\thigher\ton\t\u201cI\thad\tto\tput\ta\tlot\tof\teffort\tinto\tit\u201d\t(challenge)\tthan\t participants\tin\tthe\tgeneric\tand\tchoice\tconditions,\tp<.05.", 
  "Participants\tin\tthe\tcircuit\t condition\tscored\thigher\ton\t\u201cI\tfelt\ttime\tpressure\u201d\t(challenge)\tthan\tparticipants\tin\tthe\t generic,\tchoice,\tand\tfantasy\tconditions,\tp<.05.", 
  "Participants\tin\tthe\tcircuit\tcondition\t scored\thigher\ton\t\u201cI\tfelt\ttense\u201d\t(tension)\tthan\tparticipants\tin\tthe\tgeneric,\tchoice,\tand\t fantasy\tconditions,\tp<.005.", 
  "Participants\tin\tthe\tcircuit\tcondition\tscored\thigher\ton\t\u201cI\t felt\trestless\u201d\t(tension)\tthan\tparticipants\tin\tthe\tchoice\tand\tfantasy\tconditions,\tp<.01.", 
  "Participants\tin\tthe\tcircuit\tcondition\tscored\thigher\ton\t\u201cI\tfelt\tirritable\u201d\t(tension)\tthan\t participants\tin\tthe\tfantasy\tcondition,\tp<.005.", 
  "Participants\tin\tthe\tcircuit\tcondition\t scored\thigher\ton\t\u201cI\tfelt\tfrustrated\u201d\t(tension)\tthan\tparticipants\tin\tthe\tfantasy\t condition,\tp<.005.", 
  "Participants\tin\tthe\tcircuit\tcondition\tscored\thigher\ton\t\u201cI\tfelt\t pressured\u201d\t(tension)\tthan\tparticipants\tin\tthe\tgeneric,\tchoice,\tand\tfantasy\tconditions,\t p<.05.", 
  "Participants\tin\tthe\tcircuit\tcondition\tscored\thigher\ton\t\u201cIt\tgave\tme\ta\tbad\tmood\u201d\t (negative\taffect)\tthan\tparticipants\tin\tthe\tfantasy\tand\tchoice\tconditions,\tp<.05.", 
  "Partial\tEta\t \n\nTable\t12\t PENS\u2014MANOVA\tMultivariate\tF-tests\t Intercept\t \nError\tdf\t Pillai's\tTrace\t 1147.000\t Wilks'\tLambda\t 1147.000\t Hotelling's\tTrace\t 1147.000\t Roy's\tLargest\t 1147.000\t Pillai's\tTrace\t 3447.000\t Wilks'\tLambda\t 3424.616\t Hotelling's\tTrace\t 3437.000\t Roy's\tLargest\t 1149.000\t a.", 
  "Exact\tstatistic\t b.", 
  "The\tstatistic\tis\tan\tupper\tbound\ton\tF\tthat\tyields\ta\tlower\tbound\ton\tthe\tsignificance\tlevel.", 
  "c.\tDesign:\tIntercept\t+\tNumericCondition\t \nHypothesis\t \n\n1226.218a\t 1226.218a\t 1226.218a\t 1226.218a\t \nNumericCondition\t \n\t\t\t\t\t\t\t\t\t\t\t\t\t\t\t\t\t\t\t \n\fTable\t13\t PENS\u2014Descriptives\t Dependent\tVariable\t Answer.zw49penscomp\t \nAnswer.zx50penscomp\t \nAnswer.zy51penscomp\t \nAnswer.zz52pensauton\t \nAnswer.zza53pensauton\t \nAnswer.zzb54pensauton\t \nAnswer.zzc55pensrelatedness\t \nAnswer.zzd56pensrelatedness\t \nAnswer.zze57pensrelatedness_rev\t \nAnswer.zzf58penspresence\t \nAnswer.zzg59penspresence\t \nAnswer.zzh60penspresence\t \n\n95%\tConfidence\t Interval\t \nCondition\t \n\fAnswer.zzi61penspresence_rev\t \nAnswer.zzj62penspresence\t \nAnswer.zzk63penspresence\t \nAnswer.zzl64penspresence\t \nAnswer.zzm65penspresence\t \nAnswer.zzn66penspresence\t \nAnswer.zzo67penscontrols\t \nAnswer.zzp68penscontrols\t \nAnswer.zzq69penscontrols\t \n\t\t\t\t\t\t\t\t\t\t\t\t\t\t\t \n\fTable\t14\t PENS\u2014Posthocs\t Dependent\tVariable\t p\t<\t.001\t PENS_competence_1\t PENS_competence_2\t PENS_competence_3\t PENS_autonomy_3\t PENS_presence_2\t p\t<\t.005\t \tPENS_presence_6\t \tAcross\tall\t3\tquestions\ton\tcompetence,\tparticipants\tin\tthe\tcircuit\tcondition\tscored\t lower\tthan\tparticipants\tin\tthe\tgeneric,\tchoice,\tand\tfantasy\tconditions,\tp<.05.", 
  "For\tthe\t question\ton\tautonomy,\tparticipants\tin\tthe\tcircuit\tcondition\tscored\thigher\tthan\t participants\tin\tthe\tgeneric,\tchoice,\tand\tfantasy\tconditions,\tp<.05.", 
  "For\tone\tof\tthe\ttwo\t questions\ton\tpresence,\tparticipants\tin\tthe\tcircuit\tcondition\tscored\thigher\tthan\t participants\tin\tthe\tgeneric,\tand\tchoice\tconditions,\tp<.05.", 
  "For\tthe\tother\tof\tthe\ttwo\t questions\ton\tpresence,\tparticipants\tin\tthe\tcircuit\tcondition\tscored\thigher\tthan\t participants\tin\tthe\tgeneric,\tchoice\tand\tfantasy\tconditions,\tp<.005.", 
  "Conditions\t Circuit\t<\tGeneric,\tChoice,\tFantasy\t Circuit\t<\tGeneric,\tChoice,\tFantasy\t Circuit\t<\tGeneric,\tChoice,\tFantasy\t Circuit\t>\tGeneric,\tChoice,\tFantasy\t Circuit\t>\tGeneric,\tChoice\t \tCircuit\t>\tGeneric,\tChoice,\tFantasy\t \n\t\t\t\t\t\t\t\t\t\t\t\t \n\f95%\tConfidence\t Interval\t \nTable\t15\t Choice\tCondition\u2014Descriptives\t Dependent\tVariable\t Levels\tCompleted\t \nHints\tRequested\t \nAttempts"
 ]
}