{
 "document_id": "1171717.1", 
 "sentences": [
  "\nSENSORY-PROCESSING SENSITIVITY   \nSensory Processing Sensitivity among High Ability Adults: A Psychometric Evaluation of Two  \nVersions of the Highly Sensitive Person Scale  \nAnne N. Rinn  \nDianna R. Mullet  \nNoel Jett  \nTara Nyikos  \nUniversity of North Texas  \nAuthor Note  \nAnne N. Rinn, Dianna R. Mullet, Noel Jett, and Tara Nyikos, Department of Educational  \nPsychology, University of North Texas.", 
  "Correspondence concerning this article should be addressed to Anne N. Rinn,  \nDepartment of Educational Psychology, University of North Texas, 1155 Union Circle #311335,  Denton, TX 76203.", 
  "E-mail: anne.rinn@unt.edu  \n\nSENSORY-PROCESSING SENSITIVITY  \nAbstract  \n\nThe purpose of the study is to validate two forms of a sensory-processing sensitivity measure, namely the  full scale and the short forms of the Highly Sensitive Person Scale, with samples of highly intelligent  individuals.", 
  "Participants in Study 1 included 188 highly intelligent individuals.", 
  "Results indicate a two- factor structure of the full version of the Highly Sensitive Person Scale.", 
  "Participants in Study 2 included  200 highly intelligent individuals.", 
  "Results indicate a three-factor structure of the short form of the Highly  Sensitive Person Scale.", 
  "Validity and reliability evidence is provided for both forms.", 
  "Conclusions and  implications of using both versions of the Highly Sensitive Person Scale are discussed.", 
  "SENSORY-PROCESSING SENSITIVITY  \nGiftedness and Sensory-Processing Sensitivity: Validation of Two Forms of the Highly Sensitive Person  \nIntroduction  \nAron and Aron (1997) proposed the notion of the \u201chighly sensitive person\u201d to describe  \nindividuals who are highly sensitive to lower intensity stimuli and become overwhelmed by stimuli.", 
  "Sensory-processing sensitivity signifies the capacity to react to sensory stimuli whose stimulating value is  low; individuals with high sensory-processing sensitivity have low stimulus sensitivity thresholds (De  Pascalis, Strelau, & Zawadzki, 1999; Strelau, 1998).", 
  "Our purpose is to validate two forms of a measure of sensory-processing sensitivity, namely the  \n\nfull scale and short scale versions of the Highly Sensitive Person Scale (HSPS; Aron & Aron, 1997;  Pluess et al., 2011) with samples of highly intelligent individuals.", 
  "From a theoretical standpoint, the  findings will contribute to the understanding of the notion of \u201csensitivity\u201d among high ability individuals.", 
  "Because of limited empirical research in this area and the potential relationship between intelligence and  sensory-processing sensitivity, validation of two versions of a measure of sensory-processing sensitivity  will be instrumental in informing future research.", 
  "From a practical standpoint, a psychometrically sound instrument to measure sensory-processing  sensitivity among gifted individuals will be helpful for practitioners working with this population.", 
  "Ayres  (1963) suggested that atypical sensory processing may result in social and emotional issues including  impulsivity, withdrawal, or avoidance of sensation (see also Benham, 2006; Dunn, 2001; Miller et al.,  2007).", 
  "If practitioners could accurately discriminate between sensory-processing sensitivity and  pathological conditions (e.g., Autism Spectrum Disorder, Avoidant Personality Disorder), misdiagnosis  may be avoided (Eide & Eide, 2006; Webb et al., 2005).", 
  "Sensory-Processing Sensitivity  \nPerspectives  \nAron and Aron (1997) developed the Highly Sensitive Person Scale (HSPS) as a measure of  \nsensory-processing sensitivity.", 
  "They conducted a series of seven studies investigating \u201cdefining  characteristics of sensory-processing sensitivity\u201d as well as \u201cthe core construct\u2019s dimensionality, possible  subgroupings, and potential relation to childhood experience\u201d (p. 350).", 
  "Findings from their research led to  development of the HSPS and the hypothesis that sensitivity is related to both social introversion and  emotionality but is a distinct construct.", 
  "Although Aron and Aron (1997) conceptualized the HSPS as  measuring a single construct, other research suggests it measures multiple constructs.", 
  "For example,  Smolewska, McCabe, and Woody (2006) found three constructs: Ease of Excitation (becoming mentally  overwhelmed by internal or external stimuli), Low Sensory Threshold (unpleasant arousal by external  stimuli), and Aesthetic Sensitivity (awareness of aesthetic stimuli).", 
  "The Ease of Excitation and Low  Sensory Threshold subscales were highly correlated (r = .73, p < 0.01) suggesting they represent a single  factor.", 
  "Evans and Rothbart (2008) reported a two-factor model consisting of Negative Emotionality  (negative affect resulting from sensory stimulation) and Orienting Sensitivity (attentional processing of  internal and external sensory events).", 
  "Sensitivity in Gifted Individuals  \nGifted education researchers and scholars recognize the tendency for gifted individuals to be  highly sensitive to environmental stimuli.", 
  "Webb, Amend, Webb, Goerss, Beljan, and Olenchak (2005)  note that gifted individuals commonly exhibit \u201cextreme sensitivity to various kinds of sensory stimuli\u201d (p.  \n\nSENSORY-PROCESSING SENSITIVITY  \nOverexcitabilities (Dabrowski, 1964) signify an innate tendency to respond to internal and  \n151), and Mendaglio (1995) attests, \u201cgifted persons feel more because they see more than their nongifted  counterparts\u201d (p. 169).", 
  "Gere, Capps, Mitchell, and Grubbs (2009) found that gifted children were more  sensitive to their environment and more likely to react to environmental stimuli with heightened  emotional and behavioral responses than children of average intelligence.", 
  "Moreover, gifted children feel  their emotions more intensely than other children (Mendaglio, 2003; Piechowski, 1997; Piechowski &  Cunningham, 1985), and the link between sensory discrimination and emotional and behavioral reactivity  found by Gere et al.", 
  "suggests both heightened sensory discrimination and heightened reactivity to sensory  input may be features of a high IQ population.", 
  "external stimuli in an intensified manner (Piechowski, 1986) and take five forms: intellectual,  psychomotor, sensual, imaginational, and emotional.", 
  "Of particular interest to the study of sensory- processing sensitivity is sensual overexcitability.", 
  "According to Lind (2001), \u201cThose with sensual  overexcitability have a far more expansive experience from their sensual input than the average person\u2026  because of this increased sensitivity, they may also feel over stimulated or uncomfortable with sensory  input\u201d (pp.", 
  "1-2).", 
  "Overexcitabilities are generally accepted characteristics of gifted children (Tucker &  Hafenstein, 1997), gifted adolescents (Gross, Rinn, & Jamieson, 2007; Limont, Dreszer-Drogor\u00f3b,  Bedy\u0144ska, \u015aliwi\u0144ska, & Jastrz\u0119bska, 2014; Rinn, Mendaglio, Rudasill, & McQueen, 2010), and gifted  adults (Wirthwein, Becker, Loehr, & Rost, 2011).", 
  "Further, overexcitabilities correlate with a measure of  sensory processing (r = .446; Carman, 2011).", 
  "Study 1: Validation of the HSPS Full Scale  \nParticipants.", 
  "Undergraduates enrolled in a university honors program were recruited via an  \n\nhonors program E-mail listserv.", 
  "Admission to the honors program requires high school GPA of at least  3.75/4.00, rank in the top 20 percent of one\u2019s graduating class, and combined verbal/math SAT score  above 1200 (above 27 on the ACT).", 
  "Approximately 2000 individuals were enrolled in the undergraduate  honors program; 92 of those participated.", 
  "Additionally, undergraduate students enrolled in a freshman  human development course were recruited from four classes through classroom announcements.", 
  "Ninety- six of 98 students present during announcements participated.", 
  "Overall, N=188 high ability individuals  participated.", 
  "Of those, 91% (n = 171) had participated in Advanced Placement, International  Baccalaureate, Honors, or early college entrance.", 
  "As further evidence of high intellectual ability, 83% (n  = 156) of participants were enrolled in the university\u2019s honors program.", 
  "Overall, 20% identified male,  80% female, and 1% (n = 2) \u201cother gender.\u201d Ages ranged from 17 to 26 (M = 19.98).", 
  "Likert-type items (see Table 1) with response options ranging from 1 = \u201cnot at all\u201d to 7 = \u201cextremely.\u201d  Aron and Aron (1997) found internal consistency scores of \u03b1 = .87 and \u03b1 = .85.", 
  "The Overexcitability  Questionnaire 2 (OEQ-II) measures the five forms of overexcitability; it includes 50 Likert-type items  with responses ranging from 1 = \u201cnot at all like me to 5 = \u201cvery much like me.\u201d Internal consistency  estimates from the normative sample were \u03b1 = .86 (psychomotor); \u03b1 = .84 (emotional); \u03b1 = .85  (imaginational); \u03b1 = .89 (intellectual); \u03b1 = .89 (sensual).", 
  "Analysis and Results  \nvarimax rotation was used to extract factors.", 
  "Based on a scree test and parallel analysis, we retained two  \nData Sources.", 
  "The Highly Sensitive Person Scale (HSPS; Aron & Aron, 1997) contains 27  \nWe conducted exploratory factor analysis (EFA); Principal components analysis (PCA) with  \n\nSENSORY-PROCESSING SENSITIVITY  \nfactors that explained 35.4% of total variance.", 
  "Seven items with substantial cross-loadings were  eliminated.", 
  "Factors were re-extracted, resulting in a two-factor solution that explained 39.3% of total  variance.", 
  "Table 2 presents the solution, and the component plot in Figure 1 shows two clearly separate  groups of items.", 
  "Internal consistency estimates were \u03b1 = .86 for the first subscale (Sensory Discomfort)  and \u03b1 = .73 for the second subscale (Orienting Sensitivity).", 
  "correlation between sensual overexcitability and Orienting Sensitivity was large, r = .652, p < .001 and  that between sensual overexcitability and Sensory Discomfort was moderate, r = .307, p < .001.", 
  "Table 3 summarizes correlations between the two factors and sensual overexcitability.", 
  "The  \nStudy 2: Validation of the HSPS Short Form  \nParticipants.", 
  "Alumni from an early entrance college program were recruited via an alumni group  \non Facebook.", 
  "Students in the program complete their final two years of high school and first two years of  college simultaneously; their average verbal/math combined SAT score is 1983.", 
  "Of 1869 alumni, 130  participated.", 
  "Additionally, 71 undergraduates were recruited from the university honors program  described in Study 1.", 
  "All participants (N = 200) were identified gifted in childhood and took part in gifted programs  \nduring elementary school (79%); Honors, Advanced Placement, or International Baccalaureate courses  during secondary school (91%); summer programs for gifted individuals (35%); extracurricular academic  activities (e.g., math club) (78%); and \u201cother academic activity for gifted or high ability students\u201d (40%).", 
  "Thirty-one percent were male, 68% female, and 1% (n = 2) \u201cother gender.\u201d Ages ranged from 17 to 43 (M  = 26.96, SD = 8.11).", 
  "The majority were non-Hispanic White (63.5%) followed by Asian/Asian American  (21.0%), Latino/a (8.5%), \u201cother\u201d (3.5%), American Indian/Alaska native (1.5%), Pacific Islander (1.5%),  and African American/Black (0.5%).", 
  "measures sensory-processing sensitivity.", 
  "The scale contains 12 items with response options from 1 = \u201cnot  at all\u201d to 7 = \u201cextremely.\u201d The 12 items represent the highest loading items on three subscales: Ease of  Excitation (EOE), Aesthetic Sensitivity (AS), and Low Sensory Threshold (LST) from the full HSPS.", 
  "Table 1 lists all items.", 
  "To date, no psychometric evaluations have been published on this short scale (M.  Pluess, personal communication, March 24, 2016).", 
  "The Eysenck Personality Questionnaire-Revised  (EPQ-R; Eysenck, Eysenck, & Barrett, 1985) measures three dimensions of personality: Extroversion- Introversion, Neuroticism, and Psychoticism.", 
  "The scale contains 48 items; response options are yes or no.", 
  "For this study, we used only Extroversion-Introversion and Neuroticism subscale scores.", 
  "Analysis and Results  \n1\u201d criterion and parallel analysis, we retained three factors that explained 54.7% of total variance.", 
  "The  factors were identical to those found by Smolewska et al.", 
  "(2006) in their examination of the full-scale  HSPS.", 
  "Table 4 summarizes the HSPS-SF structure.", 
  "Internal consistency estimates were \u03b1 = .78 (EOE), \u03b1  = .63 (AS), and \u03b1 = .63 (LST).", 
  "EOE and SLT were correlated (r = .386, p < 0.01), as were AS and LST (r  = .202, p < 0.01).", 
  "Intercorrelations between subscales are shown in Table 5.   \nsensitivity is related to, but distinct from Introversion (r = .14 to .29) and Neuroticism (r = .41 to .62).", 
  "We  found small to moderate correlations between EOE and Neuroticism and Extroversion, as well as between  LST and Neuroticism and Extroversion (Table 5).", 
  "We conducted PCA with varimax rotation to extract factors.", 
  "Based on \u201ceigenvalue-greater-than- \nData Sources.", 
  "The Highly Sensitive Person Scale \u2013 Short Form (HSP-SF; Pluess et al., 2011)  \nIn their original validation of the HSPS, Aron and Aron (1997) showed that sensory-processing  \n\nSENSORY-PROCESSING SENSITIVITY  \nSignificance  \n\nExploratory factor analysis of the HSP-SF with a gifted sample suggested a three-factor structure.", 
  "To date, this is the first validation of HSPS or HSP-SF with a gifted sample.", 
  "Exploratory factor  analysis of HSPS with a gifted sample suggested a two-factor structure.", 
  "The first subscale, similar to the  Sensory Discomfort subscale described by Evans and Rothbart (2008), represents negative psychological  response to intense stimuli.", 
  "The second subscale, similar to Orienting Sensitivity subscale described by  Evans and Rothbart, reflects deep processing of stimuli.", 
  "The first subscale, similar to the Ease of Excitation subscale described by Smolewsak et al.", 
  "(2006),  represents becoming mentally overwhelmed by stimuli.", 
  "The second subscale, similar to the Low Sensory  Threshold subscale described by Smolewsak et al., reflects unpleasant arousal in the face of external  stimuli.", 
  "The third subscale, similar to the Aesthetic Sensitivity subscale described by Smolewsak et al.,  indicates awareness of aesthetic stimuli.", 
  "Further examination indicated significant relationships between factors of the HSPS and external  constructs, providing validity evidence for each scale.", 
  "Using the full scale HSPS, we found a statistically  significant relationships between sensual overexcitability and Orienting Sensitivity and between sensual  overexcitability and Sensory Discomfort.", 
  "Those findings suggest sensual overexcitability and Orienting  Sensitivity subscales measure similar constructs that are both related to Sensory Discomfort.", 
  "of Excitation and Neuroticism and Extroversion, as well as between the Low Sensory Threshold and  Neuroticism and Extroversion.", 
  "The Aesthetic Sensitivity subscale scores were unrelated to Neuroticism  and Extroversion.", 
  "These findings replicate Aron and Aron\u2019s (1997) original findings.", 
  "Using the short form of the HSPS, statistically significant correlations were found between Ease  \nSENSORY-PROCESSING SENSITIVITY"
 ]
}