{
 "document_id": "1171557.1", 
 "sentences": [
  "Paradigms in Play: Using Case Studies to Explore the Value-Added of Divergent Findings  \nParadigms at Play  \nin Mixed Methods Research  \nDr. E. G. Creamer, Professor, School of Education, Virginia Tech  \n\nCherie Edwards, Doctoral Candidate, School of Education, Virginia Tech  \n(under review by the International Journal of Multiple Methods)  \nABSTRACT  \nThis research aims to make a methodological contribution to the mixed methods  literature by investigating the value-added of empirical studies that are explicitly  framed with the purpose of interrogating divergent findings.", 
  "Case studies  introduce the role philosophical paradigms can play in reconciliation process and  reveal the potential to advance theoretical understanding and/or to challenge  prevailing views as a principal value-added as a potential outcome of research  with this purpose.", 
  "The research makes an additional contribution by proposing  that there is a variant of the initiation design that is theoretically framed in ways  that anticipates divergence and resists reconciliation.", 
  "Bryman (2006) is among a chorus of the founding voices who have pointed to the  \nlikelihood of unanticipated findings in multi- and mixed method research.", 
  "This is most likely to  \nbe the experience in research that is undertaken not simply to use multiple sources of data to  \ncorroborate results, but to enhance inferential validity by developing a more nuanced explanation  \nfor the type of complexity typically encountered in research involving social phenomenon.", 
  "The  \nfrequency of encounters with unexpected findings can be credited to the sheer amount and  \nvariety of data often collected in mixed and multi-method research (Bryman, 2006).", 
  "It can also  \nbe attributed to an intentionality about engaging diverse perspectives that is deeply embedded in  \nwhat Greene (2007) refers to as a \u201cmixed method way of thinking\u201d and to a paradigmatic  \ngrounding in dialectical pluralism (Johnson, 2012; Johnson & Schoonenboom, 2016;  \n\fParadigms at Play  \nOnwuegbuzie & Frels, 2013).", 
  "The intellectual challenge of integrating incongruent findings from  \nqualitative and quantitative sources is probably one reason why it is not uncommon for a multi- \nmethod project to evolve to a mixed method one during the reconciliation process.", 
  "The commitment to engage difference and to pursue paradox and contradiction is central  \nenough to the methodology that undergirds mixed methods to warrant a separate designation in a  \nwidely-used framework that identifies the principal rationales for its use.", 
  "The originators of a  \nclassification system for the rationales for using mixed methods that continues to be widely  \napplied, Greene, Caracelli, and Graham (1989) single out what they referred to as the initiation  \nrationale is one of five main reasons for using mixed methods.", 
  "They define this rationale with  \nthese words: \u201cSeeks the discovery of paradox and contradiction, new perspectives and  \nframeworks, the recasting of questions or results from one method with questions or results from  \nanother method\u201d (p. 259).", 
  "This purpose is also applied to studies seeking to make meaning from  \ngaps and silences in findings.", 
  "Greene and her colleagues observe that qualitative and quantitative  \ndata tend to be given equal weight in this type of study.", 
  "The position of the initiation rationale in the typology that summarizes the primary  \nrationales for using mixed methods arguably has more to do with it as a methodological  \ncommitment than from evidence that it is prevalent in practice.", 
  "Authors of three separate content  \nanalysis suggest that it only represents between one to two percent of all mixed methods  \npublications.", 
  "Greene et al.", 
  "(1989) found it characterized three percent of the evaluation reports  \nthey analyzed, while Bryman (2006) characterized the rationale as even less common.", 
  "By his  \naccount, less than two percent of 232 mixed methods articles could be neatly categorized this  \nway.", 
  "Reviewing grant proposals, instead of published articles, O\u2019Cathain, Murphy, and Nichol  \n\fParadigms at Play  \n(2007) reached the conclusion that none of them were framed in ways that met the expectations  \nof the initiation rationale.", 
  "There are several possible explanations for why it is difficult to locate mixed method  \npublications that are explicitly framed with the purpose of pursuing an explanation for  \nparadoxical or counter-intuitive findings.", 
  "This may well be an artifact of a bias in publications  \ntoward presenting significant positive findings and a disinclination to publish non-significant  \nresults.", 
  "It could also reflect the gap between the messiness of most research involving complex  \nphenomenon and the sanitized and inherently linear way that results are presented in a  \npublication.", 
  "It is very likely that inconsistencies between results from different data sources are  \nless likely to emerge in mixed methods designs where the qualitative and quantitative are  \ndistinctly compartmentalized.", 
  "An equally plausible explanation is that many researchers  \napproach the task of reconciling inconsistencies between their data sources with the assumption  \nthat there is one right answer and that the reconciliation process involves making a choice about  \nwhich method yields that most credible source of data.", 
  "This explanation is supported by   \nGiddings and Grant\u2019s (2007) charge that mixed methods research has had a positivist bent  \nbecause findings from the qualitative strand are so often downplayed in the pursuit of a singular  \n\u201ctruth\u201d.", 
  "This paper aims to make a methodological contribution to the mixed methods literature  \nby using a qualitative approach to investigate publications reporting on empirical studies using  \nboth qualitative and quantitative methods that are explicitly framed with the purpose of  \ninterrogating divergent findings.", 
  "We use case studies to illustrate the value-added of different  \napproaches to the reconciliation process and to demonstrate the link there seems to be to  \n\fParadigms at Play  \nparadigmatic stance.", 
  "Value-added refers to statements made by authors in the discussion section  \nof an article about the insight gained from a mixed methods approach.", 
  "The research is guided by three research questions:  \n1.", 
  "What strategies are used by authors of articles explicitly framed with a purpose  \nthat fits the traditional definition of the initiation rational to reconcile divergent  \nfindings?", 
  "2.", 
  "What value-added do authors of this kind of study report and does it vary by the  \nreconciliation strategy?", 
  "3.", 
  "What evidence is there that philosophical and paradigmatic grounding influences  \nthe approach that is taken to the reconciliation process?", 
  "This research has the practical purpose of helping researchers to envision strategies that are  \nuseful for reconciling inconsistent data.", 
  "It links to an earlier paper I wrote about how  \ncollaborators deal with differences of opinion (Creamer, 2004).", 
  "It contributes to the literature  \nabout the characteristics of mixed methods research undertaken with the purpose of  \nunderstanding paradox and contradiction and links it to the literature about reconciliation  \nstrategies.", 
  "It adds to the literature about the initiation rationale by demonstrating a link between  \nthe approach to the reconciliation process and paradigmatic grounding.", 
  "The role knowledge of  \nthe literature and theoretical frameworks emerged as instrumental to the reconciliation process in  \nthis research.", 
  "That finding links to earlier work that investigated the way references of the  \nliterature can be deployed to enhance inferential validity (Creamer, Musaeus, & Edwards, under  \n\nRelevant Literature and Theoretical Frameworks  \n\fParadigms at Play  \nAlthough there is no lack of literature debating the merits of different philosophical and  \nparadigmatic issues in mixed methods research, there is scant literature about strategies that can  \nbe used to weigh inconsistencies between results in research that combines qualitative and  \nquantitative approaches.", 
  "The analysis reported here builds on the previous research conducted  \nabout divergence in mixed methods research executed by Moffatt, White, Mackintosh, and  \nHowel (2006), Pluye, Grad, Levine, and Nicolau (2009), and Slonim-Nevo and Nevo (2009).", 
  "Pluye and colleagues make the clearest contribution to the literature by identifying and defining  \nfour different approaches to the reconciliation process.", 
  "Moffatt et al.", 
  "use examples from their  \nown research to illustrate that reconciliation is a process that involves a series of interlinked  \nsteps.", 
  "Slonim-Nevo and Nevo highlight the initial question that frames the pursuit of  \nexplanations for inconsistencies.", 
  "That is whether results from different data sources address  \ndifferent aspects of a phenomenon, and are consequently complementary, or if the results are  \nindeed irreconcilable because they are contradictory.", 
  "Building on ideas from Moffat et al.", 
  "(2006), Pluye et al.", 
  "(2009) identified and defined  \nfour reconciliation strategies that they then applied to categorize nine examples they uncovered  \nin the literature.", 
  "They referred to the principal reconciliation strategies as bracketing, exclusion,  \nreconciliation, and initiation.", 
  "Pluye and colleagues do not frame these as a hierarchy or suggest  \nthat there is any priority or sequence to their application.", 
  "Table 1 summarizes the reconciliation  \nstrategies identified by Pluye and colleagues with some minor modifications.", 
  "-----------------------------------   \nInsert Table 1   \n-----------------------------------      \n\fParadigms at Play  \nAlthough Pluye and colleagues do not describe the strategies in this way, both bracketing and  \nexclusion downplay the dissonance that might appear between data sources by concluding they  \nare measuring different aspects of a complex phenomenon or by determining that methodological  \nissues, like weaknesses in a quantitative measure, justify awarding priority to the results from a  \nsingle source.", 
  "The third strategy, reconciliation, could be said to situate inconsistences as being  \nimportant enough to pursue and to seek out ways to explain them.", 
  "The final reconciliation  \nstrategy, initiation, not only acknowledges the inconsistency as meaningful conceptually, but  \npursues it through additional data collection and analysis.", 
  "Touching on what could be considered a matter indicative of philosophical paradigm,  \nSlonim-Nevo and Nevo (2009) propose that researchers approach the reconciliation process from  \ntwo theoretical perspectives.", 
  "They distinguish these as the complementary and non- \ncomplementary approaches.", 
  "The two approaches vary by whether divergent data from multiple  \nsources is judged to be inconsistent or in conflict, rather than contradictory.", 
  "According to these  \nauthors, contradictory data is logically impossible and therefore irreconcilable.", 
  "This might be the  \ncase, for example, in evaluation research or research involving an intervention, when it is  \nnecessary to reach a conclusion about its effectiveness and whether it is worthy of replication.", 
  "Researchers taking a complementary stance, on the other hand, position data from different  \nsources as reconcilable because while they may be inconsistent or in conflict, they are not  \ninherently contradictory.", 
  "This theoretical position is more likely to invite creative thinking in  \norder to explore the implications of the inconsistencies.", 
  "In the context of reporting on results of a random control trial, Moffatt et al.", 
  "(2006)  \ndescribe a series of questions they considered to make sense of the quantitative result that the  \nintervention had no measurable impact with the qualitative study finding wide-ranging impacts.", 
  "Paradigms at Play  \nLabeling their work as deriving from a complementary position that \u201capproached the divergent  \nfindings as indicative of different aspects of the phenomenon\u201d (p. 7), Moffatt and her colleagues  \nbegan the process by first considering the commensurability of methods.", 
  "This is the task of  \nbracketing.", 
  "The second step to consider methodological rigor of the different strands is a way to  \ndetermine if the results from one strand should be awarded more weight (i.e.", 
  "the strategy called  \nexclusion).", 
  "These authors then moved on to collect additional data to corroborate initial findings  \nto seek explanations for the inconsistencies.", 
  "The process led them to recognize limitations in the  \nquantitative instrument and prioritize the more positive qualitative data.", 
  "Paradigms are not idiosyncratic constructions or world views, but a set of inherently  \ncoherent philosophical assumptions about the nature of reality and the role of the researcher in  \nconstructing it shared among members of a community (Creamer, 2018).", 
  "Two groups of feminist  \nresearchers have linked approaches to triangulation, but not reconciliation, to paradigmatic views  \n(e.g.", 
  "Nightingale, 2009; Perlesz & Lindsay, 2003).", 
  "Nightingale, a feminist cultural geographer,  \nmaintains that different approaches to triangulation reflect different paradigmatic views about the  \nnature of reality as singular or multiple.", 
  "The most traditional form of triangulation (i.e.", 
  "mixing) is  \nundertaken for purpose of seeking confirmation through convergence.", 
  "It is only applicable when  \ndifferent methods are used to measure the identical construct or to answer the same research  \nquestion.", 
  "Researchers with this perspective are likely to be troubled by a situation where  \nqualitative and quantitative data do not coincide to support the same conclusion.", 
  "A postmodern view of reality and a feminist stance is reflected in a divergence approach  \nto triangulation that is not driven by an expectation for corroboration or convergence  \n(Nightingale, 2009).", 
  "There may in fact be resistance to the idea of reconciliation (Burnham, Ma,  \n& Zhang, 2016; Hesse-Biber, 2012).", 
  "Divergent results are interpreted to reflect complexity, not  \n\fParadigms at Play  \ncontradiction, and to show respect for diverse voices.", 
  "Paralleling the rationales for mixing  \ndescribed by Greene et al.", 
  "(1989), complementarity triangulation (or mixing) is undertaken with  \nthe paradigmatic assumption that \"the results are not expected to be the same, but rather to make  \nsense in relation to each other and to help create a fuller picture of the research problem\"  \n(Nightingale, no page number).", 
  "Nightingale describes divergence triangulation as undertaken  \nwith a postmodern mindset that is intrigued by gaps, silences, and uncertainty.", 
  "Systematic Search of the Literature  \n\nThe following search strategy was used to identify an initial sample of articles: [mixed  \nmethod* OR multiple method* OR (qualitative AND quantitative)] AND [conflict* OR contrad*  \nOR diverg* OR disson* OR discrep* OR inconsist* OR initiation OR discord*] in the abstract or  \ntitle.", 
  "The initial search produced a list of 80 articles.", 
  "The abstract for each article produced by the electronic search was reviewed.", 
  "Only  \narticles that were explicitly framed with a purpose to foreground the process used to reconcile  \ndivergent qualitative and quantitative findings were retained in the final sample.", 
  "For example, a  \nfit to the initiation rationale as defined by Greene et al.", 
  "(1989) is evident in the purpose declared  \nby Moffatt et al.", 
  "(2006) in a study about the elderly and welfare benefits.", 
  "The purpose is stated in  \nthese words: \u201cIn this methodological paper, we document the interpretation of a mixed methods  \nstudy and outline an approach to dealing with apparent discrepancies between qualitative and  \nquantitative research data\u201d (p. 1).", 
  "Articles that acknowledged divergence between qualitative and quantitative results but  \ndid not pursue them as a central purpose were excluded.", 
  "Most of the articles that were eliminated   \nreflected a content area interest in conflict or did not meet a minimum threshold for the  \n\fParadigms at Play  \ndesignation as mixed methods (i.e.", 
  "explicit reference to a qualitative and quantitative  \ncomponent).", 
  "The advantage of the digital search was that netted a list of articles from a very  \nbroad range of disciplines.", 
  "The digital search produced several articles (e.g.", 
  "Burnham et al.,  \n2016; Davis & Baulch, 2011) that proved to be the most helpful in terms of making a  \ncontribution to the literature about reconciliation strategies.", 
  "The final sample used for the analysis consisted of 9 articles and 11 cases that are  \nexplicitly framed in a way that reflect the initiation rationale as defined by Greene et al.", 
  "(2009).", 
  "In all cases, the divergence in results from the different data sources was unexpected.", 
  "One article  \n(i.e.", 
  "Wagner et al., 2012) discussed the process of reconciliation with three examples.", 
  "Only one  \narticle (i.e.", 
  "Moffatt et al., 2006) overlaps with the articles analyzed by Pluye and his colleagues  \n(2009).", 
  "Table 2 gives an overview of the nine articles analyzed for this paper.", 
  "It lists the author,  \ntopic, and publication source for each of the articles.", 
  "------------------------------------    \nInsert Table 2 About Here    \n-----------------------------------    \nThe final set of articles appear in an interesting array of journals in a wide range of  \ndisciplines.", 
  "The articles share an applied focus.", 
  "Three of the nine articles appear in  \nmethodologically oriented journals, while six are in content focused journals.", 
  "Three involve the  \nassessment of the outcomes of interventions (i.e.", 
  "Slonim-Nevo & Nevo, 2009; Moffatt et al.,  \n2006; Wagner et al., 2012).", 
  "Only one is from the health sciences (i.e.", 
  "Johnstone, 2007).", 
  "Analytical Approach  \n\fParadigms at Play  \nEach of the articles was initially coded for three variables: (a) reconciliation strategy as  \ndefined by Pluye et al.", 
  "(2009), (b) priority, (c) timing, and (d) value-added.", 
  "The traditional  \ndesign features of timing and priority, however, did not yield any fruitful insights in part because  \nmany of the studies are multiphase and highly iterative.", 
  "I moved away from a largely deductive  \nmindset in a second round of analysis to do a form of cross-case analysis to pursue the question  \nof the role of paradigms in research.", 
  "This was not something that framed the purpose I initially  \nestablished for the study, but emerged in a forceful way after reading the unconventional faming  \nof the reconciliation process put forward by Burnham et al.", 
  "(2016).", 
  "The findings section is organized by research question.", 
  "It uses Pluye et al.\u2019s (2009)  \nFindings  \nframework as a starting point to discuss the findings from the analysis of eight articles and 11  \ncases that are all explicitly framed with the purpose of describing the strategies employed to  \nreconcile inconsistencies between qualitative and quantitative data.", 
  "All of the authors approached  \ntheir data from what Slonim-Nevo and Nevo (2009) refer to as a complementary theoretical  \nperspective.", 
  "Only one (i.e.", 
  "Johnstone, 2007) approached the reconciliation process primarily for  \npurposes of corroboration.", 
  "The articles classified as using either a reconciliation or initiation approach are those that  \npursued the inconsistencies between the qualitative and quantitative data most thoroughly.", 
  "These  \nauthors suggest that while an important initial step in the reconciliation process is to make  \nmethodological judgments about the usefulness of instruments and the validity of the data, that  \ncontent area expertise and theoretical frameworks make an important contribution to the process  \nof developing a substantive explanatory framework.", 
  "Reconciliation Strategies  \n\fParadigms at Play  \nThe first research question addresses the strategies that authors of articles explicitly  \nframed with an initiation rationale used to reconcile divergent or inconsistent qualitative and  \nquantitative findings.", 
  "Table 3 uses a similar strategy as Pluye et al.", 
  "(2009) and aligns each article  \nwith a single reconciliation strategy.", 
  "The table also provides information about which authors  \ncollected additional data and those that conducted additional analysis in pursuit of an explanation  \nfor the discrepancies between the qualitative and quantitative findings.", 
  "----------------------------------------     \nInsert Table 3 About Here  \n-----------------------------------------    \nThe research classified in the reconciliation strategy reached an explanation by re-examining the  \ndata already collected.", 
  "Durksen and Klassen (2012), for example, found that differences in the  \nresources available in different school settings explained differences that emerged from their  \ncross-case comparison.", 
  "The articles (n=5) classified within the initiation reconciliation strategies  \nused additional data collection and analysis to pursue inconsistencies.", 
  "The advantage of this is  \nthat many achieved additional insight and garnered the potential for transferability to others  \nstrategies.", 
  "Authors using a reconciliation or initiation approach (i.e.", 
  "collected additional data and/or  \nconducted additional analysis) used a variety of creative approaches to reconcile inconsistencies  \nbetween their qualitative and quantitative findings that are applicable to other research projects.", 
  "Many of these are a familiar part of the tool box of strategies researchers use to establish the  \nreliability, validity, or trustworthiness of their data.", 
  "Table 4 identifies these strategies.", 
  "-------------------------------   \n\n\fParadigms at Play  \nInsert Table 4 About Here  \n------------------------------  \nThe strategies listed in Table 4 include Gasson and Water\u2019s (2013) in-depth exploration of the  \nimplications of negative cases; Wagner et al.\u2019s (2012) use of member checks and focus groups to  \nask participants to explore the meaning of discrepancies; and Davis and Baulch\u2019s (2011) analysis  \nof five alternative explanations to systematically reduce discrepancies that appeared in a matrix  \nthat consolidated qualitative and quantitative data about indicators of poverty.", 
  "Several authors underscored the role of revisiting the literature and seeking out new  \ntheoretical frameworks as part of the process they used to reconcile inconsistent results that  \ninvolved a significant substantive engagement between the qualitative and quantitative strands.", 
  "Wesely (2010), for example, described her attempts to understand the unexpected finding that  \npositive attitudes and motivation did not necessarily explain why students left a language  \nimmersion program in Canada.", 
  "She had to turn to theoretical frameworks outside of the  \nmotivation literature to make sense of the finding that on the quantitative measure, students who  \nleft the language program had more positive attitudes than those remaining.", 
  "Through an analysis  \nof a group of students who did not appear to be actively engaged in on-line class discussions (i.e.", 
  "the \u201clurkers\u201d), Gasson and Waters (2013) reached a conclusion that challenges conventional  \nwisdom that active engagement is necessary for learning.", 
  "Value-Added of Using Mixed Methods to Reconcile Inconsistent Findings   \nThe second research question required an exploration of the types of statements authors  \nof articles explicitly framed with an initiation rationale provided about the gains achieved by  \nusing a mixed method approach during the reconciliation process.", 
  "Although many of the authors  \ncommented on a benefit commonly attributed to a mixed methods approach, which is increasing  \n\fParadigms at Play  \nawareness of the complexity of the phenomenon being studied, many also addressed insights that  \nmay be unique to the specialized focus of research publications that are shaped by initiation  \npurpose.", 
  "These included recognition of methodological limitations that extend beyond the  \nformulaic language about sampling.", 
  "An additional important value-added that was acknowledged  \nby authors of several publications was the contribution to the literature of generating new  \ntheoretical perspectives.", 
  "An indication that the qualitative strand played an important role in generating  \ninterpretative power, is the number of authors using either the initiation or reconciliation strategy  \nwho pointed to methodological limitations in the quantitative instrument or index used.", 
  "For  \nexample, in her study of students leaving and persisting in a language immersion program,  \nWesely (2010) observed that students had much more complex views of language learning than  \nwas captured in the instrument she used.", 
  "Similarly, McMahon (2007) concluded that the  \nquantitative instrument she used was not sophisticated enough to capture the subtle ways that  \nathletes endorsed victim blaming reasoning about sexual assault.", 
  "Both Burnham et al.", 
  "(2016) and  \nDavis and Baulch (2011) challenged prevailing wisdom by concluding that the conventional  \nquantitative measures they used \u2013 one of climate change and the second of changes in poverty  \nstatus among rural poor in Bangladesh \u2013 give a misleading impression of the phenomenon they  \nstudied.", 
  "Davis and Baulch made the point about the inadequacy of quantitative indexes when  \nthey observed: \u201cWe also learned that while expenditure-based measures of economic well-being  \nhave become the \u2018gold standard\u2019 for poverty studies in developing countries, the shortcomings of  \nexpenditure-based measures are magnified in studies of poverty dynamics\u201d (p. 136)    \nTheoretical output is a value-added articulated in 9 of the 11 cases reviewed.", 
  "All of these  \nemployed either the reconciliation or initiation strategy (see Table 2) (i.e.", 
  "Burnham et al., 2016;  \n\fParadigms at Play  \nDavis & Baulch, 2011; Gasson & Waters, 2013; Wesely, 2010).", 
  "Each of these authors use  \nlanguage that explicitly frames the contribution of their research as challenging conventional  \nwisdom in their fields.", 
  "Wesely (2010) situated her work as questioning the assumption that  \nmotivation is related to positive attitudes and persistence.", 
  "Burnham et al.", 
  "(2016) similarly  \nquestioned conventional measures of climate change by observing \u201cThe data mismatches in our  \nstudy suggest that smallholders [rural farmers] conceptualize climate in a more holistic way than  \ndoes climate science\u201d (p. 25).", 
  "Davis and Baulch (2011) came to the conclusion that any measure  \nof poverty dynamics must contain both a qualitative and quantitative component.", 
  "Gasson and  \nWaters (2013) disturb the conventional assumption that learning only occurs through active  \nsocial engagement with others.", 
  "Finding that other types of passive engagement are associated  \nwith learning, Gasson and Waters challenge the theoretical underpinnings about the relationship  \nbetween engagement and learning by noting: \u201cThe notions of involvement vs social engagement  \nare complicated by our theory, as we must define social engagement as interaction with the ideas  \nof others, rather than direct interactions with peers in active debate\u201d (p. 116).", 
  "Substantiating a Link Between Reconciliation Strategies and Paradigmatic Position   \nThe third research question about the role of paradigm in the approach taken to the  \nreconciliation process emerged over the course of the analysis from the dramatically different  \nway that several of the authors positioned their paradigmatic orientation and view about reality  \nas singular or multiple.", 
  "The approaches seemed bookended on one side with the oldest article in  \nthe group by Johnstone (2007) that carries a decidedly post-positivist tone and, at the other side,  \nwith Burnham et al.\u2019s (2016) avowedly feminist and interdisciplinary perspective.", 
  "In between the  \ntwo bookends, is the constructivist language used by Gasson and Waters (2013).", 
  "Although it is  \nnot something that is ever addressed at length, a few other authors in the group of articles  \n\fParadigms at Play  \nanalyzed also made references to paradigmatic position.", 
  "These include McMahon (2007) who  \npositions her work as feminist, Moffatt et al.", 
  "(2006) who align their perspective with scientific  \nrealism, and Wesely (2010) who describes her work as deriving from a dialectical perspective.", 
  "The three articles that reflect a continuum of views about the reconciliation process and  \nthe meaning of divergence are presented as brief case studies in the next section.", 
  "The first  \nreconciled divergence through exclusion, the second through initiation, and the third through  \nreconciliation.", 
  "The case studies are organized to, first, to highlight the language used by the  \nauthor(s) to describe their paradigmatic position and, secondly, to explore how this is manifested  \nin the approach taken to the reconciliation process.", 
  "The second and third case both highlight the  \ncontribution of theory to reconciling divergent results.", 
  "They also suggest that generating  \ninferences that challenge conventional theoretical perspectives can be a value-added of a  \nthoughtful engagement in the reconciliation process.", 
  "Case 1: Illustrating a post-positivist paradigm and reconciliation through exclusion with  \nJohnstone (2007).", 
  "Lynne Johnstone produced a series of articles from her 2001 dissertation  \nwhere she investigated the hypothesis that since the late 1980s technological change has made  \nsurgical procedures in hospital operating rooms more labor intensive.", 
  "There is an inherent  \ncontradiction in the language Johnstone (2007) uses to describe her paradigmatic position.", 
  "She  \npositions her work as drawing from both the naturalistic paradigm and the positivist paradigm at  \nthe inference stage, but the way the purpose of the research is framed suggests an over-riding  \npost-positivist inclination.", 
  "She describes her work as addressing the question: \u201cHow might a  \nresearcher decide which evidence to accept and which evidence to regard as insignificant\u201d (p.  \n27).", 
  "The legal analogy she offers between the job of a jury to reach a verdict of guilty or not  \n\fParadigms at Play  \nguilty and the job of the researcher during the reconciliation process clearly communicates a  \npost-positivist mindset.", 
  "The framing of the purpose of the study as to make a judgment about which data to  \nprioritize is mirrored in the process Johnstone (2007) describes that she used to explain  \ndivergence emerging from her qualitative data that ran counter to her original hypothesis that  \ntechnology increased the work load of operating room nurses.", 
  "The choice to resolve the  \ncontradiction that arose from the qualitative findings by counting the occurrence of coded lines  \nof text and settling on an interpretation that reflected the preponderance of data without pursuing  \nthem further mirrors an implicit assumption that there can only be a single, \u201cright\u201d answer.", 
  "Case 2: Illustrating a constructivist paradigm and an initiation approach with Gasson  \nand Waters (2013).", 
  "Gasson and Water (2013) report that they used a mixed method approach  \nwith a qualitative approach to grounded theory methodology to challenge conventional wisdom  \nabout the link between active engagement and learning in an on-line class.", 
  "Their approach is  \nunusual in that what they chose to pursue was what they referred to as the \"lacunae\" or gaps or  \nsilences the data.", 
  "This was a group of students who they called \u201clurkers\u201d because they rarely  \nweighed in with their viewpoints during the assigned discussions occurring online.", 
  "The  \nunexpected component of their data was that this group of students defied the authors\u2019  \nexpectations in that they seemed to be learning as much as students who were more visibly  \nengaged in online conversations.", 
  "Gasson and Waters (2013) explicitly refer to their paradigmatic framework when they  \nindicate a commitment to the constructivist-interpretivist ontological position that \"there are no  \nobjective patterns to be discovered but there are generalizably useful patterns that are of interest  \n\fParadigms at Play  \nto researchers\" (2013, p. 115).", 
  "They align themselves with a constructivists-interpretivist  \napproach to theory building.", 
  "There are noteworthy differences in the approach to the reconciliation process taken by  \nGasson and Waters (2013) than by Johnstone (2007).", 
  "The differences involve both the  \nassumption made about inconsistencies or gaps in the data, as well in the steps taken to pursue  \nthem.", 
  "One difference is in the collection of additional data to pursue the inconsistencies.", 
  "Gasson  \nand Waters explained their rationale for collecting additional data using these words: \u201cBy  \nexplicitly (italics theirs) looking for negative occurrences (absences) of relationships that  \nprevious samples had suggested, we realized the need for new sources and ways of collecting  \nand analyzing data in order to follow the vapor trails left by student learning strategies\u201d (p. 116).", 
  "The value-added of their approach is evident in their claim that the attempt to reconcile their  \nfindings made it possible for them to challenge traditional orthodoxy about student engagement  \nand to propose an innovative, substantive theory of action in online learning communities.", 
  "Case 3: Illustrating an interdisciplinary feminist perspective and the reconciliation  \nstrategy with Burnham et al.", 
  "(2016).", 
  "The exploration of contradiction is central to the purposes  \nof this paper by feminist ecologists that reported on research that provided evidence of markedly  \ndifferent perceptions by region between how small farmers in China perceived climate change.", 
  "The authors label their approach to the reconciliation process is to challenge the nature of the  \nway it reconciliation has been conceptualized.", 
  "\u201cOur goal,\u201d they stated, \u201cis not to \u2018reconcile the  \ndivergent accounts\u2019 of climate change produced by each method, but instead we use them to  \ninvestigate the processes through which smallholder perceptions of climate change are produced  \nand allow for new forms of interpretation of climate knowledge\u201d (p. 20).", 
  "These authors link their  \napproach to the value-added of challenging traditional ways that climate change has been  \n\fParadigms at Play  \nmeasured.", 
  "As with the Gasson and Water\u2019s (2013) study summarized in the previous case,  \nBurnham et al.", 
  "(2016) turned to the literature and relied heavily on theoretical perspective to  \nexplain the differences reported in the way people experienced climate change.", 
  "These authors  \nconcluded that people working close to the land experience climate change, as through shifts in  \nharvest schedules, using a very different epistemological perspective than climate scientists.", 
  "Their conclusion has the value-added of challenging conventional decontextualized ways of  \nunderstanding climate change.", 
  "The types of reconciliation strategies Pluye et al.", 
  "(2009) derived from the Moffatt et al.", 
  "Discussion  \n(2006) provide a useful starting place for a discussion about how mixed method researchers can  \nextract meaning when the findings from their qualitative and quantitative data sources  \nunexpectedly diverge.", 
  "The four strategies these authors identify provide a useful initial way to  \ncategorize and compare articles framed by the initiation rationale.", 
  "A disadvantage of categorizing articles by the reconciliation strategy employed is that it  \nsuggests that it is a one-step process.", 
  "Another way to conceptualize the reconciliation process is  \nas a series of inter-linked steps that address critical issues.", 
  "Figure 1 depicts the act of reconciling  \nunexpected findings as a process that can involve a series of inter-linked steps that resemble a  \ndecision tree.", 
  "------------------------------------------   \nInsert Figure 1   \n-------------------------------------------    \nNot all authors of the articles reviewed were in a position to pursue the inconsistencies through  \nto steps in the process that had the greatest potential to yield new theoretical insight (i.e.", 
  "Paradigms at Play  \nreconciliation and initiation).", 
  "For example, Slonim-Nevo and Nevo (2009) were satisfied that the  \nfirst step shown in Figure 1 provided an adequate explanation of the inconsistencies between  \ntheir data sources.", 
  "They concluded that the qualitative and quantitative data were addressing  \ndifferent elements of the phenomenon and chose not pursue it further.", 
  "Almost all the authors of  \nthe articles examined engaged in activities related to the second step depicted in Figure 1 and  \nreferred to as exclusion.", 
  "They devoted time and energy time examining their data to determine if  \nall sources were equally credible or if one should be given priority.", 
  "Two authors stopped at this  \nstage as they attributed the inconsistencies to methodological limitations.", 
  "Four of the authors (see  \nTable 2) reached an explanation by further analysis or by consulting the literature (i.e.", 
  "reconciliation).", 
  "An additional five authors, pushed the process of reconciliation through to the  \ninitiation stage.", 
  "After judging both sources of data credible, this group of authors moved on to  \ncollect additional data either to pursue or confirm the inconsistences.", 
  "This is the group where the  \nqualitative data played the strongest role in interpretation.", 
  "A a myriad of factors can influence the ability of a researcher to pursue inconsistencies  \nbeyond a judgment that rests on recognizing methodological limitations.", 
  "The first of these is  \nlikely to be purpose and paradigm.", 
  "Inconsistencies are problematic in research driven by  \npractical and policy questions (Slonim-Nevo & Nevo, 2009), such as about the effectiveness of  \nan intervention, program, or activity.", 
  "A paradigmatic view of research as the search for right  \nanswer is not one that is likely to foster substantive engagement with paradox and contradiction.", 
  "Depth of knowledge of the literature and relevant theoretical frameworks is an additional factor  \nthat is likely to influence the rigor with which inconsistencies are pursued.", 
  "Several authors  \ndemonstrate (e.g.", 
  "Burnham et al., 2016; Wesely, 2010; Gasson & Waters, 2013) that it requires  \n\fdeep knowledge of the literature to identify a situation where the exceptions and paradoxes carry  \nParadigms at Play  \nthe potential for new theoretical insight.", 
  "Contribution to the Literature  \nPossibly because so few people publish articles that center it as a purpose, little attention  \nhas been devoted in the methodological literature about mixed methods to strategies that can be  \nused to interrogate inconsistent or counter intuitive findings.", 
  "This research adds to that literature  \nin several important ways.", 
  "First, it introduces evidence that theoretical frameworks can be  \ninstrumental to reconciling incongruent findings.", 
  "Secondly, it suggests that challenging  \nprevailing wisdom can be a principal value-added of mixed method research undertaken with an  \ninitiation rationale.", 
  "Thirdly, it proposes that paradigmatic assumptions about the nature of  \nknowledge and the researcher\u2019s role in constructing it can influence the steps taken to investigate  \nparadox.", 
  "It makes an additional contribution by supporting the argument that that there is a  \nvariant of the initiation design that is theoretically framed from the onset in ways that resists the  \nidea of reconciliation.", 
  "Conclusion  \nThe language used to refer to the process of considering inconsistent findings  \ncommunicates information about paradigmatic position and in mixed methods views about the  \ncommensurability of qualitative and quantitative data.", 
  "Calling data contradictory implies it  \ncannot be reconciled.", 
  "Accountants, for example, reconcile data for purposes of removing the  \ninconsistency and correcting errors.", 
  "As compared to the word \u201creconciliation \u201c the word  \n\u201cnegotiation\u201d may be more amenable to different paradigmatic stances.", 
  "Freshwater (2007)  \nequates the idea of using reconciliation to deal with difference as a modernist drive for certainty  \nthat includes a view that \u201cdifferences are something to overcome\u201d (p. 136).", 
  "Postmodernists  \n\fParadigms at Play  \naccept difference and uncertainty as inevitable (Freshwater).", 
  "Freshwater raises the important  \npoint that not all inconsistences between data sources are reconcilable.", 
  "The analysis of the articles reviewed in this paper supports the argument that despite its  \nrarity in practice, the pursuit of contradiction and paradox that defines the initiation rationale as  \nproposed by Greene et al.", 
  "(1989) has some design features that distinguish it from other  \nrationales.", 
  "These articles differ in some important ways from what has reported by numerous  \ncontent analysis about the wider body of mixed methods literature.", 
  "Greene et al.", 
  "maintained this  \nthis design would be characterized by equal priority.", 
  "This analysis supports that description and  \nadds the implication that unlike Giddings and Grant\u2019s (2007) characterization of the wider body  \nof literature, the qualitative strand in most of these studies did not play a secondary role.", 
  "The  \nsignificant iterative interaction between the qualitative and quantitative data during the  \nreconciliation process also counters the conventional way that mixed methods designs have been  \nconceived (Creamer, 2018).", 
  "A final distinction from the wider body of mixed methods literature  \nis that as a group, mixing was not left entirely to the inference stage, but engaged during the  \nprocess of analysis through strategies like negative case analysis.", 
  "The experience of encountering inconsistencies between data sources is one with salience  \nfor researchers using mixed approaches that maintain a paradigmatic mindset that seeks to  \nhighlight diversity and divergence in their data.", 
  "Many researchers doing this kind of research no  \ndoubt have a pantry full of examples of data with discordances that cannot be fully explained.", 
  "Reconciling these kinds of differences is not simply a matter of prioritizing one data source over  \nthe other.", 
  "Findings from this research illustrate not only the potential gains when unexpected  \nresults are creatively and vigorously explored, but also that this type of investigation can provide  \nopportunities for writing and presenting about methodologically oriented topics.", 
  "Paradigms at Play"
 ]
}