{
 "document_id": "1171821.1", 
 "sentences": [
  "A Principal\u2019s Experience: Redefining Student Success  \nThe purpose of this analysis is to present a self-narrative of the nodal moments\u2014the  moments central to teaching and learning to teach\u2014that I have identified as examples of the  three organizational practices that together with teachers, teachers\u2019 assistants, students, and  parents helped us transcend the rigorous Texas accountability mandates: (a) culturally responsive  teaching practices (Gay, 2010), (b) teacher self-efficacy (Bandura, 1993), and (c) sustained  academic improvement (Klar & Brewer, 2013).", 
  "As a contextual and social justice leader (who  developed an organizational culture of resistance and maximized individual student\u2019s  possibilities at the borderlands school where I was a principal) I practiced and supported these  three organizational practices (Giroux, 1993; Klar & Brewer, 2013).", 
  "Chicana feminist epistemology theoretically grounds this autoethnography (Calder\u00f3n,  Delgado Bernal, P\u00e9rez Huber, Malag\u00f3n & V\u00e9lez, 2012; Chavez, 2012; Delgado Bernal, 1998;  T\u00e9llez, 2005).", 
  "Therefore, it is via the introspection of my lived experiences growing up as  racialized, gendered, and classed Chicana that I tell this story (Pizarro, 1998).", 
  "Indeed my life  experiences impacted my resilience and commitment to social justice leadership.", 
  "In that case, I  present my testimonio to add to the discourse of the Chicana life experiences in the United States  (Chavez, 2012; Delgado Bernal, 1998; Prieto & Villenas, 2012).", 
  "The positioning of this autoethnography as an example of social justice leadership stems  from my introspection of the 12 years that I lived as a South Texas borderlands school principal  of a high-needs campus.", 
  "Therefore, the research question that guides this self-examination is  this: In what ways did I enact social justice at my school?", 
  "In his leadership study, Theoharis  (2007) defines the daily social justice leadership realities of a principal \u201cto mean that these  principals make issues of race, class, gender, disability, sexual orientation, and other historically  and currently marginalizing conditions in the United States central to their advocacy, leadership,  practice and vision\u201d (p. 223).", 
  "In my case, my understanding and practice of leadership is my  knowledge of the theory of border pedagogy, which calls for an understanding of \u201chow the  relationship between power and knowledge works as both the practices of representation and the  representation of practice to secure particular forms of authority\u201d (Giroux, 1993, p. 29).", 
  "Relatedly, my leadership practice was informed by my Chicana intuition, which is  \ngrounded on CRT and border pedagogy.", 
  "Moreover, I utilized my personal experiences to create  ideological spaces where the teachers and I could counter the hegemonic Texas accountability  system (Anzald\u00faa, 1987; Delgado Bernal, 1998).", 
  "As a result, deep down in my memory script  (testimonio), I reached into my survival skills as a first-generation Chicana college student  (Calder\u00f3n, Delgado Bernal, P\u00e9rez Huber, Malag\u00f3n, & Vel\u00e9z, 2012; Ch\u00e1vez, 2012; Delgado  Bernal, 1998; Delgado Bernal, Alem\u00e1n, & Garavito, 2009).", 
  "My challenging life experiences  taught me how to navigate in this world with persistence and not to conform; my ancient tools of  survival language, religion, and family continued to sustain me.", 
  "Therefore, as part of a team  (teachers, teachers\u2019 assistants, parents, and students) I conclude that we collaboratively resisted  accepting the reality that the future of the Mexican American students, all 1,000 of them 99%  Mexican American could be defined using one test (McNeil, 2000; Valenzuela, 2005).", 
  "Theoretical Framework  \n\n\fMoreover one of the central themes of critical race theory (CRT) is centrality of  \n\nThe theoretical aim of this self-study research project is to present my testimonio- a  personal introspection as a privileged insider who has the research expertise, possesses the  knowledge base on culturally responsive pedagogy, sensitivity and critique (Delgado Bernal,  1998; A. Valenzuela, personal communication, 2015).", 
  "Therefore, this autoethnography is  informed by my personal introspection, self- analysis, and critique of my leadership experiences  as a \u201cprivileged insider\u201d and former school principal.", 
  "As a Chicana school principal, I had to live  with the contradictions and duality of, using test scores as an indicator of student academic  success.", 
  "In that case, my daily philosophical dilemma and personal dichotomy as a school  principal in Texas was finding the balance between culturally responsive leadership practices and  the rigid Texas accountability system   \nexperiential knowledge, which recognizes \u201cthat the experiential knowledge of people of color be  centered and viewed as a resource stemming directly from lived experiences\u201d (Parker &  Villapando, 2007, p. 521).", 
  "Similarly, Prieto and Villenas (2012) concluded that it is \u201cthrough an  active exploration of our lived experiences growing up as racialized, gendered, and classed  Chicanas/Latinas that we create both the theory of our practice and the practice of our theory\u201d (p.  412).", 
  "Additionally, Parker and Villapando addressed the importance of having higher education  engage in \u201csocial justice projects that attempt to link theory with practice, scholarship with  teaching, and the academy with the community\u201d (p. 520).", 
  "Methodology  \n\nThe methodology used to collect the data for this autoethnography is based on the  Bullogh and Pinnegar (2001) guidelines for conducting self-study research.", 
  "Thus, \u201cwho a  researcher is, is central to what the researcher does\u201d (p. 13).", 
  "As a result, \u201cautoethnographies are  situated in personal and lived experiences, and readers of ethnographies are privy to agree or  disagree\u201d (McClellan, 2012, p. 92).", 
  "Moreover, as cited by Bullogh and Pinnegar (p. 13), \u201cthis  center of inquiry lies in the humanistic commitment to the qualitative researcher to study the  world always from the perspective of the interacting individual\u201d (Lincoln & Denzin, 1994, p.  \nMy intent is to inspire present and future school principals, who work with high-needs  \nstudents, to use my experience as a source of information and guidance to be implemented within  their cultural context.", 
  "As a Chicana principal and researcher working within a cultural context of  rigid school accountability mandates and standards, my cultural intuition informed my daily  decisions to support teachers working with high-needs students (Delgado Bernal, 1998).", 
  "Cultural  intuition is defined as a Chicana\u2019s theoretical sensitivity to give meaning to data using \u201cone\u2019s  personal experience to include collective experience, and community memory, and points to the  importance of participants\u2019 engaging in the analysis of data\u201d (Delgado Bernal, 1998, p. 7).", 
  "Therefore, the four sources of knowledge that inform this paper are my personal experiences,  existing literature, professional experiences, and the analytical research process.", 
  "Data Sources  \n\nThe methods used for the data collection referenced in this autoethnography were the  \ntools of self-study, such as memory work; personal and professional journals; notes taken from  my principal binders, which included assessment data such as students\u2019 test score results in  \n\freading, mathematics, science, and writing; personal notes from conferences held with students,  parents, and teachers; administrative meeting agendas; students\u2019 literacy levels; and photo  albums collected over a 12-period ( Bullogh & Pinnegar, 2001).", 
  "In that case, these sources of  evidence were analyzed and interpreted with an intent to capture the contextual intersections  between biography and history (Bullogh & Pinnegar, 2001).", 
  "Furthermore, my Chicana leadership experiences inform this autoethnography and define  me as a critical researcher (Delgado Bernal, 1998; Delgado Bernal et al., 2009).", 
  "In addition, my  lived experiences inform this autoethnography into performance ethnography, because via my  daily actions and decisions as a Chicana educational leader and researcher I experienced freedom  by writing about the emotional pain that has empowered my persistence, leadership, and  advocacy for social justice.", 
  "I believe that it is important to share my story because it is unique  and can inform current and future leaders to navigate through what I consider a hegemonic  student accountability system (Gramsci, 1995).", 
  "The Texas-style accountability system is founded  on using one test to determine the students\u2019 academic future.", 
  "Furthermore, Valenzuela (2005)  scrutinized the \u201cTexas-style\u201d accountability system as one that fails students of color and their  communities by failing to accommodate the instructional and language needs of high-needs  students.", 
  "In the continuing conversation regarding the accountability and educational equity of  the Texas accountability system, Skrla, Mckenzie, and Scheurich (2009) cautioned practitioners  and researchers that the \u201crelationships are instead very complicated, dynamic (changing  constantly), and messily interwoven with other things in schools\u201d (p. 12).", 
  "Conclusion  \nThe intersectionalities of Chicana epistemology, culturally responsive leadership, critical  \nand border  pedagogies were utilized to narrate the campus interpreted and practiced the  following organizational strategies: a) culturally responsive leadership and teaching practices  (Gay, 2010), b) teacher self-efficacy (Bandura, 1993), c) sustained academic improvement (Klar  & Brewer, 2013) to resist from falling into the deficit thinking educational model that  exemplifies high stakes testing (Calder\u00f3n et.al, 2012; Ch\u00e1vez, 2012; Delgado Bernal, 1998;  Delgado Bernal, Alem\u00e1n, & Garavito, 2009; Valencia, 2000 ; Valenzuela, 1999 ).", 
  "Collectively our school\u2019s mission was to liberate our students by preparing them  academically and culturally remapping their expectations so that they could in turn be the  directors of their futures (Giroux, 2005).", 
  "My commitment to the school community as a  knowledge facilitator was to find ways by which the high-needs students would be able to  understand how standardized assessments would be part of their school lives but that these tests  did not have to define them or profile them; standardized tests were institutional barriers meant  to be conquered as \u201cinstitutional structures of power and inequalities\u201d (Giroux, 2005, pg.", 
  "21).", 
  "Scholarly Significance  \n\nThe purpose of this paper is to present a Chicana principal\u2019s leadership experiences and  her introspection of how together with teachers, teachers\u2019 assistants, students, and parents they  transcended the rigorous Texas accountability mandates using three student centered  organizational practices: (a) culturally responsive teaching practices (Gay, 2010), (b) teacher  self-efficacy (Bandura, 1993), and (c) sustained academic improvement (Klar & Brewer, 2013)."
 ]
}