{
 "document_id": "1172730.1", 
 "sentences": [
  "Do Roma Parents\u2019 Views of Their Children\u2019s Learning Problems Align with Special Education  \nOverrepresentation?", 
  "Abstract  \n\u201c(T)he\tmost\thated\tof\tall\tethnic\tgroups\u201d\tin\tEurope\tis\tthe\tRoma,\tor\tgypsies\t(Kruczek- Steiger\t&\tSimmons,\t2001,\tp.\t281).", 
  "This\thatred\twas\texpressed\tmore\tfreely\tin\tSouth\tEast\t Europe\t(SEE)\tafter\tthe\tfall\tof\tCommunism\t(Andruszkiewicz,\t2006;\tGuy,\t2001;\tRevenga,\t Ringold,\t&\tTracy,\t2002),\tand\textends\tto\tthe\texperiences\tof\tRoma\tchildren\tin\tschools,\t including\tsegregation\tfrom\tnon-Roma\tstudents,\tabuse\tfrom\tteachers\tand\tother\tstudents\t and\tthe\tparents\tof\tthose\tother\tstudents,\toverrepresentation\tin\tprograms\tfor\tchildren\twith\t disabilities,\tpoorer\tresources\tand\tinstruction,\tand\tchallenges\tto\tenrollment\t \n(Andruszkiewicz, 2006; EU Monitoring and Advocacy Program of the Open Society Institute,  \n2005).", 
  "This discrimination can be heard in the voice of a young Roma girl who longs for a  \nschool with \u201cThe boys and girls not calling me names and the teachers to believe me\u201d (Lloyd &  \nStead, 2001, p. 361).", 
  "While these problems have been documented across Europe, little has been  \nreported about the perspectives of parents of Roma school children.", 
  "In this article we report\ton\t analyses\tof\tparent\tsurvey\tdata\tacross\tten\tSEE\tcountries\t(Albania, Bosnia-Herzegovina,  \nBulgaria, Croatia, Kosovo, Macedonia, Moldova, Montenegro, Romania, and Serbia).", 
  "We  \nidentify predictors for whether parents in these countries feel that their children have learning  \ndifficulties at school.", 
  "We also report on differences between these predictors for Roma versus  \nnon-Roma parents, and how these predictors interact with their Roma and non-Roma status.", 
  "Do Roma Parents\u2019 Views of Their Children\u2019s Learning Problems Align with Special Education  \nOverrepresentation?", 
  "\u201cRoma are often regarded in Central and Eastern European (CEE) countries as pariahs or  \neven a sub-human species.\u201d (Guy, 2001, p. 4).", 
  "van der Stoel confirmed \u201cthe persistence of  \nracially-motivated hatred and violence directed against the Roma\u201d in SEE (2000, p. 1).", 
  "\u201cIn\t Europe,\tthe\tRroma\tprobably\tbecause\tthey\tare\ta\tpeople\twithout\tan\tethnic\tterritory\tor\ta\t national\tstate\tof\ttheir\town,\tfrequently\tqualify\tfor\tbeing\tthe\tmost\thated\tof\tall\tethnic\tgroups\u201d\t (Kruczek-Steiger\t&\tSimmons,\t2001,\tp.\t281).", 
  "\u201cRomani children encounter widespread discrimination and rejection in public schools.", 
  "In  \ncountries with substantial Romani communities, it is commonplace for Romani children to attend  \nschools that are largely comprised of Roma or to be relegated to Roma classes within mixed  \nschools.", 
  "In its most pernicious form, segregation is achieved by routing Romani children into  \n\u2018special schools\u2019 - schools for the mentally disabled - or into classes for mentally disabled  \nchildren within regular schools .", 
  ".", 
  ".", 
  "It is thus small wonder that many Romani children  \nexperience the classroom as an alien world - or, more aptly, a world in which they are the  \nperennial outsiders.\u201d (van der Stoel, 2000, p. 65).", 
  "Across Europe up to 80% of Roma children are  \nattending separate schools for children with disabilities, or separate classes for children with  \ndisabilities (EU Monitoring and Advocacy Program of the Open Society Institute, 2005;  \nLiegeois, 2007).", 
  "Roma\tchildren\thave\tbeen\trefused\tenrollment\tin\tschools\twith\tethnic\t majorities,\tand\ttold\tto\tenroll\tin\tRoma\tmajority\tschools\t(European\tRoma\tRights\tCentre,\t 2004;\tvan\tder\tStoel,\t2000).", 
  "They\thave\tbeen\tsegregated\tto\tthe\tback\tof\tthe\tclassroom,\t (European\tRoma\tRights\tCentre,\t2002;\tvan\tder\tStoel,\t2000)\tand\thave\talso\tbeen\tassigned\tto\t special\tclasses\tor\tspecial\tschools\tfor\tchildren\twith\tcognitive\tand\tbehavioral\tdisabilities\tin\t \n\fdisproportionate\tnumbers\t(European\tRoma\tRights\tCentre,\t2005;\tEurydice,\t1999/2000;\t Liegeois,\t2007;\tManic\tet\tal.,\t2013;\tO'Reilly\tet\tal.,\t2013).", 
  "Although\tRoma\trepresent\ta\tsmall\t minority\tof\tno\tmore\tthan\t10%\tof\tthe\tpopulation\tin\teach\tof\tthese\tcountries,\tthey\toften\t represent\t30%\tor\tmore\t(sometimes\tthe\tmajority)\tof\tstudents\tin\tprograms\tfor\tchildren\twith\t disabilities\t(Asanovski\tet\tal.,\t2013;\tCahn\tet\tal.,\t1998;\tEU\tMonitoring\tand\tAdvocacy\tProgram\t of\tthe\tOpen\tSociety\tInstitute,\t2005;\tKalvoda,\t1991;\tManic\tet\tal.,\t2013;\tZhelyazkova\tet\tal.,\t 2002).", 
  "Typically\tparents\tare\trequired\tto\tapprove\tplacement\tof\ttheir\tchildren\tinto\tthese\t programs,\twhich\traises\tthe\tquestion\tof\twhy\tRoma\tparents\tare\tapproving\tthese\tplacements.", 
  "Across\tthe\tregion,\tchildren\tin\tthese\tprograms\tare\toffered\tfree\tmeals\tand\tparents\tmay\tbe\t offered\tadditional\tincentives\tto\tenroll\ttheir\tchildren\tin\tthese\tprograms\t(EU\tMonitoring\tand\t Advocacy\tProgram\tof\tthe\tOpen\tSociety\tInstitute,\t2005;\tEuropean\tRoma\tRights\tCentre,\t 2002;\tManic\tet\tal.,\t2013).", 
  "While Roma students are more likely to be labeled as having a learning problem, other  \nvariables have also been shown to predict academic achievement and the labeling of students as  \nhaving learning problems.", 
  "A study of over a million students in the United States found that  \nwhile gender and race alone significantly predicted placement in special education programs,  \nrace and gender were not significant predictors of placement in special education programs after  \nschool variables were included in the analysis (Talbott, Fleming, Karabatsos, & Dobria, 2011).", 
  "Analyses of the data from the Educational Longitudinal Study showed that socioeconomic status  \nentirely accounted for the disproportionate representation of African Americans and Hispanics in  \nspecial education programs (Shifrer, Muller, & Callahan, 2011).", 
  "Home literacy has been estimated by the number of books in the home and the amount of  \ntime that parents spend reading with their children.", 
  "Both of these factors are related to improved  \n\freading achievement (Aikens & Barbarin, 2008).", 
  "Data from 551 children in Head Start programs  \nin the U.S. showed that socioeconomic characteristics of neighborhoods predicted home literacy,  \nwhich in turn predicted early literacy for those children (Froiland, Powell, Diamond, & Son,  \n2013).", 
  "Further evidence from dozens of countries shows that the number of books in the home is  \na positive predictor of academic performance (Evans, Kelley, & Sikora, 2014; Evans, Kelley,  \nSikora, & Treiman, 2010)  \nData from the U.S. Department of Education showed that intervention to increase parent  \nengagement is positively related to both reading and mathematics achievement (Gonzalez &  \nJackson, 2013).", 
  "Similarly, a randomized controlled trial of an intervention to increase  \nengagement of parents with disadvantaged preschool children found strong effects on language  \nuse, reading and writing skills (Sheridan, Knocke, Kupzyk, Edwards, & Marvin, 2011).", 
  "This  \nother countries (e.g.", 
  "Cheung & Pomerantz, 2011; Hands, 2013).", 
  "positive relationship between parent engagement and student achievement has also been found in  \nThe\tOpen\tSociety\tInstitute\tfunded\ta\t2009\tsurvey\tof\tparents\tof\tschool\tchildren\tin\tten\t SEE\tcountries\t-\tAlbania, Bosnia-Herzegovina, Bulgaria, Croatia, Kosovo, Macedonia, Moldova,  \nMontenegro, Romania, and Serbia (Kovacs-Cerovic, Vizek-Vidovic, & Powell, 2010; Open  \nSociety Institute, 2010).", 
  "The purpose of the survey was to understand parents\u2019 participation in  \nschool life.", 
  "The survey included items asking parents if their children had learning problems or  \nbehavior problems at school.", 
  "We have analyzed the data from this survey to answer the  \nfollowing research questions:  \n\u2022  Are Roma parents in SEE countries more likely to identify their children as  \nhaving a learning problem than non-Roma parents?", 
  "\u2022  Considering several predictors of student achievement, including Roma status,  \n\fwhich are significant predictors of whether parents in SEE countries identify their  \nchildren as having learning problems?", 
  "Instrument Data\tfor\tthis\tarticle\tcame\tfrom\ta\tface-to-face\tsurvey\tof\tparents\tof\tschool\tchildren\tin\t ten\tSEE\tcountries\t-\tAlbania, Bosnia-Herzegovina, Bulgaria, Croatia, Kosovo, Macedonia,  \nMoldova, Montenegro, Romania, and Serbia.", 
  "The content of the survey was based in part on a  \nseries of 60 focus group interviews conducted with average parents, disadvantaged parents  \n(including Roma parents), and parent representatives of school governing bodies.", 
  "After piloting  \nthe survey and making revisions based on that experience, the survey was used to gather data  \nfrom a representative sample of 11,125 parents of children in grades two to eight.", 
  "The sample  \nrepresents 320 public schools across the ten countries, and includes booster samples of Roma  \nparents in particular.", 
  "Thirty schools were sampled in each country based on a stratified random  \nselection according to geographical region and whether the community served was urban or  \nrural.", 
  "An additional two schools were selected in each country based on the high proportion of  \nRoma in the communities of those schools.", 
  "Within each school 20 to 40 parents were randomly  \nchosen to participate (based on the size of the school), along with five parents\u2019 representatives  \n(Kovacs-Cerovic et al., 2010; Open Society Institute, 2010).", 
  "Variables  \nLearning Problems.", 
  "Learning problems status was a parent-reported item from the instrument, and was a  \ndichotomous response (apply/does not apply).", 
  "Those who indicated their child had a learning  \nproblem were n =1,033 (9.0%).", 
  "This variable was treated as the sole outcome variable.", 
  "Responses from other items from the instrument were used to estimate eleven predictor  \nvariables.", 
  "1.", 
  "Roma status was constructed from the item that asked the minority status of the  \ninterviewee (n = 788, 6.8%).", 
  "2.", 
  "Gender of the student was included in the instrument (49.4% female).", 
  "3.", 
  "Included in instrument as child\u2019s age in completed years (M = 10.62, SD = 1.78).", 
  "4.", 
  "The means of 16 items were used to measure wealth.", 
  "One major factor emerged  \nwhich accounted for 34.47% of the total variance.", 
  "The reliability of these items was  \nacceptable (\u03b1 = .858).", 
  "5.", 
  "Mother\u2019s educational attainment was recorded as Primary, Secondary, and Tertiary  \n(M = 1.96, SD = .63).", 
  "6.", 
  "The number of books in the home was asked in the instrument.", 
  "The items had 7  \nresponse categories.", 
  "This variable was treated as scalar (M = 3.07, SD = 1.37).", 
  "7.", 
  "Parents were also asked how much time their child spends on homework daily.", 
  "The  \nitem had 6 response categories.", 
  "The item was treated as scalar (M = 4.49, SD = 1.25).", 
  "8.", 
  "The mean of four items was used to measure help with homework.", 
  "One dominate  \nfactor accounting for 58.90% of the variance.", 
  "Reliability was acceptable (\u03b1 = .739).", 
  "9.", 
  "The mean of five items was used to measure perceptions of school openness.", 
  "One  \ndominant factor accounted for 55.63% of the variance.", 
  "The items had an acceptable  \nreliability (\u03b1 = .781).", 
  "10.", 
  "The mean of six items was used to measure school versus parent responsibility  \nbeliefs.", 
  "One dominant factor accounted for 42.00% of the variance.", 
  "These 6 items  \ntogether had acceptable reliability (\u03b1 = .715).", 
  "11.", 
  "The mean of eight items was used to measure parental engagement.", 
  "Factor analysis  \nrevealed one dominant factor accounting for 48.70% of the variance, and the items  \nhad an acceptable reliability (\u03b1 = .847).", 
  "Analyses  \n\nThe above variables were used in a logistic regression predicting learning problem status  \nas main effects only.", 
  "The resulting model was able to correctly classify 91.36% of cases and had  \na Nagelkerke R2 = .108 and a -2 Log Likelihood = 5863.025.", 
  "Given the large number of  \npredictors, we applied a relatively conservative alpha level of .01.", 
  "Significant main effects were  \nfound for Gender (Exp(B) = .701, p < .001), Wealth (Exp(B) = .118, p < .001), Books in home  \n(Exp(B) = .857, p < .001), Age (Exp(B) = 1.10, p < .001) and Mother\u2019s educational attainment  \n(Exp(B) = .833, p < .001).", 
  "In addition, Time on homework (Exp(B) = .939, p = .033), Perceptions  \nof school openness (Exp(B) = .897, p = .024), Help with homework (Exp(B) = .905, p = .055),  \nand Responsibility (Exp(B) = 1.11, p = .052) approached significance.", 
  "Roma status was not a  \nsignificant predictor of parental reports of learning problem status (Exp(B) = 1.04, p = .768).", 
  "Discussion  \nThe most striking conclusion we can draw from these results is that whether or not a  \nstudent was identified as Roma was not a meaningful predictor of whether or not the student\u2019s  \nparent reported that the student had a learning problem.", 
  "This finding is consistent with previous  \nresearch indicating that after controlling for other variables, race and ethnicity do not predict  \nwhich students are placed in special education settings (Shifrer et al., 2011; Talbott et al., 2011).", 
  "More importantly, this finding is consistent with the anecdotal evidence that Roma parents may  \nagree to placing their children in segregated educational settings for reasons other than the  \n\feducational status of those children.", 
  "The findings from this study are also more generalizable  \nthan previous anecdotal evidence, at least across the region, given the size and representativeness  \nof the sample."
 ]
}