{
 "document_id": "1172013.1", 
 "sentences": [
  "\n\nA Play-Based STEM Activity: Children's Understanding About the Concept of Volume  \n\nAbstract  \nThis case study explores young children\u2019s understanding and application of the concept  \nof volume through the practices of engineering design in a STEM activity.", 
  "STEM stands for  \nscience, technology, engineering, and mathematics.", 
  "However, engineering stands out as a  \nchallenging area to implement.", 
  "In addition, most early engineering education research centers on  \ncurriculum and instruction rather than students\u2019 understanding and application of models and  \ncontent knowledge to a design project (Johri and Olds, 2011).", 
  "For this study, we created a play- \nbased STEM activity which helps students understand and apply the concept of volume in  \ncreating clay boats through the practices of engineering design.", 
  "Three students voluntarily  \nparticipated in this study.", 
  "Data sources included interviews, photo copies of boats, and  \nobservation field notes which were analyzed using a comprehensive cross-case analysis.", 
  "Findings indicate that the common pattern is rather intuitive when students define engineering  \nproblems using different criteria.", 
  "Also, students\u2019 solutions to engineering problems are  \nassociated with their experiential ideas of reality.", 
  "How students express their understanding of  \nvolume is correlated to the way of their structuring volume.", 
  "Lastly, students understand the  \nconcept of volume gradually while going through the practices of engineering design.", 
  "Implications are discussed in terms of how engineering education contributes to students\u2019  \nunderstanding of volume.", 
  "KEY WORDS: engineering design, engineering education, STEM, young children, volume   \nIntroduction  \nIn recent years, engineering design has received substantial attention as an essential  \ncomponent in science, technology, engineering, and mathematics (STEM) education because the  \nmajor goal of engineering is \u201cto solve problems that arise from a specific human need or desire.", 
  "To do this, engineers rely on their knowledge of science and mathematics, as well as their  \nunderstanding of the engineering design process.\u201d (NRC, 2012, p. 27).", 
  "In line with this idea,  \nStreveler, Litzinger, Miller, and Steif (2008) argue, \u201clearning conceptual knowledge in  \nengineering science is a critical element in the development of competence and expertise in  \nengineering\u201d (p. 279).", 
  "As this indicates, science conceptual knowledge is intertwined in  \nengineering design.", 
  "Engineering design actually involves \u201cintegration of the knowledge of  \nscientific explanations (i.e., content knowledge) and the practices needed to engage in scientific  \ninquiry and engineering design\u201d (NRC, 2012, p. 11).", 
  "This idea is further supported by the Next  \nGeneration Science Standards (NGSS), which emphasize \u201cthe practices of engineering design\u201d  \nfor the meaningful STEM education (Achieve, 2013, p. 1 in Appendix F).", 
  "A relevant  \nperformance of STEM requires a combination of engineering practices and content knowledge to  \nsolve problems.", 
  "Offering STEM activity in young children\u2019s classrooms is critical as it offers  \nopportunities to have fun and excited play time as well as to learn and apply problem solving  \nskills.", 
  "These national reform documents espouse the idea of promoting young children\u2019s  \nauthentic science learning.", 
  "However, there is a great dearth of studies on how young children  \nunderstand concepts through STEM learning, specifically focusing on engineering design.", 
  "Young children are able to solve problems in their daily lives through the practices of  \nengineering design (Stone-MacDonald, Wendell, Douglas, & Love, 2015).", 
  "However, early  \nchildhood teachers may have difficulty designing appropriate activities addressing STEM  \ncontent that focuses specifically on engineering (Katehi, Pearson, & Feder, 2009).", 
  "Thus, we  \ncreated a play-based and hands-on STEM activity in which young children understand and apply  \nthe concept of volume in creating clay boats through the practices of defining engineering  \nproblems, designing solutions, and optimizing their design solutions.", 
  "The purpose of this study  \nwas to explore young children\u2019s understanding of the concepts of volume through the practices  \nof engineering design in an engineering-focused STEM activity.", 
  "To appropriately teach the STEM activity, this study attends to two key ideas including  \nthe concept of volume and the practice of engineering design.", 
  "The term \u201cengineering\u201d in this  \nstudy is defined as \u201cany engagement in a systematic practice of design to achieve solutions to  \nparticular human problems\u201d (NRC, 2012, p. 11).", 
  "However, the term \u201cengineering design\u201d is a  \nconundrum for STEM educators.", 
  "Generally educators conceive engineering design to be the  \ndesigning, constructing, testing, and improving of physical shapes or structures (cf.", 
  "NRC, 2012).", 
  "More formally, NGSS defined engineering design as the process of (a) defining and delimiting  \nengineering problems, (b) designing solutions to the problems, and (c) finally optimizing the  \ndesign solution for the practices of engineering design (Achieve, 2013).", 
  "\u201cVolume\u201d is generally defined as the amount of space occupied by an object as measured  \nin cubic units.", 
  "The variables of volume are length, width, and height of a three-dimensional  \nobject.", 
  "Considering how to design each parameter, in relation to the other two parameters, would  \nhelp to determine the volume of an object.", 
  "This is a key aspect of this study.", 
  "When young  \nchildren construct a clay boat, they can test its volume by counting the number of pennies a boat  \ncould carry.", 
  "Therefore, the children may consider the number of pennies to be the occupied  \nspace in the clay boat, which is the volume of a boat.", 
  "Thus, the engineering design of a clay boat  \nis closely related to the number of pennies held as well as its volume.", 
  "Creating a design and  \nconstructing a new shape of clay boat, redesigning after a test to improve its structure are all  \nparts of engineering design, which directly impacts the volume of the boat.", 
  "Engineering Education  \nBackground Information  \nThere is limited research on engineering education regarding young children, and more  \nspecifically on how they apply engineering and content knowledge to a design project.", 
  "Recently,  \nhowever, a book reported on the results of a graduate seminar course for early childhood STEM  \neducation (Stone-MacDonald, Wendell, Douglas, & Love, 2015).", 
  "Within the book, the authors  \nproposed a framework for children\u2019s STEM problem solving based on engineering design which  \nmodified the engineering design process of NGSS.", 
  "This book also proposed a series of activities  \nand content for early childhood educators to use in their classroom to promote engineering  \npractices of young children.", 
  "However, more studies have been conducted on engineering  \neducation with middle level and college level students.", 
  "Research demonstrates that engineering  \nlearning varies in its modality of understanding and applying scientific and mathematical  \nconcepts through the practices of engineering design at different grade levels.", 
  "For example,  \nZawojewski, Diefes-Dux, and Bowman (2008) introduced the use of models and modeling called  \n\u201cmodeling-eliciting activities\u201d (MEAs) to exemplify how the exercise of content knowledge and  \nthe practices of engineering design helped students learn a way to solve a meaningful problem of  \nwhich process revealed student conceptual understanding of scientific concepts in a given  \nsituation.", 
  "Johri and Olds (2011) provided a comprehensive review of the learning sciences and a  \nbrief history of engineering education research in order to provide a foundation for research on  \nengineering learning.", 
  "They found that curriculum and instruction was the major topic of early  \nengineering education research rather than students\u2019 understanding and application of models  \nand content knowledge to a design project.", 
  "This finding was also evident in the book of Stone- \nMacDonald et al.", 
  "(2015).", 
  "However, imagining the type of problems and content knowledge  \nyoung children are able to apply to a design project may still be a puzzle to early childhood  \n\neducators who are new to engineering design.", 
  "Engineering Design  \nThe definition of STEM, still under debate, could be described as an integrated subject  \nthat teaches technology and engineering based on science and mathematics in K-12 grades  \n(Bybee, 2010).", 
  "Teaching STEM tends to be done in an interrelated way at any level.", 
  "This aspect  \nof STEM education appropriately and naturally finds a niche in young children\u2019s education.", 
  "STEM learning starts off with a meaningful problem and then finds best ways to solve it.", 
  "As  \nmany recognized, the \u201cE\u201d in the STEM acronym is less understood and utilized in K-12  \neducation (Basham & Marino, 2013; Katehi et al., 2009).", 
  "The practices of engineering design are  \nemphasized in the process of problem solving.", 
  "In NGSS, the practices of engineering design lay  \nout three phases of solving problems as follows (Achieve, 2013, Appendix I), which is adopted  \nas a protocol for instruction in our study.", 
  "Phase  I:  \u2018Defining  and  delimiting  engineering  problems\u2019  involves  stating  the  \nproblem  to  be  solved  as  clearly  as  possible  in  terms  of  criteria  for  success  and  \nconstraints,  or  limits.", 
  "Phase  II:  \u2018Designing  solutions  to  engineering  problems\u2019  \nbegins  with  generating  a  number  of  different  possible  solutions,  evaluating  \npotential solutions to see which ones best meet the criteria and constraints of the  \nproblem.", 
  "Phase III: \u2018Optimizing the design solution\u2019 involves a process of tradeoffs,  \nin which the final design is improved by trading off less important features for those  \nthat are more important.", 
  "(p. 2).", 
  "Engineering design is explicitly depicted in the Framework for K-12 Science Education  \n(NRC, 2012).", 
  "The progression of children\u2019s capabilities for design states as follows:   \n\nIn some ways, children are natural engineers.", 
  "They spontaneously build sand castles,  \ndollhouses, and hamster enclosures, and they use a variety of tools and materials  \nfor  their  own  playful  purposes.", 
  "Thus  a  common  elementary  school  activity  is  to  \nchallenge children to use tools and materials provided in class to solve a specific  \nchallenge,  such  as  constructing  a  bridge  from  paper  and  tape  and  testing  it  until  \nfailure occurs.", 
  "(p. 70).", 
  "As exemplified in the above statement, clay can serve as a common material for young  \nchildren to spontaneously use and build.", 
  "Engineering design using clay frequently involves  \ndesigning, testing and improving physical shapes or models or structures.", 
  "When young children  \nengage in making a clay boat that can carry a maximum weight (defining problem), they often  \ntry several shapes and structures and redesign through few trial-errors (designing solution); they  \ncreate a new shape and structure and test it to see if it works as expected.", 
  "When failing, they can  \nredesign and test it until they can make a boat that carries the most weight by trading off less  \nimportant features for those that are more important in each design (optimizing the design  \nsolution).", 
  "Young Children\u2019s Understanding about Volume   \nLittle has been studied about young children\u2019s understanding of volume.", 
  "In their book,  \nSarama and Clements (2009) reviewed research on volume and spatial thinking of young  \nchildren.", 
  "One study indicated that young children understand volume as \u201cfilling\u201d vs. \u201cpacking\u201d  \nvolume.", 
  "Solid objects are \u201cpacked\u201d as in a box of three-dimensional array, whereas a liquid  \n\u201cfills\u201d three-dimensional space taking the shape of the container (Curry & Outhred, 2005).", 
  "This  \ndivision is similar to the concept of \u201ccapacity\u201d (amount occupied) vs. \u201cvolume\u201d (space  \noccupied).", 
  "In Piaget\u2019s term, capacity is \u201cinterior volume\u201d and volume is \u201coccupied volume\u201d  \n(Piaget, Inhelder, & Szeminska, 1960).", 
  "As such, the volume concept is a complex concept as it is  \nrelated to several factors including \u201cthe shape and geometrical properties, the nature of the  \nmatter, the mass and the weight, the hollowness, and the openness of the object\u201d (Potari &  \nSpiliotopoulou, 1996, p. 341).", 
  "In \u201cfilling\u201d volume, children (grades 1-4) gradually develop a  \nsense of length as they measure the amount of substance that filled a container.", 
  "Children with  \nthis conception tend to see the height of substance filled in a container as length, of which notion  \nis one-dimensional.", 
  "In \u201cpacking\u201d volume, young children (grades 2-4) have more difficulty in  \nunderstanding height compared to length and area.", 
  "It is maybe because children are required to  \ndefine, coordinate, and integrate three-dimensional structure all together.", 
  "In fact, some children  \noften count only the faces of the cube or those at the corners, not counting cubes in the interior  \n(Battista & Clements, 1996).", 
  "Thus, Curry et al.", 
  "(2005) suggests that understanding of area should  \nbe a prerequisite to understanding packing volume.", 
  "This aspect of research is unique, and  \nchildren\u2019s age is in line with other research (Piaget et al., 1960; Elkind, 1961).", 
  "However, there is  \nlittle research on volume in which young children learn and express the concept of volume and  \napply it when solving engineering problems.", 
  "Research Questions  \nThe following questions, focusing on how young children learn STEM content, guided  \nthis research.", 
  "1.", 
  "How do young children define problems pertaining to engineering in the making of a clay  \n2.", 
  "In what ways do young children apply solutions to engineering problems when designing and  \nredesigning their clay boat?", 
  "3.", 
  "How do young children express their understanding of the concept of volume through making  \na clay boat?", 
  "Research Design  \n\nThe study was conducted over two weeks with a purposeful sampling design (Patton,  \n2015).", 
  "The pre-experience with clay was offered in one week followed by making a clay boat in  \nthe following week.", 
  "In Patton\u2019s view (2015), a qualitative study \u201ctypically focuses in depth on  \nrelatively small samples, even single cases (n=1), selected for a quite specific purpose\u201d (p. 264).", 
  "A qualitative design was suitable for this study because of its content matter, which lies in the  \nrealm of understandings, and experiences and thus requires adequate contextualization (Merriam,  \n1998).", 
  "This study was also best accomplished through the case study methodology because of  \nour interest in individual children and their problem-solving processes, and because this subject  \nmatter is best explained through intensive and holistic description (Merriam, 1998).", 
  "Participants     \nParticipants in this case study were three young children from a public elementary school  \nlocated in a midsize city in the Midwestern United States.", 
  "Three out of 21 first grade children  \n(aged 6-7) participated in this study while the rest of the class did the same activity.", 
  "In class,  \nthree students were grouped separately for the purpose of data collection.", 
  "This was a nonrandom  \nconvenient sample as they were willing and available to participate in the study (Patton, 2015).", 
  "All three students were Caucasians.", 
  "They came from working class, dual income, and middle- \nclass income bracket families.", 
  "As observed in class and from brief interviews with each student,  \nwe noted that Nathan was shy in class.", 
  "He loved reading and social studies.", 
  "Olivia was chatty  \nand worked hard in class.", 
  "She loved reading and art.", 
  "James was talkative and actively  \nparticipated in class.", 
  "He often showed interests in making and constructing things.", 
  "He loved  \nscience and paying outside.", 
  "Table 1 below depicts the background information of the three  \nstudents.", 
  "As shown in Table 1, James had had a number of boating experiences (including small  \nfishing boat, commercial sightseeing boat, cruise, & ferry) whereas Nathan and Olivia had none.", 
  "James actually had gone boating more than 50 times, mostly at a lake or on a ferry at sea.", 
  "Table 1   Background Information of Participants (N=3)  \n\n(Pseudonym)  \nNumber of boat  \nColor/Gender  blue/boy   purple/girl  sky blue/boy  \n(First Grade)  \nexperience  \nFavorite  \nsocial studies  \nA STEM Activity   \nFor this study, we developed a play-based and hands-on STEM activity that allowed  \nstudents to define engineering problems, design solutions, and optimize the design solution to  \ncreate a clay boat that maximizes its volume.", 
  "We deliberately differentiated students using  \nvarying colors of clay including blue, purple, and sky blue to clearly recognize each student\u2019s  \nclay boat.", 
  "We purposely chose clay as a boat construction material because it is readily  \nobtainable and easy for children to use when constructing, deconstructing, and reconstructing  \ntheir boats (NRC, 2012, p. 70).", 
  "Each student was given a fixed and equal amount of clay  \n(weighing 50 grams).", 
  "In the play-based activity, teachers\u2019 attitudes and skills proved critical in  \nguiding students to be successfully engaged in STEM learning (NSF, 2000).", 
  "Therefore, we  \ntrained a first grade teacher over two days to guide the students\u2019 observations, questions,  \ndesigning, testing, and redesigning with the instructional protocol of three phases.", 
  "As a  \nscaffolding activity, the class was provided an opportunity to make any objects using clay in the  \nprevious week before collecting data.", 
  "This pre-experience helped to offer an opportunity for all  \nstudents to build something and develop or regain their sense of clay.", 
  "After showing the lump of  \nclay to the students in class, the teacher asked an inquiry question, \u201cWhat shape of boat can carry  \nthe most pennies?\u201d We intentionally put the term \u201cshape\u201d in the inquiry question, so the activity  \nwould be focused on designing.", 
  "In the first phase of \u201cdefining and delimiting engineering  \nproblems (20 min),\u201d the teacher offered brief instruction about the activity and let the children  \nindividually explore as many designs as possible through trial and errors.", 
  "The teacher then asked  \nthem to test their boats in a water container.", 
  "The teacher asked the students to identify problems  \nwith their own boats.", 
  "This process led to the second phase of instruction, \u201cdesigning solutions to  \nengineering problems (20 min).\u201d After identifying problem(s) with their own boat, they began to  \nexplore potential solutions.", 
  "The teacher allowed the students to make as many clay boats as  \npossible and test multiple designs in the water.", 
  "At this point, the teacher emphasized going back  \nto the criteria that each student identified in the first phase of instruction.", 
  "After a couple trials  \nthrough designing, testing, and redesigning their boats, the students evaluated which design best  \nmet the criteria to carry the most pennies.", 
  "In the last phase of instruction, \u201coptimizing the design  \nsolution (20 min),\u201d each student tested and revised multiple designs.", 
  "During this process, the  \nstudents often changed their designs before finally arriving at the best possible design of their  \nclay boat.", 
  "These three phases of instruction went seamlessly, but each student\u2019s pace of  \nperformance varied.", 
  "This STEM activity lasted two classroom periods in a block schedule.", 
  "Data Collection  \nData were gathered using informal conversational interviews (ICI), photocopies, and  \nobservational field notes throughout the STEM activity.", 
  "Interviews.", 
  "Interviews were conducted to understand each individual student\u2019s  \nexperiences, perceptions, and interpretations (Merriam, 1998).", 
  "These data were collected through  \ninformal conversational interviews (ICI) (Patton, 2015).", 
  "ICI is characterized by questions that  \nemerge from the immediate context and are asked in the natural course of things.", 
  "We decided to  \nuse this method because these students lacked experience with structured interviews and  \ndemonstrated short attention spans.", 
  "ICI, according to Patton, does not usually have  \npredetermined questions or topics or wording.", 
  "In this case study, however, we specifically  \nfocused on the topic of \u201cvolume\u201d associated with a clay boat.", 
  "While we observed what and how  \nstudents made, we continually conducted all students\u2019 informal conversational interviews from  \nthe beginning till the end of the activity whenever occurrences were built in relation to the  \nvolume of a clay boat.", 
  "During on-going observations, we interviewed the students to understand  \ntheir problem solving process as well as what languages they use to explain the volume of a boat.", 
  "Also we ask additional questions to clarify their responses to previous queries.", 
  "In total, each  \nindividual-focused interview length ranged from 15 to 25 minutes.", 
  "But James took more time  \nthan the other two because James expressed more ideas about the boat.", 
  "We audio-taped all of the  \ninterviews that provided \u201cthick descriptions\u201d of data, detailed contextual data (Carspecken, 1996,  \np. 47) and transcribed them into texts for analysis.", 
  "Photo copies.", 
  "We took pictures of all boats that each child constructed as record of the  \nboats\u2019 shape.", 
  "With the time, color, and shape description of the boat written in the field notes, we  \nmatched the number of pennies that each boat successfully carried.", 
  "Photo copies of data helped  \nadd to establish thick descriptions for the study.", 
  "Observational field notes.", 
  "We used our observational field notes to collect data as the  \nstudents built up several designs over time.", 
  "Whenever we took a picture of the boat, we made  \nquick and fragmentary jottings of key words, anecdotal records, and quick sketches and colors  \nand names that helped us to match the boat and the boat builder in each trial.", 
  "In addition, the  \nfield notes helped to reconstruct conversations and emotions that the students had at the time of  \noccurrence of \u201ccritical events\u201d (Bogdan & Biklen, 2003).", 
  "For example, James was excited to  \nshare his boating experience rowing a little fishing boat off an island where his family  \nvacationed.", 
  "As Spradley (1980) suggested, the content of our field notes included physical  \nsettings of the classroom, children of the situation, activities taking place, children\u2019s behaviors,  \ntime sequence of activities, and observer comment.", 
  "We did this for each child we observed.", 
  "Data Analysis  \nUsing the three phases of solving engineering design problems (Achieve, 2013), we  \nanalyzed the collected data set.", 
  "Three of us, as researchers, individually read and re-read each  \nstudent\u2019s data set until we identified a unit of data, which refers to \u201cany meaningful (or  \npotentially meaningful) segment of data\u201d (Merriam, 1998, p. 179).", 
  "In this study, the unit of data  \nwas any information related to the volume concept.", 
  "As we read each child\u2019s data set, we wrote  \nemerging insights, tentative concepts, and questions in the margins.", 
  "Then we carefully checked  \nand revisited the interpretation by comparing it with one another\u2019s interpretation and sharing one  \nanother\u2019s thoughts to accurately understand the students\u2019 thoughts and perceptions presented in  \ninterviews, field notes, and/or clay boats.", 
  "Then we made a separate list of comments, questions,  \nand concepts generated from the comparison and discussion, and then compared this list with the  \nlist derived from our previous analysis.", 
  "We then merged the two lists into one, which reflected  \nthe conceptual direction of the research to this point.", 
  "Next, we re-reviewed all our notes again and attempted to develop preliminary patterns  \nand themes.", 
  "We then manually coded the data, using the understanding rubric of the volume  \nconcept, as being one of three levels of understanding: Beginning, Transitional or Fully  \nDeveloped (see Appendix A).", 
  "When we disagreed on the rubric-level decision, we discussed it  \n\nuntil we reached a consensus.", 
  "Lastly, after the analysis of each student\u2019s data was complete and emergent themes had  \nbeen identified in three cases, we conducted a comprehensive cross-case analysis (Yin, 2003).", 
  "We investigated the entire body of analysis we had produced throughout the study, in order to  \nrefine, confirm or refute our preliminary analyses.", 
  "We highlighted themes with different colors  \nand wrote coding numbers next to the subthemes within each student\u2019s data set.", 
  "In alignment  \nwith the research questions, we developed a word table to visually display overarching themes  \nby combining similar ones, which emerged from the analyzed data (Yin, 2003).", 
  "Finally, we  \nconducted a peer review with a faculty member in early childhood education and elementary  \neducation, presenting our interpretation of our data to check accuracy (Merriam, 1998).", 
  "Results of the three cases demonstrated several recursive patterns and themes across each  \nof the trials in a time series and the themes were categorized based upon the instructional  \nprotocol of three phases.", 
  "Progression of Boats Construction  \nEach student possessed a different learning pace as well as the time taken to complete the  \ndesign of their boat.", 
  "Thus some children had multiple trial-errors to design and build the best  \nclay boat as they could in each phase before moving to the next.", 
  "Once instructions were given,  \nthe moving from one phase to the next was seamless.", 
  "In presenting the results of each student\u2019s  \nclay boat, we used an index system.", 
  "For example, if the index of a clay boat was B1.2, it meant  \nthat the letter B stood for blue, the number 1 stood for the order of trial, and the number 2 meant  \n2 pennies had been carried successfully by the boat.", 
  "We took a picture of each of the boats that  \nstudents made before prior to testing as the boat could get damaged during the testing process.", 
  "Thus all the pictures of boats presented in this study are without pennies.", 
  "The below results  \nshowed a progression of boats that each student constructed through three phases.", 
  "Figure 1.", 
  "Photocopy of Nathan\u2019s Clay Boats  \n\nNathan: Figure 1 illustrates the four boat shapes that Nathan designed and tested, revised  \nthrough redesign, and ended with his final and best deign of a boat in the third phase.", 
  "P - Bottom  \nFigure 2.", 
  "Photocopy of Olivia\u2019s Clay Boats  \n\nOlivia: Figure 2 presents the four boat shapes that Olivia designed based on her own best  \ncriteria, tested, found and fixed the problems, revised, and presented her best boat design.", 
  "Figure 3.", 
  "Photocopy of James\u2019s Clay Boats  \nJames: Figure 3 presents the five boat shapes James designed, tested, and revised using  \nsolutions he found and asked of the teacher.", 
  "James was the only student to build a 5th boat  \n\nbecause he was quicker than the others in re-designing his boat.", 
  "Research Question 1: Young Children Defining Engineering Problems   \n The teacher asked Nathan if he was done and told him to place his boat in the water.", 
  "All  \nthree young children were talking and wanting to show off their boats.", 
  "They were comparing  \ntheir boats.", 
  "The first time they put Nathan\u2019s boat in the water, it was too heavy and failed  \nfollowed by James\u2019s.", 
  "Olivia\u2019s boat also sunk from the weight of too many pennies.", 
  "In addition,  \nOlivia\u2019s boat had holes, which could cause the boat to sink.", 
  "The teacher asked to everyone,  \n\u201cHow would you change your boat to make it float?\u201d James said, \u201cI would change it to be round  \nbecause this thing is going around and around.\u201d Nathan put his boat back into the water and  \nwanted to test it out with pennies.", 
  "He poured some pennies out and counted out his pennies to  \nsee how many he could put on it without it sinking.", 
  "Nathan got 2 pennies on, and then the  \nteacher challenged him to change the boat so that 10 pennies could fit.", 
  "Nathan explained what he  \nwould need to change to fit 10 pennies on the boat, saying he would have to make it longer.", 
  "James tried to fit 20 pennies onto his boat.", 
  "James said that everything he was trying would fail,  \nthat he would be unable to get 20 pennies on his boat.", 
  "Olivia said she would have to change the  \nsides of her boat.", 
  "Nathan said that he tried everything while James offered help and said, \u201cMaybe  \nyou need to flatten the edges.\u201d [Author Note: this word \u201cflatten\u201d means making it straight so the  \nedges have the same height]  \nAt phases I & II, the students\u2019 focus was moved from shape to size when making a boat.", 
  "The students made their own first clay boat based on their prior knowledge and tested it in the  \nwater.", 
  "They then tried to identify the problems and decide on criteria for success and constraints.", 
  "Nathan: He made his first boat and put it in the water (see B1.2).", 
  "In his first trial, he  \nsucceeded at getting only 2 pennies on in his boat.", 
  "Then he decided to change the shape of his  \nboat, subsequently making it and then testing it in the water.", 
  "His second trial boat is shown B2.2.", 
  "His criterion was a shape in his mind and he created a clay boat in the shape of a real boat (see  \nB1.2, B2.2, and B4.5).", 
  "He also picked \u201cflat bottom\u201d and \u201clonger\u201d boat as the criteria of success,  \nand he worked it out and tested it in the water.", 
  "For his efforts, he saw an improvement of 1  \npenny, getting 3 pennies to be held by his boat (see B3.3).", 
  "The below interview script revealed  \nthese ideas.", 
  "Teacher: Nathan, what did you want to change?", 
  "Nathan: The bottom  \nTeacher: How did you change the bottom?", 
  "Nathan: I made it more flat.", 
  "Teacher: What else do you want to change?", 
  "Nathan: I want to make it longer.", 
  "After he put the pennies on the boat, he started counting and got to 2 and the boat sank a  \nlittle after.", 
  "The teacher asked, \u201cHow would you like to change it this time to carry more  \npennies?\u201d Nathan replied, \u201cI am going to change the shape.\u201d   \n Olivia: With her first clay boat (see P1.11), Olivia managed to get only 11 pennies.", 
  "She  \ndid not know what was wrong with the boat, so her classmates gave her their opinions.", 
  "The  \nteacher asked, \u201cWhat would you like to change this time?\u201d She said the sides, and she made it  \nbigger.", 
  "Therefore, to Olivia, the successful criterion was \u201cbigger sides\u201d but the bottom of her  \nboat was circular.", 
  "Teacher: Olivia, how many pennies did you get first time?", 
  "Olivia: I got eleven.", 
  "Teacher: Wow, you did a very nice job!", 
  "Ok, how would you like to change at this time if  \nyou want to put fifteen pennies?", 
  "Olivia: I want to change the sides and make it bigger.", 
  "Olivia then worked it out a second time, placing it in the water and getting 12 pennies on  \n(see P2.12).", 
  "The teacher asked her what she would do to change it.", 
  "She replied she would change  \nthe shape of the boat, making it circular.", 
  "\u201cWhy do you want to make it into a circle?\u201d asked the  \nteacher.", 
  "She replied, \u201cI do not know.", 
  "I just want to try to make it into a circle and see what  \nhappens.\u201d To Olivia, the successful criterion was the \u201ccircle shape.\u201d She continued to design the  \nsolutions by changing the shape and testing it in the water.", 
  "She failed to get more pennies (see  \nP3.12) on her new boat, her second and third trials producing the same results as the first.", 
  "It was  \nnoted that she uniquely made a bottom that had three blades throughout the three phases.", 
  "She  \nsaid she saw the design from a book she read before (see P-Bottom), which impacted her design  \nbecause the amount of blades will be less used to make a bigger boat.", 
  "James: James was able to put 24 pennies on his first boat (see SB1.24).", 
  "He said that he  \nwent boating multiple times, so he was familiar with the shape of a boat.", 
  "The teacher asked him  \nhow he would change its design to put more pennies on.", 
  "\u201cI need to make the walls bigger\u201d  \nreplied James.", 
  "Therefore, to James, the successful boat\u2019s criterion was the \u201cbigger wall.\u201d He  \ncontinued to make the walls bigger throughout his trials.", 
  "Teacher: James, did you make the walls bigger?", 
  "James: No  \nTeacher: Why don\u2019t you make the walls bigger now?", 
  "James: Ok, let me try.", 
  "Teacher: Have you seen a boat before?", 
  "James: Yes.", 
  "Teacher: What did it look like?", 
  "James: (It was) big.", 
  "James made a second boat and tested in the water, managing to put only 10 pennies (see  \nSB2.10).", 
  "The teacher asked, \u201cWhat shape is this?\u201d James replied, \u201cIt\u2019s sort of a rectangle.\u201d  \nTeacher asked James to count the number of pennies that were on the boat.", 
  "It turned out to be  \nten.", 
  "James said, \u201cDang it!\u201d because it was 14 less than his first boat.", 
  "The teacher guided him with  \na question, \u201cHow do you want to change it to hold more pennies?\u201d He replied, \u201cI want to make  \nthe walls bigger.\u201d James made bigger walls and was able to get 25 pennies on the boat, but the  \nteacher noticed that there was a hole in the walls and let James know (see a circle of SB3.25).", 
  "James patched up holes and reshaped the boat with a wider bottom to carry more pennies.", 
  "Research Question 2: Young Children Applying Solutions to Engineering Problems   \nAt phases II and III, the students made multiple practices combined with conceptual  \nknowledge (criteria) to produce successful outcomes.", 
  "Each student had as many opportunities as  \nnecessary to make a boat that could carry the most pennies possible.", 
  "This optimization of design  \nsolutions phase fit seamlessly with prior phases, so there is necessarily no pause between them.", 
  "Each student continued to create and construct the best shape of boat by applying new solutions  \nand trading off less critical features so as to carry the most pennies.", 
  "Nathan: Nathan applied his criteria of \u201cflat bottom\u201d and \u201clonger\u201d and constructed his  \nfinal boat.", 
  "He counted the number of pennies that were put on his boat and ended up with 5 (see  \nB4.5).", 
  "This more than doubled his earlier design which carried only 2 pennies.", 
  "As his success  \nfactors, he used not only a flat bottom but also a longer boat.", 
  "After a couple failures, he finally  \nconstructed a longer boat that was able to carry 5 pennies, his best result (see B4.5).", 
  "Olivia: Olivia\u2019s successful criteria consisted of \u201cbigger sides\u201d and \u201ccircular shape.\u201d As  \nshown in Figure 2, she used those two criteria and constructed her best boat that carried 18  \npennies (see P4.18).", 
  "Olivia improved her boats by trading off flat bottoms for bigger sides and a  \ncircular shape.", 
  "She ultimately constructed P4.18 as her best design.", 
  "James: James\u2019s criteria consisted of the boat having \u201cbigger and thinner walls,\u201d \u201cflat  \nedges,\u201d and being \u201cround.\u201d He built more boats than did either Nathan or Olivia.", 
  "James\u2019 first  \nboat carried 24 pennies (see SB1.24) but then his second boat\u2019s carrying capacity dropped  \nprecipitously to 10 pennies (see SB2.10), which was a failure.", 
  "James tried to make it longer with  \ntaller walls that consequently became rectangular.", 
  "He improved his second boat by making it a  \nbit wider on the bottom with bigger walls.", 
  "He thought that the problem with his second boat was  \nthe small bottom and low walls.", 
  "He tested his third boat in the water with pennies and ended up  \nwith 25 (see SB3.25).", 
  "James\u2019s fourth boat carried 33 pennies after he changed the height and  \nthickness of the boat (see SB4.33).", 
  "When testing his fifth boat, the teacher asked \u201cWhat else do  \nyou want to change?\u201d James replied, \u201c(I want to make) a bigger wall.\u201d The teacher asked what  \nthe bigger wall would change on the boat.", 
  "\u201cIt changes the height and thickness\u201d replied James.", 
  "Looking at James\u2019s boat, the teacher asked \u201cLook, James, it is not likely to float.", 
  "Why would it  \nnot float?\u201d James explained, \u201cBecause when you take off the piece and in order to get the boat  \nstraight you have to make it fatter.", 
  "You have to take off some clay, so it\u2019s skinny and then big.\u201d  \nJames patched the holes and made the walls bigger but thinner (skinnier) by removing  \nsome clay here and there.", 
  "James conceived volume as \u201csomething big\u201d (authors interpreted as  \nlarge height) in phase II.", 
  "He kept his initial idea and developed it into making a \u201cbigger and  \nthinner\u201d wall in phase III.", 
  "After a couple of failures, he was able to optimize the design solution  \nby making the wall thinner and taller.", 
  "James ultimately made his best design that carried 34  \npennies (see SB5.34), the most pennies of all the designs presented in this study.", 
  "Research Question 3:  Young Children\u2019s Expression of Volume through Engineering  \n\nDesign Activity  \nWanting to understand how young children develop their ideas about the concept of  \nvolume, we asked them about the concept as it was embedded in the activity.", 
  "Besides James, the  \nchildren were unclear about the concept of volume.", 
  "Olivia explained that to get more pennies on,  \nshe would make the walls taller and the bottom smaller.", 
  "Nathan said he would make the bottom  \nflat and the boat longer, and James said he would make the walls taller.", 
  "Although Nathan and  \nOlivia were unclear about the volume concept, those ideas of tall walls and small bottom for  \nOlivia and flat bottom and longer boat for Nathan are the indicators of volume which seemingly  \nare the beginning of development of the volume concept.", 
  "The teacher asked James about volume.", 
  "Teacher: James, when you said you would make the walls taller to carry more pennies,  \nwhat would it change?", 
  "James: (He mulled over the question without giving a response)    \nTeacher: Do you know what the volume is?", 
  "James: I think volume is how big something is.", 
  "Teacher: Ok, when you make a taller wall, what does it change inside the boat?", 
  "James: It changes how big the boat is, like the boat gets bigger then.", 
  "Teacher: If you make a taller wall, will the boat be bigger?", 
  "James: Uh-huh.", 
  "To James, volume meant how big something was, though he was not absolutely sure of  \nthis.", 
  "Based on what he spelled out, the meaning of the word \u201cbig\u201d is seemingly \u201ctall.\u201d This idea  \nis important because it means height that consisted of the volume of a boat.", 
  "Based on interviews shown through phases I through III, we concluded that James and  \nthe others did not demonstrate a coherent and scientific understanding of the concept of volume  \n(consisting of length, width, and height of a three-dimensional object).", 
  "However, it was noticed  \nthat each student (age 6-7) began to develop their own theories about volume, including \u201cflat  \nbottom\u201d and \u201clonger\u201d (Nathan), \u201cbigger sides\u201d and \u201ccircular shape\u201d (Olivia), and \u201cround\u201d, \u201cflat  \nedges\u201d, \u201crectangular shape\u201d and \u201cbigger and thinner walls\u201d (James).", 
  "Together, these languages  \nindicate the volume-associated ideas from their perspectives, which we called na\u00efve knowledge.", 
  "Table 2 shows the result of what we found about the three young children\u2019s development of  \nvolume through this STEM study.", 
  "Nathan was identified as \u201cbeginning\u201d because he used the  \nideas of volume, i.e., \u201cflat bottom\u201d (B3.3) and \u201clonger\u201d (B.4.5) but rugged idea was found for  \nheight (see a black circle in B4.5, Fig.", 
  "1).", 
  "As seen in Nathan\u2019s fourth boat (B4.5), it is evident he  \ndid not possess a fully developed idea of height associated with the volume.", 
  "Throughout his  \nseries of boats (see B1-4, Fig.", 
  "1), he was not coherently making a boat that maximizes the  \nvolume.", 
  "Olivia had also \u201cbeginning\u201d ideas of volume because she used \u201cbigger sides\u201d (P3.12)  \nand \u201ccircular shape\u201d (P4.18).", 
  "As seen in her boat (P3.12), she tried to make \u201cbigger sides\u201d but  \nended up creating uneven height of the wall (see black circles), which happened to Nathan\u2019s.", 
  "Then she patched up to make a circular shaped boat (see P4.18).", 
  "It implies that Nathan and  \nOlivia\u2019s understanding of volume is rudimentary.", 
  "On the other hand, James seemed to be  \n\u201ctransitional\u201d in understanding the concept of volume, showing conceptual understanding yet to  \nbe fully developed, because he used the ideas of \u201cround\u201d (SB1.24), \u201cflat edges\u201d (SB4.33),  \n\u201crectangular shape\u201d (SB2.10 & SB3.25) and \u201cbigger and thinner walls\u201d (SB5.34), which  \nrepresented height, width, and length.", 
  "Although James did not directly use the mathematical  \nterms that constituted the volume of a cube, we believe that James had some understanding of  \n\nthe concept of volume based on the design of his boats and his explanations.", 
  "Table 2   Three young children\u2019s development of concept of volume   \nBeginning*  \nTransitional*  Fully developed*  \nNote.", 
  "* See Appendix A for descriptions of each indicator.", 
  "Discussion  \nYoung Children Defining Engineering Problems   \nLooking at how the three students defined engineering problems, we found that the  \ncommon pattern was incremental and yet rather intuitive.", 
  "For the criteria of success and  \nconstraints, Nathan used \u201clonger\u201d and \u201cflat bottom\u201d for making the boat; Olivia picked \u201cbigger  \nsides\u201d and \u201ccircular shape\u201d in her boat design.", 
  "On the other hand, to design a boat, James came  \nup with \u201cbigger walls\u201d, \u201cround\u201d, and \u201cflat edges [the same height as the sides].\u201d The source of  \nthese ideas, which to the young children represent the volume of the boat, is mostly the things  \nthey hear and use every day.", 
  "We cannot expect young children to be able to express their ideas  \nusing mathematical languages without help.", 
  "Lee (2006) alerted that \u201clearning to use language to  \nexpress mathematical ideas will be similar to learning a foreign language\u201d (p.2).", 
  "It is suggested  \nthat teachers \u201cextend their pupils\u2019 ability to learn mathematics by helping them to express their  \nideas using appropriate languages and by recognizing that they need to use language in a way  \nthat is different from their everyday use\u201d (Lee, 2006, p.2).", 
  "In this particular activity, some of the  \nengineering concepts and terms could have been used including edge case (a problem that occurs  \nwhen the maximum number of pennies made it sink), plastic strain (holes or cracks), etc.", 
  "Instead  \nof using these terms and concepts, students came up with their own ideas of what would carry  \nthe most number of pennies.", 
  "An interview revealed that the defined engineering problems in  \nNathan\u2019s eyes were small boat and bumpy bottom, in Olivia\u2019s, low sides and non-circular, and in  \nJames\u2019, small walls and different edge heights.", 
  "To young children, these experiential ideas gave  \nthem a set of criteria to construct a boat.", 
  "James said he had around fifty boating experiences in multiple contexts including small  \nboats on a lake and a sea cruise.", 
  "Such experience may have impacted James as he tried coming  \nup with a successful boat design.", 
  "He might have developed a variety of repertoires of practice as  \nhe experienced boating multiple times (Gutierrez & Rogoff, 2003).", 
  "Based on this theory, it is  \nimplied that more opportunities and experiences should be offered for young children to  \nspontaneously learn about engineering problems through STEM activities.", 
  "Since tracing how  \none\u2019s experience impacted one\u2019s boat design is beyond the scope of this study, we investigated it  \nno further.", 
  "However, it is worth exploring further to better understand how young children draw  \non their experience to come up with their unique design ideas.", 
  "Young Children Designing Solutions to Engineering Problems  \nThe students\u2019 solutions were associated with their experiential ideas of reality.", 
  "They  \ngenerated a number of different possible solutions, evaluated potential solutions to see which  \nones best met the criteria and constraints of the problem, then, through few trial-errors, tested  \nand revised the best designs.", 
  "The common pattern we found in this regard was that young  \nchildren were continually changing their boat designs through the process of refining their ideas  \nand seeking reasonable answers to the problem (NRC, 2012, p. 218).", 
  "As seen in Figure 1, results  \nshowed that Nathan constructed four of his boats based on his own criteria \u2013 change of \u201cshape\u201d  \nand \u201cflat bottom\u201d and \u201clonger\u201d boat.", 
  "He continuously changed the shape of his boat to something  \ncloser to that of a ferry that has a flat bottom, and is long.", 
  "Nathan generated different solutions  \nthrough four boat designs using his criteria; he also tested and revised them.", 
  "In his final bid,  \nNathan changed the size of his boat to construct a longer boat (B4.5) that was rectangular,  \nthough its front end was low, allowing water to flow over (see a circle in B4.5).", 
  "Olivia used the  \ncriteria of \u201cbigger sides\u201d and a \u201ccircular shape.\u201d Figure 2 shows that Olivia changed her boats  \ndesign a couple of times as she constructed four of her boats from bigger sides to circular shape.", 
  "In addition, results showed that James\u2019s initial ideas were \u201cround\u201d and added \u201cbigger and thinner  \nwalls,\u201d and later added \u201cflat edges [the same height as the sides],\u201d which became the criteria of  \nthe design of his boats.", 
  "Throughout the practices of defining engineering problems and designing solutions to the  \nproblems, the three students\u2019 boats demonstrated three distinctive characteristics.", 
  "First, peers  \nimpacted each other when designing their boat (Vygotsky, 1978).", 
  "In James\u2019s case (see SB2.10),  \nhe was influenced by overhearing the teacher speak with Nathan about lengthening his boat.", 
  "James initially made a round boat and, in his second design, changed to a longer boat, keeping  \nthat idea throughout the lesson.", 
  "At this age of development, young children, unless they are firmly  \nconfident about what they are performing, may be influenced by an authority figure\u2019s opinions  \nand comments and their peers on their performance.", 
  "Thus scaffolding can be used for effective  \nteaching STEM and it can include guiding and challenging questions, modeling skills, providing  \nprompts, hints, or cues, and adapting materials and activities to individual strengths and needs  \n(Copple & Bredekamp, 2009).", 
  "Second, young children were fairly consistent in making their boat  \nusing their initial ideas of the criteria.", 
  "As seen in the three cases, Nathan kept his initial idea of a  \nlonger boat while Olivia used the idea of a circle shape throughout the class.", 
  "Although James  \nchanged the shape of his boat from round to longer, he kept the idea of a longer boat throughout  \nthe activity.", 
  "This finding suggests that young children have a tendency to go back to their original  \nexperiential ideas.", 
  "Third, young children continually changed, though little by little, the design of  \ntheir boat.", 
  "All students tended to improve their engineering designs incrementally, not  \ndramatically.", 
  "Using the criteria each student set initially, all students improved the identified  \nproblems until the end of class.", 
  "This behavior seems natural when the inquiry question motivated  \nyoung children, and until the class was over they continued to change peripheral components of  \nthe boat.", 
  "Olivia continued to design solutions by making the sides \u201cbigger\u201d with a circular shape  \n(see P1.11-P4.18) as did James and Nathan.", 
  "In fact, James incrementally changed the sides to be  \n\u201cbigger and thinner\u201d and \u201clonger\u201d by designing a rectangular boat.", 
  "Young Children\u2019s Development of the Concept of Volume through Engineering Design  \nActivity  \nAccording to Piaget et al.", 
  "(1960), children do not master the concept of volume until 11 or  \n12 years of age.", 
  "However, we explored how young children (aged 6-7) constructed their initial  \ntheories about volume through engineering design.", 
  "For instance, James, 7 years old, made a boat  \nthat was able to carry 34 pennies after developing, analyzing, refining, and rebuilding a model of  \nthe boat.", 
  "As his boat carried by far the most pennies, James appeared to be competent at the  \npractice of using modeling of engineering.", 
  "This phenomenon can be explained by what Nasir and  \nHand (2008) called practice-linked identities which defined identities as \u201cpeople come to take on,  \nconstruct, and embrace that are linked to participation in particular social and cultural practices\u201d  \n(p. 147).", 
  "As seen in James\u2019s case, he participated in boating practices multiple times, presumably  \nin different occasions and events so his identity may have been linked to the practices of boating.", 
  "In addition, his prior experience might have influenced how he developed ideas of volume.", 
  "James  \nstated his theory in our interview with him, \u201cI think volume is how big something is.\u201d We  \ninvestigated further by asking what else he wanted to change.", 
  "James replied to make a bigger wall  \nwhich meant the height and thickness.", 
  "The word thickness meant more weight and the height  \nmeant \u201csomething big\u201d to James.", 
  "Like this, young children express their understanding about the  \nconcept of volume using their na\u00efve knowledge.", 
  "The expression of languages and na\u00efve  \nknowledge is naturally linked to their daily experiences.", 
  "Experiences can account for a great deal  \nof children\u2019s development as Sarama et al.", 
  "(2009) stated \u201cuniversal experiences, such as our  \nphysical world provides, lead to an interaction of inborn capabilities and environmental inputs  \nthat guide development in similar ways across cultures and individuals\u201d (p.187).", 
  "Although the  \nchildren in this study were not able to master the concept of volume, some demonstrated  \nmoderate understanding.", 
  "In his research, Piaget et al.", 
  "(1960) found that the success percentage in  \ntests on the conservation of volume was 12% of 25 children (aged 7).", 
  "In the U.S., Elkind (1961)  \nalso obtained similar results that 4 % of 25 American children (aged 6) showed success.", 
  "This  \nsuggests that some children may possess the conservation of volume.", 
  "Based on our research  \nfindings, we argue that children\u2019s discovery of volume may be possible when appropriate  \nexperiences are provided with teachers\u2019 guidance through STEM activity in school.", 
  "In fact, using  \nCurry and Outhred\u2019s scheme (2005), though the research design is different, we were able to  \ncategorize Nathan and Olivia\u2019s idea of volume into \u201cfilling\u201d volume whereas James\u2019s conception  \ninto \u201cpacking\u201d volume.", 
  "Nathan and Olivia appeared to conceptualize volume as the amount of  \nsubstance occupied in a container (see Nathan\u2019s boat of flat bottom (B3.3) and longer (B.4.5) and  \nOlivia\u2019s bigger sides with a circular shape (P1.11-P4.18)) whereas James seemingly crossed over  \nbetween filling and packing volume (see flat edges (SB4.33), rectangular shape (SB2.10 &  \nSB3.25) and bigger and thinner walls (SB5.34), which represented height, width, and length).", 
  "This finding implies that how students express their understanding of volume is correlated to the  \nway of their structuring volume (Lehrer, Strom, & Confrey, 2002).", 
  "When teachers provide young children with experiences in school, engineering instruction  \nshould be carefully designed so that young children get a deeper understanding about the  \nembedded scientific concept in engineering learning contexts.", 
  "Teachers can give them necessary  \ninformation to perform engineering design, but it may not reach the point where young children  \ndevelop a conceptual understanding.", 
  "When children have a difficult time in understanding the  \nconcept, they need opportunities to do multiple trial-error designs, struggle, come up with a  \nsolution, redesign it after a test, and make sense by applying it to their real boat.", 
  "Without these  \nprocedures and experiences, young children may not be able to grasp a deep understanding of the  \ntargeted concept.", 
  "Limitation and Further Study  \nOne limitation is discerning volume from capacity.", 
  "This study did not investigate whether  \nstudents are able to distinguish volume from capacity of an object.", 
  "Both concepts are similar as  \nthey are associated with a container that is three dimensional.", 
  "Yet the concepts clearly differ  \nwhen one focuses on the key word \u2018space occupied\u2019 for the volume and on capacity\u2019s \u2018amount  \ncontained.\u2019 Further study should be sought to understand young children\u2019s in-depth ideas of  \ncapacity as well as volume.", 
  "Second, the limited sample size is also a limitation of this study.", 
  "Results were reported as limited to generalization of the effect of learning about science and  \nengineering through engineering design because the small sample size might have accounted for  \nthe lack of significant variability in the data.", 
  "More students, more information about students\u2019  \ndirect and indirect experiences in their early childhood, and maybe a longitudinal study of how  \nthey construct engineering knowledge and skills would help to better serve the purpose of study.", 
  "Finally, further study should be carried out on how idiosyncratic aspects of prior knowledge and  \nexperiences impact learners\u2019 engineering designs.", 
  "As noticed in James\u2019 case in this study,  \nstudents\u2019 prior knowledge and experience can impact their boat designs to some degree.", 
  "This  \naspect of study will contribute to the research literature on young children\u2019s development of  \n\nunderstanding about volume through engineering designs.", 
  "Conclusion  \nThis study found that engineering abilities in young children can be referred to as  \nemergent engineering.", 
  "That is, young children may not possess prior knowledge or correct  \nconcepts to approach how to solve problems but rather it emerges from a number of interactions  \nwith the components of the problems through multiple trial-errors.", 
  "In other words, they  \nunderstand the concept of volume correctly but not fully while going through the practices of  \nengineering design.", 
  "This finding becomes meaningful, though limited cases were studied, amidst  \nlittle research reported on engineering education in K-12 (Johri & Olds, 2011; Streveler et al.,  \n\nYoung children\u2019s multiple experiences, practice-linked identities shape not only their  \napproaches to learning but also their motivation to learn.", 
  "Building on children\u2019s positive  \nexperiences can give rise to a mindset toward engineering education that could lay a solid  \nfoundation for future studies in science and engineering.", 
  "Hence, providing children with  \nengineering-focused STEM learning experiences during the early years of school can increase  \nthe possibility of developing a firm foundation for later engineering education."
 ]
}