{
 "document_id": "1172113.1", 
 "sentences": [
  "Published as: James, S., Swan, K., & Daston, C. (2016).", 
  "Retention, progression, and the taking of online courses.", 
  "Online Learning Journal 20(2).", 
  "Retention, Progression and the Taking of Online Courses  \nScott James   \nPredictive Analytics Reporting Framework  \nKaren Swan  \nUniversity of Illinois Springfield  \nCassandra Daston  \nPredictive Analytics Reporting Framework  \nAbstract  \nOnline learning continues to grow at post-secondary institutions across the United States, but  many question its efficacy, especially for students most at-risk for failure.", 
  "This paper engages  that issue.", 
  "It examines recent research on the success of community college students who take  online classes and explores similar comparisons using 656,258 student records collected through  the Predictive Analytics Reporting (PAR) Framework.", 
  "In particular, the research investigated  retention rates for students in three delivery mode groups \u2013 students taking only onground  courses, students taking only online courses, and students taking some courses onground and  some courses online at five primarily onground community colleges, five primarily onground  four-year universities, and four primarily online institutions.", 
  "Results revealed that taking some online courses did not result in lower retention rates for  students enrolled in primarily onground community colleges participating in the PAR  Framework.", 
  "Moreover, although retention rates were lower for such students taking only online  courses than for similar students taking only onground or blending their courses, much of the  difference could be explained by extraneous factors.", 
  "Essentially no differences in retention  between delivery mode groups were found for students enrolled in primarily onground four-year  universities participating in the PAR Framework, while at participating primarily online  institutions, students blending their courses had slightly better odds of being retained than  students taking exclusively onground or exclusively online courses.", 
  "No differences between the  latter groups were found at these institutions.", 
  "Patterns of retention were similar regardless of gender across institutional categories, and were  mostly similar regardless of Pell grant status with the exception of fully online students at  traditional community colleges.", 
  "Age, however, did differentally affect delivery mode effects.", 
  "Older students taking only online courses were retained at higher rates than younger students  taking only online courses at both primaily onground community colleges and primarily online  institutions.", 
  "The results suggest that taking courses online is not terribly harmful, especially  when considering the access to higher education they provide for an older population in  particular.", 
  "Introduction  \nOnline learning continues to grow at post-secondary institutions across the United States,  \nbut many question its efficacy, especially for students most at-risk for failure.", 
  "This paper  engages that issue.", 
  "It examines recent research on the success of community college students  who take online classes and explores similar comparisons using 656,258 student records  collected through the Predictive Analytics Reporting (PAR) Framework.", 
  "In particular, it  investigates retention rates for students in three delivery mode groups \u2013 students taking only  onground courses, students taking only online courses, and students taking some courses  onground and some courses online at five primarily onground community colleges, five  primarily onground four-year universities, and four primarily online institutions.", 
  "It also expores  potentially differential effects of delivery mode related to Pell grant status, gender, and/or age  \nIn the sections which follow, relevant research on the effects of online learning on the  success of community college students is summarized, and the PAR Framework is explained.", 
  "The Methodology section identifies the research questions addressed, the data sources used, and  the methods of analyses.", 
  "In the Results section, findings are given for primarily onground  community colleges, primarily onground four-year universities, and primarily online institutions  broken out by research questions.", 
  "The Discussion section explores the implications of some of  the findings, examines results across institutions, and notes the limitations of the research.", 
  "Finally, the major findings of the study are reiterated in the Conclusions.", 
  "Background  \nOnline learning is no longer an anomaly in American higher education.", 
  "According to  \nnational data, in the fall 2013 semester over 5.2 million, or 25% of all higher education students  in the United States took at least one online course (Allen & Seaman, 2015) and indications are  that online learning will continue to grow in the near future.", 
  "In addition, most researchers agree that learning outcomes from online courses are not  significantly different from traditional courses (Bernard et al., 2009; Means, Toyama, Murphy,  Bakia, & Jones, 2009).", 
  "However, as educators have come to accept the similarity of learning  regardless of delivery mode, they have also come to believe that retention and progression are  greater problems online (Allen & Seaman, 2015; Moore, & Fetzner, 2009).", 
  "Indeed there have  been several, relatively recent, large scale studies comparing retention and progression for  community college students taking online and traditional classes that support such a view.", 
  "Two such studies were undertaken by the Community College Research Center (CCRC)  \nat Teachers College, Columbia University involving cohorts in the Virginia (Jaggers & Xu,  2010) and Washington state (Xu & Jaggers, 2011) community college systems.", 
  "The 2004 cohorts  in both systems were followed for five years.", 
  "Because the researchers found that better prepared  students were more likely to enroll in online courses, they limited their comparisons to the  population of students who ever took an online course.", 
  "They found that in both systems, \u201cever  online\u201d students were more likely to fail or withdraw from online courses than from face-to-face  courses (Xu & Jaggers, 2011).", 
  "In addition, the researchers found that students who took online  \ncoursework in early terms were slightly but significantly less likely to return to school in  subsequent terms, and students who took a higher proportion of credits online were slightly but  significantly less likely to graduate, attain a certificate, or transfer to a four year institution  (Jaggers & Xu, 2010; Xu & Jaggers, 2011).", 
  "In a similar, more recent, study of student performance in the cohort enrolling in the  \nCalifornia Community College system in the 2008/09 academic year, Hart, Friedman, and Hill  (2015) found that students\u2019 likelihood of completing and/or passing courses (receiving a C or  better) were lower for online courses than they were for those offered in face-to-face formats.", 
  "Controlling for possible differences in courses, students, and instructors, the researchers found  students were 6.8 to 8.9 percentage points less likely to complete, and 10.9 to 15.2 percentage  points less likely to pass online courses.", 
  "Shea and Bidjerano (2014), however, reported seemingly different findings using  \nsomewhat different outcome measures.", 
  "Using data from the Beginning Post-secondary Survey  (BPS), they compared the degree and/or certificate completion rates of community college  students who took one or more courses online with those of students who did not take any online  courses.", 
  "The BPS data comes from a sample of students who initially enrolled in a US post- secondary degree program in 2004.", 
  "These same students were surveyed again in 2006 and 2009.", 
  "Shea and Bidjerano explored the data in an attempt to replicate and extend the CCRC findings.", 
  "They found, however, that controlling for relevant background characteristics, students who took  some of their early courses online had a significantly better chance of attaining a community  college credential than those who only took face-to-face courses.", 
  "Some explanation for these seemingly disparate results can be found in another study of  California community colleges.", 
  "Johnson and Cuellar Majia (2014) studied an earlier cohort who  initially enrolled in California community colleges in the fall of 2006.", 
  "Modeling their work on  Xu & Jaggers, the researchers found that students taking online classes were less likely to  complete them, and less likely to complete them with a passing grade, than students in enrolled  in face-to-face classes.", 
  "However, when they examined long-term outcomes, Johnson and Cuellar  Majia found that students who took at least some online courses were more likely to earn an  associate\u2019s degree or transfer to a four-year institution than those who didn\u2019t.", 
  "The research repoted in this paper builds on the above studies and investigates the  \nseeming anomalies among them.", 
  "In particular, it compares both course completion and retention  among students enrolled in soley online, soley onground, or both online and onground courses  (ever online) across five quite dissimilar primarily onground community colleges .", 
  "In addition, it  tests to see whether or not similar patterns can be found among female vs. male community  college students, older vs. younger community college students and/or among community  college students receiving or not receiving Pell grants.", 
  "Moreover, the research also investigates  course completion and retention among students enrolled in five quite different four-year  colleges and among students enrolled in four very different primarily online institutions.", 
  "To do  so it uses data collected through the Predictive Analytics Reporting (PAR) Framework.", 
  "Predictive Analytics Reporting (PAR) Framework   \nThe PAR Framework is a non-profit ,multi-institutional collaborative that provides  \nmember institutions with tools and resources for identifying risks and improving student success.", 
  "PAR member institutions provide anonymized student level data for all credential-seeking  students who began taking courses at the institution in August 2009 or later.", 
  "At the time of this  writing, the PAR data set has more than 2 million student records and 20 million course records  from more than 30 institutions and includes data through  Fall 2014 for most institutions and  through Spring 2015 for some.", 
  "These data include   \n\uf0b7  student demographic information -such as age, gender, race/ethnicity, military and  \nveteran status, permanent residence zip code, pell eligibility   \n\uf0b7  pior academic information- including high school GPA, transfer GPA, prior amount and  \ntype of college credits earned  \n\uf0b7  student course information for all courses taken\u2013 including specific course titles, course  \nlength, course size, outcomes, and delivery mode  \n\uf0b7  other student academic information \u2013 such as majors pursued, specifc credentials sought,  \ntransfer credits brought in after enrollment, and credentials earned.", 
  "PAR  member institutions comprise a range of the many diverse options for post- \nsecondary education, including traditional open admission community colleges, 4-year  traditional selective admission public institutions, and non-traditional primarily online  institutions, both for-profit and nonprofit.", 
  "A key feature of the PAR dataset is the use of  PAR\u2019s openly published common data  definitions by all member institutions.", 
  "Because all data provided by PAR member institutions  utilize these common definitions, cross-institutional \u201capples to apples\u201d analyses on the combined  data set can be done to better understand the factors that impact student success generally as well  as locally.", 
  "In addition, having relatively comprehensive, detailed data for all credential seeking  \nstudents, rather than a sample from each institution, enables a more accurate understanding of the  student and institutional level factors that impact risk and success.", 
  "It also makes it possible to  more effectively control for confounding variables that might be contributing to observed  differences between student groups.", 
  "Methodology  \nThe study reported here investigated the effects of delivery mode on the retention and  \nprogression of undergraduate students.", 
  "It explored differences in retention and progression  among students who took all their classes online, students who took all their classes onground,  and students who blended online and onground classes.", 
  "The research questions addressed  incuded:  \n\uf0b7  Do community college students who enroll in online courses have poorer course  \ncompletion and retention rates than community college students who take all their  courses onground?", 
  "\uf0b7  Does delivery mode differentially affect particular groups of community college  \nstudents?", 
  "\uf0b7  Do four year college students who enroll in online courses have poorer course completion  \nand retention rates than four-year students who take all their courses onground?", 
  "\uf0b7  Does delivery mode differentially affect particular groups of four-year college students?", 
  "\uf0b7  Are there any differences in course completion and/or retention rates associated with  \ndiffering delivery modes at primarily online institutions?", 
  "\uf0b7  Does delivery mode differentially affect particular groups of students attending primarily  \nonline institutions?", 
  "Data sources   \nIn the current study, the impact of course delivery mode on student outcomes in various  \ntypes of post-secondary settings was explored.", 
  "Fourteen PAR member institutions were included  in the study:  \n\uf0b7  5 primarily onground community colleges (213,056 student records)  \uf0b7  5 primarily onground 4-year universities (113, 036 student records)  \uf0b7  4 primarily online institutions (330,166 student records)  \nData sources were all student and course level records for students who began their  \nstudies between September 2009 and December 2012 at these schools.", 
  "Thus, all students  included in the analyses had the opportuntity for at least 18 months of enrollment in order to  determine retention.", 
  "Students at each institution were grouped according to delivery mode \u2013 fully on- \nonground, fully online, or a blend of onground and online \u2013 based on the courses they enrolled in  up to and immediately following the first six months of their enrollment at the institution.", 
  "Students were considered fully onground if they only took onground courses during that period;  they were considered fully online if they only took online courses during that period, and they  were considered blended if they took any combination of onground and online courses  during  that period.", 
  "Because post-secondary institutions have course enrollment periods of differing lengths  \n(e.g., semesters, quarters, continuous short or long course enrollment periods), the following  approach was used to determine a student\u2019s course taking behavior, credits attempted, and credit  ratio in their first few months at the institution.", 
  "For each student included in the study, all courses  taken during the student\u2019s first six months enrollment, plus the next course or courses completed  after the six month date, were used to determine delivery mode, credit ratio, and credits  attempted.", 
  "If more than one course ended on the same end date, all were included.", 
  "If the student  stopped taking courses prior to the six-month point, those courses were included.", 
  "Thus, for all  institutions in the study, delivery mode, credit ratio and credits attempted were based on  approximately eight to nine months of course data.", 
  "For traditional semester schools, one  academic year was typically included; for quarter schools, three quarters; for continuous  enrollment school, eight to nine months of course taking.", 
  "Variables regarding credits (including  delivery mode, credits attempted, and credit ratio) were measured in aggregate for this initial  period.", 
  "The primary outcome of interest in this study was retention to the second year; a student  \nwas considered retained if they were enrolled in any course at the institution 12 to 18 months  after their first course start date, or if they had earned a credential or graducated at any time  between their first course start date and 18 months later.", 
  "Progression during a students first  eight to nine months was measured by credit ratio which was operationalized asthe number of  \ncredits earned with a grade of C or better divided by the number of credits attempted during the  time period.", 
  "Credits attempted during this time period were also recorded for each student.", 
  "Additional variables that could account for differences in retention or progression, such  as student demographic and other academic factors, were explored and used as control variables  providing greater confidence that the results concerning retention were related to delivery mode  rather than other variables.", 
  "Methods of Analyses   \nExploratory analysis was conducted comparing retention rates for three different groups  of students based on their course taking behaviors (delivery modes) in the first (approximately)  eight to nine months at the institution.", 
  "The initial exploratory analyses also compared differences  in retention among the three delivery modes by Pell recipients, student age at entry and gender.", 
  "Credit ratios and credits attempted for students taking only onground, only online or blending  their courses were additionally recorded and descriptively compared.", 
  "Because this was not a controlled experiment, there was concern that differences in  \nretention rates among students in the different delivery mode groups could be due to inherent  differences among those students, rather than an effect of their chosen delivery mode.", 
  "To address  this issue,  variables that did not directly measure student success but had significant associations  with retention at each institution were controlled for in a logistic regression model.", 
  "Such  variables affecting retention were identified at each institution individually and controlled for.", 
  "The effect of delivery mode was then added to the model to estimate the true relationship  between course delivery mode and student retention.", 
  "Variables that directly measure academic  performance, such as credit completion, were not included as controls since there was no way of  determining whether or not higher credit completion was a result of delivery mode or if the  delivery mode chosen by a student was a result of the student being more academically gifted or  motivated.", 
  "However, course load (credits attempted), rather than course completion was  controlled for in this study.", 
  "The following variables were considered as potential confounding factors :   \n\uf0b7  Military status at entry  \uf0b7  Pell status  \uf0b7  GED status  \uf0b7  Gender  \uf0b7  Race  \uf0b7  Degree sought at entry  \uf0b7  Student type at entry (as indicated by institution)  \uf0b7  Transfer college type  \uf0b7  Veteran at entry  \uf0b7  Credits attempted  \uf0b7  Developmental education ratio   \uf0b7  Student age at entry  \uf0b7  Median income associated with a student\u2019s home zip code  \uf0b7  High School GPA  \nAny of the above factors found to be significantly associated with retention at each  \nindividual institution were included as control variables in that institution\u2019s model.", 
  "Two way  interactions between the above factors were also considered when their inclusion improved  overall model fit.", 
  "After appropriate control variables had been determined, the effect of delivery  mode was added and measured as an odds ratio.", 
  "After calculating the average 12-18 month retention rates, average credit ratios, and  \ncredits attempted for students in each delivery group (blended, fully onground, and fully online)  at each institution, averages for these three variables were aggregated across institutions in three  categories \u2013 primarily onground community colleges, primarily onground four-year universities,  and primarily online institutions.", 
  "In each grouping of institutions the averages for retention rates,  credit ratio, and credits attempted give equal weight to each institution in the group, regardless of  enrollment; that is, aggrgated data was averaged with institution as the unit of analysis in attempt  to fairly account for the diversity represented by them.", 
  "In the sections which follow results are given for each set of institutions \u2013 primarily  \nonground community colleges, primarily ongound four-year universities, and primarily online  institutions \u2013 relative to the research questions posed.", 
  "Primarily Onground Community Colleges  \nIn this section, results for students enrolled in five primarily onground community  \ncolleges are presented and research questions related to them explored.", 
  "The community colleges  in this group were public institutions located throughout the United States \u2013 in Florida, Ohio,  Texas, Washington state, and Hawaii \u2013 and ranged in number of students enrolled for the period  studied from almost 23,000 to just over 93,000.", 
  "They also differed in the percentages of students  who had Pell grants (41% to 63%).", 
  "Females outnumbered males at all the primarily onground  community colleges studied.", 
  "Traditionally aged students (< 26 years old) accounted for nearly  three times as many community college students as older students  \nDo community college students who enroll in online courses have poorer completion and  retention rates than community college students who take all their courses onground?", 
  "Table 1 shows the average retention percentages, credit ratios, and credits attempted for  \nstudents enrolled in the five PAR community colleges considered in the analysis.", 
  "Table 1:    \nAverage retention, credit ratios, and credits attempted for community college students by  delivery mode  \nfully onground  fully online  \ncredit ratio  \natempted  \n\n12-18 mos  retention  \nThe data show that across institutions, community college students taking some of their  \ncourses online and some onground had a retention rate of 58%, students taking all of their course  onground had a retention rate of 51%, while only 30% of community college students taking all  of their courses online were retained in the year following their first enrollment.", 
  "After controlling for possible confounding variables, logistic regression found that both  \nthe blended group and the fully onground group were slightly more likely to be retained than  students who were fully online at all but one PAR community college.", 
  "Odds ratios indicated that  students blending their courses had 1.2 to 1.6 times greater odds of being retained than fully  online students, and that fully onground students had 1.3 to 1.6 times greater odds of being  retained than fully online students (Table 2).", 
  "There were no statistical differences between students in the blended group and fully  \nonground students for four of the five institutions, indicating that observed differences in  retention can be explained by the control variables rather than differences in delivery mode.", 
  "For  the one institution that did show a significant difference in odds between the blended group and  the fully onground group, fully onground students had just 1.1 times the odds of being retained.", 
  "The odds ratios for each institution are listed in the chart below.", 
  "\u201cNSD\u201d indicates odds ratios  were not statistically different from 1.0.", 
  "The retention odds of the delivery group listed first in  the pairs were used as the numerators for the odds ratios.", 
  "Table 2:   Odds ratios showing the likelihood for better retention of first year in comparisons of students in  differing delivery mode groups  \nfully onground vs blended  blended vs fully online  fully onground vs fully online  \nInstitution  \nInstitution  \nInstitution  \nInstitution  \nInstitution  \nThe results reveal that students blending their courses attempted more credits on average  \n(19.2) than either students taking solely onground (16.8) or solely online (10.2) courses.", 
  "Interestingly, there was very little difference in the average credit ratios (credits of  C or  better/credits attempted) among groups  \nThe results suggest that while taking all courses online had a mild negative impact on  \nPAR community college students\u2019 retention, taking some online courses (blended) did not.", 
  "These results are distinctly different from the CCRC results (Jaggers & Xu, 2010; Xu & Jaggers,  2011) which suggested that taking any online courses hurt community college students\u2019 retention  and progression.", 
  "It may be that separating students taking only online courses from those taking  some online courses (as done in this study) is what made the difference.", 
  "The retention rates for  community college students taking only online courses in the current study is quite low.", 
  "It is also  important to note, however, that less than 5% of commuity college students at the PAR  institutions studied took all their courses online.", 
  "Moreover, credit ratios (which in some sense quantify pass rates) are remarkably similar  across delivery modes in this study, indicating that community college students taking some or  all of their courses online were as likely to complete and pass their courses as students taking all  \nof their courses onground.", 
  "Indeed, students blending online and onground courses were  slightly  more likely to complete their courses with passing grades than either students taking all their  courses onground or students taking their courses only online.", 
  "These findings seemingly  contradict not only those of the CCRC (Jaggers & Xu, 2010; Xu & Jaggers, 2011), but those  from the California community colleges (Hart, Friedman, & Hall, 2015; Johns & Cuellar Majia,  2014).", 
  "The differences may be definitional.", 
  "The credit ratio used in this research is just that \u2013 a  ratio; it needs to be multiplied by credits attempted to get the number of courses completed with  a passing grade.", 
  "As the fully online students in the community college population studied in this  research attempted far fewer credits, they would have obtained far fewer as well.", 
  "Thus the small  number of fully online students could bring down the \u201cever online\u201d averages if one was not  separating students who take all online courses from students who take some online courses, as  was done in this study.", 
  "In any case, the results clearly deserve further investigation.", 
  "Does delivery mode differentially affect particular groups of community college students?", 
  "To test whether delivery mode particularly affected different sorts of students, average  \n12-18 month retention rates were aggregated by delivery modes for students receiving or not  receiving Pell grants, for female and male students, and for student age at entry (udner age 26 or  26 years and older) across PAR primarily onground  community collleges.", 
  "Table 3:    Community college student retention by Pell status  \nfully onground  fully online  \nNO PELL         .", 
  "12-18 mos retention  \nPELL                .", 
  "12-18 mos retention  \n\nTable 3 shows the average retention percentages by Pell status for PAR students enrolled  \nin community colleges.", 
  "The data shows that students with Pell grants were retained at higher  rates than those who did not have them, which may indicate the importance of financial support  for such students.", 
  "Moreover, the overall patterns of retention percentages within delivery mode  groupings were somewhat different for students receiving and those not receiving Pell grants.", 
  "The difference between students taking only onground classes and those taking only online  classes was considerably less for students with Pell grants than it was for students without Pell  grants.", 
  "The difference between students taking only onground classes and students taking some  onground and some online classes, however, was essentially the same.", 
  "Table 4:    \nCommunity college student retention by gender  \nfully onground  fully online  \nFEMALE        .", 
  "12-18 mos retention  \nMALE                .", 
  "12-18 mos retention  \nTable 4 shows the average retention rates for female and male students enrolled in PAR  community colleges.", 
  "They show that more women were enrolled and that they were retained at  slightly higher rates than men.", 
  "It is also interesting to note that women were considerably more  likely than men to take any online classes.", 
  "Just over half (51%) of the community college  women in this study took at least one online course as compared with only 43% of the men,  perhaps, because more men are enrolled in technical classes only offered onground.", 
  "The patterns  of retention by delivery mode, however, were similar, indicating that delivery mode effects were  not affected by gender.", 
  "Table 5:    \nCommunity college student retention by age  \nYOUNGER (< 26 years)        .", 
  "12-18 mos retention  \nOLDER (26+ years)              .", 
  "12-18 mos retention  \nfully onground  fully online  \nTable 5 compares retention for each of the delivery modes between students 25 years of  \nage and younger and students older than 25..A greater percentage of older community college  students took only online courses, perhaps indicating their greater need for them, and older  students taking only online courses were  retained at much higher rates than younger students  taking only online courses.", 
  "In contrast, a greater percentage of younger community college  students took only onground courses, and they were  retained at much higher rates than older  students taking only onground courses.", 
  "The results of these comparisons, then, suggest that while delivery mode did not  \ndifferentially students grouped by gender, students grouped by Pell status were somewhat  affected.", 
  "Younger vs. older community college students were clearly differentially affected by  delivery mode.", 
  "The data suggest that taking only online classes is more harmful to younger  students, and those without Pell grants in terms of observed retention rates.", 
  "Potential differential  effects of taking classes online should be explored for other student populations, especially at- risk groups such as ethnic and racial minorities, or students who are the first in their families to  attend college.", 
  "Primarily Onground Four-Year Colleges  \nIn this section, results for students enrolled in five, primarily onground, four-year  \nuniversities are presented and research questions related to them investigated.", 
  "The analyses were  initiated to see whether results for students taking online courses at community colleges also  apply to students taking online courses at four-year universities.", 
  "The institutions represented in these analyses are public universities located throughout  the United States \u2013 in Florida, Illinois, North Dakota, Arizona, and Hawaii \u2013 and and ranged in  number of students enrolled for the period studied from just over 3,000 to almost 60,000.", 
  "Fewer  students had Pell grants at these institutions than at the community colleges studied (18% to  42%) and females outnumbered males at all but one of the primarily onground four-year colleges  \nstudied.", 
  "There were also slightly more tradtionally aged students enrolled in the four-year  universities studied.", 
  "Do primarily onground university students who enroll in online courses have poorer  completion and retention rates than four-year students who take all their courses  onground?", 
  "Table 6 shows the average retention rates, credit ratios, credits attempted for PAR  \nstudents enrolled in four-year colleges offering primarily onground programs.", 
  "There were fewer  university students than community college students in the PAR database, and there were slightly  more students in this population blending their classes than students taking only onground  classes.", 
  "Students taking only online classes accounted for only a small percentage (6.5%) of  these students, but it is interesting to note that combining students blending their classes with  students taking only online classes reveals that the majority of students in this population were  taking at least some online classes (ever online), which was not the case among the primarily  onground community college population.", 
  "Table 6:    Retention rates, credit ratios, & credits attempted for primarily onground 4-year college  students by delivery mode  \nfully onground  fully online  \n12-18 mos  retention  \n\ncredit ratio  \nattempted  \n\nThe data in Table 6 also show that students at primarily onground four-year universities  were retained at higher percentages than primarily onground community college students in the  PAR database.", 
  "Moreover, although differences in retention percentages between delivery mode  groupings were not as pronounced for the university population, the ranking patterns were the  same.", 
  "Students taking some of their courses online and some onground had a retention rate of  79%, students taking all of their course onground had a retention rate of 76%, and students  taking all of their courses online had a retention rate of 60%.", 
  "After controlling for possible confounding variables in a logistic regression model, results  \nshowed that in the majority of cases no group was at higher risk than any other of not being  retained at twelve to eighteen months.", 
  "In one instance, students in the blended and fully  onground groups had greater odds of being retained than fully online students with odds ratios of  1.6 and 1.8 respectfully.", 
  "Significant differences were observed between students taking a blend  of courses and students taking all of their courses onground at two institutions, but the effects  were split: at one institution the fully onground group had only .77 times the odds of being  retained as the blended group, while the fully onground group had 1.1 times greater odds of  being retained at the other institution.", 
  "Overall, the results suggest that the extraneous factors  controlled for at each institution accounted for most or all of the differences in retention, rather  than the effect of delivery mode.", 
  "There was little evidence that taking any courses online at a  primarily onground four-year university placed a student at greater risk of not being retained,  once other variables are accounted for.", 
  "Odds ratios resulting from modeling the effect of delivery mode on retention with  \nadditional variables controlled for are shown Table 7.", 
  "Table 7:   \nOdds ratios showing the likelihood for better retention of first year in comparisons of students in  differing delivery mode groups  \nfully onground vs blended  blended vs fully online  fully onground vs fully online  \nInstitution  \nInstitution  \nInstitution  \nInstitution  \nInstitution  \n*not enough fully online students at Institution 1 for valid comparison  \nCredit ratios were higher for students at four-year universities in this study than for  \nstudents at community colleges, and although the average credit ratios for students blending their  courses and students taking all their courses onground were remarkably similar (.80 and .81  respectively), the average credit ratio for students taking only online courses was considerably  smaller (.74).", 
  "Similarly, the number of credits attempted by students taking only onground and  students taking onground and online courses were similar (25.2 and 24.4 respectively) but  students taking only online courses at primarily onground four-year universities attempted far  fewer credits (14.5).", 
  "It is possbile that students taking only online courses chose to do so  because they had busier lives than students taking some or all of their courses onground.", 
  "Perhaps  these students attempted fewer courses and had a more difficult time passing them for the same  reason.", 
  "The finding clearly deserves futher investigation.", 
  "Does delivery mode differentially affect particular groups of four-year university students?", 
  "As with the community college data, further analyses were made to see whether Pell  \nstatus, gender or age differentially affected four-year students in the PAR database.", 
  "Indications  were that they did not.", 
  "Table 8:    \nFour-year university student retention by Pell status  \nfully onground  fully online  \nNO PELL         .", 
  "12-18 mos retention  \nPELL                .", 
  "12-18 mos retention  \n\nTable 8 shows retention percentages for students who did and did not receive Pell grants.", 
  "Proportionally fewer university student than community college students received Pell grants in  this study.", 
  "Moreover the retention rates are quite similar for those receiving or not receiving Pell  grants, indicating that financial support may not be as important for retention among this group  as it is with community college students.", 
  "The overall patterns of retention percentages by  delivery mode, however, were much the same as those for four-year college students in general,  which suggests that Pell status did not differentially affect delivery mode differences.", 
  "Table 9:    Four-year university student retention by gender  \nfully onground  fully online  \nFEMALE        .", 
  "12-18 mos retention  \nMALE                .", 
  "12-18 mos retention  \n\nTable 9 shows the average retention percentages for female and male PAR students  enrolled in four-year colleges broken out by delivery mode.", 
  "It is interesting to note that the  majority of men enrolled in four-year universities chose to take all their courses onground,  whereas only 41% of the women in this population did so.", 
  "Indeed, 7% of the four-year  university women but only 4% of the men took all their courses online.", 
  "This finding deserves  further explanation.", 
  "As with the community college data, Table 9 shows that more women were enrolled than  men and that they were slightly more likely to be retained, but the gender differences were much  smaller for the university populations.", 
  "The patterns of retention by delivery mode, however,  remained the same for this breakout, indicating that gender did not differentially affect  differences related to delivery modes.", 
  "Table 10:    \nFour-year university student retention by age  \nYOUNGER (< 26 years)        .", 
  "12-18 mos retention  \nOLDER (26+ years)              .", 
  "12-18 mos retention  \nfully onground  fully online  \nTable 10 presents delivery mode breakouts compared between students who were 25  \nyears of age or younger and students who were 26 years of age or older.", 
  "Due to technical  problems, the data used in the comparison had to be reduced by one institution, the largest  primarily onground university and one with a majority of students blending their classes.", 
  "Thus it  must be kept in mind that these age comparisons differ from the other comparisons in this  category in that the percentage of students blending courses in the data used for the comparison  was 15 percentage points fewer than that used for the other analyses in this category.", 
  "None-the-less, it is interesting to note that the percentage of fully online students in the  \nolder group was ten times greater than the percentage of fully online students in the younger  group, while the percentage of younger students taking all their courses onground was nearly  three times as great as those taken by older students.", 
  "The dicotomy suggests the importance that  the access to higher education provided by online courses has for older students.", 
  "However, the  patterns of retention in this category were quite similar across age groupings, indicating that  delivery mode did not differentially affect students of differing ages.", 
  "The results of these comparisons, then, suggest that delivery mode did not differentially  \naffect students receiving vs. students not receiving Pell grants, female vs. male students, or  \nyounger vs. older students at the primarily onground four-year universities involved in this study.", 
  "Potential differential effects of taking classes online, however, should be explored for other  student populations, especially at-risk groups such as ethnic and racial minorities, or students  who are the first in their families to attend college.", 
  "Primarily Online Institutions  \nFinally, analyses similar to those undertaken for primarily onground community colleges  \nand four-year universities were undertaken for four institutions whose primary focus was on  online courses.", 
  "These institutions were especially diverse.", 
  "They included a public community  college in the southwest, a public four-year university on the east coast, and two for-profit  universities.", 
  "The \u201cprimarily online \u201ccategory was so constituted, in contrast to the more common  practice of creating a unique \u201cfor-profit\u201d category, because within the PAR community, we have  found that institutions focusing on online programs are more like each other and less like  primarily onground institutions.", 
  "The institutions representing the primarily online group had onground campuses located  throughout the United States, and in one case, overseas.", 
  "They had the largest number of students  enrolled during the period studied, ranging from over 68,000 to almost 100,000 .", 
  "Percentages of  students receiving Pell grants at these institutions grants ranged widely (20% to 80%) and  females outnumbered males at all but one of the primarily online institutions studied.", 
  "The vast majority of the students in the primairly online category were, unsurprisingly,  \nfully online students.", 
  "However, three of the four institutions in this group had a sufficient  number of fully onground students to investigate all three levels of delivery mode, making it  possible to ask similar questions of this category of institutions.", 
  "Part of the rationale for doing so  was to explore whether primarily online institutions might have better retention rates for students  taking online courses than primarily onground institutions.", 
  "They did not.", 
  "The patterns of  retention across delivery modes, however, were somewhat different.", 
  "Are there any differences in completion and/or retention rates associated with differing  delivery modes at primarily online institutions?", 
  "Table 11:    \nRetention and credit ratios for students enrolled in primarily online institutions by delivery  \nfully onground  fully online  \n12-18 mos  retention  \n\ncredit ratio  \nattempted  \n\nTable 11 shows the 12-18 month retention rates, credit ratios and credits attempted for  students enrolled in primarily online institutions broken out by delivery mode.", 
  "The retention  rates are clearly lower for this category of institutions except among students taking all their  courses online, for whom they are similar to those of community college students taking all their  courses online.", 
  "Table 9 also shows shows that students taking only online courses in primarily  online institutions were slightly more likely to be retained than students taking only onground  \ncourses, a deviation from the patterns across delivery modes for primarily onground institutions.", 
  "However, as with primarily onground institutions, students taking some courses online and some  courses onground were retained at higher rates than students taking only onground or only online  courses.", 
  "After controlling for possible confounding variables in a logistic regression model, results  \nrevealed moderate differences between students taking a blend of courses and students taking  their courses exclusively online or exclusively onground (Table 12).", 
  "Students in the blended  group at primarily online institutions had between 1.2 and 1.8 times greater odds of being  retained than students taking all their courses onground (although there were no significant  differences at one such institution and not enough only onground students to make a comparison  at another).", 
  "Students in the blended group also had between 1.2 and 1.4 times greater odds of  being retained than students taking all their courses online (although there were no significant  differences between the groups at one institution).", 
  "Students taking only onground courses were  be retained at a slightly higher rate than students taking only online courses at one institution and  slightly less likely to be retained than students taking only online courses at another.", 
  "Table 12:   \nOdds ratios showing the likelihood for better retention of first year in comparisons of students in  differing delivery mode groups  \nblended vs fully onground  blended vs fully online  fully onground vs fully online  \nInstitution  \nInstitution  \nInstitution  \nInstitution  \n*not enough fully onground students at Institution 1 for valid comparison  \nThe results suggest that among the PAR primarily online institutions, students taking a  \nblend of courses were more likely to be retained, but there is little evidence that there are  significant differences in retention odds between fully onground and fully online students after  accounting for extraneous variables.", 
  "The results suggest that  at primarily online institutions  students taking some courses online and some courses onground are more likely to be retained  than students taking all their courses either online or onground.", 
  "While it should be noted that  only a small percentage (9%) of these students blended their courses, the finding clearly deserves  further investigation.", 
  "The average credit ratio for students blending courses at primarily online institutions  \n(.66) was similar to that for students blending courses at community colleges, while it was lower  than that for students taking only online courses at community colleges, and for all delivery  categories at four-year universities.", 
  "The average credit ratio for students at primarily online  institutions taking only onground courses was quite high (.76) which is interesting, but may  reflect the particular nature of onground courses at online institutions.", 
  "It may be that the  onground courses offered include a significant number of orientation courses or success type  courses.", 
  "Clearly, however, the result should be further investigated.", 
  "The average credits attempted by students enrolled in primarily online institutions were a  good bit lower across all categories than average credits attempted at either community colleges  \nor four-year universities.", 
  "This finding suggests that students enrolling at primarily online  institutions may do so because of access issues, most likely time constraints.", 
  "Time constraints  might explain not only lower credits attempted but also lower retention and credit ratios as well.", 
  "This notion too clearly deserves further investigation.", 
  "Does delivery mode differentially affect particular groups of college students at primariliy  online schools?", 
  "As with the primarily onground institutions, further analyses were made to see whether  \nPell status, gender or age differentially interacted with the ways in which delivery mode affected  students at primarily online PAR institutions.", 
  "Indications were that they did not, except in one  somewhat questionable instance.", 
  "Table 13:  Student retention at primarily online institutions by Pell status  \nfully onground  fully online  \nNO PELL         .", 
  "12-18 mos retention  \nPELL                .", 
  "12-18 mos retention  \n\nTable 13 compares students who received Pell grants with students who did not receive  \nthem for all three delivery modes.", 
  "A higher percentage of students in the primarily online  segment received Pell grants when compared to the primarily onground institutions, and, as with  community college students,  Pell recipients were retained at higher rates, indicating perhaps a  greater need for financial assistance.", 
  "With one exception, the patterns of retention for each  delivery mode resembled that of overall retention by delivery mode for the primarily onground  category.", 
  "The one exception was a higher rate of retention for Pell recipients taking only  onground classes than for students in any other delivery mode by Pell status category.", 
  "Such  students only represent about 4% of the total population and the difference seems to be driven by  a single institution with a tiny onground population (and so primarily an artifact of the way  averages were calculated).", 
  "Thus, while it is clearly of interest to that institution, it probably does  not represent a general trend.", 
  "Table 14:    \nStudent retention at primarily online institutions by gender  \nFEMALE        .", 
  "12-18 mos retention  \nfully onground  fully online  \nMALE                .", 
  "12-18 mos retention  \n\nTable 14 shows retention broken out by gender for students in all three delivery mode  \ngroupings \u2013 blended, fully onground, and fully online -- at primarily online institutions.", 
  "The data  show that there were considerably more women than men enrolled at such institutions and that  women were retained at slightly higher rates than men as well.", 
  "The patterns of retention by  delivery mode, however, mirror those for this category of institutions overall.", 
  "Table 15:    \nPrimaily online student retention by age  \nYOUNGER (< 26 years)        .", 
  "12-18 mos retention  \nOLDER (26+ years)              .", 
  "12-18 mos retention  \nfully onground  fully online  \nTable 15 explores possible differential effects of age on the retention of students in  \ndiffering delivery mode categories.", 
  "There were many more older students in this category than  younger, which is quite different from students in primarily onground institutions.", 
  "Moreover,  older students taking only online courses in this category were retained at a considerably higher  rate than younger ones taking only online courses, another indication of the importance of this  delivery mode for older students.", 
  "The results of the comparisons in this category suggest that delivery mode did not  \ndifferentially affect students receiving vs. students not receiving Pell grants or male vs. female   students at the primarily online institutions involved in this study.", 
  "However, age differences did  seem to do so.", 
  "Potential differential effects of taking classes online should be explored for other  student populations, especially at-risk groups such as ethnic and racial minorities, or students  who are the first in their families to attend college.", 
  "Discussion  \nTo a large extent, online learning was developed to provide access to higher education for  underserved populations, and access for underserved populations remains a measure of quality in  online programs (Online Learning Consortium, 2015).", 
  "Some of the findings in this study provide  evidence that online courses and programs continue to offer such access.", 
  "Table 16:  Enrollments by institution type and delivery mode  \nfully onground  fully online  \nonground CC  \n4-year onground  \nprimarily online  \nFor example, there were many more students enrolled in the primarily online institutions  investigated in this study (Table 16), than in either the community colleges (more than 1.5 times  as many) or the four-year universities (2.8 times as many).", 
  "Although the institutions in this study  are not a representative sample of institutions across the nation, the raw number of students in  the primarily online segment demonstrates the current demand for online courses and programs.", 
  "It is also important to note that none of these institutions were primarily online 20 years ago, that  they have all grown phenomenally as a result of online offereings, and that such growth has only  \nbeen possible because of the scaleabilty of online courses.", 
  "One could also argue that these  institutions have grown because there is a demand for the access online courses provide to  students with busy lives.", 
  "Indeed, proportionally more older students were enrolled at primarily online institutions  (Figure 1).", 
  "There were more than 1\u00bd times as many older students as younger ones at primarily  online institutions, while there were nearly three times as many younger students at primarily  onground community colleges.", 
  "It thus seems that online courses offer particular access to higher  education for older students in a way similar to the access given to younger students by  community colleges.", 
  "Enrollments by Age \n2-year onground \n4-year onground* \nprimarily online \n*4-year onground institutions in this comparison include 4/5 of the schools in other comparisons  \nFigure 1: A comparison of enrollments by age across differing categories of institutions  \nIn addition, considerably more students at primarily online institutions received Pell  \ngrants than didn\u2019t, whereas at primarily onground institutions fewer students received Pell grants  than didn\u2019t (Figure 2).", 
  "Enrollments by Pell status \n2-year onground \n4-year onground \nprimarily online \nFigure 2: A comparison of enrollments by Pell status across differing categories of institutions  \nThe growing number of students who informally blend online and onground courses  \n(Bloemer & Swan, 2014) also suggests the importance of online offerings for those students we  continue to call \u201calternative\u201d.", 
  "Almost half the students at primarily onground community  colleges, and over half the students at primarily ongound universities took at least some courses  online in their first eight months.", 
  "In fact, \u201ctraditional\u201d students, who attend college full time  right after high school and live on campus, only amount to 15% of those attending college in this  country, while alternative students -- \u201cworking parents, vererans and military personnel,  caregivers and others\u201d make up 85% of that population (UPCEA, 2014).", 
  "Credit ratios for differing delivery modes by type of  \ninstitution \n2-year onground \n4-year onground \nprimarily online \n\nfully onground \nfully online \nFigure 3: A comparison of credit ratios by delivery modes across differing categories of  institutions  \nAnother piece of evidence which points to online courses being a way for non-traditional  students to access higher education is a comparison of the number of courses students are taking  at different categories of institutions in differing delivery modes.", 
  "While credit ratios (Figure 3)  are not all that different across institutional types, the numbers of credits attempted really are  quite different (Figure 4).", 
  "Across institutional types, the average number of credits attempted for  both students taking only onground courses and students blending online and onground courses  was 19.8.", 
  "The average number of credits attempted for students taking only online courses was  11.5.", 
  "On the other hand, it is interesting how remarkably similar the patterns of credits  attempted look for community college students and students attending primarily online  institutions in this study.", 
  "One could argue that these findings again point to the notion that  community colleges have been the traditional way for non-traditional students to access higher  education, and that primarily online schools are emerging as another path to higher education for  non-traditional students.", 
  "At the very least, both are open access institutions.", 
  "Credits attempted for differing delivery modes by type of  \ninstitution \n2-year onground \n4-year onground \nprimarily online \n\nfully onground \nfully online \nFigure 4: A comparison of credit attempted by delivery modes across differing categories of  institutions  \nIf a primary intention of online learning is to provide educational opportunities for  \nstudents who are not able to attend courses in person due to time and/or location restraints, it is  important to keep that intention in mind.", 
  "The results of this study suggest that when other  student characteristics are accounted for, participation in online and onground courses did not  have a large impact on odds of retention when compared to participation in only onground  courses.", 
  "In fact, in most instances students who blended online and onground courses were more  likely to be retained than students taking only onground courses.", 
  "Percent of students retained in differing delivery modes  \nby type of institution \n2-year onground \n4-year onground \nprimarily online \n\nfully onground \nfully online \nFigure 5: Comparisons of retention rates by delivery modes and institution types  \nThis is an important finding in that it suggests that the widely circulated notion that  \ntaking any online classes hurts community college students in particular, and other post- secondary students by implication, is not necessarily the case.", 
  "For community college students in  this study, taking some online classes led to slightly higher retention and progression rates than  taking only onground classes (Figure 5).", 
  "Moreover, the same was true of students enrolled in  primarily onground four-year universities and primarily online institutions, and across students  differentiated by Pell status and gender.", 
  "Why blending courses is associated with higher retention rates surely deserves further  investigation.", 
  "Perhaps blending courses gives students greater flexibility than taking courses  only onground, and so makes it easier for them to stay enrolled when things in their lives might  interfere with onground schedules.", 
  "On the other hand, perhaps blending courses gives students a  feeling of attachment to a real place, a brick and morter institution, that is more binding than the  attachment to a virtual institution associated with taking courses only online.", 
  "Understanding  what makes blending courses a more effective delivery mode might help us better support all  students.", 
  "Findings from this study also indicated that taking all courses online was at worst  associated with moderately lower odds of retention (the largest odds ratio being 1.8 when  compared against fully onground students) and at best associated with the same odds of retention  as students taking all courses onground or students blending their courses online.", 
  "It is important  to note in this regard, that, if online courses are the only way some students can access higher  education, deployed military or single mothers for example, then they are really not bad at all.", 
  "Perhaps finding ways of adding some onground experiences to primarily online programs would  further reduce any differences in student retention.", 
  "Indeed, differences observed in retention rates between the three different delivery modes  \nwere largely explained by extraneous factors, rather than the delivery mode itself.", 
  "One such  extraneous factor was total credits attempted, which may be associated with the available time a  student has to participate in courses.", 
  "Lower credit attempts were negatively associated with  \nretention at the participating institutions, and fully online students also attempted fewer credits  than the students in the blended and fully onground groups at the primarily onground institutions.", 
  "In this way, it appears online courses likely serve otherwise at risk students, who may among  other things have time constraints that make attending onground courses difficult.", 
  "Further points  of study may be to investigate what factors place online students at risk that may not be risk  factors for fully onground students, and to investigate whether specific segments of the student  population are better suited for online or onground coursework.", 
  "Another area for investigation is institutional differences in the way students experience  \nonline course taking and the degree to which certain institutional policies and practices related to  the timing of online courses impact course completion and retention.", 
  "Even within an  institutional grouping with consistent trends, such as with traditional community colleges, odds  ratios related to retention vary.", 
  "Within our PAR member institutions, policies related to timing  of online course taking also differ.", 
  "For example, at one of the traditional four-year schools,  students are not allowed to enroll in  online courses until their second semester.", 
  "Both primarily online and traditional onground schools often use college readiness  \ninstruments that measure technology aptitude to determine if a skills gap needs to be filled before  embarking on online course taking.", 
  "Most institutions that offer online courses have online  orientations \u2013 some mandatory, some optional- to help students learn more about the institution\u2019s  particular approach to online courses prior to taking a credit bearing course.", 
  "All these factors  and other interventions designed to enhance online success merit additonal research to determine  their contribution and influence on course outcomes and retention.", 
  "Limitations  \nData for this study was limited to the fourteen PAR Framework institutional partners who  \nagreed to participate, and as such represents a sample of convenience rather than a stratified  national or regional sample of post-secondary institutions.", 
  "Findings, therefore, may or may not  be representative of undergraduate students nationally.", 
  "The participating institutions, however,  were quite diverse both in student bodies and institutional focus, and they were located  throughout the United States.", 
  "Although an extensive number of potential confounding factors  were considered and controlled for, it is also possible that unmeasured variables could have  influenced the results as well.", 
  "This research is also limited to retention to a second year.", 
  "A  second and more extensive study could include retention beyond the first year and the  examination of graduation rates among students in the three different delivery modes.", 
  "Conclusions  \nThe research reported in this paper found that taking some online courses did not result in  \nlower retention or course completion rates for students enrolled in primarily onground  community colleges participating in the PAR Framework.", 
  "Moreover, although retention rates  were lower for such students taking only online courses than for similar students taking only  onground or blending their courses, the odds ratios for these differences were small (Chen,  Cohen, & Chen, 2010).", 
  "Essentially no differences in retention between delivery mode groups  were found for students enrolled in primarily onground four-year universities participating in the  \nPAR Framework, while at participating primarily online institutions, students blending their  courses had slightly better odds of being retained than students taking exclusively onground or  exclusively online courses.", 
  "No differences between the latter groups were found at these  institutions.", 
  "Moreover, patterns of retention were the same regardless of gender across institutional  \ncategories and almost the same regardless of Pell status (there was a greater difference between  students with a Pell grant and students without one among fully online students at primarily  onground community colleges, than observed in the other two delivery modes).", 
  "Age did seem to  be a factor differentially affecting delivery mode at primarily onground community colleges and  primarily online institutions.", 
  "Older community college students taking only online courses were  retained at higher rates than younger students taking only online courses.", 
  "Similarly, older  students taking only online courses or taking some online and some onground courses at  primarily online institutions were retained at higher rates than younger students in the same  categories.", 
  "No differential effects of delivery modes were found for any groupings (female vs.  male, Pell vs. no Pell, or younger vs. older students) among students enrolled in primarily  onground four-year universities in this study.", 
  "The results also suggest that online courses may provide access to higher education for  \npeople who have not traditionally had such access.", 
  "This could indicate that taking online courses  may not be harmful for most students, especially when online courses are blended with onground  courses.", 
  "The issue clearly deserves further investigation."
 ]
}