{
 "document_id": "1172789.1", 
 "sentences": [
  "A Cross-National Examination  \nA Cross-National Examination of the Effect of the Schwartz Human  \nValues on PISA Performance Assessments  \nPascale Benoliel and Izhak Berkovich  \nPascale Benoliel, Ph.D. is a faculty member in the Department of Educational  \nLeadership and Policy, School of Education, Bar-Ilan University, Israel.", 
  "pascale.benoliel@biu.ac.il  \nIzhak Berkovich, Ph.D., is a faculty member in the Department of Education and  \nPsychology at the Open University of Israel.", 
  "izhakber@gmail.com  \n\fA Cross-National Examination  \nA Cross-National Examination of the Effect of the Schwartz Human Values on  \nPISA Performance Assessments  \nAbstract.", 
  "In recent years, the growing frequency of PISA assessments, flows of  \ntransnational borrowing and policy adaptation have intensified with implications on national  \neducation reforms.", 
  "Such a growing impact seems to have reinforced the underlying  \nlegitimacy of a world of education that is not culturally diverse.", 
  "The study aimed to highlight  \nsocietal cultural values as significant factors in explaining a country\u2019s students\u2019 performance  \nin PISA assessments.", 
  "Combining the data from the World Values Survey with the PISA  \nscores database, we examined how the Schwartz values relate to student achievement at the  \nnational level.", 
  "Results of regression analysis indicated that when controlling for GDP per  \ncapita, tradition remains the best predictor of PISA tests in the three core disciplines.", 
  "Beyond  \neconomic disparity, cultural values, the tradition value in particular, play a significant role in  \nexplaining academic achievements per country.", 
  "Paradoxically, while globalization, in some  \ninstances, has led to positive educational policies and multicultural values challenging  \ntraditions; still, the tradition may serve to build group identities, social cohesion and national  \nsolidarity necessary in the dynamic global era.", 
  "Such a comparative study that takes into  \naccount the influence of the cultural values at the national level may assist educational  \nadministrators to make their educational systems both more effective and socially responsive.", 
  "Key words: Schwartz human values, PISA, comparative approach, indicators of  \nperformance, culture, globalization  \nPaper type: Research paper  \n\fA Cross-National Examination  \nA Cross-National Examination of the Effect of the Schwartz Human Values on  \nPISA Performance Assessments  \n1.", 
  "Introduction  \nAs educational leaders, policy analysts, and academics acquire more information about, and  \nperhaps insights into, the structures, policies, and practices of various educational systems,  \nthe internationalization of educational policy-making will spread (Bieber, Dobbins, Fulge,  \nand Martens, 2014).", 
  "The emerging impact of globalization on educational policies is largely  \nrecognized.", 
  "There is unprecedented interest in improving the quality of education, and  \nparticularly student outcomes (Phillips and Schweisfurth, 2014; Rawolle and Lingard, 2008).", 
  "In this regard, new international comparisons regarding student performance have  \nincreasingly become a new indicator to measure the quality of a nation\u2019s educational system  \n(Lingard, 2010).", 
  "Importantly, with the growing frequency of international assessments such  \nas PISA, flows of transnational \u2018borrowing\u2019 and policy adaptation have noticeably intensified  \nwith important implications on national education reforms (Meyer and Benavot, 2013; Sellar  \nand Lingard, 2014; Steiner-Khamsi and Waldow, 2012).", 
  "The growing impact of international assessments seems to have reinforced the  \nunderlying legitimacy of a world of education that is not culturally diverse, while also  \nignoring the disparity of economic wealth among the various nations.", 
  "Internationalization of  \nthe Western model of education with its organized grades and classroom procedures, its  \nhierarchical structure and assessment procedures, has become prevalent (Power, 2015;  \nSchleicher and Stewart, 2008).", 
  "A central assumption underlying PISA is that global variation  \nin students\u2019 academic performance is attributable to national educational structures and  \npolicies.", 
  "Thus, policy makers in countries with contrasting cultures have tended to follow  \npolicy blueprints similar to those adopted by many Western governments, who for diverse  \nreasons have chosen to restructure the administrative structures and processes of their public  \n\fA Cross-National Examination  \nsectors but with little consideration of their cultural fit (Hallinger and Leithwood, 1996;  \nMeyer and Benavot, 2013).", 
  "However, important economic, social, and cultural differences  \nexist between Western and Asian learners, for example, in regard to their conception of what  \nis meant by knowledge, and what constitutes effective teaching and learning (Bajunid, 1996;  \nFeniger, Livneh, and Yogev, 2012; Li, 2012).", 
  "A recent study has indicated that cultural  \nbackground appears to be of more importance for Chinese immigrant students\u2019 educational  \nattainment than exposure to the Australia or New Zealand educational systems (Feniger and  \nLefstein, 2014).", 
  "The trend towards multiculturalism and significant cultural differences may have  \nimplications in determining what should be regarded as appropriate patterns of management  \nand school organization in different societies, indicating the need for cross-cultural research  \nin educational policy (Feniger and Lefstein, 2014; Hallinger and Leithwood, 1996).", 
  "Accordingly, in considering that cultural values to a great extent shape the context in which  \neducational systems operate (Dimmock and Walker, 2000), the goal of the present study is to  \nhighlight societal cultural values as significant indicators in explaining learning and  \neducational performance.", 
  "We propose that the Schwartz Cultural Framework and Value  \nTypes (2011) may explain achievement differences in PISA achievement test score  \nindicators.", 
  "We have used Schwartz\u2019s framework due to its extensive use as a national cultural  \nframework for facilitating international comparisons in social research, and because the  \nframeworks includes value measurements which have been shown to have cross-culturally  \nequivalent meanings at an individual level to operationalize the cultural dimensions.", 
  "By  \nfocusing on societal cultural values above disparity in economic growth as predictors of  \nsuccess in international assessments, we seek to extend our knowledge regarding additional  \nindicators explaining differences across countries regarding success in international  \nassessments.", 
  "Specifically, the current study first examines how high-achieving countries in  \n\fA Cross-National Examination  \nPISA assessments differ from low-achieving countries in terms of the Schwartz cultural  \nvalues.", 
  "A second aim of the study is to examine which of the Schwartz values best predicts  \nPISA educational achievement tests.", 
  "It is therefore hoped that the present study can make important theoretical  \ncontributions.", 
  "First, the significance of educational indicators today above contextual care in  \nreading them (Novoa and Yariv Mashal, 2003), has emphasized the contribution of the  \nOECD to the construction of a \u2018global field of measurement\u2019 constituted through numbers,  \nand its enhanced role as policy actor (Lingard et al., 2005).", 
  "However, studies have noted that  \nsocial, cultural, demographic, and economic indicators also account for a country\u2019s  \neducational achievements (Alexander, 2012; Tan, 2012).", 
  "Second, although schools in  \ndifferent societies may appear to have similar formal leadership hierarchies, these  \nappearances often disguise subtle differences in values, relationships, and processes beneath  \nthe surface (Dimmock and Walker, 2000).", 
  "Essentially, values can reflect major social  \ncommitments in societies and across nations (Schwartz, 2006).", 
  "For example, a society with a  \nmore hierarchical structure may encourage responsible behavior by assigning clear,  \nhierarchical roles and by teaching its citizens to obey authority.", 
  "In contrast, more egalitarian  \ncultures may teach their members to view and act towards one another as equals.", 
  "Accordingly, different approaches to teaching and learning, for example, may only be truly  \nunderstood when placed in their cultural context (Cheng and Lam, 2013).", 
  "Therefore, by  \ntaking the pervasive influence of the culture and values at the national level into account, this  \nstudy may assist educational administrators in making their educational systems both more  \neffective and more socially responsive.", 
  "2.", 
  "Literature review  \n2.1.", 
  "Cultural diversity and the internationalization of education   \n\fA Cross-National Examination  \nGlobalization has emerged as a result of several factors, among them advances in  \ninformation and communication technology and the opening up of markets (Power, 2015).", 
  "Global processes have changed the context within which educational systems operate, the  \nway we communicate, teach, and learn.", 
  "Globalization guides political, economic, and  \neducational organization (Gaziel, 2009; Rawolle, 2010).", 
  "Because of a global order in which  \nknowledge is seen as major resource, isomorphic pressures toward internationalization in  \neducation and schooling have been noted (Wiseman, Astiz, Fabrega, and Baker, 2011).", 
  "More  \nimportantly, global comparisons and thus global indicators and standards have begun to  \nregulate national policy decision-making by establishing a commensurate space for  \nmeasurement of national educational performance (Lingard and Rawolle, 2010, 2011) where  \n\u2018references societies\u2019 have emerged for national educational systems (Schriewer and  \nMartinez, 2004).", 
  "Lingard and Rawolle (2011) refers to an emergent \u2018global education policy field\u2019 with  \nstatistics as a dominant point to its existence.", 
  "This is well-demonstrated through the emphasis  \nin the OECD assessment program of PISA on student performance indicators in mathematics,  \nscience, and reading literacy.", 
  "The quality of education in OECD countries is increasingly  \nbeing judged according to indicators of educational success such as scores achieved in these  \ndomains by 15 year-olds (OECD, 2013) creating new indicator of reference to measure a  \ncountry performance with test score as basis of reference.", 
  "Yet, countries differ not only in  \nwealth and degree of social equality, but also in their cultural values requiring careful  \nconsideration of national and local histories and cultures (Lingard, 2010).", 
  "Cross-cultural researchers have come to agree that culture influences people\u2019s thinking,  \nemotions, and actions (Earley, 1993; Hofstede, 1997; Schwartz, 1992; Triandis, 1995).", 
  "Deeply rooted values are considered as abstract motivations that guide, justify, and explain  \nattitudes, norms, opinions, and actions (Feldman, 2003; Schwartz, 1992).", 
  "People learn these  \n\fA Cross-National Examination  \nvalues through both formal and informal socialization, through parents, and through exposure  \nto laws and norms reflecting cultural values (Inglehart and Baker, 2000).", 
  "Nations that address  \nbasic societal issues differently have different cultural values (Schwartz and Ros, 1995).", 
  "For  \nexample, in countries characterized by Confucian cultures, values affecting attitudes towards  \neducation may be different from the values predominant in North American and European  \ncountries.", 
  "The same could be said of the values underlying educational attitudes in Arabic- \nspeaking cultures (Lewis, 1995; Tilak, 2003).", 
  "Since these values shape the behaviors of a  \ncountry's citizens, individual attitudes toward academic achievement may vary as a function  \nof values (Inglehart, 1997; Schwartz, 1997).", 
  "Therefore, we propose that the Schwartz  \nCultural Framework and Value Types (2011) may explain achievement differences in PISA  \nachievement tests.", 
  "2.2 Schwartz Cultural Framework and Value Types   \nThe most well-researched values systems are those of Hofstede (2001) and Schwartz (1999,  \n2011).", 
  "The Schwartz values framework includes 10 motivationally distinct types of  \nindividual values samples from 63 nations (Schwartz, 1992, 1994, 1999).", 
  "It derives 10  \nmotivationally distinct, broad, and basic values from three universal requirements of the  \nhuman condition: individuals\u2019 needs as human beings, requisites of coordinated social  \ninteraction and belonging to a group (Schwartz, 2011).", 
  "The ordered set of values forms a  \nsystem of value priorities that are built around three dimensions that correspond to three  \nessential principles of social organization.", 
  "These value types are (Schwartz and Bardi, 2001):  \nPower: assessing the importance of authority, wealth, social power, public image, and  \nsocial recognition; Achievement: assessing the importance of ambition, success, capacity,  \ninfluence, and intelligence (successful, capable, ambitious, and influential); Hedonism:  \nPleasure and sensuous gratification for oneself (e.g.", 
  "pleasure, enjoying life); Stimulation:  \nassessing the importance of variety and excitement; Self-direction: assessing the importance  \n\fA Cross-National Examination  \nof creativity, freedom, independence, and curiosity; Universalism: assessing the importance  \nof broadmindedness, social justice, equality, and a world at peace; Benevolence: assessing the  \nimportance of helpfulness, loyalty, forgiveness, honesty, and responsibility (helpful, honest,  \nforgiving, loyal, and responsible); Traditionalism: assessing the importance of respect for  \ntradition, humility, devoutness, and moderation; Conformity: assessing the importance of  \nobedience, self-discipline, and politeness; Security: assessing the importance of social order,  \nfamily security, national security, and a sense of belonging.", 
  "The main source of this values structure relates to the dynamic relations among values  \ninvolving both conflict and congruence in the nature of relationships.", 
  "Two dimensions  \nsummarize the structure of the relationships among the basic values.", 
  "Openness to change vs.  \nConservation.", 
  "This dimension concerns the relationship of the individual to the group.", 
  "The  \ndimension of openness to change involves the values of self-direction and stimulation that  \nprimarily serve the interests of the individual, whereas conservation that encompasses the  \nvalues of conformity, tradition, and security primarily serves the interests of others.", 
  "The  \nopenness to change dimension reflects autonomous cultures in which the individual is  \nregarded as a unique and self-sufficient being, who is encouraged to express and cultivate his  \nor her special gifts.", 
  "As for more conservative cultures, the focus is on the collective and the  \nindividual is expected to find meaning in participating and belonging to the group, placing  \nhigh priority in their in-groups.", 
  "Self-enhancement vs. Self-transcendence.", 
  "This dimension concerns the means by  \nwhich a society guarantees responsible behaviors that enable large numbers of people to live  \nharmoniously together.", 
  "Self-enhancement includes the values of achievement and power  \nwhereas self-transcendence involves the values of universalism and benevolence.", 
  "In the self- \nenhancement dimension, individuals are assigned and accept social functions that bear  \nspecific obligations and limit their behaviors.", 
  "These reflect more hierarchical cultures, where  \n\fA Cross-National Examination  \nan unequal distribution of power and authority is seen as necessary.", 
  "At the other end of the  \ndimension lie more egalitarian cultures.", 
  "Individuals recognize each other as equals,  \ndemonstrate concern for others, and treat each other the way they wish to be treated.", 
  "Hedonism shares elements of both openness to change and self-enhancement.", 
  "2.3.", 
  "National cultural values and PISA international achievements   \nResearch has emphasized that the top ten countries in terms of PISA scores easily divide into  \ntwo main groups: the ten highest achieving countries reflecting Confucian Asian cultures, and  \nEuropean cultures reflecting Western values (Huntly, Kaiser, and Luna, 2012; Lee, 2009).", 
  "More recent international studies (i.e., PISA, 2006 and 2012) are also in general agreement  \nwith this classification of high-achieving countries.", 
  "For example, the ten highest scoring  \ncountries in the PISA 2012 assessments for science are Shanghai China, Hong Kong,  \nSingapore, Japan, Finland, Estonia, Vietnam, Poland, and Canada.", 
  "Similarly, the ten highest  \nscoring countries in the PISA 2012 assessment for mathematics are Shanghai China,  \nSingapore, Hong Kong, Chinese Taipei, Korea, Macao-China, Japan, Liechtenstein,  \nSwitzerland, and the Netherlands.", 
  "Overall, it seems that Confucians tend to score somewhat  \nhigher than Europeans (Wilkins, 2004).", 
  "In Confucian culture, the ethical\u2013moral system rules all relationships in a society that  \nis highly hierarchical, structured with superiors and subordinates (Inglehart, 2006).", 
  "Wisdom,  \nresponsibility, and benevolence descending from one's superiors and obedience, loyalty, and  \nrespect ascending from subordinates are the main values of such social hierarchy.", 
  "People in  \nsuch a society gain a sense of control through doing what they are told and conforming to  \nagreed laws and decrees (Chang and Wong, 2008).", 
  "Since Social\u2013Order values such as  \ntradition, security and conformity depict a traditional and predictable world, any changes may  \nbe seen negatively (Hitlin and Kramer, 2007).", 
  "Confucianism also emphasizes the  \nmaintenance of a strong system of ethics.", 
  "Conservative values and hierarchy, which are both  \n\fA Cross-National Examination  \nvery important in South Asian cultures, share the assumption that one should act properly  \nwithin a community and place the interests of others above one's own personal needs and  \naspirations (Bernardo, 2008).", 
  "Research has indicated that for Confucian Asia (e.g.", 
  "Taiwan,  \nJapan and South Korea), values that emphasize social relationships, family, community,  \nharmony, and trust are related to happiness and life satisfaction (Inoguchi and Shin, 2009;  \nShin and Inoguchi, 2009; Tan and Tambyah, 2011).", 
  "Moreover, in the Chinese cultural  \ncontext, academic achievement is seen as a social endeavor.", 
  "By achieving in school, a student  \ncan bring wealth, fame, and honor to the family (Tao and Hong, 2014).", 
  "Western Europe is characterized by high degree of egalitarianism.", 
  "People take  \nindividual responsibility for their actions and make decisions according to their own personal  \nunderstanding of any given situation.", 
  "The Western Europe culture calls for selfless concern  \nfor the welfare of others and fitting into the natural and social world rather than striving to  \nchange it through assertive action.", 
  "It has also helped lay the foundations for participatory  \ndemocracy (Power, 2015).", 
  "Academic achievement is largely seen as an individual endeavor,  \nand emphasis is placed on students expressing their own goals and focusing on their own  \nneeds, interests, and preferences (Tao and Hong, 2014).", 
  "This behavior is characterized by  \nsuch traits as independence, curiosity, and choosing one\u2019s goals (King and McInerney, 2012).", 
  "Northern and Western Europe promote the personal self, a value system that is characteristic  \nof more capitalist and competitive systems.", 
  "Institutions in the United States, including schools, are founded on the individualistic  \nvalues of Western Europe (Trumbull, Rothstein-Fisch, Greenfield, and Quiroz, 2001), with an  \nemphasis on individual rather than collective score grades as indicators of performance  \n(Raeff, Greenfield, and Quiroz, 2000).", 
  "American culture tends to emphasize power,  \nachievement, and hierarchy (Greenfield, 2006).", 
  "American values seem to encourage an  \n\fA Cross-National Examination  \nassertive, pragmatic, innovative orientation to the social and natural environment (Greenfield  \nand Quiroz, 2013).", 
  "The high academic performance of Asian students is often attributed to core Confucian  \nbeliefs about the role of learning and academic achievement (Li, 2012).", 
  "For example, effort  \nrather than ability is strongly emphasized.", 
  "Also, one\u2019s academic success is celebrated at the  \ngroup (family) level, rather than on an individual level (Lee, 1996; Li, 2012).", 
  "It seems that in  \ngeneral, Asians are more oriented towards social goals than their Western counterparts  \n(Cheng and Lam, 2013; King, McInerney, and Watkins, 2012).", 
  "In addition, in a study  \ncomparing the meaning of \u2018learning\u2019 in Chinese and American contexts, Li (2002) found  \nlittle conceptual overlap in terms of how learning was interpreted.", 
  "Another example attesting  \nto these differences in core values relates to the amount of time students from a diverse  \nsampling of countries devote to schoolwork and leisure activities.", 
  "Research has indicated that  \nin Western countries, students are also encouraged to develop personal goals in diverse areas  \nand leisure activities, along with their studies (Larson and Verma, 1999).", 
  "However, in more  \nconservative and traditional culture, the family\u2019s structure influences women students\u2019  \nparticipation in leisure involving physical activity; especially, leisure that involves physical  \nactivity since in Confucianism, appreciation of the beauty of the human body is not allowed  \n(Tsai and Zhou, 2013).", 
  "2.4.", 
  "Research Questions  \nThere is a common consensus that the five facets of Power, Achievement, Hedonism,  \nStimulation, and Self-Direction are indicators of more individualistic values and should  \ntherefore be emphasized more strongly by Europeans.", 
  "Tradition, Conformism, and  \nBenevolence characterize collectivist values and are more strongly emphasized by the  \nConfucian Asians.", 
  "Contemporary researchers in education see this type of Confucian cultural  \norientation as largely successful (Li, 2012; Tan, 2012).", 
  "Therefore, we propose that values that  \n\fA Cross-National Examination  \npredominate in more conservative cultures, such as conformity, tradition, and security, and  \nhierarchical culture, such as achievement and power, should be strong predictors of  \nperformance indicators of PISA academic achievement test.", 
  "Specifically, the current study  \nattempts to address the following research questions:  \n1.", 
  "Do high achieving countries versus low achieving countries will differ in terms of the  \nSchwartz cultural dimension of values?", 
  "2.", 
  "Which of the Schwartz cultural dimension of values are the strongest predictors of  \nperformance indicators of PISA educational achievement test?", 
  "3  Method  \n3.1.", 
  "Participating Countries and Students  \nAll OECD countries have participated in PISA since its inception in 2000.", 
  "PISA 2012 is  \nthe program\u2019s 5th survey.", 
  "The PISA study provides comparable information on student  \nachievement (15-year-olds) in mathematics, science, and reading for all OECD member  \ncountries (see Organization for Economic Co-operation and Development, 2012 for details).", 
  "This includes 65 countries in total, made up of 34 OECD countries and 31 partner countries.", 
  "In the present study, we have combined the data from the sixth wave of the World Values  \nSurvey assessing the Schwartz values with the database of test scores in math, science, and  \nreading from the Program for International Student Assessment (PISA, 2012) to estimate  \neach country\u2019s values and how these values relate to the indicators of student achievement in  \nthe PISA test at the national level.", 
  "We have included in this comparative study controls for  \nGDP per capita index.", 
  "Combining the available data, we constructed a dataset containing  \nparticipants in 33 of the 65 OECD countries.", 
  "The following countries were included in the study:  \nAlgeria, Argentina, Armenia, Australia, Brazil, Chile, China, Colombia, Cyprus,  \nEstonia, Germany, Hong Kong, Japan, Jordan, Kazakhstan, Malaysia, Mexico, the  \n\fA Cross-National Examination  \nNetherlands, New Zealand, Peru, Poland, Qatar, Romania, Russia, Singapore,  \nSlovenia, Spain, Sweden, Thailand, Tunisia, Turkey, the USA, Uruguay.", 
  "3.2  Measures  \n3.2.1  Schwartz Human Values.", 
  "Individual data from the sixth wave of the World Values  \nSurvey (WVS) was used.", 
  "Ten distinct types of individual values from the value orientation  \nscales developed by Schwartz (2001) were included in the WVS 2010-2014 survey, which is  \na compilation of surveys conducted in more than 80 countries representing about 85 percent  \nof the world\u2019s population (Inglehart, 2004).", 
  "The World Values Survey (WVS) of 2010-2014  \nwas conducted among a representative random sample of the adult population within each  \nnation\u2010state.", 
  "Data for 49 nations was available.", 
  "Since, Schwartz\u2019s questions are given in  \nreverse order (1) \u201cvery much like me\u201d; (6) \u201cnot at all like me\u201d, we reversed the values prior  \nto any analysis (alpha Cronbach=.81).", 
  "The benevolence value was omitted from the data  \nbecause only 13 countries out of 33 provide complete data for this value.", 
  "3.2.2  Indicator of Educational achievement.", 
  "We used the Program for International  \nStudent Assessment (PISA, 2012) micro database to measure educational achievement.", 
  "PISA mapped performance in the three subjects used in the study on a scale with an  \ninternational mean of 500 and a (student-level) standard deviation of 100 test-score points  \nacross the OECD countries.", 
  "3.2.3  Control variables - The GDP per capita index.", 
  "The GDP per capita indicates the  \naverage standard of living of individual members of the population and the economic  \nstrength of each country.", 
  "The measure is commonly used in cross-cultural research designs  \nin different national settings (National Center for Education Statistics, (NCES) 1996, 2001;  \nScience and Engineering Indicators, 2002; Shapiro and Kamin, 2004).", 
  "Data on GDP per  \ncapita in 2009 US dollars is from the World Bank World Development Indicators.", 
  "We chose  \nto control for GDP per capita because countries with higher gross domestic product (GDP)  \n\fA Cross-National Examination  \nper capita generally show higher rates of student academic achievement (Baker et al.,  \n2002 ).", 
  "Richer countries can raise student achievement directly through education spending.", 
  "However, in poorer countries students often lack basic nutrition, or face exposure to  \npotentially harmful environments, factors which are correlated with learning difficulties  \n(UNICEF, 2001).", 
  "All raw data is presented in the Appendix A.", 
  "4  Results  \nTable 1 illustrates the means, standard deviations and correlations for all the study variables.", 
  "-Insert Table 1 about here-  \nThe correlation pattern shown in Table 1 reveals several important insights, indicating  \nthat the measures relevant to the proposed outcomes were significantly correlated.", 
  "First,  \nacademic achievement in mathematics was positively associated with Schwartz variables of  \nachievement (r=.36, p<.05), conformity (r=.35, p<.05), and tradition (r=.45, p<.01); academic  \nachievement in reading was positively associated with Schwartz variables of hedonism  \n(r=.37, p<.01), achievement (r=.37, p<.05), conformity (r=.39, p<.05), and tradition (r=.48,  \np<.01); academic achievement in science was positively associated with Schwartz variables  \nof hedonism (r=.40, p<.05), achievement (r=.38, p<.05), conformity (r=.36, p<.05), and  \ntradition (r=.47, p<.01).", 
  "Second, there were no statistically significant associations between  \nthe GDP per capita index factor and each of the academic outcomes of mathematic, reading,  \nand science (p>.05).", 
  "4.1.", 
  "Hypothesis test  \nFirst, using independent samples T-test, results reveal that the higher lower performers  \nwere significantly different in terms of their Schwartz values levels.", 
  "When compared with the  \nlow performer level group, the high performer group in mathematics reported significantly  \nhigher levels of security (M=2.59, SD=.41; M=2.22, SD=.50; T=-2.32, p<.05), hedonism  \n(M=2.89, SD=.64; M=3.39, SD=.56; T=-2.39, p<.05); universalism (M=2.35, SD=.36;  \n\fA Cross-National Examination  \nM=2.69, SD=.51; T=-2.14, p<.05); achievement (M=3.29, SD=.56; M=2.82, SD=.62; T=- \n2.28, p<.05); conformity (M=2.84, SD=.44; M=2.50, SD=.34; T=-2.40, p<.05); tradition  \n(M=2.89, SD=.58; M=2.30, SD=.58; T=-3.08, p<.001).", 
  "When compared with the low performance level group, the high performer group in  \nscience reported significantly higher levels of security (M=2.59, SD=.41; M=2.22, SD=.50;  \nT=-2.33, p<.05), hedonism (M=2.89, SD=.64; M=3.39, SD=.56; T=-2.38, p<.05);  \nuniversalism (M=2.35, SD= 0.36; M=2.69, SD=.51; T=-2.14, p<.05); achievement (M=3.29,  \nSD=0.56; M=2.82, SD=.62; T=-2.28, p<.05); conformity (M=2.84, SD=.44; M=2.50,  \nSD=.34; T=-2.40, p<.05); tradition (M=2.89, SD=.58; M=2.30, SD=.50; T=-3.08, p<.05).", 
  "When compared with the low performance level group, the high performer group in  \nreading achievement reported significantly higher levels of power (M=4.32, SD=.41;  \nM=3.88, SD=.68; T=-2.10, p<.05); security (M=2.57, SD=.41; M=2.27, SD=.51; T=-1.80,  \np<.05), hedonism (M=3.45, SD=.57; M=2.89, SD=.57; T=-2.63, p<.05); achievement  \n(M=3.36, SD=.56; M=2.82, SD=.62; T=-2.62, p<.05); conformity (M=2.84, SD=.45; M=2.54,  \nSD=.36; T=-2.08, p<.05); tradition (M=2.92, SD=.60; M=2.35, SD=.50; T=-2.95, p<.01).", 
  "Second, in order to identify which of the Schwartz values variables were the best  \npredictors of each PISA indicators of academic achievement outcome, namely reading,  \nmathematics, and science, three stepwise multiple regression analyses were conducted.", 
  "In  \neach regression, the Schwartz values of self-direction, power, security, hedonism,  \nuniversalism, benevolence, achievement, stimulation, conformity, and tradition were used as  \npredictors.", 
  "In the first regression, academic achievement in mathematics was used as the  \ndependent variable.", 
  "In the second regression, academic achievement in science was used as  \nthe dependent variable.", 
  "In the third regression, academic achievement in reading was used as  \nthe dependent variable.", 
  "Then, additional analysis was conducted, using only the significant  \npredictors of each of the academic achievement outcomes, namely reading, mathematics and  \n\fA Cross-National Examination  \nscience, and controlling for GDP per capita index.", 
  "Table 2-4 identifies the significant  \npredictors that emerged for each of the final regression models.", 
  "Regression analysis (table 2- \n4) indicated that when controlling for GDP per capita, tradition explained 23% of variance in  \nscience achievement (\u03b2 = .45, p< .001), and 15% of variance in mathematics achievement (\u03b2  \n=.42, p< .01).", 
  "As for reading achievement, when controlling for GDP per capita, stimulation  \nand tradition explained 34% of variance in reading achievement (\u03b2 = -.39, p< .06; \u03b2 =.74, p<  \n.001) respectively.", 
  "5.", 
  "Discussion   \n-Insert Table 2 about here -  \n-Insert Table 3 about here \u2013  \n-Insert Table 4 about here -  \nWith the rapid growth of globalization, the use of large-scale standardized international  \nassessment as indicator of performance has increased considerably as a way to evaluate and  \ncompare the quality of the future labor force across different countries )Schwippert and  \nLenkeit, 2012(.", 
  "This is particularly well illustrated by the greater number of participant  \ncountries, an increased public awareness, and ongoing comparisons of country performance  \nrankings (Meyer and Benavot, 2013).", 
  "However, globalization tends to ignore that theory,  \npolicy and practice borrowed may interface with the cultures of different host societies  \n(Schwippert, 2007).", 
  "Societies differ greatly in the extent to which their educational  \nphilosophy and practices express more hierarchical and conservative values or more  \negalitarian and democratic values.", 
  "Accordingly, the main objective of this study was to  \ndetermine the extent to which cultural values from the Schwartz typology play a significant  \nrole in explaining and determining higher achievements in PISA international assessments.", 
  "The theoretical grounds for the study were based on the premise that values may be viewed as  \nimportant components of a country\u2019s success in international assessments beyond the success  \n\fA Cross-National Examination  \nthat would be predicted based on the country\u2019s economic growth indicator and educational  \nstructures.", 
  "The findings obtained by the present study testify to the connection between cultural  \nvalues and success in international assessments.", 
  "Preliminary findings indicated that higher  \nperformers versus low performers were significantly different in terms of their Schwartz  \nvalues levels.", 
  "This provides initial support to our premise that cultural context matters when  \nit comes to educational achievement.", 
  "This may be because cultural orientations underlie the  \nstructural arrangements in society and provide both guidance and justification for the decision  \nmakers who shape societal institutions.", 
  "More specifically, the results indicated that when  \ncomparing high performers to low performers, security, hedonism, achievement, conformity,  \nand tradition were significantly higher for the best performers in the three core disciplines of  \nthe PISA achievement analyses.", 
  "This strengthen the assumption that culturally shaped beliefs  \nand forms of interactions may explain difference in achievement of different nations in the  \nindicators of performance of international test reflecting the importance of the social and  \ncultural capital (Coleman, 1988; Bourdieu, 2011).", 
  "Values such as tradition, conformity, and security primarily regulate how one relates  \nsocially to others and affects their interests referring to the conservation dimension of  \nSchwartz values, whereas values such as achievement and hedonism primarily regulate how  \none expresses personal interests and characteristics.", 
  "In line with the Schwartz typology  \n(2005), conformity entails subordination to persons with whom one frequently interacts such  \nas parents, teachers, and managers, whereas tradition entails subordination to more abstract  \nentities such as religious and cultural customs and ideas.", 
  "More conservative cultures tend to  \nemphasize the preservation of social order, encouraging individuals to ignore personal  \npreferences that might disrupt the status quo (Tao and Hong, 2014).", 
  "This set of values are  \nclose to the values that prevail in Confucian culture, where student commitment and parental  \n\fA Cross-National Examination  \ninvolvement in education is particularly high.", 
  "Moreover, achievement and hedonism as part  \nof the self-enhancement dimension reflect the individual\u2019s acceptance of social functions  \nwith obligations.", 
  "These values characterize more hierarchical cultures.", 
  "However,  \nachievement motivation reflects a long-term need for success or the concern for the  \nattainment of excellence (McClelland, 1961).", 
  "Therefore, it may be that these values motivate  \nindividuals to invest in group tasks and legitimize self-enhancing behavior as long as this  \nbehavior contributes to group prosperity and success.", 
  "This findings concurs with previous research confirming cultural explanations for strong  \nperformances on PISA tests in East Asian education systems (2009) (Tan, 2012).", 
  "The  \nresearch attributes the strong performances to a high degree of commitment to education and  \nambition associated with Confucian values, as well as a focus on disciplined study routines  \n(Tan, 2012).", 
  "Similarly, in his research Simola (2005) explained the success of Finland on the  \nbasis of historical developments, attributing positive results on PISA tests to a relatively  \nauthoritarian, obedient, and collectivist mentality associated with Finnish culture.", 
  "In addition,  \ncultural indicators such as cultural communication between parents and children, cultural  \npossessions at home, teacher professionalism, combined with a very conventional teaching  \nculture that places teachers in front of the class as top-down lecturers, are also viewing as  \ncontributing to the PISA positive results (Simola, 2005; V\u00e4lij\u00e4rvi et al., 2002).", 
  "Furthermore, results from the investigation of which Schwartz values, namely Power,  \nAchievement, Hedonism, Stimulation, Self-direction, Universalism, Benevolence,  \nTraditionalism, Conformity, and Security, best predicted success on indicators of PISA  \ninternational achievements, showed that tradition was consistently the best predictor of PISA  \nachievement tests.", 
  "Specifically, analysis indicated that when controlling for GDP per capita,  \ntradition constantly remains the best predictor of PISA achievement test results in the three  \ncore disciplines.", 
  "This means that beyond economic disparity, cultural values in general, and  \n\fA Cross-National Examination  \nthe tradition value in particular, play a significant role in explaining academic achievements  \nper country.", 
  "This result is consistent with previous research showing that GDP and  \neducational expenditure are not consistently predictors for student achievement (Hanushek  \nand W\u00f6\u00dfmann, 2010).", 
  "More importantly, tradition expresses obedience to the expectations of  \nauthorities; it seems, that people in countries whose culture considers unconditional respect  \nfor parents and religion and opposes behaviors that threaten the traditional family provide  \nstrong motivators for successful achievement independent of the financial conditions of the  \ncountry.", 
  "This result emphasizes the motivational power of the value of tradition.", 
  "6.", 
  "Conclusion  \nAlthough the enormous pool of information provided by international assessments has a  \ngreat potential to inform policy and improvement (Sellar and Lingard, 2014), our findings are  \nimportant given that global forces and internationalization seem to imply a challenge to and a  \nquestioning of national cultures and traditions (Giddens, 1994).", 
  "Perhaps, paradoxically, while  \nglobalization, in some instances, has led to positive educational policies and multicultural  \nvalues (Appadurai, 1996); still, the tradition value is a value that may facilitate academic  \nperformance in the global world.", 
  "It may be that these two paradoxical entities may not  \nnecessarily contradict each other but rather, can coexist in a complementary way.", 
  "Even  \nthough the worldwide exchange of information seems to intensify diversity and cultural  \ntransformation, challenging the excesses of tradition (Held, 1999), tradition which entails  \nrespect, commitment, and acceptance of the customs and ideas that traditional culture or  \nreligion provides, may serve to build the group identities, social cohesion, and national  \nsolidarity necessary in the dynamic global realm.", 
  "Globalization presents both opportunities  \nand threats; thus, it appears that nations may change their functional role (Hirst and  \nThompson, 1996) becoming both more practical in exploiting what globalization has to offer  \n\fA Cross-National Examination  \nand more reactive to its detrimental effects.", 
  "Therefore, in reaction to the globalization process  \nand forces, national identity may be strengthened rather than weakened.", 
  "6.1.", 
  "Limitations and future research  \nThe major strength of the present study is that the likelihood of common method variance  \nwas low because data was collected from three sources minimizing problems associated with  \nsame source bias (Avolio, Yammarino.", 
  "and Bass, 1991): WVS (Schwartz framework), PISA  \nachievement (OECD) and GDP per capita (WBWD).", 
  "Also, to ensure that all comparisons  \nmade in the current study use the same variables for each country, countries that for some  \nreason had missing data were excluded from the sample.", 
  "However, several limitations of the  \nstudy warrant further attention in future research.", 
  "The WVS data, however, is limited in other  \nways.", 
  "The WVS Schwartz value types are also 1-item questions (one Schwartz item for each  \nof 10 values).", 
  "A question can be raised as to whether Schwartz\u2019s ten universal values are  \nreliably or validly measured in this manner.", 
  "So results need to be interpreted with caution.", 
  "Future research should extend the inquiry to additional explanatory variables such as political  \nstability, social capital, country size, which might also offer explanations of achievement  \nperformance variations in international assessments.", 
  "A Cross-National Examination"
 ]
}