{
 "document_id": "1172475.1", 
 "sentences": [
  "Service Learning in Preschool Music  \n       Service Learning in Preschool: Perceptions of Music Education Pre-service Teachers  \n\n           \n            Roy M. Legette        The University of Georgia  \n\fService Learning in Preschool Music  \n\n     Service Learning in Preschool: Perceptions of  \n        Music Education Pre-service Teachers  \nService learning in education has increased dramatically over the years.", 
  "The  \npopularity of service learning courses is largely attributed to the premise that they  \ndirectly address unmet needs by connecting community service with learning objectives  \nin a manner where both the service provider and service recipient benefit (Blouin &  \nPerry, 2009).", 
  "Service learning is defined as a method of teaching and learning that combines  \nlearning in an academic context with personal growth and civic responsibility (Lake &  \nJones, 2008).", 
  "The uses and benefits of service learning in teacher education are well- \ndocumented.", 
  "Service learning has been noted in increasing student self-esteem (Bringle,  \nPhillips & Hudson, 2004), promoting professional development (Barnes, 2002),  \npreparing new teachers to use service learning as a teaching method that enhances their  \nability to reflect critically on current educational practice (Yob, 2000), and instilling a  \nsense of human service in teachers who can work effectively in schools (Freeman &  \nSwick, 2003; Anderson, 1998).", 
  "According to Swick (1999), the collaborative nature of service learning empowers  \nand nurtures the participant by:  \n\u2022  articulating a mutually beneficial connection between academic learning  \nand community needs.", 
  "\u2022  Developing talent that strengthens the community beyond the immediate  \nservice learning context.", 
  "Service Learning in Preschool Music  \n\n\u2022  Forming partnerships that provide new resources for community and  \nschool problem solving  \n\u2022  Transforming the teaching-learning process into a more experiential and  \nreflective/analytic structure.", 
  "\u2022  Providing nurture and support for talent and development in all areas of  \ncommunity life (p. 129)  \nField experiences have long been an important component in teacher education  \nprograms and service learning has emerged as a vital link in this process (LaMaster,  \n2001).", 
  "Research conducted by Burton and Reynolds (2009) revealed that service  \nlearning has been used in a variety of music education field settings without a music  \nteacher present (e.g., elementary schools, nursing homes, day care centers, after school  \nprograms).", 
  "Reynolds and Conway (2003) interviewed former students of a university  \nelementary/general music methods course that had participated in music service learning  \nat an elementary school in order to fulfill their field experience requirements.", 
  "Findings  \nrevealed that the participants, all elementary music specialist at the time the data were  \ncollected, were overwhelmingly pleased with the experience.", 
  "Many expressed that the  \nservice learning experience had a positive influence on their decision to pursue  \nelementary music teaching as a career.", 
  "Bartolome (2013) examined the experiences and  \nperceptions of undergraduates enrolled in a music education fundamentals course that  \nincluded a service learning field component involving pre-kindergarten students with and  \nwithout disabilities.", 
  "Pre-service teachers indicated that the service learning experience  \nafforded them the opportunity to make \u201creal world connections\u201d between class content  \nand the realities of actual classroom music teaching.", 
  "Reynolds (2003) was concerned  \n\fService Learning in Preschool Music  \n\nwith how participation in a service learning partnership facilitated change among pre- \nservice music teachers, classroom teachers, and teacher educators.", 
  "Findings revealed that  \npre-service teachers indicated that their perceptions regarding teaching music to young  \nchildren changed positively as the result of having a better understanding of how children  \nlearn music.", 
  "Classroom teachers stated that they were more inclined to re-think their own  \nteaching and the importance of music in students\u2019 lives after observing pre-service  \nteachers interact with children.", 
  "While the experiential nature of service learning appears to lend itself well to  \nmusic education field experiences at all levels of instruction, there appears to be a  \ndisconnect between music education and early childhood programs (Lee, 2012).", 
  "Music is  \noften under used or non-existent in American preschools, and in those preschools where  \nmusic is a part of the curriculum, the duties of teaching music often fall to the classroom  \nteacher, despite having little or no training in music (Kelly, 1998; Lee, 2012).", 
  "Teacher  \neducation programs have an opportunity to address this need in that well-designed service  \nlearning experiences allow pre-service teachers to meet the learning needs of young  \nchildren in meaningful ways while enhancing their own educational development in the  \nprocess (Lake & Jones, 2008).", 
  "While previous research has investigated pre-service music teachers\u2019 perceptions  \nand attitudes towards their undergraduate music education preparation (Legette &  \nMcCord, 2015), little research has been conducted regarding pre-service music teacher  \nperceptions towards teaching music to preschool children within a service learning  \ncontext.", 
  "The purpose of this study was to explore perceptions of music education pre- \n\fService Learning in Preschool Music  \n\nservice teachers with respect to providing musical experiences for young children as part  \nof a pre-kindergarten music service learning practicum.", 
  "The research questions was:   \nHow do university music education pre-service teachers perceive teaching  \nmusic to young children as part of a  service learning field practicum in  \nselected community child care centers?", 
  "Collective case study design applies in this study as this research was bound by  \nthe length of a single semester, the context of an elementary teaching methods course  \noffered on campus, and student cohorts were assigned to different child care settings  \n(Baxter & Jack, 2008; Creswell, 2013).", 
  "Data collection came from reflection papers  \nwritten by students over the course of the semester in response to the following prompts:  \n1) What did you hope to gain from this practicum experience?", 
  "2) What did you learn  \nfrom this experience?", 
  "3) What obstacles did you encounter during this practicum  \nexperience and how did you overcome them?", 
  "4) What have you learned about yourself as  \na result of this service learning experience?", 
  "5) What was your overall impression of this  \npracticum experience and what areas would you like to see changed and/or improved?", 
  "Participants in this study were third year undergraduate music education majors  \n(N=20) enrolled in an elementary general music teaching methods course at a large  \ncomprehensive research university in the southeastern United States during the spring of  \n2015.", 
  "The pre-kindergarten practicum is a central component of the methods course and  \nrequires students to engage in service at selected child care centers across the city in  \nwhich the university is situated.", 
  "Three of the day care centers did not have trained music  \npersonnel on staff and whatever music experiences that the children received were  \n\fService Learning in Preschool Music  \n\nprovided by the classroom teachers.", 
  "To assist pre-service teachers in examining their  \nteaching and themselves, students were asked to engage in reflective inquiry by keeping a  \njournal and writing reflection papers across the semester.", 
  "One paper was written six  \nweeks after the start of the practicum and the other one at the end.", 
  "Lyons, Halton and  \nFreidus (2013) describe reflective inquiry as \u201c an intentional act of mind, engaging a  \nperson alone or in collaboration with others in interrogating a puzzling situation or  \nsubject of teaching or learning to construct an understanding of its meaning that will  \nshape action (p.165).\u201d Through reflective inquiry, pre-service teachers in this study were  \nencouraged to focus on their own pre-K field experience in order to see how all of its  \nparts and complexities worked in tandem to form the basis of significant and meaningful  \nlearning.", 
  "A hard copy of each reflection paper was retained by the researcher.", 
  "Periodic  \nobservations made over the course of the semester allowed me to observe the pre-service  \nteachers working with children, corroborate information/ideas learned in class with  \nteaching practice, and to connect with child care providers informally to elicit basic  \nimpressions and feedback.", 
  "Description of the PreK Service Learning Field Practicum  \n Pre-service teachers were organized into cohorts of 4 or 5 members and assigned  \nto 1 of 5 selected child care centers in the city.", 
  "In pairs, members from each cohort  \nvisited and provided music learning experiences at their assigned child care center on a  \nweekly rotating basis.", 
  "In other words, each child care center was serviced by our students  \neach week.", 
  "During each visit, one student would serve as lead teacher while the other  \nstudent assisted and observed.", 
  "The duties would alternate in subsequent visits.", 
  "Service Learning in Preschool Music  \n\nDuring and at the end of the practicum, all reflection papers were analyzed in  \norder to determine student perceptions.", 
  "The data were then organized into the following  \nbroad categories: a) participant\u2019s general perception of what they hoped to gain from the  \npracticum.", 
  "b) what they actually learned.", 
  "c) obstacles and/or challenges they encountered  \nover the course of the practicum d.)  what students learned about themselves and e.)  \noverall impression of the practicum, including those things liked most and  \nrecommendations for improvement.", 
  "To protect the identity of the participants,  \npseudonyms are used throughout the paper.", 
  "Results/Discussion  \nWhat students hoped to gain  \nStudent responses in regards to what they hoped to gain from the practicum were  \nquite varied.", 
  "For example Gloria stated \u201c I really wanted to gain a better understanding of  \nhow children of this age group learn most efficiently  and what I could do as a teacher to  \nmake music fun and memorable for them.", 
  "Erin hoped to gain a better understanding of  \nthe pace in which young children move through concepts while Marta wanted to become  \nmore comfortable standing in front of young children.", 
  "What students learned from the practicum  \nOne student spoke of how his expectations of teaching very young children were   \ndifferent from his actual experience.", 
  "I was actually a little surprised at how much I didn\u2019t hate this part of the  \npracticum.", 
  "I\u2019ve never really been a big fan of little kids, and I was really unsure  \nof how to teach them.", 
  "As college-age musicians, we\u2019ve spent half our lives (if not  \nmore) learning all of these advanced musical concepts and terminology, and now  \n\fService Learning in Preschool Music  \n\nwe suddenly have to dumb it down to get our point across to preschoolers.", 
  "It\u2019s a  \ndaunting task to say the least.", 
  "Most students felt that the preK practicum experience had positively affected their  \ncritical thinking skills.", 
  "A common remark was they learned to \u201cthink on their  \nfeet.\u201d   \nMatt learned that it was important for him to pick his words carefully and not use  \nwords that the students could not understand.", 
  "My communication skills are much improved with this age group.", 
  "They don\u2019t  \nreally know what \u201caccurate\u201d, \u201cformation\u201d or \u201cperpendicular\u201d means (imagine  \nthat).", 
  "The time I wasted saying those words and then having to explain those  \nwords was pointless.", 
  "Making those mistakes helped my thinking skills improve  \nthough.", 
  "When you mess up, you have to be able to think on your feet and this skill  \nwas much improved over the course of the practicum.", 
  "Obstacles/ Challenges  \nWhile the students seemed to have learned much from the preK practicum, they  \nalso felt that there were numerous challenges that they had to overcome  such as:  getting  \nthe kids to participate, playing guitar in front of a group,  selecting appropriate  \ninstruments, memory blocks while teaching songs, and constantly monitoring student  \nbehavior.", 
  "Emily found classroom management to be one of her biggest challenges.", 
  "One of the biggest obstacles we have encountered in our time teaching in  \npreschool has been classroom management and getting students to stay focused,  \nbe quiet, sing loudly and clearly, and follow instructions when moving.", 
  "They  \n\fService Learning in Preschool Music  \n\nconstantly were getting off-task and blurting out their thoughts.", 
  "Likewise, we were  \nconstantly striving to get as many students to participate as possible.", 
  "What students learned about themselves  \nThe participants were asked to express what they learned about themselves as the  \nresult of this practicum experience and how it had affected their views on teaching.", 
  "While  \nstudents in general expressed some trepidation in working with such young children,  \nsome found the experience to be rewarding; Marta stated, \u201cI don\u2019t dislike preschool  \nmusic as much as I thought I would.", 
  "I find that I am more open to the idea of teaching  \npreschool music than I was before this service learning experience.\u201d  While still not one  \nof his current goals, Carlos has become more open to teaching music to young children:  \nThough it isn\u2019t my current goal, I am no longer opposed to teaching music to  \nyoung kids.", 
  "As I reflect on music education, I realize that music doesn\u2019t start in  \nband or chorus class like I thought when I was in middle school band.", 
  "It starts  \nlong before.", 
  "Music teachers in preschool and elementary school are the true  \nheroes in music education.", 
  "They are able to ignite a spark in the hearts of young  \npeople that encourages life long musicianship, so, even though it\u2019s not my long  \nterm plan, I have gained the utmost respect for early childhood music educators.", 
  "Impression of Practicum  \nStudents were asked to provide their overall impression of the practicum and   \nmake suggestions for improvement.", 
  "Most students expressed that they wanted to visit  \ntheir respective child care center more often.", 
  "Due to scheduling constraints, different  \nmembers from each cohort were only allowed to visit their child care center every other  \nweek and some students felt that this made it difficult to maintain a sense of continuity.", 
  "Service Learning in Preschool Music  \n\nEmily\u2018s favorite part of the practicum was exposing children to the power of  \n\nMy favorite part of this practicum experience has been to see how the power of  \nmusic really connects people of all ages.", 
  "It was one of the sweetest, most  \nmemorable episodes in my time teaching in the preschool to sing \u201cSkinnamarinky  \nDink\u201d to them and with them and seeing them express their love for each other by  \nsinging and moving to \u201cI love you!\u201d with such huge smiles.", 
  "At the end of the  \nlesson, multiple kids ran up and clung to us, shouting how much they did not want  \nus to leave.", 
  "Katie felt that expectations the cohort members had for their learning experience  \nand related duties at the day care center, were not adequately aligned with expectations of  \nthe  day care providers.", 
  "\u201cThe expectations of members of our class should be  \ncommunicated to the schools where we do our service learning practicum so they do not  \nuse us as babysitters while they relax in the back of the room.\u201d  \nHelen liked having the opportunity to be creative:  \nWhat I enjoyed most about this practicum experience was getting the chance to be  \ncreative and work with the kids by helping them to understand using my own  \ncreativity.", 
  "I learned that I have a knack for figuring out fun ways to teach and that  \nchildren love how I interact with them.", 
  "I want to become even more creative with  \nmy teaching, pushing the limits, and really inspiring children.", 
  "Elizabeth expressed that there should be a better job of matching schedules between day  \ncares and[university] student schedules at the beginning of the practicum.", 
  "Service Learning in Preschool Music  \n\nThe only areas of improvement that I see is better communication in the  \nbeginning with the daycares of what times would be best for us to work because I  \nthink their schedules are more flexible than certain college classes.", 
  "Also, maybe  \ntrying to have a couple more afternoon time slots open because most  pre-K  \nclasses met at 8 or 9 in the morning, and several [university] classes were offered  \nat that point which could not be moved because drop/add ended after the first  \n\nSome students wished that there were more opportunities for cohorts to meet and  \ndiscuss their practicum experiences with each other.", 
  "Sheila stated: \u201c I\u2019d like to have  \nmeeting sessions built in as a part of the course where my partner and I could  \ncommunicate with the other half of the cohort to better plan lessons for the children.\u201d  \nA frequent comment had to do with preparation.", 
  "Students wished that they had  \nmore opportunities to observe music being taught by a pre-K teacher before they began  \ntheir practicum.", 
  "For example, \u201c I wish that we were given more observation time before  \nbeing thrown into the classroom.\u201d  \nSome students wished that there were more opportunities for cohorts to meet and  \ndiscuss their practicum experiences with each other.", 
  "Sheila stated: \u201c I\u2019d like to have  \nmeeting sessions built in as a part of the course where my partner and I could  \ncommunicate with the other half of the cohort to better plan lessons for the children.\u201d  \n     Conclusions and Directions for Future Research   \nStudent perceptions of this preK music education service learning practicum were  \nlargely positive.", 
  "In addition, those perceptions seemed to have extended into a variety of  \nareas beyond subject matter.", 
  "Students expressed that they experienced remarkable growth  \n\fService Learning in Preschool Music  \n\nin classroom management, lesson planning, critical thinking, communication, and  \nunderstanding of the capabilities of the young child.", 
  "While this study does make a contribution to the body of literature related to  \nservice learning and its role within the pre-service music education curriculum, research  \nin this area is still very limited.", 
  "An examination of the use of service learning in  \nuniversity music teacher education programs of different types, sizes, and geographic  \nlocations across the United States might yield deeper and richer insight.", 
  "Particular  \nattention should be given to the integration of service learning in music education field  \nexperiences involving preschool children, given that the research in this area is even more  \nlimited than in other music education settings.", 
  "Admittedly there are numerous challenges associated with service learning related  \nto structure, organization, identifying and cultivating community partnerships,  \nadministration, resources, and scheduling.", 
  "However, as shown in this study and the  \nrelated literature, service learning has the capability to provide pre-service teachers with  \nvaluable opportunities for significant student learning and personal growth while  \nproviding a meaningful benefit to the community.", 
  "While the challenges of service  \nlearning have been noted, its role in enhancing the professional development of aspiring  \nmusic educators may prove itself worthy of the time and effort invested.", 
  "Service Learning in Preschool Music"
 ]
}