{
 "document_id": "1172410.1", 
 "sentences": [
  "\nRunning Head: LESSONS FROM IMPLEMENTATION  \nLessons from Implementing Evidence-Based Parenting Intervention in Early Head Start   \nAERA proposal  \nRunning Head: LESSONS FROM IMPLEMENTATION  \nThe purpose of this study was to understand the process of implementing Promoting First  \nAbstract   \nRelationships, an evidence-based parent-child interaction intervention, within an Early  \nHead Start home visiting program.", 
  "This study documented seven home visitors\u2019 early  \nexperiences with intervention implementation.", 
  "Data were collected via semi-structured  \nindividual interviews.", 
  "Findings indicate that home visitors reported overall positive  \nexperience with the intervention, a belief that implementing the intervention improved  \ntheir home visiting practice, and a sense that participating families benefited from the  \nexperience.", 
  "Some negative experiences were identified in relationship to the lengthy  \ntraining process and changes in home visiting practice.", 
  "Major challenges involved  \nlearning about intervention content and managing household issues, etc.", 
  "Recommendations for sustaining the intervention after initial implementation are also  \nreported.", 
  "Running Head: LESSONS FROM IMPLEMENTATION  \n\nLessons from Implementing Evidence-Based Parenting Intervention in Early Head Start   \nEvidence-based programs are of high interest to researchers and policymakers and  \nare now frequently required when conducting federally-funded research in areas  \nincluding human services and education.", 
  "However, there have been growing concerns  \nabout scaling evidence-based interventions in community settings because the local  \ncontext can be very different from the context where the intervention was initially  \ndeveloped.", 
  "Agencies adopting evidence-based interventions often experience unexpected  \nissues during implementation.", 
  "According to Supplee and Metz (2015), developers of  \nevidence-based programs may face serious challenges meeting the needs of local  \ncommunities and users.", 
  "Successful outcomes of the intervention are achievable only if  \nthe intervention is implemented with high levels of fidelity and quality (Supplee & Metz,  \n2015).", 
  "In order to achieve successful implementation in practice settings, it is critical to  \nunderstand the context and the conditions of implementation and to systematically  \nexamine implementation processes.", 
  "Such information is vital in applying evidence-based  \npractice in human service prevention programs.", 
  "Early Head Start and Home Visiting as a Context for Intervention  \nEarly Head Start (EHS) is a comprehensive child development initiative with a  \nstrong emphasis on parent involvement and research-informed practice, including a  \nprogram of federally-funded research on the use of evidence-based parenting  \ninterventions aimed at reducing families\u2019 negative experiences with stress (Buffering  \nToxic Stress Consortium Principal Investigators, Meyer, & Fortunato, 2013).", 
  "Established  \nin 1994 as a downward extension of the federal Head Start initiative for preschool-age  \nRunning Head: LESSONS FROM IMPLEMENTATION  \n\nchildren, EHS offers services to children up to age 3 and their parents, including pregnant  \nwomen.", 
  "EHS provides an ideal context to study implementation, as the comprehensive  \nnature of the program promotes a range of different types of interventions (e.g., health,  \nparent education, early education experiences) and the federal Head Start program has  \nhistorically been viewed as a \u201cnational laboratory\u201d for services to young at-risk children  \nand their families (Zigler & Seitz, 1982).", 
  "Further, prior research suggests that EHS offers  \na strong foundation for program implementation.", 
  "In a nationally representative  \nrandomized control trial program evaluation, Love and colleagues (2002) found that  \nchildren who participated in Early Head Start had more positive outcomes on measures of  \ncognitive and language development, and were less aggressive, compared to control  \ngroup children.", 
  "The national Early Head Start initiative has incorporated home visitation as a  \nmodel practice, with local Early Head Start grantees having the option to deliver either  \nhome-based or center-based service models dependent on the needs of families in their  \ncommunities.", 
  "Across the U.S., home visits have become a key component of practice in  \nearly care and education and public health services.", 
  "Home visitation is often considered  \nan essential strategy for intervening with high-risk families of very young children, as it  \nprovides a more intimate context for delivering information and assistance to families and  \nprovides an opportunity for more dyadic types of intervention.", 
  "Home visiting efforts  \nacross different agencies tend to have similar broad goals to enhance child and family  \ndevelopment.", 
  "However, programs vary greatly in targeted outcomes (e.g., health,  \neducation), method of delivery (e.g., use of a specified curriculum), and target population  \n(Zero to Three, 2009).", 
  "Running Head: LESSONS FROM IMPLEMENTATION  \n\nPrior research suggests that the efficacy of home visiting is quite mixed (e.g.", 
  "Daro, 2006; Filene, Kaminski, Valle, & Cachat, 2013;  Goyal, Teeters, & Ammerman,  \n2013; Sweet & Appelbaum 2004).", 
  "In general, positive outcomes have been found more  \noften than child outcomes and effects when found are modest (Filene et al., 2013; Sweet  \n& Appelbaum, 2004).", 
  "Researchers in home visiting practice point to the need to study  \nimplementation and specifically fidelity in order to better understand parent and child  \noutcomes (Jones Harden, Chazen-Cohen, Raikes, & Vogel, 2012).", 
  "Studying the Implementation of Interventions   \nThe implementation or installation of evidence-based interventions into  \ncommunity-based programs is of increasing significance, as recent research has  \ndemonstrated that even well-developed programs may fail or be less effective due to  \nimplementation issues \u201con the ground\u201d (Jones-Harden, Chazan-Cohen, Raikes, & Vogel,  \n2012; Supplee & Metz, 2015).", 
  "Particular attention has been paid to the role of  \nimplementation in the professional development of the early care and education  \nworkforce as an important bridge to high quality practice (Halle, Metz, & Martinez-Beck,  \n2013; Odom, 2009).", 
  "Implementation science provides the field with a framework for  \nconceptualizing how to study and monitor processes regarding the preparation and  \nsupport for field staff as well as the quality of intervention implementation with children  \nand families.", 
  "This offers researchers a model for examining the conditions of  \nimplementation and modifying those conditions as needed (Blase, Fixsen, Sims, & Ward,  \n2014).", 
  "Implementation science posits that a set of organizational drivers scaffolds the  \ninfrastructure around a particular intervention and that attention to these drivers increases  \nthe likelihood of successful operations as well as enhances the potential for sustainability  \nRunning Head: LESSONS FROM IMPLEMENTATION  \n\nof the intervention (Fixsen & Blase, 2008).", 
  "From an implementation perspective, the likelihood of successfully launching and  \nsustaining an evidence-based intervention relies on three types of drivers \u2013 competency,  organization, and leadership.", 
  "Competency drivers relate to the selection, professional  development and support of staff who are the actual implementers of a specific  intervention.", 
  "Organizational drivers include the gathering and utilization of data to  inform decision-making, the development of responsive administrative procedures to  support effective implementation and the need to collaborate with external parties when  necessary.", 
  "Leadership drivers signify the importance of effective agency leaders and  leadership teams in managing the overall process.", 
  "One of the key premises of implementation science and the focus of this study is  \nthe importance of feedback loops to ensure adequate conditions are in place to promote  \nhigh quality execution of an intervention as aligned to the above three organizational  \ndrivers (Fixsen & Blase, 2008).", 
  "This aspect is particularly significant when field or  \nagency staff are the primary agents of change.", 
  "Feedback loops enable researchers and  \npractitioners to collaboratively make implementation decisions based on authentic data  \nfrom the field.", 
  "From an implementation perspective, feedback loops between field staff,  \nprogram administrators, and researchers should be intentional \u2013 meaning that both the  \ntype of information and the frequency of its collection should be considered in light of  \nagency operations and features of the intervention.", 
  "The Current Study  \nThe current study uses Early Head Start as a context for examining  \nimplementation of Promoting First Relationships (PFR; Kelly, Zuckerman, Sandoval, &  \nRunning Head: LESSONS FROM IMPLEMENTATION  \n\nBuehlman, 2008b) intervention.", 
  "The study examined the perspectives of the home  \nvisitors responsible for a new parent-child intervention during the first year of  \nimplementation as part of their regular home visits with families.", 
  "By examining  \nstakeholders\u2019 perspectives in the early phases of implementation, researchers and agency  \nstaff can more carefully monitor fidelity of implementation and adjust the infrastructure  \nas needed to bring about needed conditions for effective implementation of the  \nintervention.", 
  "The Early Head Start (EHS) program involved in this research serves approximately  \n200 young children and their families in the Mid-Atlantic area.", 
  "The partnering EHS  \nprogram is mature and well-established, having started in 1997 during the third wave of  \nEHS expansion.", 
  "It operates both home- and center-based programs in urban, suburban,  \nand rural settings.", 
  "All home visiting staff are trained to use Parents as Teachers (e.g.,  \nZigler, Pfannenstiel, & Seitz, 2008), which is employed as the program\u2019s primary  \ncurriculum.", 
  "In the current study, which is part of a larger investigation of families\u2019  \nexperiences with the PFR intervention, a subset of the program\u2019s current EHS home  \nvisiting staff was trained in PFR and began delivering PFR during their home visits with  \nsome families.", 
  "This was possible due to a convergence of the EHS program\u2019s goal of  \nimproving the quality of home visiting and the supervision of home visitors, and the  \nresearchers\u2019 interests in integrating an evidence-based parent-child interaction model into  \ntypical EHS practice.", 
  "Interviews with the staff members were conducted during initial  \nimplementation of the PFR intervention, in order to inform scale-up of the intervention  \nwithin a large and well-established EHS program.", 
  "The purpose of this study was to understand the process of implementing the PFR  \nRunning Head: LESSONS FROM IMPLEMENTATION  \n\nintervention as an element of existing EHS home visiting services.", 
  "Our research was  \nguided by three questions:  \n1.", 
  "How did the home visitors perceive implementation of the PFR intervention as  \npart of an Early Head Start home visiting program?", 
  "2.", 
  "What kinds of challenges and issues were identified during implementation?", 
  "3.", 
  "What kinds of suggestions and recommendations were identified by the home  \nvisitors to promote sustainability of the PFR intervention in the Early Head Start  \nprogram?", 
  "By examining these three questions, we aim to identify lessons related to the  \nimplementation of evidence-based interventions within Early Head Start programs.", 
  "Participants   \n\nThe participants were seven Early Head Start home visitors out of 14 home visitors in the  \npartnering EHS agency.", 
  "These home visitors were randomly selected as a first cohort to  \nreceive PFR training and began implementing this intervention as part of their home  \nvisiting sessions.", 
  "All home visitors selected for this initial cohort agreed to participate in  \nthe study.", 
  "Demographic information for the home visitors is reported in Table 1.", 
  "[insert table 1]  \nThe majority of home visitors serve families in home-based programs (n=6).", 
  "Only  \none served families in a center-based program, and this home visitor had the largest  \ncaseload.", 
  "This distribution of home visitors and their caseloads is typical of the Early  \nHead Start program, where the majority of the home visiting staff provide home-based  \nservices; fewer staff members provide home visits to center-based families, and these  \nRunning Head: LESSONS FROM IMPLEMENTATION  \n\nstaff members have larger caseloads because the home visits occur less frequently.", 
  "Home  \nvisitors\u2019 education levels and years of employment varied as shown in Table 1.", 
  "Home  \nvisitors selected one family from their current caseload to participate in this study.", 
  "Intervention: Promoting First Relationships   \nPromoting First Relationships (PFR; Kelly et al., 2008b) was developed to guide  \ncaregivers in building nurturing and responsive relationships with their young children  \nfrom birth to age three, thus encouraging growth in the children\u2019s social-emotional  \ndevelopment, language, and cognition.", 
  "PFR is a manualized, strengths-based  \nintervention delivered by community-based service providers who first participate in an  \nextensive training and fidelity process.", 
  "Providers may be individuals who work with  \ncaregivers and young children, such as early childhood professionals, home visitors, and  \nsocial workers.", 
  "The intervention is based on video reflection between caregivers and trained PFR  \nstaff, focusing on positive feedback and based on principles of attachment theory.", 
  "Home  \nvisitors lead 10 weekly sessions, using four key strategies aimed at teaching parents how  \nto provide sensitive and responsive caregiving: (a) joining, or establishing rapport with  \nthe caregiver; (b) giving positive, instructive, verbal feedback; (c) using videotapes of  \ncaregiver-child interactions to show caregivers their strengths in practicing parenting  \nskills; and (d) asking reflective questions to discover needs of the caregiver and child  \n(Kelly, Zuckerman, Rosenblatt, 2008a).", 
  "During five of the 10 hour-long sessions,  \ncaregiver-child dyads are videotaped during brief interaction sessions.", 
  "On the alternate  \nweeks, the service provider and caregiver review the unedited videotapes together.", 
  "This is  \nused to support a consultation strategy where the service provider reviews PFR principles  \nRunning Head: LESSONS FROM IMPLEMENTATION  \n\nand guides discussion with the caregiver (Kelly et al., 2008a; Spieker, Oxford, Kelly,  \nNelson & Fleming, 2012) using actual examples of the caregiver\u2019s strengths.", 
  "Initial  \nresults from prior PFR research (Kelly et al., 2008a) indicated that caregivers  \nparticipating in the intervention were more sensitive and responsive to their children and  \nthat the children in turn were more responsive as well.", 
  "A community-based randomized  \ncontrol trial (Spieker et al., 2012) examined the effects of PFR with a sample of 210  \ncaregivers and toddlers in state dependency, where the toddlers had experienced recent  \nchanges in their caregiver placement.", 
  "For caregivers in the PFR intervention group, the  \nresearchers found significantly greater understanding of their toddlers\u2019 social-emotional  \nneeds compared to caregivers in the control group (d = 0.36 immediately post- \nintervention).", 
  "Caregivers that received PFR also showed higher levels of sensitivity  \ncompared to caregivers in the control group (d = 0.41 immediately post-intervention).", 
  "Child outcomes were similarly positive, as caregiver reports of child competence were  \nsignificantly more positive in the PFR group than in the control group (d = 0.42  \nimmediately post-intervention.", 
  "The evidence base related to PFR has continued to grow.", 
  "Additional studies of PFR provide further evidence of the intervention\u2019s impacts on  \nphysiological regulation (cortisol production patterns; Nelson & Spieker, 2013) as well as  \nsleep regulation (d = 0.67 at a 6-month follow-up; Oxford, Fleming, Nelson, Kelly, &  \nSpieker, 2013).", 
  "Training and Delivery of PFR  \nPFR can be delivered by anyone who are trained and certified by PFR developer.", 
  "But there is lengthy training and post training process in order to maintain as a PFR  \nprovider.", 
  "Training of home visitors on the PFR intervention involved attending a 3-day  \nRunning Head: LESSONS FROM IMPLEMENTATION  \n\nworkshop followed by approximately 20 weeks of mentored online support, involving  \ndistance learning with a coach employed by the PFR developers at the University of  \nWashington.", 
  "During the first 10 weeks of mentored support, the PFR coach worked with  \na pair of home visitors and provided online coaching on a weekly basis reviewing  \ntraining videotapes of example parent-child interactions and discussing the key PFR  \nconcepts.", 
  "During the second 10 weeks, home visitors delivered PFR with an initial EHS  \nfamily from their caseload, and received support from the PFR coach.", 
  "The process  \nusually involved the PFR coach reviewing a video recorded home visiting session with a  \nparticipating family, asking the home visitor to reflect on their practice, and providing  \nfeedback to the home visitor.", 
  "The home visitors also received additional support from a  \nresearch project staff member who was also receiving PFR training.", 
  "This support  \nincluded additional individual coaching sessions often repeating and emphasizing PFR  \nconcepts.", 
  "The amount of coaching support was individualized based on each home  \nvisitor\u2019s need.", 
  "All home visitors completed 10 PFR sessions (e.g., the second 10 weeks of  \ntraining) with one family prior to the current implementation study.", 
  "The PFR training process also included assessments of fidelity to the intervention.", 
  "For each home visitor, the process began with videotaping a PFR home visit, including  \nreflection and conversation between the home visitor and caregiver.", 
  "Then this video was  \nsent to PFR staff at the University of Washington for an external fidelity check and  \nscored using their fidelity checklist.", 
  "A score of 38 points out of a possible 40 was  \nconsidered to be a passing score.", 
  "If home visitors did not initially pass, additional fidelity  \nchecks were conducted until a passing score was received.", 
  "Data Collection   \nRunning Head: LESSONS FROM IMPLEMENTATION  \n\nThe study protocol was approved by the university Institutional Research Review  \nBoard prior to the study.", 
  "Consent from home visitors and families was obtained prior to  \nthe data collection.", 
  "We employed semi-structured interviews as our means of gathering  \nhome visitor perspectives on implementation.", 
  "Interview questions were developed by a  \nleadership team consisting of four investigators, who are university faculty and experts in  \nthe areas of early childhood education and early intervention, and a project coordinator  \nwho received PFR training.", 
  "The interview questions were about overall experiences with  \nthe PFR training process and content, challenges and issues of implementation, home  \nvisitor experiences with participating families, and recommendations for sustainability.", 
  "During the interviews, a base set of common questions was employed, and follow-up  \nquestions and/or prompts were used when needed for a greater depth of information.", 
  "The  \nproject coordinator conducted an individual interview with each of the home visitors.", 
  "Each interview session took about 30-40 minutes and was audio-taped.", 
  "All interviews  \nwere then transcribed verbatim.", 
  "The lengths of transcripts were between 14 -27 pages per  \ninterview, totaling 126 pages of 12-point font, single-spaced Word documents.", 
  "No  \nnames were used in the transcripts.", 
  "Code numbers were used to protect the confidentiality  \nof subject identities in the transcripts.", 
  "Data Analysis  \nThe constant-comparative method (Merriam, 1998) and systematic coding (Miles  \n& Huberman, 1994) were used for the qualitative analysis process.", 
  "We used qualitative  \ndata analysis software, NVivo 10 (QSR International, 2014).", 
  "Verbatim transcripts were  \ndownloaded to NVivo.", 
  "Transcripts were read in their entirety by two researchers several  \ntimes prior to the analysis in order to develop familiarity with the data.", 
  "During this  \nRunning Head: LESSONS FROM IMPLEMENTATION  \n\nprocess, a table of summary content was developed for each interview transcript.", 
  "Two  \nresearchers, a faculty member with an expertise in early childhood education and a  \ndoctoral student who has prior experience with qualitative analysis, developed and coded  \nthe transcript together.", 
  "Then peer debriefing and member checks were done twice with  \nthe research team including the four members and project coordinator who developed the  \ninterview questions.", 
  "For code development, an initial coding scheme was created based on research  \nquestions consisting of three major themes addressing different aspects of the  \nimplementation process: home visitors\u2019 experience with PFR implementation,  \nChallenges/issues with implementation, and recommendations for sustainability.", 
  "Home  \nvisitors\u2019 experiences were categorized as positive, negative, or neutral experiences.", 
  "This  \nis represented in Figure 1.", 
  "[insert figure 1]  \nTwo researchers reviewed each transcript together and identified sub-codes under  \neach category of home visitors\u2019 experiences (positive, negative, neutral), challenges and  \nissues with implementation, and recommendations for sustainability.", 
  "When there was  \ndisagreement in identifying or defining the code, they used constant comparative methods  \nby discussing the code names, scopes, and definitions until they reached agreement.", 
  "When they did not reach the consensus on some codes, these were discussed during the  \npeer debriefing and member checking process.", 
  "Next, a codebook was developed and  \nincluded the definition of each code and examples of cases.", 
  "Using the codebook, two  \nRunning Head: LESSONS FROM IMPLEMENTATION  \n\nresearchers reviewed and recoded entire transcript.", 
  "This process took more than 8  \nmonths.", 
  "Initial results were shared with the entire project team during peer debriefing.", 
  "Using NVivo allowed us to calculate the frequency of each code and the number  \nof sources of transcripts.", 
  "In total, 857 interview segments were identified that related to  \nthe implementation process and received codes.", 
  "Among them were 274 segments related  \nto home visitors\u2019 experiences with PFR implementation, 339 segments related to  \nimplementation challenges and issues, and 167 segments related to recommendations for  \nsustainability.", 
  "Some interview segments were double-coded if they encompassed  \nmultiple categories and that is why the frequency of total number of segments is greater  \nthan the sum of segments across the three categories.", 
  "No double codes were assigned  \nwithin the same category.", 
  "To increase credibility of the qualitative analysis process (Mertens, 2010), the  \nresearchers had prolonged and persistent engagement with data, and multiple researchers  \nengaged in process of coding development and checked each other\u2019s subjectivity.", 
  "Peer  \ndebriefing and member checking were used to monitor the trustworthiness of the results.", 
  "In addition, NVivo qualitative software was used to keep notes and comments, which  \nallowed us to monitor the progress of the researchers, and for the researchers to check  \ntheir own biases.", 
  "Our overall goal was to examine the implementation process of the evidence- \nbased Promoting First Relationships intervention as it was incorporated into Early Head  \nStart home visiting practice.", 
  "Our interviews with home visitors who carried out the  \nRunning Head: LESSONS FROM IMPLEMENTATION  \n\nintervention revealed the following results which are presented by the order of our  \nresearch questions.", 
  "Q1.", 
  "Home Visitors\u2019 Experience of the PFR Implementation Process  \nNVivo qualitative analysis software (QSR International, 2014) provides a visual  \ndistribution of codes in relation to the frequency and amount of language content coded  \nin any particular set of data.", 
  "Figure 2 shows the frequency of major topics of codes  \nrelated to the home visitors\u2019 experience with the PFR implementation process.", 
  "Thus, the  \nvisual displays the relative size of each code across all the interview transcripts coded.", 
  "Table 2 reports the description/definition of these codes.", 
  "[insert figure 2]  \n[insert table 2]  \nWithin Figure 2, the size of each square represents how much the home visitors  \ntalked about the topics of codes within the transcript.", 
  "We divided these codes by  \nPositive, Negative, and Neutral experiences related to the PFR implementation process.", 
  "The numbers in the parenthesis indicate the total frequency of codes across all transcripts  \nand the number of unique references/the number of home visitors whose interview  \nincluded that code (maximum 7).", 
  "For example, Positive (214, 7) means that there were  \n214 segments related to the positive experience codes with the PFR implementation  \namong all 274 Experience codes and that these codes were drawn from interviews with  \nall 7 home visitors\u2019 transcripts.", 
  "Overall, the majority of comments by home visitors were related to positive  \nexperiences with implementation.", 
  "The most prevalent positive experiences were about  \nRunning Head: LESSONS FROM IMPLEMENTATION  \n\nthe content of the PFR intervention, use of video, positive experiences with families, the  \ntraining process, and increasing self-confidence and skills.", 
  "Some examples of actual  \nquotes from home visitors include: \u2018I can\u2019t say enough good things about it, I love it  \n(about PFR content),\u2019 \u2018It (addressing social emotional issues) was easier in PFR to do  \nthat because it gave us the tools, kind of a step-by step questions to ask and things to say  \nand even the video,\u2019  \u2018the video was so concrete in that you\u2018re going back and looking at  \nthat segment, it was very easy for me to zero in on things,\u2019 \u2018I think that was good for the  \nmom personally, she\u2019s gonna feel so good after we\u2019re done,\u2019 \u2018it(reflecting) made mom  \nmore comfortable with the ideas, she seemed to be much more okay with reflecting on  \nher child\u2019s inner world, her inner world,\u2019 \u2018PFR definitely honed my skills in being able to  \nnotice little things, it was good for me professionally, It is really rewarding, that made me  \nfeel so much better and the way we discuss.\u2019     \nSome negative experiences were also expressed by the home visitors in regard to the  \ntraining process and PFR content.", 
  "These comments addressed the lengthy training  \nprocess and experiences with the trainer, repetition of the same information in PFR  \ncontent, and discomfort with videotaping.", 
  "Some examples of actual quotes from home  \nvisitors include: \u2018I think at the end they got a little tired because there were a lot of video- \ntaping and a lot of talking,\u2019 \u2018I feel like I wasn\u2019t properly trained in the video\u2019 \u2018It (online  \ncoaching) is certainly not ideal, it\u2019s not my favorite, just because you\u2019re not getting  \nperson-to person interaction.\u2019   \nQ2.", 
  "Challenges and Issues with Implementation    \nFigure 3 reports the challenges and issues identified during the PFR  \nimplementation process and Table 3 presents descriptions of the most frequent codes and  \nRunning Head: LESSONS FROM IMPLEMENTATION  \n\nexamples of actual quotes by the home visitors.", 
  "A total of 339 segments were identified  \nas codes related to challenges addressing various issues during the implementation  \nprocess.", 
  "As part of our PFR implementation plan, we placed greater importance on  \nidentifying challenges and issues with the initial implementation process.", 
  "[insert figure 3]  \n[insert table 3]  \nOne strategy used in the PFR intervention involves asking reflective questions to  \ndiscover needs of the caregiver while the home visitor and caregiver review a video  \nrecording of a previous caregiver-child dyad interaction.", 
  "Home visitors identified this  \nstrategy as one of the challenges, because some were used to actively providing  \nsuggestions right away instead of serving as a guide who helps the caregiver to identify  \nan area for further development through a reflective questioning process.", 
  "Various household issues were identified and those were often issues the home  \nvisitors cannot control such as family sickness.", 
  "Technology and scheduling issues were  \nalso identified by all seven home visitors.", 
  "Examples from quotes are included in the table  \n3.", 
  "Our goal was to identify these challenges and issues early on and address them as we  \nmove forward with implementation.", 
  "We will describe how we addressed some of these  \nissues in the discussion later.", 
  "Q3.", 
  "Suggestions and Recommendations   \nBased on their initial experience in completing the 10-session PFR intervention  \nwith one family, we asked home visitors about any suggestions or recommendations to  \npromote the sustainability of PFR in EHS.", 
  "Figure 4 reports these suggestions and the  \nRunning Head: LESSONS FROM IMPLEMENTATION  \n\nfrequency of codes.", 
  "Table 4 describes the examples of summary quotes by home visitors  \nrelated to each code.", 
  "[insert figure 4]  \n[insert table 4]  \nHome visitors addressed \u2018ongoing support\u2019 as a critical element for sustainability.", 
  "They presented various ideas of different forms of ongoing support as indicated in Table  \n4.", 
  "They also suggested some ideas for the PFR trainer and PFR coach as well as ways to  \nintegrate PFR with EHS programs.", 
  "These suggestions are also presented in Table 4.", 
  "[insert table 4]  \nDespite a number of challenges and implementation issues home visitors faced,  \noverall these data show that the majority of home visitors identified benefits of  \nintegrating PFR into EHS.", 
  "Furthermore, they suggested numerous ideas for sustainability  \nsuch as having ongoing support and developing better organization skills to promote the  \nuse of PFR within the EHS program.", 
  "Discussion  \nThis study uses Early Head Start home visitor interview data to identify lessons  \nthat can be drawn from our experiences in embedding an evidence-based intervention  \nwithin typical EHS program activities.", 
  "Our research questions focused on home visitors\u2019  \nexperiences with implementation process of PFR into their home visits, challenges and  \nissues identified while beginning to implement the intervention, and their  \nRunning Head: LESSONS FROM IMPLEMENTATION  \n\nrecommendations and suggestions for sustaining the PFR intervention as part of EHS  \npractice.", 
  "At the time of their interviews, each home visitor had completed the 10-session  \nPFR intervention with their first family.", 
  "Thus, the interviews provided a timely means of  \ninvestigating initial experiences in implementing the new PFR content home visitors had  \njust learned.", 
  "The home visitors provided rich information relevant to the further  \nimplementation of PFR within Early Head Start home visits.", 
  "They were receptive to  \nimplementing PFR and reported largely positive experiences.", 
  "They also identified a  \nnumber of issues and challenges and offered suggestions for sustainability,   \nAn immediate goal of this research was to inform our implementation process as  \nthe PFR intervention was being scaled to reach more EHS families, prior to training an  \nadditional cohort of EHS home visitors.", 
  "However, given potential challenges related to a  \nmismatch between settings where interventions are developed and the settings in which  \nthey are later delivered (Supplee & Metz, 2015), these findings have more general  \napplicability to researchers (or EHS agencies) seeking to apply evidence-based  \nprevention and intervention strategies as part of EHS practice.", 
  "We will describe the  \nlessons we learned from this study of initial implementation and will identify some ways  \nin which we were able to employ this information in feedback loops that informed further  \nimplementation processes.", 
  "The lessons below apply to PFR as well as to other  \ninterventions that are delivered by home visitors or other agency-based staff.", 
  "First, gathering intentional implementation data aids the researcher in  \nunderstanding whether and how the target intervention can be successfully situated  \nwithin the existing agency.", 
  "There are several key considerations in establishing a match  \nbetween an intervention and an EHS program.", 
  "It is important to have an in-depth  \nRunning Head: LESSONS FROM IMPLEMENTATION  \n\nunderstanding of the requirements of the intervention, its timing and duration, as well as  \nstaff requirements and program capacities (Vu, Hustedt, Pinder, & Han, 2015).", 
  "Once that  \ninitial match has been made, notions of intervention philosophy, time investment on the  \npart of field staff, and technical issues are important indicators of whether the  \nintervention will be sustainable.", 
  "For example, if staff members lack the technical  \nexpertise to upload or edit videos and this is a necessary component of the intervention,  \nsupplemental training will be needed or programs may need to seek an intervention with  \nrequirements that better match the skills of current staff.", 
  "In our case, members of the  \nresearch team provided EHS staff with additional support needed to master the  \ntechnology involved in PFR.", 
  "This allowed home visitors to be more independent with the  \nuse of technology after receiving the training.", 
  "As a general lesson, it is important to  \ngather implementation data on an ongoing basis to inform continued implementation.", 
  "Second, gathering data specifically from field staff allows for evolution of  \ninfrastructure to better support implementation.", 
  "Timing of data collection is also key in  \ninformation gathering.", 
  "In our case we were able to adapt conditions within the EHS  \nagency in response to home visitor feedback.", 
  "All the home visitors that we interviewed  \nprovided suggestions about the need for ongoing additional support for PFR, beyond the  \nsupport already provided by the intervention developers through the initial training  \nprocess.", 
  "In response, we created a position within the EHS agency for a job-embedded  \ncoach, trained by the PFR developers but available locally to provide consultation as  \nneeded.", 
  "This job-embedded coach provided within-agency infrastructure for in\u2013the- \nmoment coaching and technical support related to intervention implementation.", 
  "Also in  \nresponse to home visitor feedback, we made modifications to the supervision process,  \nRunning Head: LESSONS FROM IMPLEMENTATION  \n\nand revisions to our plans for group reflective practice sessions, which are now led by the  \njob-embedded coach.", 
  "Third, the creation of systematic feedback loops builds a process within the  \nagency that allows for bi-directional sharing of information as well as the establishment  \nof time and energy devoted to examining implementation data.", 
  "In our work, we have  \nidentified specific time points to collect feedback from field staff and participating  \nfamilies in order to garner timely implementation information.", 
  "Important to this process  \nis the need to collect information that is essential to the implementation (and not just the  \ncontent of the intervention) as well as the systematic analysis of information that  \naccompanies effective implementation.", 
  "Lastly, another lesson involves the need for researchers to maintain an open  \ndialogue with the intervention developers and/or intervention resource as implementation  \nproceeds.", 
  "This provides a capacity for rapid response to emerging implementation issues  \nand helps build a foundation for sustainability.", 
  "Intervention fidelity is a key issue that  \nwill need to be addressed when training field staff on any intervention.", 
  "Additionally, in  \nour case, there were scheduling difficulties based on the availability of local EHS staff  \nand the PFR trainer, and we were able to reschedule future trainings so that they were  \nconcentrated on days of the week when home visitors were more likely to be working in  \nthe office and less likely to be in the field.", 
  "On a larger scale, when we began developing  \nthe position for an embedded PFR coach within the EHS program, we were able to gain  \ninput from the PFR developers on how to turn a new staff member into an expert trainer  \nand what types of support for home visiting staff to transition to this new position.", 
  "Although this level of communication with developers is not possible in all cases,  \nRunning Head: LESSONS FROM IMPLEMENTATION  \n\nagencies can connect with the entity that is sponsoring or supporting the target  \nintervention (e.g.", 
  "professional development agency, school district, local non-profit, etc.)", 
  "In conclusion, when an evidence-based-intervention is implemented in the local  \nsetting, it is important to examine the process and conditions of implementation and  \nidentify potential challenges at early stages of implementation.", 
  "Our study provides an  \nexample of how data-driven conversation and feedback from field staff could facilitate  \nsustainability of the intervention.", 
  "Successful implementation depends on data-driven  \nconversation among field staff, researchers, and administrators during the implementation  \nprocess.", 
  "Ongoing and frequent feedback loops between researcher and field staff are  \ncrucial to successful implementation of the intervention.", 
  "While our study identified key  \nthemes in the context of interviews with home visiting staff during initial implementation  \nof PFR, the home visitors raised issues that are likely to be central to implementation of  \nnew interventions in other contexts.", 
  "In our case, the collection of data during the initial  \nimplementation process allowed us to make necessary adjustments that facilitated  \ncontinued implementation and promoted sustainability of the intervention in the longer  \nterm.", 
  "In the context of an increasing emphasis on adapting evidence-based interventions  \nfor use in settings such as Early Head Start, and examining the outcomes associated with  \nthese interventions, the scientific study of implementation plays a critical role.", 
  "Running Head: LESSONS FROM IMPLEMENTATION"
 ]
}