{
 "document_id": "1172383.1", 
 "sentences": [
  "Novice  teachers  experience  a  variety  of  new  situations  and  challenges  in  their  first  years  of  teaching.", 
  "The new roles, environments and cultures that they encounter pose various demands  on the new teachers, but also present substantial opportunities for self-development.", 
  "The  main  aim  of  this  research  is  to  analyse  how  personal  and  contextual  factors  interrelate  during  a  newly  qualified  teacher\u2019s  first  years  of  work  in  order  to  understand  how  to  better   support their development and encourage then to stay in the profession, and thus alleviate the  teacher shortage problem.", 
  "This research draws on social cognitive theory (Bandura 1977) and self-determination theory  (Deci and Ryan 1985, 2000) in exploring the experiences of novice teachers.", 
  "Bandura\u2019s  (1977)  Social  Cognitive  Theory  (SCT)  states  that  a  person\u2019s  behaviour  is  influenced  by  personal  factors  (cognitive  skills  or  attitudes)  and  the  social  environment  (physical  surrounding  and  people  present  or  absent).", 
  "Personal,  i.e.", 
  "internal  factors,  include  self-efficacy  beliefs  and  self-regulation  (motivation),  environmental  i.e.", 
  "external  factors  encompass  organisational  support,  which  in  the  school  context  refers  to  the  school  climate  (both physical  and social) and the teacher community (social).", 
  "Lent and Brown (2006) have  developed SCT further by adding a job satisfaction variable to the personal factor model.", 
  "The  Self-Determination  Theory  (SDT)  proposed  by  Deci  and  Ryan  (1985,  2000)  provides  a  framework for understanding the different levels and types of motivation.", 
  "It defines intrinsic  motivation  through  the  basic  human  needs  for  autonomy,  competence  and  relatedness,  and  identifies varied extrinsic sources of motivation.", 
  "There  are  other  studies  proposing  similar  approaches  to  explaining  the  everyday  work  of  teachers  through  three  main  categories:  personal  factors  (self-efficacy,  motivation,  job  satisfaction),  situated  factors  (teacher  community,  school  climate),  and  professional  factors  (professional development) (see also Day et al.", 
  "2007; Glatthorn, 1995).", 
  "Personal factors, such  as age, gender and ethnicity are  also often mentioned in literature in  relation to professional  life (c.f.", 
  "Sass et al, 2012).", 
  "Contextual factors may, in a broader sense, also refer to the whole  of  society  itself,  narrowing  from  the  educational  system  towards  the  classroom  (Glatthorn,  \nThis research focuses on the development of novice teachers from the perspective of personal  and environmental factors.", 
  "Figure 1 presents the different factors that play  an important role  in  determining  human  behaviour.", 
  "This  dissertation  focuses  on  the  personal  and  contextual  factors described in the following chapters.", 
  "Behaviour  \nPersonal   \n\nContextual  \n\nSelf-efficacy  \n Self-regulation and  \nMotivation  \nJob satisfaction   \nEthnicity  \nSchool climate  \nClassroom  \nPhysical:  \n\nLocation  \nTemperature  \nFigure 1.", 
  "Factors that determine human behaviour.", 
  "Adapted from Bandura\u2019s (1977) Social  \nCognitive Theory.", 
  "Participants  \nThe  sample  of  this  research  consisted  of  373  teachers,  the  following  Table  1  describes  the  participants in detail.", 
  "Table 1.", 
  "Sample description.", 
  "Sample description  \nTeachers of all subjects with five years of  experience, who had participated in the first  induction year programme.", 
  "School type was  not asked.", 
  "Teachers with more than 25 years of  experience working in all regions of the  country, all school types.", 
  "Novice teachers of all subjects working in  all regions of the country, all school types.", 
  "Novice teachers of all subjects  working in  all regions of the country, all school types.", 
  "Novice teachers of all subjects working in  all regions of the country, all school types.", 
  "26 % male  92 % female,  93 % female,  77% female,  23% male  \nnot asked  \n57.5 years  \n26 years  \n27 years  \n26 years  \n\n\fMethods   \nThis  research  is  based  on  five  studies  that  made  use  of  qualitative  and  quantitative  research  methods.", 
  "The research was designed to include two stages.", 
  "The first stage aimed at using two  studies to qualitatively map out the factors that influence a novice teacher\u2019s decision to retain  or  leave  the  profession.", 
  "The  second  stage  attempted  to  measure  the  \u2019retention  factors\u2019  that  emerged during the first stage using a quantitatively approach.", 
  "First Stage  \nThe aim of the first study was to identify the aspects that influence the experience of novice  teachers during their early career and that could serve as the focus of research.", 
  "The results of  the  main  question  (\u201cWhich  factors  influence  novice  teachers  to  leave  the  profession?\u201d)  revealed  the  influential  aspects  that  should  be  studied  further  in  relation  to  job  retention  among novice teachers, and helped identiy whether the findings align with previous results in  literature.", 
  "The  study  followed  the  abductive  reasoning  logic.", 
  "After  the  aspects  were  identified  they  were  compared  to  existing  theoretical  frameworks  in  order  to  establish  the  optimal  theoretical  background to support the study.", 
  "The aspects revealed by the first study were the following: job  satisfaction, self-efficacy and sense of community and intrinsic motivation (the desire to be a  good teacher   \nThe second study involved a retrospective analysis on the impacts that school practice has had  on experienced teachers.", 
  "The sample consisted of highly  experienced teachers, with a career  longer than 25 years.", 
  "All of the interviewed teachers were still working at school at the time  of the study.", 
  "Interpretation of their retrospective experience brought to light the following key  concepts:  self-efficacy  through  self-reflection  and  the  need  of  cooperation  between  future  teachers and supervisors or mentors, and a sense of community.", 
  "The literature  reviews in  connection to  Studies  I  and  II established that  the abovementioned  factors, such as job satisfaction, self-efficacy, a sense of community and motivation to work  correspond  to  the  results  of  earlier  studies  conducted  worldwide  regarding  the  first  professional  years of  novice teachers  that have been discussed in  the theoretical  framework.", 
  "Therefore, the second stage was established in order to gain deeper insight into the way these  factors influence novice teachers and interrelate with one another.", 
  "Second stage  \nThe  second  stage  comprised  three  studies.", 
  "The  first  measured  the  novice  teachers\u2019  intrinsic  motivation to work; the second study focused on the way the school climate affects the self- efficacy  of  novice  teachers;  while  the  third  concentrated  on  factors  that  predict  the  job  satisfaction of  novice teachers.", 
  "Table 2  provides an overview of  the five studies, along with  their research questions, sample sizes and used methods.", 
  "Table 2.", 
  "An overview of the five studies.", 
  "Research questions  \nRQ1  What kind of role do personal and  contextual factors play in the decisions of novice  \nData collection/  Data analyses/ Sample size  Qualitative research  Open-ended questionnaires /  \n\fteachers to stay or to quit the profession?", 
  "RQ2  How do personal and contextual factors  interrelate at the beginning of a novice teacher\u2019s  professional career?", 
  "2.1.", 
  "What is the role of school practice in the  early career experiences of novice teachers?", 
  "2.2.", 
  "How are motivational aspects manifested in a  novice teacher\u2019s induction year?", 
  "2.3.", 
  "How are the self-efficacy beliefs of novice  teachers related to the school climate?", 
  "2.4.", 
  "What aspects predict or are   related to a novice teacher\u2019s job  satisfaction?", 
  "content analysis  \n\nQualitative research  Semi-structured interviews /  content analysis  Quantitative research  Questionnaires / factor analysis,  Quantitative research  Questionnaires / ANOVA,  correlations, regression analysis   Quantitative research  Questionnaires / correlations,  regression analysis N = 74  \nThe  first  research  question  investigated  the  role  that  contextual  and  personal  factors  play  in  novice teachers\u2019 decisions to stay or quit the profession  The results indicated that about two  thirds of the teachers with  four  years of professional  experience have thought  about  leaving  the profession.", 
  "About a fifth of their colleagues, who started their career at the same time, had  already  quit  the  profession.", 
  "Their  answers  (Figure  2.)", 
  "revealed  two  dominant  reasons  for  leaving  the  profession  \u2013  low  self-efficacy  beliefs  (high  responsibility  for  the  students\u2019  development  and  difficulties  with  classroom  management)  and  low  job  satisfaction  (high  social  pressure,  stressful  working  conditions  and  poor  feedback  from  the  school\u2019s  management).", 
  "REASONS FOR LEAVING  \nTHE PROFESSION  \nPERCEPTIONS OF LOW   \nPERCEPTIONS OF LOW   \nSELF-EFFICACY BELIEFS  \nJOB SATISFACTION  \n\nresponsibility  \nstudents\u2019  \ndevelopment  \nDifficulties in  \nclassroom  \nmanagement  \nHigh social  pressure  \nStressful  conditions  \n\nfeedback  from the  school's  \nmanagement  \nFigure 2.", 
  "Reasons for leaving the profession according to teachers with 5 years of experience.", 
  "The second study further explored the research question regarding the role of contextual and  personal  factors in  a student  teacher\u2019s decisions to  stay or quit the profession,  however, this  time  through  the  lens  of  highly  experienced  teachers  and  their  retrospective  recollections  of  their  early  career  experiences  (II).", 
  "Several  meaningful  key  concepts,  including  cooperation,  self-reflection,  sense  of  community  and  communication,  emerged  as  the  most  powerful  descriptors of the early career experiences of highly experienced teachers.", 
  "The findings of this  study  also  reveal  several  situations,  where  student  teachers  did  not  experience  cooperation;  neither were they part of professional communication, creating an atmosphere of distrust and  envy.", 
  "Negative experiences undermine the desire to stay in the profession.", 
  "Furthermore, lack  of  communication  and  poor  feedback  may  diminish  a  student  teacher\u2019s  motivation  or  their  self-efficacy beliefs may not develop in the desired direction.", 
  "Figure 3 illustrates the findings  of this study.", 
  "Figure 3.", 
  "The role of cooperative communication (XXX, XXX and XXX, 2013:433).", 
  "Sense of community as a part of the school climate was experienced in a limited way; namely  in association with other student teachers or with students.", 
  "Nevertheless, this result suggests  that student-student cooperation as well as student-supervisor cooperation is seen as a positive  influence  on  the  development  of  a  student  teacher.", 
  "Unfortunately  many  of  the  interviewed  teachers  did  not  feel  that  they  were  a  part  of  the  teacher  community  during  their  school  practice.", 
  "The second research question investigated the way personal and contextual factors interrelate  at  the  beginning  of  a  novice  teacher\u2019s  professional  career.", 
  "The  results  indicate  that  novice  teachers  experience  high  levels  of  intrinsic  motivation,  as  it  pertains  to  enjoyment  and  interest.", 
  "Furthermore, enjoyment increases by the end of the first year.", 
  "The results suggest that  novice  teachers  are  free  in  their  choices  when  making  up  their  mind  about  their  future  profession.", 
  "In  terms  of  motivation,  it  is  important  that  decisions  are  made  without  extrinsic  pressure.", 
  "Novice teachers, who enjoy their work, also improve their teaching skills by the end  of the first professional year; their self-efficacy beliefs are low but improve slightly by the end  of  the  first  year.", 
  "The  findings  also  showed  that  the  bigger  the  school,  the  lower  the  self- efficacy beliefs of the novice teachers are.", 
  "When studying the self-efficacy of novice teachers  across  teacher  profiles,  vocational  school  teachers  emerged  as  a  distinct  group  with  a  lower  estimation of self-efficacy.", 
  "Novice teachers experienced that their colleagues cared for them.", 
  "However, the relationships novice teachers have with the students reflect a lack of skilful and  meaningful communication based on mutual respect and trust.", 
  "This study also investigated the  aspects  of the school  climate that predict the self-efficacy beliefs of novice teachers  (Figure  4).", 
  "As  the  findings  indicate,  academic  and  social  growth,  cohesiveness  and  trust  in  the  students help predict the self-efficacy beliefs of novice teachers.", 
  "Social growth also refers to a  supportive teacher community.", 
  "Academic and  social growth  \nCohesiveness  \nTrusting  students  \nNovice Teachers\u2019  \nSelf-efficacy beliefs  \nFigure 4.", 
  "The school climate predictors of the self-efficacy of novice teachers.", 
  "The  last  sub-question  sought  to  determine  the  aspects  that  predict  or  are  related  to  the  job  satisfaction of novice teachers.", 
  "The results indicated that the most important job satisfaction  predictor for novice teachers is their sense of community; self-efficacy does not have a direct  impact on job satisfaction; intrinsic motivation among novice teachers is rather high but is not  predictive  of  job  satisfaction.", 
  "The  self-efficacy  beliefs  of  novice  teachers  tend  to  be  low  because  of  their  relatively  limited  experience,  and  the  feeling  of  not  having  mastered  one\u2019s  skills  to  the  maximum  may  not  give  them  full  job  satisfaction.", 
  "However,  a  positive  and  supportive school climate creates a steady professional community, where novice teachers can  develop professionally.", 
  "To conclude, the most important  findings of these studies are that a positive school  climate,  especially  a  positive  sense  of  community,  a  supportive  collegial  atmosphere,  a  professional  mentoring  system  and  systematic  supportive  feedback  help  promote  the  self-efficacy  beliefs  of novice teachers and to retain the high level of motivation to work as a teacher, as well as  increase job satisfaction that in turn encourages teachers to stay in the profession.", 
  "The study has contributed an increased understanding of the influences on the experiences of  novice teachers during the first year of teaching and beyond."
 ]
}