{
 "document_id": "1172106.1", 
 "sentences": [
  "Running head: Teachers\u2019 Experiences with Bullying and Mistreatment  \nTeachers\u2019 Experiences with Bullying and Mistreatment in their Workplaces  \nAmy Orange  \nUniversity of Houston-Clear Lake  \norange@uhcl.edu  \n281-283-3512  \nTeachers\u2019 Experiences with Bullying \t\r \u00a0 \n\nTeachers\u2019 Experiences with Bullying and Mistreatment in their Workplaces  \nBullying is a continuing problem in education, with many school personnel  \nteaching students and staff about prevention (Robers, Kemp, & Truman, 2013; Swearer,  \nEspelage, Vaillancourt, & Hymel, 2010).", 
  "However, far fewer conversations regarding the  \nbullying of teachers in schools occur.", 
  "Workplace bullying (also referred to as \u201cmobbing\u201d  \nor \u201cmistreatment\u201d) is a pervasive issue; nearly half of all working adults have  \nexperienced bullying and mistreatment in the workplace (Namie & Lutgen-Sandvik,  \n2010).", 
  "According to the Workplace Bullying Institute (2014), 27% of U.S. workers report  \nbeing bullied at any point in time and 21% reported that they had witnessed bullying in  \nthe workplace.", 
  "Namie and Lutgen-Sandvik (2010) found that in more than 70% of the  \ncases of workplace bullying, upper level management took no steps to address the  \nproblem or actually worsened the problem.", 
  "Victims identifying as Hispanic, Asian, or  \nAfrican American are more likely to be bullied than Whites (Namie, Christensen, &  \nPhillips, 2014).", 
  "Despite an increasing body of research related to workplace bullying, definitions  \nof bullying vary (Georgakopoulos, Wilkin, & Kent, 2011).", 
  "Einarsen, Hoel, Zapf, and  \nCooper (2011) define workplace bullying as:  \n\u2026 harassing, offending, or socially excluding someone or negatively affecting  \nsomeone\u2019s work.", 
  "In order for the label bullying (or mobbing) to be applied to a  \nparticular activity, interaction or process, the bullying behaviour has to occur  \nrepeatedly and regularly (e.g.", 
  "weekly) and over a period of time (e.g.", 
  "about six  \nmonths).", 
  "Bullying is an escalating process in the course of which the person  \nTeachers\u2019 Experiences with Bullying \t\r \u00a0 \n\nconfronted ends up in an inferior position and becomes the target of systematic  \nnegative social acts.", 
  "A conflict cannot be called bullying if the incident is an  \nisolated event or if two parties of approximately equal strength are in conflict (p.  \n\nBullying and mistreatment are exhibited through negative communication  \nincluding spreading rumors and public embarrassment (Lutgen-Sandvik & Tracy, 2012),  \nrude and abusive language (Vega & Comer, 2005), explosive outbursts (Blas\u00e8 & Blas\u00e8,  \n2006; Lutgen-Sandvik, Namie, & Namie, 2009).", 
  "What sets bullying apart from other  \nnegative communication is the persistence (Lutgen-Sandvik & Tracy, 2012).", 
  "A single  \nincident between two individuals of equal power is not considered bullying (Hauge,  \n\nWorkplace bullying occurs as a result of the characteristics of both the  \nperpetrators and organizational structures (D\u2019Cruz & Paull, 2016).", 
  "Zapf & Einarsen  \n(2011) stated that perpetrators engaged in bullying behaviors because of poor social skills  \nand protect their self-esteem.", 
  "Granstra (2015) stated that perpetrators\u2019 feelings of  \ninsecurity, their level of seniority, differences in levels of education, and feeling  \nthreatened by colleagues may lead to workplace bullying.", 
  "More than half (56%) of  \nbullying in the workplace came from bosses, 33% came from co-workers, and 11% was  \nfrom subordinates (Namie et al., 2014).", 
  "Research from the Workplace Bullying Institute found that males were more  \nlikely to be perpetrators of workplace bullying; males account for 69% of the perpetrators  \nand 40% of the targets.", 
  "Females accounted for 60% of the targets and 31% of the  \nperpetrators.", 
  "Both male and female perpetrators target females more often than males,  \nTeachers\u2019 Experiences with Bullying \t\r \u00a0 \n\nwith male perpetrators targeting females 57% of the time and female perpetrators  \ntargeting females 68% of the time.", 
  "Male targets are less likely than females to report  \nbeing bullied in the workplace.", 
  "Approximately 82% of victims lose their jobs compared  \nwith 18% of the perpetrators.", 
  "Female bullies experience the highest rate of job loss (30%)  \nwhen their targets are male but the lowest job loss (11%) when their targets are females.", 
  "Female targets bullied by other females lose their jobs at the highest rate (89%) compared  \nwith females bullied by males, where 83% of female victims report job loss (Namie et al.,  \n\nAccording to Lutgen-Sandvik & Tracy (2012), \u201cBullying at work continues only  \nwhen organizational cultures condone, model, or reward it\u201d (p. 8).", 
  "In addition,  \nworkplaces with hierarchical structures may have greater incidences of workplace  \nbullying (Cleary, Hunt, & Horsfall, 2010).", 
  "Lutgen-Sandvik & Tracy (2012) stated that to  \naddress problems with bullying, an organizational approach is necessary; concentrating  \non individuals may be ineffective, especially if the organizational culture supports  \naggression.", 
  "An organization\u2019s cultural and social beliefs must also be considered when  \ntrying to advance change\u2014if the beliefs foster aggression, organizational change will  \nlikely not occur and organizational communication may serve to silence the victims of  \nbullying.", 
  "When the bully holds a position of power, other employees may be hesitant to  \nspeak out or resist.", 
  "Peers may offer support or assistance to the victims of bullying, but  \nthey may also be paralyzed and do nothing, often for fear of becoming a target  \nthemselves (Lutgen-Sandvik & Tracy, 2012).", 
  "Teachers\u2019 Experiences with Bullying \t\r \u00a0 \n\nWorkplace Bullying in Schools  \nBlas\u00e8, Blas\u00e8, and Du (2008) define bullying in educational workplaces as \u201cany  \nbehavior \u2013 verbal, nonverbal, and physical (excluding physical violence) \u2013 that, in the  \nteacher\u2019s perception, causes psychological-emotional, physical-physiological, personal,  \nand/or professional harm to oneself\u201d (p. 265).", 
  "Bullying in education is more prevalent  \nthan in many other professions (Fahie & Devine, 2014); Fox and Stallworth (2010) found  \nthat 46.5% of teachers were subjected to pervasive bullying by their supervisors.", 
  "Due to  \nthe loss of income incurred by teachers who leave their current employment, many suffer  \nthe abuse for longer than the 23-month average (Hall, 2005).", 
  "In addition, teachers\u2019 lack  \nof awareness of the grievance processes in place may perpetuate bullying in schools  \n(DeWet, 2014).", 
  "Teachers may also choose to not pursue a grievance against an  \nadministrator who has bullied them (De Wet, 2010).", 
  "The bullying and mistreatment of teachers may come from administrators or  \nfellow teachers (De Wet, 2010).", 
  "According to De Wet (2014), principals were the main  \naggressors while the victims often lacked power and job security.", 
  "De Wet (2014) also  \nfound that sometimes the victims were those who did not fit in well socially with their  \ncolleagues in their schools.", 
  "Blas\u00e8 et al.", 
  "(2008) found that some principals mistreat  \nteachers because of \u201cpersonality issues, inability to handle stress, gender issues, faulty  \nassumptions about power, lack of awareness about best ways to use power, and lack of  \nawareness of the effect of administrative behavior\u201d (p. 15).", 
  "Often, administrators targeted  \nthe most competent and knowledgeable teachers; administrators who engage in these  \npractices view these teachers as competition (Parsons, 2005).", 
  "Teachers may also be  \ntargeted if they are well-respected by their colleagues and parents.", 
  "Administrators may  \nTeachers\u2019 Experiences with Bullying \t\r \u00a0 \n\nfeel threatened if teachers turn to another teacher for advice and guidance rather than to  \nthem.", 
  "Administrators who micromanage may resent the loss of control if a teacher is a  \nself-starter and works independently (Parsons, 2005).", 
  "Prior research has categorized various specific behaviors as bullying in an  \neducation setting.", 
  "School administrators who engaged in bullying of their teachers used  \nthreatening behavior, verbally abused teachers, treated teachers disrespectfully, socially  \nisolated teachers from their peers, showed favoritism towards certain teachers, and  \nengaged in nepotism (Blas\u00e8 & Blas\u00e8, 2006; De Wet, 2014).", 
  "Administrators also publicly  \nhumiliated teachers in front of their colleagues and/or students and set their teachers up to  \nfail, tried to ruin their reputations, and unfairly criticized teachers.", 
  "Administrators  \nsometimes ignored the boundaries between teachers\u2019 personal and professional lives,  \nsetting rules about the friends they could have or the clothes they could wear (De Wet,  \n\nBlas\u00e9 and Blas\u00e9\u2019s research (2002, 2004, 2006) found numerous negative impacts  \nassociated with teacher mistreatment including: decreases in teacher self-esteem, teacher  \ndepression and health issues, damaged workplace environments, and harmful effects on  \nclassroom instructional practices.", 
  "Bullying also negatively affected teachers\u2019 classroom  \nbehaviors.", 
  "Teachers reported that they were less caring, patient, tolerant, and humorous  \ntoward students and that they were forced to use rigid, dated, and authoritarian,  \nineffective teaching methods (Blas\u00e8 et al., 2008).", 
  "Prior research has found that the mistreatment of teachers may negatively affect  \nteaching and learning in schools (Beale & Hoel, 2011; De Wet, 2010).", 
  "Blas\u00e8 et al.", 
  "(2008)  \nshowed that bullying negatively affected teachers\u2019 classroom behaviors.", 
  "For instance,  \nTeachers\u2019 Experiences with Bullying \t\r \u00a0 \n\nteachers reported that \u201cthey were less caring, patient, tolerant, and humorous toward  \nstudents and that they were forced to use rigid, dated, and authoritarian, ineffective  \nteaching methods with students\u201d (Blas\u00e8 et al., 2008, p. 290).", 
  "Teachers had difficulty  \nconcentrating at work and stated that during their preparation periods, they did not do any  \nwork as a result of being bullied (Jacobs & De Wet, 2015).", 
  "Dhar (2012) found that workplace bullying may lead to lower employee morale,  \nincreased absences from work, and lower levels of employee motivation.", 
  "Teachers  \nexperienced decreased job satisfaction (De Wet, 2010) and distrust of their colleagues  \n(Jacobs & De Wet, 2015), as a result of being bullied at their schools.", 
  "Teachers expressed  \nthat, as a result of being bullied by their administrators, they experienced less loyalty to  \ntheir employers, job burnout, apathy, and withdrew from professional activities (Blas\u00e8 et  \nal., 2008).", 
  "Bullying also negatively affected teachers\u2019 personal lives (Blas\u00e8 & Blas\u00e8, 2002,  \n2004, 2006; Blas\u00e8 et al., 2008; De Wet, 2010; Jacobs & De Wet, 2015).", 
  "Blas\u00e8 et al.", 
  "(2008) found the harmful effects of bullying included: stress, resentment, depression,  \nanger, insecurity, self-doubt, a sense of powerlessness, feelings of fear and dread, sleep  \ndisruptions, and obsessive thoughts about their administrator.", 
  "Teachers who perceived  \nthey were bullied stated that they had increased blood pressure, headaches, and other  \nhealth issues (Jacobs & De Wet, 2015).", 
  "While the literature identified teachers\u2019 experiences with mistreatment, the  \npervasiveness of bullying, and the consequences, much of the research (De Wet, 2010;  \nDe Wet, 2014; Jacobs & De Wet, 2015) has been conducted in other countries or was not  \nconducted recently (Blas\u00e8 & Blas\u00e8, 2002, 2004, 2006; Blas\u00e8 et al., 2008; Fox &  \nTeachers\u2019 Experiences with Bullying \t\r \u00a0 \n\nStallworth, 2010; Parsons, 2005).", 
  "Therefore, a more recent look at teachers\u2019 experiences  \nwith bullying in the United States is necessary.", 
  "The purpose of this study was to examine  \nteachers\u2019 perceptions of their experiences with mistreatment by their administrators.", 
  "The  \nfollowing research questions guided this study:  \n1) What are teachers\u2019 experiences with mistreatment by their administrators?", 
  "a) How harmful do teachers find administrator mistreatment?", 
  "b) What is the frequency and duration of the mistreatment?", 
  "c) What are teachers\u2019 perceptions of why they were mistreated by an   \nadministrator?", 
  "Theoretical Framework  \nTo better understand teachers\u2019 experiences with mistreatment, I first viewed my  \ndata through the lens of Blas\u00e8 et al.\u2019s (2008) levels of administrator behaviors.", 
  "Their  \nresearch on teacher mistreatment established three categories of principal mistreatment.", 
  "Level One principal behaviors included: discounting teachers\u2019 thoughts; failure to support  \nteachers in conflicts with students or parents and; exhibiting unprofessional personal  \nconduct.", 
  "Level Two principal behaviors included: spying on teachers; sabotaging  \nteachers\u2019 efforts to help students or colleagues and; making unreasonable demands on  \nteachers.", 
  "Level Three principal behaviors included: making statements that conflicted  \nwith teachers\u2019 experiences; engaging in explosive behavior; giving teachers unfair  \nevaluations and; forcing teachers out of their jobs.", 
  "I also considered a sensemaking framework (Schmidt & Datnow, 2005; Weick,  \n1995) to examine how teachers made sense of the ways their administrators treated them  \nwhen they engaged in bullying behaviors.", 
  "Sensemaking is socially constructed through  \nTeachers\u2019 Experiences with Bullying \t\r \u00a0 \n\ncommon interactions, derived from the exchange of meanings and actions between an  \nindividual and others.", 
  "It is value-laden and context-sensitive, meaning that the ways  \npeople make sense relies on contextual cues as well as the inherent values and  \nassumptions of the context.", 
  "Located in the greater institutional context, sensemaking  \nsupplies a framework for socially appropriate behaviors (Weick, 1995).", 
  "Methods and Data Sources  \nA mixed methods approach was selected to provide a comprehensive look at  \nteachers\u2019 experiences with and perceptions of mistreatment by their administrators  \n(Creswell, 2013).", 
  "I used a survey to gather data for the quantitative portion of the study  \nand conducted interviews with a subset of the survey participants to gain an in-depth  \nunderstanding of teachers\u2019 experiences and perceptions of their administrators\u2019 bullying  \nbehaviors.", 
  "Participants  \n250 teachers participated in the survey portion of the study.", 
  "I recruited  \nparticipants through a state teacher association; they agreed to post the survey link to  \ntheir Facebook page.", 
  "In addition, I conducted interviews with 26 teachers.", 
  "To recruit  \ninterviewees, I included a space on the survey for participants to provide contact  \ninformation if they wished to be interviewed.", 
  "All participants were K-12 teachers who  \nfelt their past or current administrator had bullied or mistreated them.", 
  "Instrumentation  \nBlas\u00e9, Blas\u00e9, and Wu (2008) developed the Principal Mistreatment/Abuse  \nInventory (PMAI).", 
  "The instrument contains sections on the frequency, duration, and  \nintensity of mistreatment, the effects of mistreatment, how participants cope with the  \nTeachers\u2019 Experiences with Bullying \t\r \u00a0 \nmistreatment, areas participants feel may contribute to the mistreatment, and  \ndemographic information.", 
  "The instrument was piloted with 310 teachers to establish face  \nvalidity and comprehensiveness.", 
  "Cronbach\u2019s alphas for the harm levels were .096 and for  \nthe frequency of behaviors, they were 0.97, demonstrating a high degree of validity and  \nreliability (Blas\u00e9 et al., 2008).", 
  "I made slight modifications to the 219 item instrument,  \nadding questions on mistreatment by assistant principals, using the existing structure of  \nthe questions about principals.", 
  "Data Collection  \nParticipants took the PMAI, which took approximately 30 minutes to complete,  \nvia Survey Monkey.", 
  "The survey contained 219 items with sections on: the frequency,  \nduration, and intensity of mistreatment; the effects of mistreatment; factors possibly  \ncontributing to mistreatment, and; demographic information.", 
  "Responses were  \ndownloaded from Survey Monkey and imported into SPSS for analysis.", 
  "Participants  \nremained anonymous unless they chose to provide an email address to be contacted for an  \ninterview.", 
  "I conducted semi-structured interviews with 26 participants.", 
  "Two requested to  \nrespond to the interview questions in writing due to time constraints, five interviews were  \nconducted face-to-face, and nineteen were conducted via phone due to participant  \npreference.", 
  "I audio recorded interviews, which were transcribed verbatim.", 
  "Interviews  \nlasted between 45 minutes and two and a half hours.", 
  "I asked participants to describe their  \nteaching experience, including grade levels and subjects taught.", 
  "Then, I asked  \nparticipants to discuss and describe their experiences with mistreatment by their  \nadministrators.", 
  "Data Analysis  \n\nTeachers\u2019 Experiences with Bullying \t\r \u00a0 \nUsing SPSS, I calculated frequencies and percentages for each survey item.", 
  "I also  \nused crosstabs to explore differences in experiences based on teacher gender, age and  \nadministrator gender.", 
  "To analyze the qualitative data, I read through the transcripts  \nmultiple times, making notes and developing an initial list of codes.", 
  "Next, I imported the  \ntranscripts into NVivo for coding.", 
  "I used the initial code list, but also looked for emergent  \ncodes.", 
  "Coding was an iterative process; after the multiple cycles were complete, I merged  \nsome codes to form themes while others were broad enough to be standalone themes.", 
  "I  \ncreated a matrix to track which codes became which themes and to determine if I had  \nenough support for each theme.", 
  "Approximately 80% (n=210) of survey participants felt they had been bullied or  \nmistreated by an administrator.", 
  "Participants had a range of years of teaching experience,  \nfrom less than one year to more than 20 years of experience and the majority were  \nfemales.", 
  "More than half of these participants had been teaching for at least 10 years.", 
  "About 33% worked in high schools, 25% taught in middle schools or junior high schools,  \nand 42% worked in elementary schools.", 
  "Tables 1 and 2 show teachers\u2019 educational  \nattainment and years of experience, respectively.", 
  "Table 1.", 
  "Participants\u2019 Educational Attainment  \nVocational Certificate  \n\nBachelor\u2019s  Master\u2019s  Specialist  Doctorate  \nPercentage  \nTeachers\u2019 Experiences with Bullying \t\r \u00a0 \nTable 2.", 
  "Participants\u2019 Years of Teaching Experience  \nYears of experience  \nless than 1 year  \n\n20 or more  \nPercentage  \nTeachers reported that mistreatment lasted anywhere from a few months to more  \nthan three years.", 
  "Twelve percent (n=25) of participants reported that the mistreatment  \nlasted between one to five months, 12.8 percent (n=27) reported between six and twelve  \nmonths, 52.1 percent (n=109) indicated between one and three years, and 23.1 percent  \n(n=49) reported that the mistreatment lasted more than three years.", 
  "Frequency of Individual Behaviors  \nTo better understand the frequency and intensity of specific administrator  \nbehaviors, teachers were asked to rate 38 behaviors on a scale of 0-6: never, once, a few  \ntimes, several times, monthly, weekly, and daily.", 
  "The most frequent mistreatment  \nbehaviors experienced by participants included favoring certain teachers (82.1%),  \ngossiping about me with teachers, parents, or others (72.7%), ignoring or snubbing me  \n(71%), failing to recognize or praise me for work-related achievements (68.8%), and  \nnitpicking or micromanaging (66.6%).", 
  "Table 3 shows the frequency of individual  \nmistreatment behaviors.", 
  "Table 3.", 
  "Frequency of Individual Mistreatment Behaviors  \n\nAdministrator Behaviors  \n\nTeachers\u2019 Experiences with Bullying \t\r \u00a0 \nFavored \u201cselect\u201d teachers   Gossiped about me with teachers, parents, or other  \n people    \nIgnored or snubbed me    Failed to recognize or praise me for work-related  \nachievements    \nNitpicked about time or micromanaged me    Tried to intimidate me  Made unreasonable demands  Stonewalled or failed to respond to me    Overloaded me with work and/or overloaded me with  \ntrivial work   \nSolicited others to help in disparaging me    Used a \u201csnitch\u2019s\u201d (other teacher or student)  \ninformation to criticize me    \nAttempted to isolate me or control my interactions    Spied on me  Lied to me or about me  Used negative terms to label me and my behavior    Unjustly criticized me  Was insensitive to my personal matters    Gave me \u201cthe silent treatment\u201d    Failed to support me (i.e.", 
  "abandoned me) in difficult  \n interactions with students and/or parents    \nGlared at me  Displayed offensive personal habits and  \nunprofessional conduct at work    \nGot other colleagues to undermine my efforts at work  \nGave me unfair evaluations    Withheld resources I needed  Denied approvals (e.g., projects, field trips, planning  Undermined or obstructed my efforts to initiate and  \n involve myself in professional development   opportunities    \nGave me unwarranted reprimands    Threatened me or groups of teachers    Publicly demeaned, criticized, mocked,  belittled, \u0000\b\u001dinsulted, ridiculed, or humiliated me   Took credit for some of my accomplishments    Attempted to force me out of my job    Displayed explosive/nasty behavior toward me    \nMistreated my students    \nPrevented me from changing jobs    Displayed racist behavior towards me    Stole from me  Destroyed or removed my instructional aids    Sexually harassed me    *Numbers are rounded to the nearest whole.", 
  "Percentage of teachers  who rated at least  \u201cseveral times\u201d  \nTeachers\u2019 Experiences with Bullying \t\r \u00a0 \nThe qualitative data suggests that favoritism, lack of administrator support,  \nreceiving unfair evaluations, being micromanaged, and being prevented from changing  \njobs were bullying behaviors teachers felt they experienced most frequently, somewhat  \naligning with the quantitative results.", 
  "Favoritism.", 
  "More than half of interviewees mentioned an administrator\u2019s  \nfavoritism towards certain teachers as bullying behavior.", 
  "One high school teacher  \ncommented, \u201cShe [the principal] had a select group of cronies that she managed to put  \ninto positions of authority.\u201d An elementary teacher also mentioned that his principal had  \nher favorites in the school:  \nShe [the principal] had her pets.", 
  "And pets is another issue.", 
  "I have never seen a  \nbully principal that didn\u2019t have pets.", 
  "I don\u2019t think you could get away with being a  \nbully without having that small group of pets that will praise you at board  \nmeetings or wherever else you ask them to.", 
  "Teachers interpreted administrators\u2019 favoritism as a type of bullying behavior because  \nthey felt their accomplishments were overlooked and because they felt that those the  \nadministrators put into \u201cpositions of authority\u201d were sometimes unqualified.", 
  "They also  \nperceived that by having some teachers speak in support of the administrators, their  \ncomplaints about feeling bullied were ignored by district office personnel.", 
  "Unfair evaluations.", 
  "More than half of the interviewees felt that receiving unfair  \nperformance evaluations from their administrators was a form of bullying.", 
  "One high  \nschool teacher explained why he felt his evaluation was unfair, saying, \u201cI could teach at  \nthree districts and I had nothing but \u201cexceeds expectations\u201d on my evals.", 
  "And then all of  \na sudden these two regimes come in and I am \u201cneeds to improve\u201d?\u201d  A middle school  \nTeachers\u2019 Experiences with Bullying \t\r \u00a0 \nteacher discussed the evaluation she received from her assistant principal saying, \u201cThen  \ncame my evaluation which she did way late in the time frame.", 
  "She was running out of  \ntime to do it.", 
  "And she marked me down for classroom management and some other  \nthings.\u201d She went on to explain that she had asked the assistant principal for help with  \nclassroom management for one period of her eighth grade students, but that the assistant  \nprincipal\u2019s suggestion of putting the students in rows was not appropriate for her art  \nclassroom because the students needed to be in groups to share supplies.", 
  "When teachers considered their evaluation to be unfair, it affected their  \nperceptions of their abilities to do their jobs, as some questioned if maybe they were  \ndoing something wrong, but it also created adversarial relationships between the teachers  \nand administrators.", 
  "Many of the teachers felt that their evaluations did not accurately  \nreflect their teaching abilities and therefore, they saw them as an attempt by their  \nadministrators to get them to leave the school.", 
  "Micromanaging.", 
  "About half of the teachers felt their administrators  \nmicromanaged them and viewed it as mistreatment.", 
  "An elementary teacher mentioned  \nhow her principal and assistant principals micromanaged the teachers at her school:  \nNow, I can remember it being really, you know, little nickel and dime stuff like,  \n\u201cDo this report this way.\u201d So we all do it this way.", 
  "Oh, nope, she changes her  \nmind.", 
  "We were also told that we had to stand in certain places during recess.", 
  "A high school teacher shared similar concerns, sharing how his principal \u201cwants to  \nmicromanage everything\u201d even though she had 10 assistant principals to assist her.", 
  "\u201cShe  \ndoesn\u2019t let any of those people do their jobs,\u201d he said.", 
  "He felt that his principal\u2019s need to  \nbe involved in every aspect of the school was harmful because with 3500 students, the  \nTeachers\u2019 Experiences with Bullying \t\r \u00a0 \nprincipal could not adequately supervise everything and he disagreed with the  \ninstructional approaches she wanted her teachers to use.", 
  "Lack of support.", 
  "About half of the interviewees commented that their  \nadministrators did not support them; this ranged from a lack of support when dealing with  \nparents and students to not supporting teachers if they had disagreements with other  \nteachers or administrators.", 
  "A high school teacher described how he went to his principal  \nto file a grievance when he had problems with the assistant principal:  \nI finally filed a grievance to my head principal.", 
  "Our principal always came off as  \nthis guy that will listen to your problems and see what he can do.", 
  "I said that I need  \nthis to end.", 
  "So he was like, \u201cOkay, fine, we will put it in writing saying he can\u2019t  \ntalk to you about this.", 
  "And after that, things seem to be getting better.", 
  "However, a short time later, the principal called the teacher to his office because one of  \nthe students he coached did not have a form turned in.", 
  "My head principal was like, \u201cAlright, you are done.", 
  "I am not going to keep you  \naround as coach anymore.\u201d I had the most success we had had in 15 years in the  \nswim program.", 
  "I knew then that he wasn\u2019t removing me because I didn\u2019t have a  \nphysical turned in.", 
  "He was removing because of my issues I had with [the  \nassistant principal].", 
  "It was more of a retaliation move.", 
  "This teacher eventually resigned from his teaching job and found a job in a different  \ndistrict.", 
  "The mistreatment he felt he experienced from his assistant principal, as well as  \nhis principal\u2019s lack of support, contributed to his decision to leave.", 
  "Prevented from leaving.", 
  "Several teachers felt that their administrators actively  \nprevented them from leaving the school where they felt bullied.", 
  "An elementary teacher  \nTeachers\u2019 Experiences with Bullying \t\r \u00a0 \ndiscussed his experiences when he tried to leave the school where he had taught for over  \n20 years because he wanted to teach a different subject.", 
  "His principal had initially tried to  \nput him on a growth plan to prevent him from leaving; teachers on growth plans are often  \nnot allowed to ask for intra-district transfers.", 
  "The teacher began looking for jobs outside  \nof his district and he said that once his principal heard that he was looking to leave,  \noffered him a different job at the school.", 
  "He accepted, but continued to look for jobs  \noutside of the district.", 
  "\u201cAll the interview offerings that I got, you know, I didn\u2019t get one,  \nnot one in my own district where I had a flawless record.", 
  "So it was all a bunch of funny  \nbusiness behind the scenes,\u201d he commented.", 
  "He thinks this is because his principal would  \nnot give him positive recommendations because she wanted to keep him at the school.", 
  "\u201cI  \nhad the highest math scores in the district.", 
  "That\u2019s why she didn\u2019t want me to change  \nsubjects and that\u2019s why she wanted to keep me,\u201d he stated.", 
  "A female high school teacher who had applied for other jobs discussed how she  \nheard that her principal was giving \u201cbad references\u201d.", 
  "\u201cI had friends in other schools, in  \nother districts,\u201d she shared.", 
  "\u201cIf I interviewed at their school, they usually put in a good  \nword with their principal.", 
  "And then I\u2019d never get called, even if the interview went well.\u201d  \nShe asked a couple of her friends to ask their principals why they had not contacted this  \nparticipant.", 
  "\u201cThey told me that their principals said my principal didn\u2019t give me good  \nreviews.", 
  "I felt like her goal was to trap me there so I\u2019d quit.", 
  "It was just another way she  \ncould make me miserable.\u201d   \nTeachers who felt that their administrators prevented them from leaving viewed it  \nas a form of bullying.", 
  "In a few cases, participants expressed that their administrators  \nwanted to keep them at their schools because their student achievement scores were high.", 
  "Teachers\u2019 Experiences with Bullying \t\r \u00a0 \nMore often, participants stated that their administrators did not provide positive  \nrecommendations when they sought new jobs; they believed that being prevented from  \nfinding new jobs was done to exert power over them and viewed this as bullying.", 
  "Harmfulness of Administrator Behaviors  \nApproximately 60% of teachers felt that being at school was so harmful to them  \nthat at times that they could not cope.", 
  "In addition, participants were asked to rate harm to  \nthemselves, their work, their home/family, and combined harm.", 
  "Table 4 shows the levels  \nof harm broken out by administrator gender.", 
  "Table 4.", 
  "Teachers\u2019 Perceptions of Level of Harm Caused by their Principals  \nHarm to teacher  \n\nmild harm       male principal  \nfemale principal  \nmoderate harm       male principal  \nfemale principal  \nserious harm        male principal  \nfemale principal  \nextensive harm       male principal  \nfemale principal  \nhome/family  \n\n57.7/121  \n\n 15.4/32   23.1/49  \nCombined  \nHarm to home/family was rated as being mildly to moderately harmful; however,  \nin the interviews, several teachers mentioned that they tried to not let the mistreatment at  \nschool affect their home lives.", 
  "In particular, they tried to protect their own children from  \nknowing there were problems.", 
  "One teacher said she would sometimes call her mom, who  \nbabysat her son for her, on her way home from school so she could go to the gym and  \n\u201cwork out her stress\u201d.", 
  "Another said she would cry in her bathroom so her kids would not  \nTeachers\u2019 Experiences with Bullying \t\r \u00a0 \nknow she was upset.", 
  "Thus, the mistreatment did appear to affect teachers\u2019 home lives, but  \nsome explained how they minimized the effects on them at home to protect their families.", 
  "Teachers felt the five most harmful administrator behaviors were: favoritism,  \ntrying to intimidate them, nitpicking or micromanaging them, lying to them or about  \nthem, and making unreasonable demands.", 
  "Table 5 lists administrator behaviors ranked by  \nteachers\u2019 perceptions of harmfulness.", 
  "Table 5.", 
  "Teachers\u2019 Perceptions of the Harmfulness of Administrator Behaviors  \nAdministrator Behaviors  \nFavored \u201cselect\u201d teachers   Tried to intimidate me  Nitpicked about time or micromanaged me    Lied to me or about me  Made unreasonable demands  Used a \u201csnitch\u2019s\u201d (other teacher or student)  \ninformation to criticize me    \nUsed negative terms to label me and my behavior    Failed to recognize or praise me for work-related  \nachievements    \nSpied on me  Gave me unfair evaluations    Unjustly criticized me  Stonewalled or failed to respond to me    Attempted to isolate me or control my interactions    Failed to support me (i.e.", 
  "abandoned me) in difficult  \n interactions with students and/or parents    \nOverloaded me with work and/or overloaded me with  \ntrivial work   \nGave me unwarranted reprimands    Was insensitive to my personal matters    Gossiped about me with teachers, parents, or other  \n people    \nIgnored or snubbed me    Publicly demeaned, criticized, mocked,  \nbelittled, \u0000\b\u001dinsulted, ridiculed, or humiliated me   \nGot other colleagues to undermine my efforts at work  \nSolicited others to help in disparaging me    Displayed explosive/nasty behavior toward me    Attempted to force me out of my job    Threatened me or groups of teachers    Prevented me from changing jobs    Glared at me  \nPercentage of teachers  who rated at least  \u201cmoderately harmful\u201d  \nTeachers\u2019 Experiences with Bullying \t\r \u00a0 \nTook credit for some of my accomplishments    Undermined or obstructed my efforts to initiate and   involve myself in professional development   opportunities    Gave me \u201cthe silent treatment\u201d    Denied approvals (e.g., projects, field trips, planning  Withheld resources I needed  Mistreated my students  Displayed offensive personal habits and   unprofessional conduct at work    Displayed racist behavior towards me    Stole from me  Destroyed or removed my instructional aids    Sexually harassed me    *Numbers rounded to the nearest whole.", 
  "In some cases, the percentages may not truly capture participants\u2019 experiences  \nwith mistreatment.", 
  "For example, the majority of the participants did not feel their  \nadministrators sexually harassed them, so they responded \u201cnot at all\u201d to the question  \nasking them to rate how harmful the behavior was.", 
  "However, the participants who did  \nexperience sexual harassment rated the behavior as either \u201chighly\u201d or \u201cvery highly\u201d  \nharmful to them.", 
  "In addition, an item like \u201cmistreated my students\u201d may be viewed as  \nharmful, but participants may consider that behavior to be more harmful to the student;  \nthe low rating does not mean that teachers support this type of mistreatment or do not  \ncare about their students.", 
  "Qualitative data showed that being given unfair evaluations was the most harmful  \nto participants, followed by lack of administrator support, favoritism, attempting to force  \nthem from their jobs, and preventing them from leaving the school where they  \nexperienced mistreatment.", 
  "A male high school teacher described why he felt his  \nevaluations were both unfair and harmful:  \nIt just got to where all of my evaluations were bad.", 
  "And he [the principal] was  \nsaying, \u201cYou don\u2019t have your objectives on the board.", 
  "Put up objectives on the  \nTeachers\u2019 Experiences with Bullying \t\r \u00a0 \nboard.\u201d And the next time he came in he said, \u201cYou don\u2019t have the [state  \nstandards] on the board.", 
  "I was like ok.", 
  "So next time I have objectives and the  \n[state standards], but every evaluation, he would find something.", 
  "It was really,  \nlike just nit-pick.", 
  "Like at 2:15 there were six students on their cell phones.", 
  "And at  \n2:21 only 63% of the students are engaged in the activity.", 
  "At 2:24 the lesson  \ndidn\u2019t exactly match the lesson of the day.", 
  "So he put me on an improvement plan.", 
  "Once the teacher was on an improvement plan, he could not apply for a transfer to a  \ndifferent school in the district and if he applied in another district, he said he would have  \nto disclose that his principal had placed him on an improvement plan.", 
  "\u201cSo, I resigned  \neffective at the end of the year.", 
  "After that everyone was happy.", 
  "He [the principal] was the  \nnicest man on earth.", 
  "All of a sudden I was doing better in the classroom.", 
  "My evaluations  \nwere great.\u201d He added that once he saw an improvement in his evaluations, it made him  \nwonder if his initial evaluations had been intentional in order to encourage him to quit.", 
  "\u201cThat was when I thought about how messed up it was.", 
  "I felt like he\u2019d been messing with  \nme, with my livelihood just because he could.", 
  "That was the worst part,\u201d he said.", 
  "His  \nexperiences offer an example of how a teacher felt that his evaluations were unfair and  \nthat he was forced out of the school and illustrate his perceptions of the harmfulness of  \nthe mistreatment.", 
  "A female elementary teacher who felt her assistant principal mistreated her  \nexplained how her principal\u2019s lack of support was harmful to her:  \nThere was just no way I was going to risk telling my principal anything because  \ninterestingly, my principal was working on her dissertation at the same time.", 
  "She  \nwas hiding in her office with the door shut, completely inactive in the school as a  \nTeachers\u2019 Experiences with Bullying \t\r \u00a0 \npresence and she had put all of it on her AP.", 
  "She [the AP] had all the power--she  \nwas doing the principal such a big favor by taking on the role of both that she [the  \nprincipal] was going to believe anything she [the AP] said.", 
  "And there was no way  \nthat I was going to be able to make my point.", 
  "This teacher felt both of her administrators mistreated her and caused her considerable  \nharm--the principal because she was unaware of and did not prevent the assistant  \nprincipal from mistreating the teacher and the assistant principal because she tried to  \nforce her out of the school by giving her unfair evaluations and saying untrue things  \nabout her to colleagues.", 
  "Lastly, teachers found that favoritism was harmful to them, yet fewer felt this was  \nthe most harmful when compared to being forced out of their jobs or receiving unfair  \nevaluations.", 
  "A female middle school teacher felt that her assistant principal showed  \nfavoritism towards certain teachers on the campus and that these teachers \u201cShe rubbed a  \nlot of people the wrong way.", 
  "It wasn\u2019t just me.", 
  "And she also had her core followers that  \nreally got along with her,\u201d she said.", 
  "A male high school teacher felt that favoritism towards certain teachers by his  \nadministrators led to less-qualified teachers at his school.", 
  "He shared:  \nThe principal is allowed to remove all of these people to get other coaches and  \ntheir wives in there, but are they good teachers?", 
  "I don\u2019t know.", 
  "I personally think  \nthe teacher that has been at the school for 15 years knows a little bit more about  \nthe school than this incoming teacher.", 
  "One of the teachers she replaced with a  \ncoach\u2019s wife took six months to find a new job.", 
  "Legitimately those people have  \nmortgages, they have payments, they have all this.", 
  "And you are taking away that  \nTeachers\u2019 Experiences with Bullying \t\r \u00a0 \nlivelihood.", 
  "And that is where I draw that line.", 
  "You cannot mess with people\u2019s  \nlivelihoods.", 
  "He felt that by favoring coaches and their spouses, his principal harmed the teachers she  \nlet go by making it difficult for them to find new jobs.", 
  "He also believed that he was  \nremoved \u201cto make room for one of her friends from her previous school\u201d.", 
  "Thus, he felt  \nthat favoritism was the most harmful form of mistreatment because in his school, it led to  \npeople losing their jobs and in some cases, their incomes.", 
  "Perceptions of why they were Mistreated  \nMost participants did not know with certainty why their administrators mistreated  \nthem, but when asked about the factors that may have contributed to the mistreatment,  \nmore than half (55.7%) felt it was due to their age.", 
  "Table 6 shows teachers\u2019 perceptions  \nof why their administrators mistreated them.", 
  "Table 6.", 
  "Teachers\u2019 Perceptions of why they were Mistreated  \nTeachers\u2019 Perceptions   Affiliation with union or teacher  association  Own behavior  Health, illness, or disability  Ethnic group  Political beliefs  Religion  Sexual orientation  * Participants could select multiple responses.", 
  "Percentage  \nTeachers\u2019 Experiences with Bullying \t\r \u00a0 \nNotably, the qualitative data differed from the survey responses.", 
  "Only one interviewee  \nfelt that age was the reason.", 
  "One female elementary teacher wrote:  \nIt had nothing to do with my ability, which was excellent, but my age!", 
  "Younger  \nadministrators in our district have become the norm.", 
  "Almost all teachers over 50  \nhave been shoved out!", 
  "It has sent a frightening message to out younger teachers\u2014 \nthis is not a career you will make it to retirement!", 
  "It\u2019s scary for all.", 
  "When first asked why they felt their administrator targeted them, nearly every  \ninterviewee expressed uncertainty.", 
  "Many paused before responding, seemingly thinking  \nover their answers.", 
  "Often, participants gave reasons why they felt mistreated but, in the  \ncourse of responding, realized that their initial perceptions did not seem correct.", 
  "For  \nexample, a female elementary teacher explained how initially, teachers at her school  \nthought that the administrators were mistreating them because of their race:  \nA lot of teachers have come to me and gave their story.", 
  "So last school year when I  \nwas moved [grade levels] I guess a lot of them realized, \u201cWow, she is going  \nthrough that as well.", 
  "And she is African American, just like the principal and the  \nassistant principal.\u201d Five of our Caucasian teachers left last school year.", 
  "I asked  \nthem, \u201cWell, what do you think it is?\u201d And they said that at first they thought it  \nwas discrimination because of their race.", 
  "But now they are realizing I am going  \nthrough it too.", 
  "There is no sense to it.", 
  "A female high school teacher shared a similar story, also feeling as though she was  \nunsure why her administrator had mistreated her.", 
  "She commented:  \nI still, five years later, haven\u2019t figured out the reason why.", 
  "The other two ladies it  \nhappened to, one was also in my department.", 
  "One was in the math department.", 
  "Teachers\u2019 Experiences with Bullying \t\r \u00a0 \nThe lady in the math department, I didn\u2019t know her real well.", 
  "We kind of bonded  \nover our Satan experience.", 
  "But I know she had a bunch of personal stuff going on.", 
  "She was taking care of her grandkids.", 
  "You can\u2019t really say there was one thing in  \ncommon with all of us.", 
  "I was a young white teacher.", 
  "One was an older black  \nteacher.", 
  "One was an older white teacher.", 
  "Two ladies in the science department,  \none is black and one is white.", 
  "I do remember her saying something one time that  \nthe other lady in the science department had arthritis and she was in a motorized  \nwheelchair.", 
  "I don\u2019t remember exactly what she said but she [the principal] did  \nmake some sort of comment in our meeting one time about like during testing  \nbeing able to fit up and down the aisles and kind of gave a little look in our  \ndirection because we are both large ladies.", 
  "I mean, you could pick any of a dozen  \nreasons why.", 
  "Overall, the qualitative data showed that teachers felt they were bullied by their  \nadministrators for four main reasons: 1) teachers challenged their administrators, 2)  \njealousy, 3) the administrators had not hired the teachers and 4) the administrators  \ndisagreed with teachers\u2019 teaching styles or philosophies.", 
  "However, most of the  \nparticipants expressed that they did not truly know why they had been mistreated; thus,  \nthese comments reflect their perceptions.", 
  "Teachers challenged their administrators.", 
  "The most common qualitative  \nresponse related to teachers feeling their administrators targeted them because they  \nchallenged them.", 
  "The teachers did not feel they challenged their administrators in  \nantagonistic or aggressive ways.", 
  "Rather, they described how they asked their  \nTeachers\u2019 Experiences with Bullying \t\r \u00a0 \n\u201cadministrators questions about their decisions\u201d or \u201cprovided honest feedback\u201d.", 
  "One  \nteacher explained why she felt her principal bullied her:   \nThe fact that I have my own brain and don't follow others blindly, hoping for  \nguidance.", 
  "That I don't go and ask her for permission for every single thing and  \nthat I am capable of making my own decisions about my classroom.", 
  "A female high school teacher stated, \u201cI believe that I was too confident and too  \nintelligent.", 
  "It was after I started to question the answer key to a test written by the  \ndepartment head that the mistreatment started, by principal 1.\u201d  \nA male elementary teacher felt that his honesty and directness \u201cinsulted\u201d his  \nprincipal and that she wanted only praise, not criticism.", 
  "He shared:  \nShe [the principal] would much rather hear the great things that are going on  \nrather than the bad.", 
  "I am not a negative person, which is what I was accused of  \nbeing, but I am not a positive person either.", 
  "I am a very real person.", 
  "If I think  \nsomething is not going to work I am going to tell you I am willing to try but I am  \ngoing to tell you I don\u2019t think this is going to work.", 
  "And I don\u2019t think she  \nnecessarily liked that which I felt was evidenced by who was hired back; it was  \nthose people that were very positive and just never saw anything wrong.", 
  "Approximately two-thirds of interviewees felt that their outspokenness, honesty, or  \ndirectness related to the mistreatment they feel they experienced from their  \nadministrators.", 
  "Many of them stated that they challenged their administrators\u2019 actions and  \ndecisions, but felt that as professionals, they should be allowed to make decisions on their  \nown and that discussions between teachers and administrators should be viewed  \npositively rather than as a challenge to the administrators\u2019 authority.", 
  "As one participant  \nTeachers\u2019 Experiences with Bullying \t\r \u00a0 \nexplained, \u201cI didn\u2019t think her suggestion about instruction was the best for my students,  \nso I asked her why she felt that way.", 
  "After that, I felt like I had a target on my back.\u201d  \nPerceived jealousy.", 
  "Several interviewees felt their administrator bullied them out  \nof jealousy.", 
  "When explaining why she thinks she was mistreated, one high school teacher  \nsaid, \u201cMy longevity in the district and jealousy of the strong community relations I'd  \ndeveloped.\u201d An elementary teacher felt that her principal targeted her and some of her  \ncolleagues because they did not invite her to join their game nights.", 
  "She shared:  \nShe [the principal] has since told the other bunco people that they need to get on  \nthe transfer list or this is their last year at her school.", 
  "And several have already  \nresigned and gone to other places.", 
  "And for the second year all of PTA has stepped  \ndown.", 
  "It is like she is not a kind person.", 
  "I have never been written up in my career  \nand I was written up for insubordination, I was written up for talking about her  \nbecause I told the assistant principal and Human Resources about her threats.", 
  "These teachers shared that they felt their administrators mistreated them because they  \nwere jealous of social contacts.", 
  "However, some teachers felt their administrators bullied  \nthem because they felt threatened or envious of their accomplishments.", 
  "A female high  \nschool teacher commented about how her principal seemed to be jealous of teachers who  \n\u201cattended schools perceived as better\u201d than his.", 
  "She said:  \nWhen he took over as the administrator, it just seemed like he started targeting  \npeople.", 
  "And it was usually people, which is bizarre for a person who is accredited  \nand actually is in the know of what should go on at a real accredited school, he  \n[the principal] seemed to be targeting people who had Master\u2019s degrees, who  \nTeachers\u2019 Experiences with Bullying \t\r \u00a0 \nseemed to have degrees that were from places that were way more advanced than  \nwhere he got his degree.", 
  "Overall, teachers\u2019 comments show that their administrators possibly bullied them out of  \njealousy, both personal and professional.", 
  "Most often, it was because a teacher had support  \nfrom colleagues and community members, but sometimes teachers perceived that their  \nprofessional accomplishments made their administrators envious of them and ultimately,  \nresulted in mistreatment.", 
  "Hired by previous administrators.", 
  "Approximately one-third of the teachers  \nperceived their administrators targeted them because previous administrators had hired  \nthem.", 
  "A male middle school teacher commented, \u201cI didn't come from her previous  \nschool.", 
  "The principal favors teachers hired from her previous school.\u201d A female  \nelementary teacher said, \u201cShe [the principal] was constantly degrading those who either  \nshe did not hire or that didn't come snitch to her about other teachers that she didn't like.\u201d  \nAnother female teacher stated, \u201cI guess I was forced on her [the principal].\u201d The teacher  \nadded that her principal treated the teachers she had hired \u201cmuch better than those of us  \nthat she didn\u2019t\u201d.", 
  "Differences in teaching styles or philosophies.", 
  "Participants also expressed that  \ntheir administrators targeted them for differing teaching styles or philosophies.", 
  "An  \nelementary teacher said, \u201cShe [the principal] wasn\u2019t too pleased to have me there and she  \nwasn\u2019t too pleased with my teaching style.\u201d \u201cI was told creativity was not welcome in an  \nelementary school setting.", 
  "This was a place where she needed someone who could teach  \nto the script,\u201d a female kindergarten teacher commented.", 
  "A male middle school teacher  \nfelt he was mistreated by his principal because \u201cMy beliefs that our district mandates for  \nTeachers\u2019 Experiences with Bullying \t\r \u00a0 \nmath were inadequate and in some cases, harmful to the growth of my students.", 
  "There  \nwas a distinct difference in philosophy, yet my scores continued to be the highest on my  \ncampus.\u201d A male high school teacher shared why he felt his assistant principal targeted  \n\nI believe our different educational philosophies has a lot to do with it.", 
  "It is his way  \nor the highway.", 
  "There is only one way to do something right, and I refuse to do  \nsome of those things because they are not in the best interest of my students or  \ndon't fit my teaching style which will make them ineffective in my classroom.", 
  "Teachers from all school levels expressed similar thoughts, but feeling that differences in  \neducational philosophies related to their mistreatment was more common among high  \nschool teachers.", 
  "Conclusions and Discussion  \nThe results from this study demonstrate that administrators bullying teachers is a  \nsignificant problem for some teachers.", 
  "With the majority of participants reporting that  \ntheir mistreatment lasted for at least a year, changes need to be made to better support  \nteachers and to deal more effectively with administrators who may bully teachers.", 
  "As few  \nworkplaces currently attempt to stop bullying (Namie & Lutgen-Sandvik, 2010; Namie et  \nal., 2014), teachers need additional ways to protect themselves from mistreatment,  \npointing to a need for change in both grievance processes and administrator selection  \nprocesses.", 
  "Teachers need a risk-free way to address issues with a bullying administrator  \nas some of the teacher experiences from this study showed that they felt their  \nadministrators retaliated against them if they spoke to Human Resources or district  \nadministrators.", 
  "Teachers\u2019 Experiences with Bullying \t\r \u00a0 \nTeachers\u2019 experiences with mistreatment align with prior research showing that  \nadministrators who bully teachers used threatening behavior, showed favoritism towards  \ncertain teachers (Blas\u00e8 & Blas\u00e8, 2006; De Wet, 2014), unfairly criticized teachers (De  \nWet, 2014), and felt forced to use rigid, ineffective teaching methods (Blas\u00e8 et al., 2008)  \nthat they felt were inappropriate for their students.", 
  "It was expected that results would  \nalign with Blas\u00e8 et al.\u2019s (2008) results since the same survey was used in each.", 
  "However,  \nresults differed in terms of how teachers rated the various survey items.", 
  "This could be due  \nto differences in sampling.", 
  "Some of the teachers\u2019 experiences and perceptions point to a lack of autonomy in  \nthe classroom.", 
  "Teachers expressed that their administrators targeted them because they  \ndid not conform to their ideas of what classroom instruction should look like.", 
  "Participants also considered when their administrators tried to interfere in their  \ninstructional practices, or micromanaged them, that it was bullying behavior, which  \naligns with Blas\u00e8 et al.", 
  "(2008); the teachers felt that as professionals, they knew what was  \nbest for their students and should be allowed to make decisions about their instructional  \napproaches without administrator interference.", 
  "The majority of teachers\u2019 experiences could be categorized as Level Two or Level  \nThree using Blas\u00e8 et al.\u2019s (2008) categories of principal behaviors.", 
  "Not surprisingly, the  \nteachers in this study found the Level Three principal behaviors, such as being prevented  \nfrom changing jobs and given unfair evaluations, to be the most harmful to them.", 
  "However, the most frequent administrator behaviors identified through the survey are  \nmainly Level One and Level Two.", 
  "However, interviewees identified the most frequent  \nbehaviors at all three levels.", 
  "This suggests that the interviewees may have experienced  \nTeachers\u2019 Experiences with Bullying \t\r \u00a0 \nmore extreme forms of administrator behavior than survey participants, which may have  \nled to their willingness to participate in interviews.", 
  "Additional data is needed to apply a sensemaking framework to the data; since  \nsensemaking is socially constructed through common interactions (Schmidt & Datnow,  \n2005), data from teachers\u2019 colleagues or administrators would allow for insight into the  \nsensemaking process.", 
  "However, teachers did interpret their administrators\u2019 behaviors  \n(using contextual cues) as bullying or mistreatment; some did this through their  \ninterviews while others discussed their experiences with colleagues, friends, or family  \nmembers.", 
  "Future studies should explore this area in greater depth.", 
  "One of the limitations of this study is the lack of administrator perspectives, but to  \ncollect these from participants\u2019 administrators would have put their jobs at risk.", 
  "However,  \neven if teachers\u2019 perceptions of bullying are not entirely accurate, their perceptions are  \nstill their realities and influence their workplaces.", 
  "If a teacher believes that he or she is  \nmistreated, administrators need to address the issue to either clearly explain to the teacher  \nwhy they are being treated the way they are or to stop mistreating teachers.", 
  "In addition,  \nthe majority of participants came from a single state, so the results cannot be generalized  \nto the larger population of teachers.", 
  "Additional data could be collected from multiple  \nstates to determine if factors such as teacher unions or context affect teachers\u2019  \nexperiences with and perceptions of bullying in the workplace.", 
  "Additional research should investigate teachers\u2019 perceptions that their  \nadministrators targeted them because they were hired by a previous administrator or  \nbecause they challenged an administrator\u2019s decisions.", 
  "Modifications to the instrument  \nshould potentially be considered to capture these areas which were not included on the  \nTeachers\u2019 Experiences with Bullying \t\r \u00a0 \nsurvey; the inclusion of them would allow researchers to explore the prevalence of these  \nin a larger sample."
 ]
}