{
 "document_id": "1173100.1", 
 "sentences": [
  "1.", 
  "Objectives or purposes  \n I've learned that you are the person that sets your own stage.", 
  "Experiences  are the material for you to build your stage and the amount of material you  have determines how big your stage is going to be or how big the potential  you have to grow as a person.", 
  "At All Stars I've had all these different  experiences, different material and people that I've met and places that I  have gone.", 
  "I've learned that you can expand your stage, move around, plan  differently where you want to go and that leads you to having a bigger  performance, a bigger life.", 
  "It makes me want to lead people and try to  spread the message of helping others build their own stage.", 
  "(Trevor, 16  years old)  \nThese are the words of an African American high school student from Newark, New  \nJersey one of the poorest cities in the United States, with a poverty rate of over 30%.", 
  "Trevor is a  \ngraduate of The Development School for Youth (DSY), a leadership-training program of the All  \nStars Project of New Jersey (ASP of NJ) a 35-year-old national non-profit that provides  \nperformance-based youth development programs in six U.S. cities.", 
  "The DSY brings together  \nyoung people aged 16 to 21 from poor communities together with executives from major  \ncorporations.", 
  "In the fall of 2013 I undertook an ethnographic case study of the DSY program and its  \nparticipants.", 
  "Trevor\u2019s use of the language of the theatre is not an accident; his words embody the  \nperformance-based approach of the All Stars Project.", 
  "In this presentation I will unpack the  \nexperiences of Trevor and the other young people who went through the program, as well as the  \nhistory and methodology of the DSY and the entirety of the ASP of NJ.", 
  "2.", 
  "Perspective(s) or theoretical framework   \nThe All Stars programs are performance-based, meaning that they provide participants  \nwith the opportunity to try out new kinds of interactions, new emotions, new ideas, and new  \nrelationships through play and performance.", 
  "Play and performance are activities that draw on  \n\fthe human ability to be who-we-are and who-we-are-not/who-we-are-becoming simultaneously,  \nwith the understanding that this is how development happens.", 
  "This methodology has developed  \nover the past three decades through discoveries made in the process of on-the-ground, grassroots  \ncommunity organizing.", 
  "The All Stars practices informed, and were informed by Newman and Holzman\u2019s  \nunderstanding of performance as a new ontology\u2014sometimes referred to as \"a psychology of  \nbecoming\" and \"performative psychology\" which is part of a conceptual shift taking place both  \nwithin academia and among practitioners.", 
  "Known as the performance turn, it can be broadly  \nunderstood as placing the ability to perform at the center of what makes us human, performance  \nsheds light on how human beings produce, create, and transform culture.", 
  "As part of this turn,  \nNewman and Holzman have brought together an understanding of the performatory nature of  \nhuman life with Vygotsky\u2019s insight that very young children perform a \u201chead taller\u201d in play.", 
  "They point out that even when young children are not doing an activity that would be interpreted  \nas play, they participate (without even knowing there is such a thing as participation) together  \nwith their caregivers in creating environments where they can do things they have not yet learned  \nhow to do.", 
  "Co-created with older children and adults, babies and toddlers are able to be who- \nthey-are and who-they-are-becoming at the same time.", 
  "A characteristic of this kind of learning is  \nthat there is no rigid separation between play and work/instruction.", 
  "However, when early childhood and its socially sanctioned play activities end children  \nare sent the message that it is time to stop playing and stick to discovering/being who you are.", 
  "This has led to an advance that Newman and Holzman have made to Vygotsky\u2019s theory, which is  \nto call attention to the relationship between play, as described above, and performance, the word  \nthat is given to the socially sanctioned activity of being who you are and who you are not after  \n\fearly childhood.", 
  "Just like we do not tell a four-year-old that they are not really Spiderman, we do  \nnot tell an actor that she is not really Lady MacBeth.", 
  "We embrace the creative dialectic between  \nwho the actor is and who they are performing on stage.", 
  "Newman and Holzman argue that it is by  \nbeing supported to be who you are and who you are not, that older children and adults can  \ncontinue to develop.", 
  "From this perspective, development is not a set of stages that a person  \npasses through on their way to adulthood, but a collective creation of stages (environments)  \nwhere everyone can perform who they are becoming.", 
  "In the DSY program teenagers are given  \npermission, indeed encouraged, to be playful again.", 
  "3.", 
  "Methods, techniques, or modes of inquiry  \nFollowing traditional ethnographic techniques, I immersed myself in the culture of the DSY  \nprogram for 4 months, working to spend time with and build relationships with all of the  \nparticipants.", 
  "I was a participant observer for approximately 3 days a week at the workshops with  \nthe young people and their business people teachers.", 
  "The data collection techniques included  \nparticipant observations of all of the DSY activities, informal interviews with youth and staff  \nduring and after activities, and semi-structured interviews and focus groups with youth, staff, and  \nvolunteers.", 
  "Interviews and observational notes were transcribed and electronically stored, organized, and  \nanalyzed using the Dedoose web-based mixed methods software.", 
  "Analysis of the empirical data  \nto construct the case study followed a process of categorical aggregation analysis outlined by  \nStake (1995).", 
  "The formal analysis began with an examination of the entire data record with the  \naim of identifying key programmatic elements, methodological and theoretical features of the  \nprogram, and the impact on the participants.", 
  "Not surprisingly, given the ASP\u2019s mission to,  \n\u201ctransform the lives of young people and poor communities through the transformative power of  \n\fperformance,\u201d performance emerged as a key programmatic and methodological theme;  \ntherefore a second round of analytic coding was conducted in order to develop a more nuanced  \nunderstanding of what is meant by performance, how it is utilized in the program, and what the  \nimpact of that appears to be on the participants.", 
  "Once I had completed that analysis I searched for  \nkey moments in the course of the program that could illustrate the methodology.", 
  "4.", 
  "Results and/or substantiated conclusions or warrants for arguments/point of view  \nFor many of the young people \u201cgetting out of your comfort zone\u201d was one, if not the defining  \ncharacteristic of participating in the All Stars.", 
  "In the many informal interviews and the three  \nfocus groups conducted during the research, the phrase \u201cout of my comfort zone\u201d was used over  \n75 times, and in 78% of those it was unsolicited.", 
  "A key finding from the study was the effort and  \nattention it took to make \u201cgetting out of your comfort zone\u201d developmental, given that when  \nyouth of color step out of their prescribed societal roles they often get the message that they are  \nout of line or unwanted.", 
  "And even if there are not external messages to that effect, within a  \nculture that puts a premium on being true to yourself and looking like you know what you are  \ndoing, \u201cbeing who you are and who you are not,\u201d and \u201cdoing what you do not know how to do\u201d  \nis challenging.", 
  "The focus on the creation of an environment for development was particularly important at  \nthe DSY where predominantly poor black and Latino youth were working to learn from  \npredominantly affluent white business people.", 
  "To support the young people to take risks, the  \nprogram staff worked to build a strong ensemble among the young people.", 
  "From the first day of  \nthe program the youth were carefully coached on how to be a supportive \u201caudience\u201d for each  \nother when they are doing new performances.", 
  "A second way that the All Stars created an environment where the young people could  \ntake risks (aka getting out of their comfort zone) was to use theatre and performance games to  \nprovide a shared activity where everyone (youth and adults) could transition out of their carefully  \nconstructed roles of cool teenagers and professional adults.", 
  "Momentarily freed from those  \nidentities, both groups were able to see each other as fellow humans.", 
  "After one experience of  \nplaying together one of the young people shared, \u201cThis was the first time I did anything like that  \nwith people like that, you know who work in business or even just white people in general.", 
  "It  \nmade everybody seem, I don\u2019t know, kind of regular.\u201d  \nA third finding was that even when the young people and business partners were doing  \ntraditional teaching and learning activities they continued to operate as an ensemble that  \nsupported risk taking.", 
  "In these instances the young people could be seen as performing as \u201cgood  \nstudents\u201d--actively listening, responding, and asking questions.", 
  "Far from disengaging, as often  \nhappens when material is presented in school, they remained attentive and participated  \nenthusiastically even when they got things \u201cwrong.\u201d The business people could be seen as  \nperforming as teachers--telling what they knew, imparting information.", 
  "Everyone continued to  \nperform, but now, instead of playing theatre games, they were performing a teaching and  \nlearning situation together.", 
  "It is possible to see this collective creative characteristic in the totality of the DSY.", 
  "By  \nmoving in and out of very different activities where everyone was invited to try out new  \nperformances in relation to each other, the participants had the opportunity to create with each  \nother, and perhaps to begin to see themselves as capable of being active creators of their own  \nlives.", 
  "In the focus group interviews the young people used many of the performance words that  \nare frequently heard at the All Stars.", 
  "They spoke about audiences, characters, \u201clearning new  \n\fperformances,\u201d and \u201ccreating stages,\u201d even when I did not use those or other performance words  \nin my questions.", 
  "Throughout the conversation the youth used the language of performance to  \ngrapple with the challenges of growing up as young people of color.", 
  "This language seems to give  \nthem a way into a more complex understanding of who they are in the world and how they are  \nseen, and it appears to be one of the tools they now have for going out into the world and trying  \nto navigate the complexity of their lives and communities.", 
  "As part of the focus group the young people and I explored the question of the impact that  \ncoming to see themselves as performers has had on their lives outside of the All Stars.", 
  "The young  \npeople spoke about how they now see themselves as \u201cstage creators\u201d in their lives.", 
  "One young  \nman shared that the neighborhood he grew up in, and where his grandmother still lives, is not  \nsafe.", 
  "Many of his friends have become involved in what he calls \u201cnegative behavior.\u201d He shares  \nthat he now consciously thinks about what kind of performance he is going to do when he is  \naround them.", 
  "The experience of learning that they are performers is something that these young  \npeople do not take lightly.", 
  "They have begun to see it as a responsibility, as something that they  \ncan continue to develop and give to other people.", 
  "5.", 
  "Scientific or scholarly significance of the study or work  \nToo often adolescence is when young people adopt the static roles and identities that are  \nover-determined by societal norms.", 
  "This is particularly troubling for inner city youth who are  \nexperiencing the isolation and violence of poverty, the historical and still deeply entrenched  \nracism and classism of our society, and our failure to provide pathways out of poverty for the  \nvast majority of young people and their families.", 
  "We need to support young people to  \ncontinuously become.", 
  "This study sheds some light on how play and performance, as experienced  \nthrough the All Stars Project\u2019s Development School for Youth, can and is contributing to  \n\fcreating environments for becoming.", 
  "The All Stars methodology challenges the play/work/instruction divide.", 
  "We can see that  \nparticipating in the performance activities was joyful and fun for everyone involved.", 
  "Having  \nspace to play together, far from being frivolous, contributed to people coming together who  \nnormally do not, and whose societal relationship are often filled with tension.", 
  "Second,  \nthroughout the program the young people and their adult partners are encouraged and supported  \nto do hard things, made possible by approaching them as performances.", 
  "This gives all involved a  \nconcrete way to practice being who-they-are-not/who-they-are-becoming.", 
  "As the focus group  \nconversations demonstrated, the ASP youth programs gave young people a language for  \nunderstanding their development and, perhaps most hopefully, to become creators of  \ndevelopmental environments for themselves and others."
 ]
}