{
 "document_id": "1173188.1", 
 "sentences": [
  "Running Head: TEACHING HISTORICAL TRAUMA, ASSIMILATION POLICY, AND  INDIGENOUS RESILIENCE  \nTeaching Historical Trauma, Assimilation Policy, and Indigenous Resilience   \nin Middle School Social Studies Classrooms  \nMeredith Leigh McCoy  \nUniversity of North Carolina at Chapel Hill  \n2017 American Education Research Association Meeting  \nSan Antonio, Texas \n\fTEACHING HISTORICAL TRAUMA, ASSIMILATION POLICY, AND INDIGENOUS RESILIENCE  \nAaniin indinawemaaganan.", 
  "Meredith McCoy nindizhinikaaz.", 
  "Chejauk nindoodem.", 
  "Niminwedam omaa ayaayan noongom.", 
  "Miigwetch bizindawiyeg.", 
  "My name is Meredith McCoy.", 
  "My father, David McCoy, is a citizen of the Turtle Mountain Band of Chippewa Indians.", 
  "My  \nmother, Robin McCoy, is of British, Scottish, and German descent.", 
  "My grandparents are Lila  \nMae Nicholas, Ray Earl Bruce, and Gloria Miller Bruce.", 
  "I am thankful to be able to be here  \ntoday in Comanche and Apache territory and in the state of the Ysleta del Sur Pueblo, the  \nKickapoo Traditional Tribe of Texas, the Alabama-Coashutta Tribe of Texas, the Texas Band of  \nYaqui Indians, and the Lipan Apache Tribe of Texas.", 
  "Thank you for allowing me to be here.", 
  "Historical trauma and contemporary oppression are inevitably linked.", 
  "Often, contemporary  \noppressive policies are recapitulations of older ones, and preparing teachers to confront current  \npolicy requires that we educate them about what their educational precedents are.", 
  "When we think  \nof violence in schools today, both symbolic and physical, we might think of the school to prison  \npipeline, punitive school dress codes, and English-only school policies which disproportionately  \nand negatively affect students of color.", 
  "Many of the traumas we inflict on our students through  \nthese policies have resonances with previous forms of schooling forced upon American Indian  \nstudents in America\u2019s federal boarding school system.", 
  "In this paper, I argue that, through graphic  \nnovels and museums, we can help teachers and students prepare to discuss whiteness, school- \nbased trauma, assimilation policies, and the creative, imaginative resilience that helps Native  \ncommunities continue to resist and thrive.", 
  "Both my great-grandmother, Christine Josephine Villeneauve, and my great-grandfather,  \nGideon Nicholas, were citizens of the Turtle Mountain Band of Chippewa Indians and grew up  \nin Rolette County, North Dakota near the Laureat Post Office.", 
  "From 1912 through 1915, Gideon  \nattended Wahpeton Indian School in Wahpeton, North Dakota, about 300 miles from his family  \n\fTEACHING HISTORICAL TRAUMA, ASSIMILATION POLICY, AND INDIGENOUS RESILIENCE  \n\nfarm.", 
  "At about the same time, Christine attended Fort Totten Industrial School in Devils Lake,  \nNorth Dakota.", 
  "Both of these schools were federal Indian boarding schools.", 
  "Unlike many students  \nwho were taken away to attend boarding school against their will, my great-great-grandfather,  \nAntoine Nicholas, appears to have voluntarily enrolled my great-grandfather at Wahpeton to  \nprovide him with a continued education at the high school level since there was no high school  \nnear their home.", 
  "The vocational skills Gideon acquired at the school later enabled him to support  \nhis family economically by opening an auto body shop in Seattle, Washington.", 
  "Yet, Gideon\u2019s time at Wahpeton was not all smooth sailing.", 
  "Through the school\u2019s strict  \nEnglish-only language policy, my great-grandfather learned to be ashamed of speaking Michif,  \nhis native language.", 
  "After attending Wahpeton, he only spoke the language in secret when he  \nthought his children couldn\u2019t hear.", 
  "The school also kept him away from his family for extended  \nperiods of time, and the school superintendent\u2019s authority superseded that of his parents with  \nregards to when he could go home for family visits.", 
  "For example, in 1912, Gideon wrote a letter  \nto his parents letting them know the school procedures they needed to follow in order to bring  \nhim home to help on the farm.", 
  "Though the superintendent sent him home to help with the harvest  \nin 1912, when he again requested to go home in 1914, the superintendent chose not to grant the  \nrequest.", 
  "For me, this forced separation of parents and children, and the subsequent disruption of  \ncommunity knowledge and cohesion, is how historical trauma manifests in my family's history.", 
  "The concept of historical trauma has become deeply linked in public discourse to public  \nmemory of boarding schools.", 
  "Indian Country Today Media Network, one of the primary digital  \nnews sources for Indian Country, recently published a report on historical trauma entitled  \n\u201cIntergenerational Trauma: Understanding Natives\u2019 Inherited Pain.\u201d Yet, the extent to which  \nboarding school-related trauma can be transmitted intergenerationally is under significant debate.", 
  "TEACHING HISTORICAL TRAUMA, ASSIMILATION POLICY, AND INDIGENOUS RESILIENCE  \n\nSome scholars, like Maria Yellow Horse Brave Heart (2011), connect the violence students  \nexperienced in boarding schools and their disconnection from their families with contemporary  \nrates of mental and physical illness in Native communities as a direct line of inherited,  \nsometimes epigenetic, pain.", 
  "Other scholars, like Laurence Kirmayer, Joseph Gone, and Brenda  \nChild, think of intergenerational trauma more as an important rhetorical device.", 
  "Child (2014), for  \nexample, finds that \u201chistorical trauma\u201d has become an important conceptual stand-in for  \ndiscussing colonialism and that an exclusive focus on the ways in which schools negatively  \nimpacted students obscures both students\u2019 varied experiences and the ways in which students and  \nfamilies creatively responded to boarding schools, often using them for their own benefit.", 
  "Gone  \n(2014) also warns that the popular usage of historical trauma is essentializing and serves to  \ndistract us from focusing on contemporary structural oppression.", 
  "Lastly, Kirmeyer et.", 
  "al.", 
  "(2014)  \nargue that the most popular discussions of intergenerational trauma amount to a \u201cbiological  \nreductionism\u201d and that \u201cthere is no reason to assume that epigenetic mechanisms \u2026 would not  \noperate in service to intergenerational resilience as much as to intergenerational trauma\u201d (309).", 
  "What middle school social studies teachers should know is 1) that this debate exists and 2)  \nthat it points to a need to present boarding schools as complex with a particular focus on student  \nand family resilience.", 
  "Teachers must be careful not to further any understanding of Native  \npeoples as victims.", 
  "As journalist and scholar Terese Mailhot (2017) recently wrote, \u201cIf our plight  \nis the first thing people think of when we\u2019re mentioned \u2014 they\u2019ve stripped us of our culture,  \nhumanity, and identity beyond our struggles\u201d (n.p.).", 
  "This paper will now move into an overview of early federal Indian education policy before  \nconcluding with suggested resources for teaching the history of Indian boarding schools in  \nmiddle school social studies classrooms.", 
  "TEACHING HISTORICAL TRAUMA, ASSIMILATION POLICY, AND INDIGENOUS RESILIENCE  \nIn the early days of the American Republic, most white-administered schools for Indian  \nchildren were run by missionaries.", 
  "After the Civil War, however, the federal government became  \nincreasingly part of the mechanism of enforcing assimilation through education.", 
  "In 1889, the  \nSenate\u2019s tabular of disbursements for the Indian Department\u2019s appropriations bill documented  \nover one million dollars in spending on Indian schools, with individual disbursements going to  \napproximately twenty-five separate boarding schools or tribal communities.", 
  "Though each school  \nwas unique in its social context and relationship with its surrounding community, all federally- \nrun boarding schools were authorized and overseen by the same federal institution, the Office of  \nIndian Affairs, and were subject to its guiding principles.", 
  "In 1892, the Office of Indian Affairs published a handbook called Rules for Indian schools,  \nwith course of study, list of text-books, and civil service rules.", 
  "The first page of this book reads,  \nin part:  \nThe general purpose of the Government is the preparation of Indian youth for assimilation  into the national life by such a course of training as will prepare them for the duties and  privileges of American citizenship.", 
  "\u2026 It is the design of the Government to remove, by the  shortest method, the ignorance, inability, and fears of the Indians, and to place them on an  equality with other races in the United States.", 
  "In organizing this system of schools, the fact  is not overlooked that Indian schools, as such, should be preparatory and temporary; that  eventually they will become unnecessary, and a full and free entrance be obtained for  Indians into the public school system of the country.", 
  "(3)   \n\nThree clear thoughts on Indian education during this period of American history emerge from  \nthis guiding document: first, that Indian education\u2019s highest goal is the assimilation of Indians  \ninto Whiteness; second, that Indian students are intellectually and emotionally deficient; and  \nthird, that Indians should occupy a racial category on par with those of other racialized groups in  \nAmerica (an assumption which ignores Native nations\u2019 inherent sovereignty and distinct political  \nstatus).", 
  "Whatever the federal goals for boarding schools were, many Native parents used them to  \n\fTEACHING HISTORICAL TRAUMA, ASSIMILATION POLICY, AND INDIGENOUS RESILIENCE  \n\nmeet their own needs.", 
  "They saw boarding schools as a means to fight hunger, disease, and  \npoverty.", 
  "Mistakenly believing that the schools would offer their children clean, healthy  \nenvironments in which to learn a trade, parents sometimes requested that boarding schools enroll  \ntheir students.", 
  "These parents took a tool otherwise used to disrupt their communities and shaped  \nit for their own benefit.", 
  "As historian Tsianina Lomawaima (1994) has documented, these schools  \nwere incredibly complicated spaces, and students\u2019 memories reflected much more than just the  \nassimilationist curriculum.", 
  "In boarding schools, there was also joy and friendship and intertribal  \nrelationship-building, all of which forever changed the social landscape of Native America.", 
  "There was also refuge -- Brenda Child (1998) has noted that Native children sometimes sought  \nout all-Native boarding schools to avoid the racism they experienced from non-Native students  \nand staff at local public schools.", 
  "Though many Native families sought out boarding school educations for their students, not  \nall boarding school education was consensual.", 
  "Students were often forced to attend against their  \nwill, and student memories often speak to the physical, psychological, and sexual abuse rampant  \nat residential institutions.", 
  "Severe discipline was a core value for many principals and teachers as  \nmission-run and government-run boarding schools of the 1800s often sought to assimilate  \nstudents into whiteness by enforcing militaristic schedules and integrating students into the local  \nlabor force.", 
  "Schools attempted to make Indians fit into the white American mold by enforcing  \nstrict codes for clothing, hair, language, religious practice, and mannerisms that met white social  \nexpectations.", 
  "In their curriculum, these schools often privileged vocational training over  \nacademic content since they assumed Native youth would only be capable of filling certain  \noccupations.", 
  "Native American boarding school histories comprise a critical and seldom discussed part of  \n\fTEACHING HISTORICAL TRAUMA, ASSIMILATION POLICY, AND INDIGENOUS RESILIENCE  \n\nour nation\u2019s educational past.", 
  "However, this doesn\u2019t have to be the case.", 
  "Resources abound for  \nunderstanding boarding school history, and scholars like Tsianina Lomawaima (1994), David  \nWallace Adams (1995), Brenda Child (1998), and Clyde Ellis (1996) have written extensively  \nabout boarding schools with particular focus on students\u2019 complicated, diverse experiences and  \nthe ways in which students both resisted and creatively adapted to their schooling environments.", 
  "The federal government\u2019s role in boarding school experiences, as well as students\u2019 responses to  \nit, are important to understand for those whose relatives attended the schools and for those who  \nare unaware of this part of our country\u2019s history.", 
  "Learning about Native American boarding  \nschool histories can helpfully supplement lessons and units on American history, race, identity,  \nand American Indian history, informing our students about white American assimilationist  \nefforts and the complexity of the histories of Indian-White relations.", 
  "While teaching about  \nNative American boarding schools might be delicate, challenging, and controversial, middle  \nschool social studies can be a place for helping students directly confront historical policies and  \npractices.", 
  "Teaching the history of Native American boarding schools and the myriad experiences  \nof students in them provides us with an opportunity to have students reflect upon our nation\u2019s  \nhistory as it relates to colonization, whiteness, and racism.", 
  "It is these opportunities for students to  \nwrestle with the good and the bad of our history that stretches their minds and broadens their  \nperspectives.", 
  "This paper now moves to an identification of resources that may help middle school social  \nstudies teachers prepare to teach boarding school history, assimilation policy history, and  \nIndigenous resilience in their classrooms.", 
  "One way to do this is through novels.", 
  "There is a growing movement among authors, artists,  \nfilmmakers, curators, journalists, and educators to document and discuss the longterm legacies of  \n\fTEACHING HISTORICAL TRAUMA, ASSIMILATION POLICY, AND INDIGENOUS RESILIENCE  \n\nthe federal Indian boarding school system.", 
  "For a more complete list of books, I recommend  \nDebbie Reese\u2019s blog American Indians in Children\u2019s Literature.", 
  "Today, I\u2019m going to focus on three graphic novels and a children\u2019s book, all written by  \nCanadian author David Alexander Robertson.", 
  "Robertson is a Cree author from Canada and he  \nhas written a series of graphic novels called 7 Generations which covers seven generations of  \none Native family.", 
  "Of these, I want to discuss books three and four \u2013 Ends/Begins and The Pact.", 
  "The two books together document a father\u2019s experiences at residential school in the 1960s and  \nthe ramification of his experiences there on his relationship with his son in the 1990s.", 
  "As graphic  \nnovels, they use both dialogue and imagery to depict the physical and psychological abuse of  \nCanada\u2019s residential school system.", 
  "Both also focus on eventual healing and reconnection.", 
  "These  \nbooks have value in working with middle school students for the ways in which they present an  \nIndigenous author\u2019s perspective on the residential school system and the ways in which the  \ngraphic novel format allows readers to visually experience the actions and emotions of the  \ncharacters.", 
  "I also want to look at one of Robertson\u2019s graphic novels from outside the Seven  \nGenerations series \u2014 Sugar Falls.", 
  "Sugar Falls follows a student and her classmate as they go to  \nlearn about her grandmother\u2019s boarding school experiences for a school project.", 
  "The book shows  \nthe loneliness and homesickness students felt at the school, the abuse often inflicted by teachers  \nand priests, and the friendships which helped students survive intolerable conditions.", 
  "Then, it  \nexplicitly identifies the ways in which the grandmother took her boarding school education and  \nused it to meet her needs rather than those of the school.", 
  "These panels show the grandmother  \ntelling the story of how she used the school\u2019s tools to eventually become a Cree language  \ninstructor, serving to support the cultural and linguistic needs of her community.", 
  "TEACHING HISTORICAL TRAUMA, ASSIMILATION POLICY, AND INDIGENOUS RESILIENCE  \nAn important caveat \u2014 this would be a great novel to read before assigning a research  \nproject on boarding school narratives to discuss what respectful research could look like.", 
  "In the  \nbook, students are expected to identify boarding school alumni in their community to interview,  \nbut without extensive training for students as interviewers and a pre-created list of willing  \ninterviewees, this could quickly become yet another exploitative situation of non-Natives seeking  \ninformation from Native people, even when such information is deeply personal.", 
  "Taking this into  \naccount, an effective lesson might involve critiquing the process reflected in the book and  \ncoming up with improved methods.", 
  "The last book from Robertson I would like to discuss today is his 2016 children\u2019s book,  \nWhen We Were Alone, which also shares boarding school stories and is better suited for a  \nyounger audience.", 
  "Whereas Ends/Begins and The Pact focus more on trauma than resilience,  \nWhen We Were Alone focuses on endurance and resilience as it follows a young girl learning  \nabout her grandmother\u2019s boarding school past.", 
  "It is a beautiful, short children\u2019s book which in  \nthe words of Debbie Reese, evokes \u201csighs of sadness for what Native people experienced at  \nboarding schools, and sighs of \u2013 I don't know, love, maybe \u2013 for our perseverance through it all\u201d  \n(Reese, 2016).", 
  "This text could be an excellent resource for lower level readers, and additionally  \nprovides a strong juxtaposition to the other Robertson texts for its brightness and joy.", 
  "In each of Robertson\u2019s texts, his characters experience tremendous hardship at boarding  \nschool, but they also find ways to survive and succeed.", 
  "Even though these books frequently  \nfocus on abuse, family struggles, and destructive coping mechanisms, they also highlight the  \nultimate resilience of Native people.", 
  "Taken as a whole, the four texts together show the creative  \nand imaginative ways in which Native people have often used schooling for their own needs  \nwithout bowing to the cultural destruction schools sought.", 
  "TEACHING HISTORICAL TRAUMA, ASSIMILATION POLICY, AND INDIGENOUS RESILIENCE  \nTeaching boarding schools is complicated and requires a variety of materials representing a  \nvariety of experiences and perspectives on the schools themselves.", 
  "I also believe museums have  \ngreat potential for teaching about boarding schools and want to offer a brief personal anecdote  \nregarding how this could work.", 
  "A few summers ago, my dad and I took to the Fort Totten  \nHistoric Site in Devils Lake, North Dakota, where my great-grandmother was a student.", 
  "Fort  \nTotten was a military post before becoming an Indian boarding school.", 
  "As its permanent exhibit  \ndemonstrates, there were significant commonalities in its approach to soldiers and children.", 
  "The  \nself-guided walking tour allows you to visualize the lived environment of boarding school  \nstudents and to immerse yourself in how they might have lived.", 
  "My dad and I felt like we saw  \nmy great-grandmother there \u2014  we saw her as we walked through a room that showed sample  \nbeds that students would have slept in, as we walked through a room that showed the sewing  \nmachines where small hands made clothing, as we walked through the relatively extravagant  \nhouse where the head of the school would have stayed.", 
  "That moment had particular pedagogical  \npotential as it made visible the differences in resource allocation for the Native students and the  \nwhite staff.", 
  "After our visit, I reached out to the supervisor for the State Historic Site with some  \nquestions about the curation of the historic site for descendants seeking answers.", 
  "When I asked  \nabout the history of the museum, the supervisor wrote: \u201cTelling the story of the school can be  \ndifficult.", 
  "\u2026 Many of the Dakotas and Chippewas living in the area resented the school both for  \nwhat it stood for, and for how it operated.", 
  "When telling the story of the school, we try to tell the  \nwhole story; the good and the bad.\u201d Though Fort Totten is only accessible to students living  \nwithin a few hours of Devils Lake, North Dakota, there are nearly two dozen former boarding  \nschool sites nation-wide also trying to \u201ctell the whole story\u201d which are maintained for visits  \n\fTEACHING HISTORICAL TRAUMA, ASSIMILATION POLICY, AND INDIGENOUS RESILIENCE  \n\nthrough the National Park Service, State Historical Societies, and Tribal governments.", 
  "Museums  \nlike Fort Totten which preserve the space in which children lived and learned could offer today\u2019s  \nstudents a chance to immerse themselves in that geography, envisioning themselves and their  \nloved ones in boarding school educational environments.", 
  "However, if we\u2019re going to take our students to such spaces, we need to make sure they are  \nasking questions about power and representation.", 
  "Whose perspective we privilege in a museum  \nspace impacts how the public pedagogy of the museum works \u2014 as Dr. Avner Segall (2014)  \nnotes, \u201cThe stories developing teams and curators choose to tell, as well as those they gloss over  \nand \u2018forget,\u2019 form a curriculum that conveys\u2014explicitly, implicitly, and by omission\u2014particular  \nmessages about history, power, knowledge, and identity, helping position those who encounter  \nthose stories to think about the world in some ways rather than others.\u201d At Fort Totten, very little  \nis said about student creativity, resilience, and resistance.", 
  "When we notice those omissions, we  \ncan and should help our students notice and critique, too.", 
  "When I asked how the museum\u2019s boarding school exhibits might serve its former students  \nor their descendants, the site supervisor replied that \u201cFort Totten\u2019s exhibits serve the former  \nstudents by not letting everyone forget what happened here.\u201d While not forgetting is an  \nimportant part of why we teach social studies, not forgetting is not enough.", 
  "We have to move  \nbeyond remembering to confront the difficult knowledge of boarding schools, white educational  \nviolence, and assimilation policy.", 
  "I wouldn\u2019t be here as a Ph.D. student presenting to you if it  \nweren\u2019t for the resilience and creative adaptation of my great-grandparents.", 
  "As we tell the stories  \nof boarding schools, we have to focus on the personal, real stories of individual families and also  \nthe ways in which people continued to thrive in the face of the oppressive policies levied against  \nthem.", 
  "By visiting museums like Fort Totten and engaging with texts like those written by David  \n\fTEACHING HISTORICAL TRAUMA, ASSIMILATION POLICY, AND INDIGENOUS RESILIENCE  \n\nAlexander Robertson, teachers and students can develop critical analyses of historical and  \ncontemporary oppression, evaluate the complex relationship between whiteness and schooling,  \nand celebrate the ongoing creative resilience of Native peoples.", 
  "Miigwetch.", 
  "TEACHING HISTORICAL TRAUMA, ASSIMILATION POLICY, AND INDIGENOUS RESILIENCE"
 ]
}