{
 "document_id": "1173077.1", 
 "sentences": [
  "\n\nRunning Head: CLARIFYING AN ELUSIVE CONSTRUCT  \nCLARIFYING AN ELUSIVE CONSTRUCT 1  \nClarifying an Elusive Construct: A Systematic Review of Writing Attitudes  \nCLARIFYING AN ELUSIVE CONSTRUCT 2  \nAbstract  \nAlthough research recognizes that student attitudes influence educational outcomes, researchers  \ntend to disagree about what, exactly, attitude signifies.", 
  "This article presents a systematic review  \nof writing attitudes from 1990 to 2016.", 
  "The aims of this review are to (a) gather and examine  \nextant studies on writing attitudes, (b) analyze and report descriptive findings from the included  \nstudies, (c) describe the varied uses of the term \u201cwriting attitudes\u201d across the research, (d)  \npropose a conclusive definition of writing attitude, and (e) identify and discuss dominant themes  \nin studies aligning with our proposed definition as well as describing areas for future research.", 
  "By configuring the writing attitudes literature, this review organizes previous studies into  \nconceptual groupings from which researchers can more appropriately generalize findings.", 
  "Furthermore, the review proposes a coherent yet flexible definition of writing attitudes for  \nresearchers to use in future studies in order to establish a collaborative literature base.", 
  "Keywords: writing attitudes, systematic review, writing enjoyment, literacy  \nCLARIFYING AN ELUSIVE CONSTRUCT 3  \nIn his posthumously released Philosophical Investigations (2010), Ludwig Wittgenstein,  \nthe twentieth century German philosopher and logician, famously wrote \u201cthe meaning of a word  \nis its use in a language.\u201d Allowing this, a word has no underlying or innate meaning, only the  \nmeaning it assumes via its use.", 
  "Words with concrete referents, such as \u201cbook,\u201d tend to be fairly  \nstraightforward in their uses and meanings.", 
  "Abstract or theoretical concepts, though, become  \nmore problematic.", 
  "Due to their lack of physical, real-world referents, abstract concepts tend to be  \nharder to define and yet, by virtue of their very slipperiness, are the words most in need of firm  \ndefinitions.", 
  "Even more specifically, if such abstract concepts are used in specialized, narrow  \ncommunities, their meanings must be similarly specialized and narrow and must be understood  \nas such by the members of that community.", 
  "Anyone who has ever undertaken a writing task has some general notion that term  \n\u201cwriting attitudes\u201d signifies something nebulously affective.", 
  "That said, despite understanding the  \ngeneral meaning of the term, this same group of people might struggle to provide a precise  \ndefinition of \u201cwriting attitudes.\u201d Usage of the term is vague throughout the research community  \nas well.", 
  "As it stands, some educational researchers use writing attitudes to describe enjoyment of  \nwriting (e.g.", 
  "Graham et al., 2007), others include value along with enjoyment in their  \nconceptualization of writing attitudes (e.g.", 
  "Lan et al., 2011), some include self-efficacy as a  \nsubconstruct (e.g.", 
  "Lee, 2013), others conceptualize writing attitudes as comprising seemingly the  \nentire affective domain as it pertains to writing (e.g.", 
  "Knudson, 1992), and still others use the term  \nwithout offering much clarifying context for its usage at all, leaving the reader to infer what,  \nexactly, is meant.", 
  "If, as Wittgenstein posits, the meaning of a word is its use, then writing  \nattitude, by virtue of these inconsistent uses, has inconsistent meaning.", 
  "This inconsistency poses  \na problem for researchers because it makes findings all but incomparable, which precludes any  \nCLARIFYING AN ELUSIVE CONSTRUCT 4  \nattempt at establishing a collaborative literature base and, consequently, affecting positive  \nchanges in student writing attitudes, motivation, and achievement.", 
  "This review began from our  \ndesires to explore discrepancies in how writing attitudes has been measured, unify the literature  \nbase where possible, and propose a firm definition of writing attitudes upon which future  \nresearch can build.", 
  "Historical and Theoretical Underpinnings of Writing Attitudes  \nThe measurement and study of writing attitudes has roots that span several psychological  \ntheories and different content domains.", 
  "One of the most commonly used definitions of domain- \ngeneral attitude comes from Fishbein and Ajzen (1975), who define the construct as \u201ca learned  \npredisposition to respond in a consistently favorable or unfavorable manner with respect to a  \ngiven object\u201d (p. 6).", 
  "Therefore, attitude is situated in the affective domain.", 
  "Though this general  \ndefinition of attitude is widely accepted and used in a variety of educational contexts, research  \nalso contends that student attitudes are domain-specific and should be studied as such (Wigfield,  \n\nFishbein and Ajzen (1975) noted the troubles associated with studying attitude.", 
  "The  \nliterature base, they cautioned, is characterized by disagreement about what attitude is,  \ndifferences in how attitude is measured, inconsistent findings, and a general lack of cohesion.", 
  "Forty years later, many of these same problems still plague the study of attitudes \u2014 both general  \nand domain-specific.", 
  "So why bother?", 
  "According to Allport (1954), attitude is \u201cthe most  \ndistinctive and indispensable concept in contemporary American social psychology\u201d (p. 43).", 
  "Further, Fishbein (1967) posits that attitude pervades both beliefs and behavioral intentions.", 
  "In  \neducational settings, affect, the domain in which we situate attitude, influences students\u2019  \ncognitive engagement, their choice of learning strategies, and their ability to recall information  \nCLARIFYING AN ELUSIVE CONSTRUCT 5  \n(Anderman & Wolters, 2006).", 
  "More specifically, findings from studies across various  \neducational domains suggest significant relationships between domain-specific attitude,  \nachievement, and motivation.", 
  "Such evidence exists across the domains of math (Else-Quest,  \nHyde, & Lynn, 2010), science (Steinkamp & Maehr, 1983), and reading (Petscher, 2010).", 
  "Similar research has been conducted in the domain of writing (e.g.", 
  "Clark & Douglas, 2011; Clark  \n& Dugdale, 2009; Cunningham, 2008; Graham et al., 2007, 2012; Knudson, 1995; Lee, 2013).", 
  "Research on writing apprehension may have served as an impetus for the study of writing  \nattitudes.", 
  "Inspired by studies measuring apprehension toward oral communication, Daly and  \nMiller (1975) developed an instrument to measure people\u2019s writing apprehension.", 
  "Contending  \nthat writing apprehension led people to avoid writing \u2014 and occupations that require regular  \nwriting \u2014 the authors posited that their instrument, by giving instructors a tool to accurately  \nidentify apprehensive writers, would allow instructors to combat writing apprehension and better  \nprepare students to live in an \u201cage [that] demands competence in writing\u201d (p. 244).", 
  "As an  \naffective stance, writing apprehension may be a specific type of negative writing attitude, one  \nthat represents fear or anxiety about a writing task (Popovich & Masse, 2005).", 
  "This fear of  \nwriting is inversely related to enjoyment of writing (Riffe & Stacks, 1992).", 
  "Given these  \nrelationships, it is unsurprising that numerous contemporary studies consider writing  \napprehension to be a component of writing attitude (e.g.", 
  "Lan et al., 2011; Popovich & Masse,  \n2005; Welch, 1992).", 
  "Additionally, reading attitudes research may also have stimulated research on writing  \nattitudes.", 
  "Knudson (1991, 1993a) justifies the development of her writing attitude scales by  \nciting previous research on the importance of reading attitudes.", 
  "Since reading and writing are  \noften grouped together under the umbrella of \u201cliteracy,\u201d it stands to reason that research on  \nCLARIFYING AN ELUSIVE CONSTRUCT 6  \nreading and writing attitudes are, to some degree, intertwined.", 
  "Furthermore, since they have  \nfewer reading and writing experiences, younger children may have difficulty differentiating  \nbetween reading and writing.", 
  "However, regardless of whatever connections reading and writing  \nmay share, research indicates that reading and writing attitudes are indeed separable constructs  \n(Cunningham, 2008; Graham et al., 2012), even in primary school children.", 
  "Similarly, although  \nstudent reading and writing attitude both predict writing achievement, writing attitude may be a  \nstronger predictor (Graham et al., 2012; Lee, 2013).", 
  "Nevertheless, some research suggests that  \nteachers may falsely assume that students who enjoy reading will also enjoy writing (Bifuh- \nAmbe, 2013).", 
  "Researchers and practitioners alike should recognize the connections between  \nreading and writing attitude while still maintaining the ultimate separability of these constructs;  \nfailure to do so could result in incorrect appraisals about students\u2019 attitudes which could, in turn,  \nlead to misguided research or instructional practices.", 
  "The writing attitudes literature base is also characterized by the array of potentially viable  \ntheoretical frameworks in which research is situated.", 
  "Because writing is an incredibly complex  \nprocess no single motivational theory satisfactorily explains it.", 
  "Researchers have framed studies  \nof writing attitudes with social cognitive theory (Bandura, 1986), expectancy-value theory  \n(Wigfield & Eccles, 2000), self-determination theory (Ryan & Deci, 2000), and attribution  \ntheory (Weiner, 1985) among others.", 
  "Reconciling this theoretical diversity in the literature  \nnecessitates what Harris and Graham (1994) call an \u201cintegrative approach\u201d (p. 245) to  \nunderstanding competing theories.", 
  "That is, theories can and should be considered in concert with  \none another rather than in competition with one another.", 
  "Stressing an increased emphasis on our  \nneed to understand the role of emotion in the classroom, Meyer and Turner (2002) note that  \nexisting frameworks \u201c...provide only some of the pieces to the theoretical puzzle we are trying to  \nCLARIFYING AN ELUSIVE CONSTRUCT 7  \nsolve\u201d (p. 112).", 
  "An integrative approach, then, not only fits these pieces together, but perhaps, in  \ndoing so, reimagines the shape of the puzzle.", 
  "We believe that such an approach is ideal for both  \nunderstanding and reformulating our understanding of writing attitudes.", 
  "Generally, findings across studies of writing attitudes suggest a positive relationship  \nbetween favorable writing attitudes and writing achievement (e.g.", 
  "Clark & Douglas, 2011; Clark  \n& Dugdale, 2009; Cunningham, 2008; Graham et al., 2007; Graham et al., 2012; Knudson, 1995;  \nLee, 2013; Plata, 2008).", 
  "However, due to variability in how writing attitudes have been  \nconceptualized and measured across studies, it is not possible to make many definitive claims  \nabout the relationship between writing attitude and writing achievement or writing ability.", 
  "Nevertheless, researchers posit that students\u2019 writing attitudes influence whether or not they  \n\u201cattempt to reach their [writing potential]\u201d (Knudson, 1993a; p. 587), and that students with  \nparticularly negative writing attitudes may be limited in their writing progress (Popovich &  \nMasse, 2005).", 
  "Studying writing attitudes in a formal, meaningful way requires a firm definition of the  \nconstruct.", 
  "The purpose of this systematic review was to (a) gather and examine extant studies on  \nwriting attitudes, (b) analyze and report descriptive findings from the included studies, (c)  \ndescribe the varied uses of the term \u201cwriting attitudes\u201d across the research, (d) propose a  \nconclusive definition of writing attitude, and (e) identify and discuss dominant themes in studies  \naligning with our proposed definition as well as describing areas for future research.", 
  "Inclusion Criteria  \nAlthough affect has long been considered to influence student learning and motivation  \n(Anderman & Wolters, 2006), the study of writing attitudes has not received much attention until  \nCLARIFYING AN ELUSIVE CONSTRUCT 8  \nrecently (Graham et al., 2007).", 
  "Noting the relative paucity of extant reliable writing attitude  \nmeasures, Knudson (e.g.", 
  "1991, 1992, 1993a) created a series of writing attitude instruments to be  \nused with students in different age ranges.", 
  "Furthermore, Knudson was the only researcher in the  \n1990s who systematically studied students\u2019 writing attitudes (Graham et al., 2007).", 
  "Therefore,  \nconsidering these studies by Knudson to be a benchmark, we chose 1990 as the earliest date from  \nwhich we would collect studies.", 
  "We used the following inclusion criteria when selecting articles for the review: (a)  \nwriting attitude was a primary variable examined; (b) researchers measured participants\u2019  \nattitudes toward writing in their dominant language; (c) Studies were published in peer-reviewed  \njournals; and (d) the term \u201cwriting attitude\u201d was used purposefully by the authors.", 
  "That is, the  \nterm \u201cwriting attitude\u201d was used repeatedly and intentionally throughout the article.", 
  "No selection criteria related to study design or quality was adopted because we wanted to  \ncapture the landscape of writing attitudes research.", 
  "Since one of our primary purposes for  \nconducting this review was to determine how researchers define and operationalize the construct,  \nlimiting our included studies to only those employing a specific design or to only high quality  \nstudies could have artificially narrowed our view of the literature.", 
  "Search Procedures  \nA thorough systematic review of the literature was conducted using two international  \ndatabases: the Education Resources Information Center (ERIC) and Web of Science.", 
  "The authors  \ncarried out the search process in multiple phases.", 
  "In the first phase, we used the following  \ndescriptors to locate studies: \u201cwriting attitud*\u201d or \u201cattitud* toward writing\u201d.", 
  "We intentionally  \nchose this narrow set of search terms because one of the primary aims of this study was to  \nidentify how writing attitudes, rather than its subconstructs or associated constructs, have been  \nCLARIFYING AN ELUSIVE CONSTRUCT 9  \nstudied.", 
  "Initial searches were confined to articles written in English and published in academic  \npeer reviewed journals between 1990 and 2014.", 
  "The initial searches yielded 137 possible articles.", 
  "After reading abstracts of these articles,  \nwe identified 75 studies meeting our inclusion criteria for further review.", 
  "We then read the full  \narticles of these texts, which led to the retention of 58 articles.", 
  "Next, we conducted a legacy  \nsearch using reference lists of the included articles.", 
  "This led to the inclusion of four more studies,  \nraising the total to 62.", 
  "Later, when the manuscript neared completion, we conducted a second  \nsearch of the aforementioned databases to locate studies published during the writing of the  \nreview.", 
  "Search terms and inclusion criteria for this search remained the same; however, the date  \nof publication ranged from 2014 - 2016.", 
  "This led to the inclusion of three additional articles,  \nresulting in a total number of 65 reviewed articles.", 
  "Analysis  \nWe developed an initial codebook to analyze descriptive information of the studies  \ncollected for the review, including sample size, participant age/academic status, country of origin  \nin which the study took place, variables examined, and mode of inquiry (i.e.", 
  "qualitative,  \nquantitative, or mixed methods).", 
  "Based on our understanding of the literature, we also included  \nin our initial codebook codes to distinguish between how studies conceptualized and measured  \nwriting attitudes as well as whether or not an explicit definition of writing attitude was included.", 
  "Coding was conducted by the first and third authors.", 
  "All coding discrepancies were discussed  \nuntil resolved.", 
  "After coding for descriptive and conceptual characteristics, we conducted a thematic  \nanalysis (Braun & Clarke, 2006) of a subset of included studies that reported findings aligning  \nwith our proposed definition of writing attitudes.", 
  "This analysis involved careful readings,  \nCLARIFYING AN ELUSIVE CONSTRUCT 10  \nrereadings, and annotation.", 
  "Throughout the review process, we noted prevalent patterns or  \nthemes across the literature.", 
  "Themes included the use of technology as a means of improving  \nwriting attitudes, the relationship between writing attitudes and student age, and the relationship  \nbetween writing attitudes and gender.", 
  "Due to the variability in the use of the \u201cwriting attitudes\u201d across the studies as well as the  \nvariability in the methodologies of the studies reviewed, we did not conduct a meta-analysis.", 
  "We  \ndetermined instead that a narrative systematic review would best describe the current literature.", 
  "We have organized the results of this review into three broad categories: descriptive  \nresults, conceptual results, and thematic results.", 
  "In the descriptive results section, we present  \ninformation relating to characteristics of the studies (e.g.", 
  "sample size, country of origin).", 
  "In the  \nconceptual results section, we present findings regarding how the authors of each study  \nconceptualized, defined, and operationalized \u201cwriting attitudes.\u201d After presenting our conceptual  \nfindings, we propose a definition of writing attitudes that best preserves the constructs\u2019  \ntheoretical underpinnings, represents many of its previous measurements, and situates the  \nconstruct for future study.", 
  "We then present our thematic results, which we limit to include only  \nthe findings of studies aligning with our proposed definition.", 
  "Descriptive Results   \nTable 1 presents an overview of the descriptive characteristics, as well as the findings, of  \nthe studies included in this review.", 
  "[TABLE 1 APPROXIMATELY HERE]  \nSample size.", 
  "Sample size of the studies included in this review range from a case study  \nof a single adult learner (Street, 2005) to a large-scale analysis of NAEP data from 139,900 8th  \nCLARIFYING AN ELUSIVE CONSTRUCT 11  \ngrade students (Lee, 2013).", 
  "Though many studies had relatively small sample sizes (56% of  \nempirical studies had n \u2264 50), a surprising percentage had large sample sizes (24% of empirical  \nstudies had n > 250).", 
  "Academic level.", 
  "Studies were coded based on the academic level of the sample  \npopulation.", 
  "Longitudinal studies following a sample across multiple levels of schooling were  \ngiven multiple codes according to all relevant groups, as were cross-sectional studies focusing on  \nstudents at different schooling levels (e.g.", 
  "Knudson\u2019s (1991) study examining writing attitudes of  \nstudents in fourth through eighth grade was coded as both \u201celementary school\u201d and \u201cmiddle  \nschool\u201d).", 
  "These codes were constructed to represent the divisions typical in American schools,  \nwhere elementary school comprises grades 1-5, middle school grades 6-8, and high school  \ngrades 9-12.", 
  "Additionally, though pre-service teachers could be either graduate or undergraduate  \nstudents, the studies focusing on pre-service teachers were framed to explore this specific  \npopulation; therefore, we chose to code these studies separately.", 
  "The majority of the articles focused on elementary students (n = 18), undergraduate  \nstudents (n = 20), or middle school students (n = 18).", 
  "Relatively few examined the writing  \nattitudes of high school students (n = 6), preservice teachers (n = 4), teachers (n = 4), non- \nstudents (i.e.", 
  "bloggers and entrepreneurs; n = 2), or graduate students (n = 2).", 
  "Only four studies  \nexamined the writing attitudes of practicing teachers, which is problematic given that teachers\u2019  \nwriting attitudes may affect the type of instruction they provide (Bifuh-Ambe, 2013) as well as  \nthe writing motivation and achievement of their students (Street, 2003).", 
  "Similarly, the relative  \npaucity of research on graduate students\u2019 writing attitudes is troublesome.", 
  "Graduate-level  \nwriting, such as thesis writing, often presents students with challenges they may not have faced  \nin other writing tasks (Sachs, 2002).", 
  "As such, it seems likely that graduate students may differ in  \nCLARIFYING AN ELUSIVE CONSTRUCT 12  \ntheir attitudes toward writing.", 
  "More research is needed to better understand the writing attitudes  \nof less-studied populations.", 
  "The predominance of studies focusing on elementary students and undergraduate students  \nmay have numerous explanations.", 
  "Multiple studies (e.g.", 
  "Beck & Fetherston, 2003; Cunningham,  \n2008) mention the importance of developing positive writing attitudes in children from an early  \nage.", 
  "Through the lens of social cognitive theory, we can understand students\u2019 writing attitudes as  \nthe product of accumulated writing and literacy experiences (Bandura, 1986).", 
  "Naturally,  \nelementary-aged students will have had fewer writing or literacy experiences than older students.", 
  "The assumption in much of the literature, then, seems to be that if instructors can \u201ccatch\u201d  \nstudents with negative attitudes early on in their schooling careers, they are more likely to  \nimprove their writing attitudes than if they were to \u201ccatch\u201d these students when they were older  \nand have already amassed several negative writing experiences that inform their attitudes.", 
  "Convenience sampling might explain the relatively large number of studies of  \nundergraduate students.", 
  "Another explanation, though, may involve a shift in how writing is  \nviewed in higher education as opposed to how it is viewed in K-12 education.", 
  "Lunsford and  \ncolleagues (2013) suggest that writing serves as a sort of \u201csymbolic capital\u201d (p. 471) in  \nuniversities, and one that is highly valued by members of academia.", 
  "Undergraduate students,  \nhowever, may not hold writing in the same esteem, viewing it as a distasteful requirement  \n(Slinger-Friedman & Patterson, 2012) rather than as a valuable form of currency.", 
  "This  \ndisconnect in perceptions about writing between members of the academy \u2014 who are often the  \nresearchers conducting these studies \u2014 and their students might explain the number of studies  \nfocusing on undergraduates.", 
  "However, if this is the case, it seems worth noting that no studies  \nexamined the writing attitudes of college professors.", 
  "CLARIFYING AN ELUSIVE CONSTRUCT 13  \nAdditionally, writing may account for a larger portion of students\u2019 grades in many  \ncollege classes than in K-12 classes.", 
  "McCarthey (2008) suggests that, under No Child Left  \nBehind (NCLB), K-12 education has focused largely on reading and math and has devoted less  \nattention to writing.", 
  "In higher education settings, though, students are likely to be asked to write  \nfor many of their courses.", 
  "Therefore, if students\u2019 grades are more dependent upon their writing  \nability in college classes, it follows that researchers would be more interested in predictors of  \nwriting achievement for these students.", 
  "Country of origin.", 
  "The vast majority (n = 47) of the articles included in this review were  \nwritten by lead authors from the United States, however, others originated in the United  \nKingdom (n = 4), Turkey (n = 3), China (n = 2), Taiwan (n = 2), Canada (n = 1), Australia (n =  \n1), and the Virgin Islands (n = 1).", 
  "The predominance of studies originating in the United States may be a result of the  \nsignificance American researchers and school systems attribute to the affective domain\u2019s role in  \nstudent learning, and particularly writing (for more, see Bruning & Horn, 2000 and Pajares,  \n2003).", 
  "Inversely, the scarcity of studies focusing on writing attitude outside of the United States  \nmay reflect the relative unimportance ascribed to affective constructs in various countries\u2019  \npedagogies.", 
  "For instance, according to Li and colleagues (2014), China did not begin to move  \ntoward a process-writing approach until about a decade ago.", 
  "Given this product-oriented  \nemphasis in Chinese schools, Chinese researchers may have neglected affective constructs, such  \nas writing attitudes, more often associated with process-oriented approaches.", 
  "Corroborating this,  \nSeban (2012) notes that writing is primarily used as a response to reading in Turkish schools, and  \nthat little or no emphasis is placed on process writing.", 
  "Similar educational paradigms may  \naccount for a lack of research on writing attitudes in other countries as well.", 
  "There is, however,  \nCLARIFYING AN ELUSIVE CONSTRUCT 14  \nsome evidence to suggest growing interest in writing attitude in Asian countries, as all of the  \nstudies on writing attitude in these countries have been conducted since 2000, and all but one  \n(Sachs, 2002) have been conducted since 2010.", 
  "Mode of inquiry.", 
  "Researchers have chosen various modes of inquiry when studying  \nwriting attitudes.", 
  "Though half of the studies in this review (n = 36) were quantitative in nature,  \nnumerous studies employed qualitative inquiry (n = 12) or mixed methods designs (n = 12).", 
  "Five  \nstudies included in this review were literature reviews or meta-analyses that devoted sufficient  \nattention to writing attitudes (Bangert-Drowns, 1993; Bruning & Horn, 2000; Harris & Graham,  \n2013; Lee & Shute, 2010; Valeri-Gold & Deming, 1991).", 
  "Specifics about methods and  \nmeasurements are further discussed in the conceptual results section.", 
  "Conceptual Results    \nAs mentioned previously, there is no agreement in the literature as to how writing attitude  \nshould be defined or measured.", 
  "This lack of consensus has led to discrepancies in the research.", 
  "This section presents describes how the reviewed studies have defined, conceptualized, and  \nmeasured writing attitudes.", 
  "We do so by organizing similar studies into conceptual groups and  \nthen comparing and contrasting these groups.", 
  "Construct definition.", 
  "Though all studies included use writing attitude to indicate some  \naffective response to writing or the prospect of writing, the construct does not have a widely  \nagreed-upon definition.", 
  "In fact, many studies neglected to provide any definition of writing  \nattitude at all.", 
  "Of the 65 studies included in this review, only 9 studies provide an explicit  \nconceptual definition of what the researchers mean by the term \u201cwriting attitudes.\u201d These  \ndefinitions are presented in Table 1.", 
  "CLARIFYING AN ELUSIVE CONSTRUCT 15  \nThough there is no consensus definition of writing attitudes, we noticed similarities in  \nhow many of the studies conceptualized this construct.", 
  "As we read through the included studies,  \nwe developed conceptual categories and grouped studies into these categories based on how  \nauthors defined, measured, or conceptualized writing attitudes.", 
  "These categories and the studies  \nthat fall into each are presented in Table 2.", 
  "Studies measuring writing attitude in multiple ways  \nwere included in multiple categories.", 
  "Studies that did not provide sufficient information to allow  \nfor categorization were grouped accordingly.", 
  "[TABLE 2 APPROXIMATELY HERE]  \nIn descending order of frequency, these categories conceptualize writing attitudes as  \nrepresenting enjoyment of writing (n = 19), the entire affective domain (n = 15), writing self- \nefficacy (n = 10), writing apprehension or anxiety (n = 8), and the perceived value of writing (n  \n= 8).", 
  "The final category, those studies in which writing attitude is not clearly conceptualized by  \nthe authors, comprises 12 studies.", 
  "Multiple studies (n = 5) included in this group were qualitative  \nand asked participants to respond to open-ended questions about writing (e.g.", 
  "\u201cWhat are your  \nthoughts about writing?\u201d from Chambless & Bass (1995)).", 
  "Participants\u2019 responses to these  \nquestions were then broadly described as \u201cwriting attitudes.\u201d Though responses to these open- \nended questions often aligned with one or more of the conceptual categories we developed when  \nconducting this review (e.g.", 
  "in post-test responses for a study conducted by Bass & Chambless  \n(1994), 32% of student\u2019s statements mentioned the value of writing and 11% mentioned  \nenjoyment of writing), this was the result of students\u2019 interpretations of what \u201cwriting attitudes\u201d  \nmeant rather than researchers\u2019 prescriptions of its meaning.", 
  "Therefore, these studies were  \ncategorized as not having a clear conceptualization as provided by their authors.", 
  "CLARIFYING AN ELUSIVE CONSTRUCT 16  \nInterestingly, many of the studies conceptualizing writing attitude as representative of the  \nperceived value of writing were conducted outside of English or Communications classrooms  \nand emphasized writing as either a tool to help students learn other subject-area content (e.g.", 
  "Slinger-Friedman & Patterson (2012); Van Dyke et al.", 
  "(2015)) or as an essential workplace skill  \n(e.g.", 
  "Spartz & Weber, 2015).", 
  "Quantitative measures of writing attitude.", 
  "The items and scales used to quantitatively  \nmeasure writing attitudes by the studies included in this review varied considerably.", 
  "To best  \nexamine these items, we have considered these measures in the context of the conceptual  \ncategories described previously.", 
  "Sample items aligning with each category are presented in Table  \n3.", 
  "As mentioned in the previous section, some studies\u2019 conceptualizations of writing attitudes  \nspanned multiple categories; therefore, some studies may provide sample items for multiple  \ncategories in Table 3 (e.g.", 
  "Knudson, 1991).", 
  "[TABLE 3 APPROXIMATELY HERE]  \nNumerous studies assessed students\u2019 writing attitudes by asking questions related to  \nenjoyment of writing (e.g.", 
  "Beck & Fetherston, 2003; Charney et al., 1995; Hamilton et al., 2013).", 
  "Often, these studies used a Likert scale to ask students the extent to which they liked writing (e.g.", 
  "Charney et al., 1995; Lee, 2013).", 
  "Other items asked students to contextualize their enjoyment of  \nwriting within a specified setting (e.g.", 
  "\u201cI do writing on my own outside of school\u201d (Graham et  \nal., 1993)) or in comparison to another activity (e.g.", 
  "\u201chow do you feel about writing instead of  \nplaying?\u201d (Graham et al., 2007)).", 
  "Some authors also chose to reverse-code enjoyment items (e.g.", 
  "\u201cwriting is a boring activity\u201d (Erdogan, 2013)).", 
  "Items measuring the perceived value of writing as part of writing attitude tended to ask  \nparticipants to consider how useful writing was in the pursuit of another goal, usually either an  \nCLARIFYING AN ELUSIVE CONSTRUCT 17  \nacademic goal (e.g.", 
  "\u201cYou have to be a good writer to do well in school\u201d (Knudson, 1993a)) or a  \ncareer goal (e.g.", 
  "\u201cHow important are well-written documents to the success of your business?\u201d  \n(Spartz & Weber, 2015)).", 
  "Some authors chose to reverse-code value items (e.g.", 
  "\u201cwriting is a  \nwaste of time\u201d (Graham et al., 1993)).", 
  "Most of the items measuring writing self-efficacy as part of writing attitude asked  \nparticipants to rate their perceived writing abilities and competencies.", 
  "Some items focused on  \nwriting self-efficacy in a general sense (e.g.", 
  "\u201cI am good at writing\u201d (Lee, 2013) or \u201cI\u2019m a good  \nwriter\u201d (Charney et al., 1995)), whereas others focused on writing self-efficacy in more specific  \ncontexts.", 
  "For instance, Markel (1994) asked participants about their writing self-efficacy when  \nusing a computer (e.g.", 
  "\u201cNow that I have access to the Macintosh, I feel that I write better\u201d) as  \nwell as how their writing self-efficacy differed when using a computer versus using pen and  \npaper (e.g.", 
  "\u201cI found it easier to do the in-class description on the Macintosh than the in-class  \ndescription on paper.\u201d).", 
  "Other items assessed general writing self-efficacy with effort as a caveat  \n(e.g.", 
  "\u201cI think that we can write very well as long as we put heart in it\u201d (Li et al., 2014)).", 
  "Still  \nothers addressed self-efficacy for a specific writing task (e.g.", 
  "\u201cI am good at writing a whole  \ncomposition\u201d (Knudson, 1991)) or for a specific aspect of the writing process (e.g.", 
  "\u201cIt is easy for  \nme to organize my ideas\u201d (Sturm & Rankin-Erickson, 2002)).", 
  "As with writing self-efficacy, items measuring writing apprehension or anxiety as part of  \nwriting attitude often depended on the purposes and contexts of the studies.", 
  "Some items  \nmeasured general writing apprehension (e.g.", 
  "\u201cI avoid writing if I can\u201d (Popovich & Masse, 2005)  \nand \u201cI\u2019m nervous about writing\u201d (Riffe & Stacks, 1992)).", 
  "Others measured apprehension toward  \nspecific writing tasks or processes (e.g.", 
  "\u201cI have a terrible time organizing my ideas in a  \ncomposition course\u201d (Shaver, 1990)).", 
  "Further, some items measured students\u2019 apprehension  \nCLARIFYING AN ELUSIVE CONSTRUCT 18  \nabout their writing being evaluated (e.g.", 
  "\u201cI\u2019m afraid of writing essays when I know they will be  \nevaluated\u201d (Shaver, 1990) and \u201cI worry about the writing grade\u201d (Lan et al., 2011)).", 
  "Qualitative measures of writing attitude.", 
  "Researchers have also explored writing  \nattitudes qualitatively in a variety of ways.", 
  "One common qualitative technique was to interview  \nstudy participants.", 
  "Interviews allowed participants not only a chance to elaborate on a response,  \nbut also to describe a change in thinking or experience over time that quantitative data may not  \ncapture (McMillan, 2015).", 
  "Given this, some researchers (n = 4) used interview questions to  \nsupplement quantitative data.", 
  "For instance, Knudson (1995) allowed students a chance to  \nelaborate on a quantitative item asked in her survey (\u201cYou have to be a good writer to do well in  \nschool\u201d) with interview questions asked afterward (\u201cIs writing important for school success?\u201d  \nAnd \u201cIs writing important in junior and senior high school?", 
  "What kind of writing do you do in  \nschool?\u201d).", 
  "Other studies (n = 7) used participants\u2019 written responses as qualitative data (e.g.", 
  "Bifuh- \nAmbe, 2013; Masse, 1999; Street, 2003).", 
  "As was the case in the semi-structured or unstructured  \ninterviews, studies in which written responses broadly asked for personal reflection (e.g.", 
  "Masse,  \n1999; Street, 2003) allowed participants to describe the experiences they felt were most  \nimportant.", 
  "Though written qualitative responses could prove useful in capturing attitudinal  \nnuances that quantitative responses might miss, researchers should be cautious in asking too  \nmany of these questions, since students with negative writing attitudes tend to write shorter  \nresponses than their peers with positive writing attitudes (Graham et al., 2012).", 
  "Proposed Definition  \nAs it is, the current landscape of writing attitudes research is similar to an impressionist  \npainting.", 
  "When viewed from afar, it appears to depict one clear, coherent image.", 
  "However, upon  \nCLARIFYING AN ELUSIVE CONSTRUCT 19  \ncloser inspection, this illusion of coherence is lost, and we\u2019re left instead with a pattern of often- \ndissonant studies within the body of literature.", 
  "To create a more coherent picture, we advocate for the adoption of a single, universal  \ndefinition of writing attitudes.", 
  "We propose that, in research contexts, writing attitudes should be  \ndefined as how the act of writing makes the author feel, ranging from happy to unhappy.", 
  "This  \ndefinition from Graham and colleagues (2007) seems appropriate for numerous reasons.", 
  "First, it  \nlargely preserves the meaning of Fishbein and Ajzen\u2019s (1975) definition of domain-general  \nattitude when applied to writing.", 
  "Second, it is written in simple, precise language that is difficult  \nto misinterpret.", 
  "Third, though the language of the definition is specific, it is also flexible enough  \nto allow for both qualitative and quantitative inquiry.", 
  "It provides a broad enough umbrella under  \nwhich to situate qualitative data while prescribing a spectrum useful for quantitative  \nmeasurement.", 
  "A fourth strength, and one related to this prescribed quantitative spectrum, is that  \nthis definition maintains the bipolar directionality of writing attitude (i.e.", 
  "it can be measured  \nalong a continuum punctuated by two opposite poles), which Allport (in Fishbein, 1967)  \nconsiders one of the most distinctive features of attitude measurements.", 
  "This allows researchers  \nto situate along this polar continuum by simply appending the words \u201cpositive\u201d or \u201cnegative,\u201d as  \nopposed to resorting to bipolar adjectives or adjectival phrases (e.g.", 
  "happy/unhappy,  \nenjoyment/lack of enjoyment).", 
  "Though this may seem a relatively small benefit, it allows for  \nboth easier searching and more succinct writing.", 
  "Thematic Results  \nThe thematic results presented here represent a synthesis of findings of the studies in this  \nreview that employed conceptual or operational definitions aligning with our proposed definition  \nof writing attitude.", 
  "These studies included all of those within the \u201cwriting attitude includes  \nCLARIFYING AN ELUSIVE CONSTRUCT 20  \nenjoyment of writing\u201d group (n = 19) as well as those in other groups that reported  \ndisaggregated, subscale, or qualitative results specifically aligning with our proposed definition  \n(Bass & Chambless, 1994; Chambless & Bass, 1995; Clark & Douglas, 2011; Clark & Dugdale,  \n2009; Erdogan, 2013; McGrail & Davis, 2011; Peacock & Breese, 1990).", 
  "Findings from studies  \nthat included measures of enjoyment or liking writing in their writing attitude measures but did  \nnot report these results separately (e.g.", 
  "Knudson, 1991; Li et al., 2014) were not used to develop  \nthemes.", 
  "Narrowing the thematic findings to this specific subset of studies will enable researchers  \nto use this synthesis to inform future research on writing attitudes.", 
  "Although we used only the findings from studies aligning with our proposed definition of  \nwriting attitude to generate themes, we occasionally mention other studies throughout this  \nsection in a contextual capacity.", 
  "Our reference of studies not aligning with our proposed  \ndefinition of writing attitude in this section is akin empirical studies\u2019 reference of other research  \nin the discussion section of a manuscript.", 
  "That is, these non-aligning studies may invoke  \narguments or provide speculation that warrants consideration along with our thematic findings.", 
  "Future directions for research are included in each thematic subsection.", 
  "Writing attitude and gender.", 
  "Numerous studies explored the relationship between  \nstudents\u2019 writing attitudes and student gender (e.g.", 
  "Cunningham, 2008; Clark & Douglas, 2011;  \nClark & Dugdale, 2009; Graham et al., 2012; Graham et al., 2007; Lee, 2013).", 
  "All but one  \n(Cunningham, 2008) found female students to have more positive writing attitudes than male  \nstudents.", 
  "These findings are in line with traditional gender role stereotypes and support previous  \nresearch indicating that females are more motivated in language arts and writing disciplines than  \nare males (Meece, Glienke, & Burg, 2006).", 
  "CLARIFYING AN ELUSIVE CONSTRUCT 21  \nThese gender-based differences in writing attitude also seem to influence writing  \nachievement.", 
  "For example, in a large study using data from the 2007 NAEP, Lee (2013) found  \nthat females with negative writing attitudes earned higher writing scores than males with positive  \nwriting attitudes.", 
  "Furthermore, gender had a medium effect size on writing achievement for the  \ngroups of students with the most negative writing attitudes as well as those with the most  \npositive writing attitudes (d = 0.5 and 0.6, respectively).", 
  "Some evidence suggests that females  \nhave superior processing speed on language-based tasks than males (Roivainen, 2011), so it may  \nbe the case that differences in attitude interact with differences in cognitive abilities to produce  \nthis achievement gap.", 
  "Student age may operate as a moderating factor in the relationship between student  \nwriting attitudes and gender.", 
  "That is, gender differences in writing attitude may be minimal or  \nnonexistent in young students and become more pronounced as students age.", 
  "For instance, in a  \nstudy with kindergarten students (age 5-6), Cunningham (2008) found no gender-based  \ndifferences in writing attitude.", 
  "However, in a study with first and third grade students, Graham  \nand colleagues (2007, 2012) found that females had more positive writing attitudes than males.", 
  "This seems to indicate that gender-based differences develop quickly and early, and may be  \ninfluenced by school setting.", 
  "Findings by Clark & Dugdale (2009) also indicate male and female writing attitudes  \ndiverge with age.", 
  "In their study, students age 8-11 were less likely to agree with the statement  \n\u201cgirls enjoy writing more than boys\u201d (41.6%) than were students age 11-14 (58.4%) or students  \nage 14-16 (47.8%).", 
  "This trend of males\u2019 writing attitudes declining into early to mid-secondary  \nschool before improving is consistent with some research on language arts achievement (Van de  \ngaer et al., 2009).", 
  "CLARIFYING AN ELUSIVE CONSTRUCT 22  \nAlthough a considerable amount of research has examined gender differences in  \nacademic domains, more research should be done on the relationship between gender and writing  \nattitude in order to better understand their interactions.", 
  "Specifically, researchers should examine  \ngender-based differences at various schooling levels, since no study included in this review  \nexplored these differences in college-aged students.", 
  "Furthermore, though multiple studies have  \nfound evidence supporting the hypothesis that females tend to have more positive writing  \nattitudes than males, no studies in this review have sought to examine the causes of these  \ndifferences.", 
  "Writing attitude and age.", 
  "For the most part, findings across studies suggest that younger  \nstudents tend to have more positive writing attitudes than older students (e.g.", 
  "Clark & Douglas,  \n2011; Graham et al., 1993; Harris & Graham, 2013).", 
  "For instance, Clark and Douglas (2011)  \nfound that only 12% of students aged 14-16 had very positive writing attitudes, compared to  \n34.6% of 7-11 year olds.", 
  "Inversely, 18% of students aged 14-16 had very negative writing  \nattitudes, compared to only 7% of 7-11 year olds.", 
  "However, findings from other studies suggest  \nthat the relationship between writing attitude and age may not be so straightforward.", 
  "In a study  \nwith first and third grade students, Graham and colleagues (2007) found no significant  \ndifferences in writing attitude between younger and older students.", 
  "Furthermore, Clark and  \nDugdale (2009) discovered that, though writing attitude generally tended to be negatively  \ncorrelated with age, writing attitudes reached their nadir in students aged 11-14 and began to  \nimprove in students aged 14-16.", 
  "Aged-based differences in writing attitude may be a result of differences in students\u2019 past  \nexperiences with writing.", 
  "Graham and colleagues (2007) suggested that, since they have had  \nfewer writing experiences, younger students might have \u201cmore ephemeral\u201d (p. 532) writing  \nCLARIFYING AN ELUSIVE CONSTRUCT 23  \nattitudes than older students.", 
  "They further posited that their writing attitudes harden as they  \ndevelop as writers and learn more about the writing process.", 
  "Similarly, Knudson (1993b) stated  \nthat older students may simply be less enthusiastic about writing, but they also likely have  \ndifferent expectations and conceptions of writing tasks than younger students, and these  \ndifferences in expectations relate to writing attitudes.", 
  "The tendency of writing attitude to decline with age may also relate to the types or modes  \nof writing students typically engage in.", 
  "That is, older students may be assigned less enjoyable  \nwriting tasks than younger students.", 
  "Multiple studies have found that students\u2019 writing attitudes  \nvary with the mode of writing (e.g.", 
  "story writing, workbook activities, report writing) being done  \n(e.g.", 
  "Hogan, 1980; Jeffery & Wilcox, 2014), with students having more negative attitudes toward  \nreport writing and more positive attitudes about writing letters to friends (Hogan, 1980).", 
  "Jeffery  \nand Wilcox (2014) found that students had negative attitudes toward writing assignments that  \nthey conceived of as overly formal or as being \u201cdevoid of subjectivity\u201d (p. 1111).", 
  "These students  \nwanted to be able to express their opinions through writing and believed that certain formats and  \ngenres of writing did not allow for such expression.", 
  "Since, regardless of discipline, academic  \nwriting is highly valued in colleges, and perhaps higher-level secondary classes as well, older  \nstudents may often find themselves writing in modes, formats, or genres they do not enjoy or feel  \ndisconnected from, such as reports, which could account for declines in writing attitude.", 
  "Qualitative data from Lunsford and colleagues (2013) illustrate the disengagement from  \nacademic writing that some students might feel, with one participant claiming that research \u201cjust  \nseemed like stealing to [her]\u201d (p. 476).", 
  "As with the relationship between writing attitude and  \ngender, more research is needed to better understand the relationship between writing attitude  \nand age.", 
  "Specifically, additional research with students in the later secondary grades or with  \nCLARIFYING AN ELUSIVE CONSTRUCT 24  \ncollege students is important to further examine the potential rebound in writing attitude (e.g.", 
  "Clark & Dugdale (2009)).", 
  "Writing attitude and technology use.", 
  "Due to the increasing prevalence of technology in  \neducation, researchers and practitioners alike should seek to better understand the relationship  \nbetween technology use and students\u2019 writing attitudes.", 
  "Clark and Dugdale (2009) note that the  \nproliferation of technological devices, social networking sites, and other digital writing platforms  \nhas dramatically changed how, and how often, students write.", 
  "The popularity of blogging and  \ntexting with students seems to suggest a positive relationship between technology use and  \nwriting attitudes, since it seems unlikely that students would choose to engage in activities they  \nhad negative attitudes towards.", 
  "Although the findings of many studies in this review support this  \nassumption (Beck & Fetherston, 2003; Clark & Douglas, 2011; Clark & Dugdale, 2009; McGrail  \n& Davis, 2011; Owston et al., 1991), findings from others do not (Blau & Campbell, 1991;  \nPeacock & Breese, 1990).", 
  "Studies comparing students\u2019 writing attitudes when using a computer to their writing  \nattitudes when writing with pencil and paper (e.g.", 
  "Beck & Fetherston, 2003; Blau & Campbell,  \n1991; Owston et al., 1991; Peacock & Breese, 1990) yielded mixed findings.", 
  "For instance, Beck  \n& Fetherston (2003) found that some students did not like pen-and-paper writing because they  \nhad messy handwriting, which they associated with bad writing.", 
  "Writing on the computer  \nimproved these students\u2019 writing attitudes because it nullified the negative attitudinal effects of  \nhandwriting.", 
  "Findings from other studies (Owston et al., 1991; Peacock & Breese, 1990) suggest  \nthat students enjoy writing more when using computers because it eliminated some of the tedium  \nof rewriting by hand.", 
  "However, other evidence indicates that using computers to write has no  \nsignificant effect on writing attitude (Blau & Campbell, 1991).", 
  "Furthermore, some students  \nCLARIFYING AN ELUSIVE CONSTRUCT 25  \npreferred writing with pencil and paper because they believed writing by hand was quicker than  \nusing a computer (Peacock & Breese, 1990).", 
  "Markel (1994) posits that users need to feel  \nproficient using a computer in order to experience an increase in writing attitudes, so a lack of  \nproficiency could explain why some students had negative or ambivalent attitudes toward writing  \nwhen using a computer.", 
  "A small number of studies explored the relationship between writing attitudes and  \nblogging (Clark & Dugdale, 2009; McGrail & Davis, 2011; Quadir & Chen, 2015).", 
  "In research  \nconducted in the UK by Clark and Dugdale (2009), 24% of young people claimed to have their  \nown blog.", 
  "They also found that students who regularly wrote on blogs enjoyed writing and  \nenjoyed sharing their writing with family and friends more than their peers who did not blog.", 
  "Qualitative findings support these positive associations between blogging and writing attitudes,  \nwith students indicating that they liked blogging because it made them feel more connected to  \ntheir audience and instilled in them a greater sense of agency (McGrail & Davis, 2011).", 
  "On the  \nother hand, Quadir and Chen (2015) found no difference in blog adoption between people with  \nheavy writing habits (i.e.", 
  "people with the most positive writing attitudes who write the most  \nfrequently) and those with light writing habits.", 
  "They posited that people with existing positive  \nwriting attitudes may be less likely to begin blogging because they might already have a writing  \nplatform (e.g.", 
  "a journal) they enjoy and feel comfortable with.", 
  "Although these findings seem promising, they should be viewed with caution.", 
  "One cause  \nfor concern is that some studies may conflate students\u2019 attitudes toward technology with  \nstudents\u2019 attitudes toward writing.", 
  "For example, Lan and colleagues (2011) define enjoyment as  \n\u201cthe extent to which the activity of using a computer system is perceived to be personally  \nenjoyable in its own right aside from the instrumental value of the technology\u201d (p. 151), which  \nCLARIFYING AN ELUSIVE CONSTRUCT 26  \nseems to indicate enjoyment of using a computer rather than enjoyment of writing.", 
  "In many  \ntechnology-based writing interventions, it is difficult to separate aspects of writing from aspects  \nof the writing platform, so it is likely difficult as well to get a true measure of writing attitude  \nthat does not, to some degree, also measure students\u2019 attitudes about the technology used.", 
  "Nevertheless, writing researchers should endeavor to separate these two constructs when  \nimplementing and reporting on technology-based interventions in the writing classroom.", 
  "Finally, one of the greatest strengths of technology may be its ability to provide cognitive  \nsupport for students throughout the writing process.", 
  "By lessening the cognitive load students  \nexperience when writing, technology use may positively influence their writing attitudes (Sturm  \n& Rankin-Erickson, 2002).", 
  "However, when using technology to support learning, educators  \nshould consider its potentially negative consequences.", 
  "For instance, though some evidence  \nindicates that using computers ameliorates the negative effects of having bad handwriting on  \nwriting attitudes (e.g.", 
  "Beck & Fetherston, 2003), a recent meta-analysis by Santangelo and  \nGraham (2016) found that improvements in handwriting via handwriting instruction was  \nassociated with gains in writing quality.", 
  "If students with poor handwriting are given word  \nprocessing software as an alternative to improving their handwriting, the support may very well  \nturn into a crutch.", 
  "Therefore, educators must be cognizant of when and how they use technology  \nin their instruction.", 
  "Process writing approach.", 
  "Process writing, often referred to as writer\u2019s workshop,  \nbroadly refers to a writing instructional framework requiring students to revise a piece of writing  \nnumerous times based on comments they receive (Baker, 1993).", 
  "More specifically, process  \nwriting is cyclical, collaborative, reflective, often student-centered, and calls for teachers to write  \nin front of, as well as alongside, students (see e.g.", 
  "Atwell, 1998; Graves, 1983).", 
  "Advocated for  \nCLARIFYING AN ELUSIVE CONSTRUCT 27  \nby the National Writing Project (NWP), the process approach to writing has continued to gain  \npopularity in American school systems since being championed by writing reformers such as  \nLucy Calkins (1983) and Donald Graves (1983) in the early 1980s.", 
  "Despite the popularity of  \nprocess writing, few studies have examined the relationship between a process-writing approach  \nto teaching writing and writing attitudes (Bass & Chambless, 1994; Chambless & Bass, 1996;  \nSeban, 2012).", 
  "Evidence from these studies suggests a positive relationship between process  \nwriting and writing attitudes, though more research is warranted, particularly since a recent  \nmeta-analysis by Graham and Sandmel (2011) found that, contrary to their hypothesis, process  \nwriting did not lead to significant increases in writing motivation.", 
  "Nevertheless, in the only experimental study in this review on process writing and writing  \nattitudes, Seban (2012) found that the process approach to writing instruction had a positive  \neffect on the writing attitudes of third grade students in Turkey.", 
  "She suggests that increases in  \nstudent writing attitude were a result of process writing allowing for more meaningful and  \npersonal writing experiences.", 
  "Although not explicitly studying the relationship between process writing and writing  \nattitudes, Jeffery and Wilcox (2014) found that students tended to have more positive attitudes  \nabout writing assignments allowing for subjectivity than about tasks they perceived as not  \nallowing for subjective expression.", 
  "Similarly, Clark and Douglas (2011) found that students  \nenjoy writing more when they can choose their topics.", 
  "Since the process writing approach  \ntypically involves encouraging students to take ownership over their writing (Graham &  \nSandmel, 2011), this perceived subjectivity, or the perceived allowance for personal expression,  \nis seemingly central to process writing.", 
  "These findings support Seban\u2019s (2012) notion that  \nCLARIFYING AN ELUSIVE CONSTRUCT 28  \nprocess writing may improve writing attitudes by providing writers with writing experiences that  \nallow for more choice and personal expression.", 
  "Writing attitude and writing achievement.", 
  "Though numerous studies have discovered  \na positive relationship between writing attitude and writing achievement (Clark & Douglas,  \n2011; Cunningham, 2008; Graham et al, 2007, 2012; Lee, 2013; Plata, 2008), this relationship  \nhas not been studied extensively (Graham et al., 2007).", 
  "In a large study (n = 17,089) of British  \nstudents age 8-16, Clark and Douglas (2011) found that only 8% and 18% of students writing  \nbelow grade level or at grade level, respectively, had very positive writing attitudes, whereas  \n61% of students writing above grade level had very positive writing attitudes.", 
  "Taken in context  \nwith findings by Graham and colleagues (2007) that writing attitudes influence writing  \nachievement unidirectionally, this suggests that improving writing attitudes is instrumental in  \nimproving writing achievement.", 
  "Some evidence also suggests that the strength of the relationship  \nbetween writing attitude and writing achievement is stronger in females than in males (Lee,  \n2013).", 
  "Graham and colleagues (2007) posit that the relationship between writing attitude and  \nwriting achievement may change as students grow older and develop as writers.", 
  "Such a  \nhypothesis is appealing, particularly given the findings that writing attitude tends to decline as  \nstudents age.", 
  "Though some evidence with students in elementary (e.g.", 
  "Cunningham, 2008;  \nGraham et al., 2007) and middle school (Lee, 2013) indicates a positive relationship between  \nwriting attitude and writing achievement, more evidence is needed, particularly evidence with  \nolder students and evidence derived from longitudinal studies, to detect an age-based change in  \nthis relationship.", 
  "CLARIFYING AN ELUSIVE CONSTRUCT 29  \nIt is also worth discussing intervention studies measuring both writing attitude and  \nwriting achievement as outcomes.", 
  "Findings from these studies were mixed, with one (Owston et  \nal., 1991) finding that writing on computers led to increases in both writing attitude and writing  \nachievement in 8th grade students, another (Seban, 2012) finding that the process approach to  \nwriting instruction led to increases in writing attitude but not writing achievement in third grade  \nstudents, and a third (Blau & Campbell, 1991) finding writing on computers did not increase  \neither writing attitude or writing achievement for college freshmen.", 
  "Certainly, the results of these  \nstudies depend heavily on the nature of the interventions as well as other factors; however, they  \nare relevant here because they reinforce the notion that the relationship between writing attitude  \nand writing achievement is complex and multifaceted.", 
  "For instance, Seban (2012) surmised that  \nthe length of an intervention or instructional practice may influence how it affects writing  \nattitude and writing achievement.", 
  "More specifically, she posits that interventions likely need to  \nbe longer to produce significant differences in writing achievement than they do to produce  \ndifferences in writing attitudes.", 
  "Given that attitudes are relatively lengthy but ultimately  \nimpermanent affective states (Graham et al., 2012), it may be that they are more malleable than  \ncognitive characteristics relating to writing achievement.", 
  "Corollary to this is that, though educators should strive to improve students\u2019 writing  \nattitudes, they must do so in the context of effective instruction.", 
  "For example, some evidence  \npresented above suggests that process writing practices may improve students\u2019 writing attitudes;  \nhowever, Harris and Graham (2013) noted that some classrooms employing a process approach  \nto writing instruction may neglect teaching conventional skills and strategies that students need  \nto succeed as writers.", 
  "Educators should be apprised that interventions leading to improvements in  \nstudents writing attitudes may not yield commensurate gains in writing achievement.", 
  "CLARIFYING AN ELUSIVE CONSTRUCT 30  \nWriting attitudes and special populations.", 
  "Special populations of students may have  \ndifferent attitudes about writing than their peers.", 
  "A handful of studies in this review examined  \nthe writing attitudes of students with learning disabilities (LD; Graham et al., 1993; Harris &  \nGraham, 2013), students identified as gifted (Clark & Tollefson, 1991), and students speaking a  \nnonstandard English dialect (Baxter & Holland, 2007).", 
  "A recent review by Harris and Graham (2013) indicated that students with LD often tend  \nto exhibit negative writing attitudes quite early in elementary school, despite most students  \nhaving positive attitudes toward writing when they are young.", 
  "In a study of fourth and eighth  \ngrade students, Graham and colleagues (1993) found significant attitudinal differences between  \nLD students and non-LD students.", 
  "Interestingly, the authors did not find significant differences  \nin writing self-efficacy between the two groups, which suggests that though students with and  \nwithout LD held similar beliefs about their writing competence, they differed in their enjoyment  \nof writing.", 
  "Clark and Tollefson (1991) noted that there is a commonly held misconception that all  \ngifted students are highly motivated and enjoy learning.", 
  "They found that gifted students with  \ndifferent goal orientations displayed different levels of motivation to write.", 
  "More specifically,  \nstudents with mastery-oriented beliefs had more positive writing attitudes than students  \ndisplaying learned helplessness behaviors.", 
  "More research is needed to explore not only how  \ngifted students differ from one another in their writing attitudes, but how this population of  \nstudents might differ from their normally-achieving or even their LD peers.", 
  "Baxter and Holland (2007) explored the writing attitudes of college-aged students  \nspeaking a nonstandard English dialect.", 
  "In a quasi-experimental study, the authors implemented  \nan intervention designed to make participants more aware of subject-verb agreement differences  \nCLARIFYING AN ELUSIVE CONSTRUCT 31  \nbetween Standard English and nonstandard English dialects.", 
  "They found that the writing  \nattitudes of those in the experimental group increased significantly more than those in the control  \ngroup, which may suggest that greater knowledge of, and perhaps proficiency with, Standard  \nEnglish conventions is associated with more positive writing attitudes.", 
  "Once again, more  \nresearch is needed to explore how the writing attitudes of people primarily speaking nonstandard  \nEnglish dialects differ from those who primarily speak Standard English.", 
  "Writing attitudes and other motivational constructs.", 
  "Because there is not a widely- \nagreed-upon definition of writing attitude, discussing the relationship between writing attitude  \nand other motivational constructs is difficult.", 
  "Findings from some studies suggest positive  \nrelationships between writing attitudes and other motivational constructs, whereas others situate  \nthose very constructs within writing attitudes.", 
  "A clear, consistent definition of writing attitudes,  \nsuch as the one we propose in this review, will allow for future research to examine the  \nrelationships between writing attitudes and other motivational constructs in a more systematic  \n\nThat said, writing attitude as we define it may be linked to writing self-efficacy, or  \nstudents\u2019 beliefs in their ability to write well (Author, 2014).", 
  "For instance, in a study with  \nundergraduate students, Charney and colleagues (1995) found that students with positive writing  \nattitudes were more likely to assess themselves as good writers.", 
  "Other studies reported similar  \nfindings with elementary teachers (Bifuh-Ambe, 2013) and 8-16 year old students (Clark &  \nDugdale, 2009).", 
  "However, in a study with third grade students, Seban (2012) found that a  \nprocess-writing intervention led to improvements in participants\u2019 writing attitudes but not in their  \nwriting self-efficacy.", 
  "This seems to suggest that, as we posit in this paper, writing attitudes and  \nwriting self-efficacy are separable constructs.", 
  "More research should be done to explore the  \nCLARIFYING AN ELUSIVE CONSTRUCT 32  \nrelationships between writing attitude and writing self-efficacy across participants varying in  \ndemographics.", 
  "Students\u2019 writing attitudes may also be related to their mindsets and epistemic beliefs.", 
  "Charney and colleagues (1995) found that students who believed writing was a learnable skill  \ndemonstrated more positive writing attitudes than students who believed writing was a fixed or  \ninnate skill.", 
  "Similarly, students with high evaluativism beliefs (i.e.", 
  "students who believe that  \ntruth can be approximated by sound logic and rigorous methods) demonstrated more positive  \nwriting attitudes than students with high absolutism beliefs or high relativism beliefs.", 
  "Because  \nwriting is such a difficult task for many students and even many professional writers, it seems  \nplausible that these beliefs about the nature of writing and of knowledge in general influence  \nstudents\u2019 writing attitudes.", 
  "That is, certain auspicious beliefs about writing, such as the belief  \nthat writing is learnable or that the truth can be approximated through careful, thoughtful writing,  \nmight promote positive writing attitudes despite the inherent difficulty of writing.", 
  "Future  \nresearch should consider how epistemic beliefs relate to writing attitudes in a variety of student  \npopulations.", 
  "Conclusions  \nJust about any writing instructor would agree that writing attitudes matter.", 
  "Indeed, this  \nassumption undergirds innumerable books written for these practitioners, ranging from the early  \nwriters\u2019 workshop advocates (e.g.", 
  "Calkins, 1983; Graves, 1983) to more contemporary authors  \nwriting in the context of test-based accountability (e.g.", 
  "Gallagher, 2015).", 
  "In these books and  \nothers, improving students\u2019 attitudes toward writing is often the first step in improving writing  \ninstruction.", 
  "CLARIFYING AN ELUSIVE CONSTRUCT 33  \nBut what, exactly, is writing attitude?", 
  "In the literature, it seems to be both everything and  \nnothing.", 
  "With so much disagreement across the research literature about what writing attitude is,  \nit is all but impossible to move beyond this gut-level assertion that writing attitude matters to  \nexplore why, how, and in what contexts it matters.", 
  "The findings presented in this review suggest not only that writing attitudes have been  \npositively associated with writing achievement, but also that there are significant differences in  \nwriting attitudes for various student populations.", 
  "However, due to the variability in measures and  \ndefinitions of writing attitudes across this work, there is insufficient evidence to make many  \nauthoritative claims.", 
  "This review seeks to advance writing attitudes research and, ultimately,  \nwriting instruction by configuring the extant research in the area, describing general findings,  \ncomparing and contrasting conceptual and operational definitions, and proposing a definition for  \nwriting attitude.", 
  "We believe that, following Wittgenstein\u2019s logic, once we agree on our use of the  \nterm writing attitudes, we imbue it with meaning.", 
  "Only then can the research community engage  \nin collaborative, systematic inquiry that leads to positive influences on the habits and abilities of  \nour writing students.", 
  "CLARIFYING AN ELUSIVE CONSTRUCT 34"
 ]
}