{
 "document_id": "11732558355852057942", 
 "sentences": [
  "\nRyan S. Wells  Frances K. Stage E d i t o R S \nNew Scholarship  in Critical  Quantitative  Research\u2014Part 2:  New Populations,  Approaches, and  Challenges \nN u m b e r   1 6 3 \n\f\fNew Directions for Institutional Research \nJohn F. Ryan Editor-in-Chief \nGloria Crisp Associate Editor \nNew Scholarship in Critical Quantitative Research\u2014Part 2: New Populations, Approaches, and Challenges \nRyan S. Wells Frances K. Stage \nNumber 163 Jossey-Bass San Francisco \n\fNEW SCHOLARSHIP IN CRITICAL QUANTITATIVE RESEARCH\u2014PART 2: NEW POPULATIONS, APPROACHES, AND CHALLENGES Ryan S. Wells, Frances K. Stage (eds.)", 
  "New Directions for Institutional Research, no.", 
  "163 John F. Ryan, Editor-in-Chief Gloria Crisp, Associate Editor \nCopyright \u00a9 2015 Wiley Periodicals, Inc., A Wiley Company \nAll rights reserved.", 
  "No part of this publication may be reproduced in any form or by any means, except as permitted under section 107 or 108 of the 1976 United States Copyright Act, without either the prior written per- mission of the publisher or authorization through the Copyright Clear- ance Center, 222 Rosewood Drive, Danvers, MA 01923; (978) 750-8400; fax (978) 646-8600.", 
  "The code and copyright notice appearing at the bot- tom of the first page of an article in this journal indicate the copyright holder\u2019s consent that copies may be made for personal or internal use, or for personal or internal use of specific clients, on the condition that the copier pay for copying beyond that permitted by law.", 
  "This consent does not extend to other kinds of copying, such as copying for general distribution, for advertising or promotional purposes, for creating collec- tive works, or for resale.", 
  "Such permission requests and other permission inquiries should be addressed to the Permissions Department, c/o John Wiley & Sons, Inc., 111 River St., Hoboken, NJ 07030; (201) 748-8789, fax (201) 748-6326, http://www.wiley.com/go/permissions.", 
  "NEW DIRECTIONS FOR INSTITUTIONAL RESEARCH (ISSN 0271-0579, electronic ISSN 1536-075X) is part of The Jossey-Bass Higher and Adult Education Series and is published quarterly by Wiley Subscription Services, Inc., A Wiley Company, at Jossey-Bass, One Montgomery Street, Suite 1200, San Francisco, California 94104-4594 (publication number USPS 098- 830).", 
  "POSTMASTER: Send address changes to New Directions for Insti- tutional Research, Jossey-Bass, One Montgomery Street, Suite 1200, San Francisco, California 94104-4594.", 
  "INDIVIDUAL SUBSCRIPTION RATE (in USD): $89 per year US/Can/Mex, $113 rest of world; institutional subscription rate: $341 US, $381 Can/Mex, $415 rest of world.", 
  "Single copy rate: $29.", 
  "Electronic only\u2013 all regions: $89 individual, $341 institutional; Print & Electronic\u2013US: $98 individual, $410 institutional; Print & Electronic\u2013Canada/Mexico: $98 individual, $450 institutional; Print & Electronic\u2013Rest of World: $122 individual, $484 institutional.", 
  "EDITORIAL CORRESPONDENCE should be sent jfryan@uvm.edu.", 
  "to John F. Ryan at \nNew Directions for Institutional Research is indexed in Academic Search (EBSCO), Academic Search Elite (EBSCO), Academic Search Premier (EBSCO), CIJE: Current Index to Journals in Education (ERIC), Contents Pages in Education (T&F), EBSCO Professional Development Collection (EBSCO), Educational Research Abstracts Online (T&F), ERIC Database (Education Resources Information Center), Higher Education Abstracts (Claremont Graduate University), Multicultural Education Abstracts (T&F), Sociology of Education Abstracts (T&F).", 
  "Cover design: Wiley Cover Images: \u00a9 Lava 4 images | Shutterstock \nMicrofilm copies of issues and chapters are available in 16mm and 35mm, as well as microfi che in 105mm, through University Microfilms, Inc., 300 North Zeeb Road, Ann Arbor, Michigan 48106-1346. \nwww.josseybass.com \n\fTHE ASSOCIATION FOR INSTITUTIONAL RESEARCH (AIR) is the world\u2019s largest professional association for institutional researchers.", 
  "The organization pro- vides educational resources, best practices, and professional development opportunities for more than 4,000 members.", 
  "Its primary purpose is to sup- port members in the process of collecting, analyzing, and converting data into information that supports decision making in higher education.", 
  "CONTENTS \nEDITORS\u2019 NOTES Ryan S. Wells, Frances K. Stage Wells and Stage connect the work in this second volume to the first, summarize the critical quantitative approach, and set the stage for the chapters that follow.", 
  "1.", 
  "Use of Large-Scale Data Sets to Study Educational Pathways of American Indian and Alaska Native Students Susan C. Faircloth, Cynthia M. Alcantar, Frances K. Stage This chapter discusses issues and challenges encountered in using large-scale data sets to study the educational experiences and subse- quent outcomes for American Indian and Alaska Native students.", 
  "It concludes with recommendations for constructing and analyzing large- scale data sets to better represent the diversity of cultures and experi- ences among these populations.", 
  "2.", 
  "Researching Students with Disabilities: The Importance of Critical Perspectives Annemarie Vaccaro, Ezekiel W. Kimball, Ryan S. Wells, Benjamin J. Ostiguy Students with disabilities are underrepresented in college and in the research done about college students.", 
  "This chapter examines that ex- clusion and proposes ways to conduct research that more fully accounts for this diverse and important college population and leads to a greater understanding of their college access and success.", 
  "3.", 
  "Using Big (and Critical) Data to Unmask Inequities in Community Colleges Cecilia Rios-Aguilar This chapter examines assumptions regarding the value and power of big data, especially as it relates to issues of equity in community colleges, and concludes with a discussion of the opportunities and challenges of using big data, critically, for institutional researchers.", 
  "4.", 
  "Application of Person-Centered Approaches to Critical Quantitative Research: Exploring Inequities in College Financing Strategies Lindsey Malcom-Piqueux Person-centered approaches, as contrasted with more common variable-centered approaches, are presented as methods to explore questions related to equity for historically disadvantaged groups.", 
  "The chapter concludes with a brief illustrative example of a critical, person- centered analysis of students\u2019 college financing strategies.", 
  "5.", 
  "Critical Social Network Analysis in Community Colleges: Peer Effects and Credit Attainment Manuel S. Gonz\u00b4alez Canch\u00b4e, Cecilia Rios-Aguilar This chapter uses existing institutional data to examine peer effects in community colleges via critical social network analysis.", 
  "The chapter ends with a discussion of the implications of using that type of analysis to measure inequities in higher education.", 
  "6.", 
  "What Is \u201cGood\u201d Research?", 
  "Revealing the Paradigmatic Tensions in Quantitative Criticalist Work Ebelia Hern\u00b4andez This chapter draws examples of methodological issues from a study that employed critical race theory and quantitative criticalism.", 
  "It reviews practical implications and methodological challenges in regard to the development of future quantitative criticalist studies.", 
  "7.", 
  "Past, Present, and Future of Critical Quantitative Research in Higher Education Ryan S. Wells, Frances K. Stage Wells and Stage recap and respond to each chapter in the volume and conclude the two-volume series with a look toward the future use of quantitative criticalism by higher education scholars and institutional researchers.", 
  "EDITORS\u2019 NOTES \nSeven years ago, New Directions for Institutional Research published the volume Using Quantitative Data to Answer Critical Questions (Stage, 2007).", 
  "In that volume, a group of quantitative researchers sought to differentiate their approaches to quantitative research from more traditional positivistic and postpositivistic approaches.", 
  "The term \u201cquantitative criticalists\u201d de- scribed researchers who used quantitative methods to represent educational processes and outcomes to reveal inequities and to identify perpetuation of systematic inequities.", 
  "The term also included researchers who questioned models, measures, and political processes in order to ensure equity when describing educational experiences.", 
  "These scholars resisted traditional quantitative research motivations that sought solely to confirm theory and explain processes.", 
  "Kincheloe and McLaren\u2019s (1994) description of critical work was useful as grounding: \n\u2022 Thought is mediated by socially and historically created power relations.", 
  "\u2022 Facts cannot be isolated from values.", 
  "\u2022 The relationship between concept and object is never fixed and is often \nsocially mediated.", 
  "\u2022 Language is central to the formation of subjectivity.", 
  "\u2022 Certain groups in society hold privilege over others that is maintained if \nsubordinates accept their status as natural.", 
  "\u2022 Oppression has many faces that must be examined simultaneously.", 
  "\u2022 Mainstream research practices generally reproduce class, race, and gender \noppression.", 
  "In the wake of the 2007 publication, there was an increase in the explicit use of critical approaches in quantitative higher education journal articles, dissertations, and other publications, although there were also several examples of resistance to this attempt.", 
  "Overall though, there was enough continued interest at conferences and through informal conversa- tions to provide the impetus for us to revisit the topic in print.", 
  "Our recent New Directions for Institutional Research volume (No.", 
  "158, Stage & Wells, 2014), New Scholarship in Critical Quantitative Research\u2014Part I: Studying Institutions and People in Context, was the first step in that direction.", 
  "That volume provided an expanded conceptualization of the tasks that critical quantitative inquiry addresses to include the need to conduct culturally relevant research by studying institutions and people in context.", 
  "This final volume continues where that one left off, examining the cur- rent state of critical quantitative inquiry and looking to its use in the future.", 
  "NEW DIRECTIONS FOR INSTITUTIONAL RESEARCH, no.", 
  "163 \u00a9 2015 Wiley Periodicals, Inc.", 
  "Published online in Wiley Online Library (wileyonlinelibrary.com) \u2022 DOI: 10.1002/ir.20082 \nNEW SCHOLARSHIP IN CRITICAL QUANTITATIVE RESEARCH\u2014PART 2 \nSpecifically, this volume aims to apply the critical quantitative paradigm to new populations and new approaches, while acknowledging the challenges that accompany it.", 
  "In the first two chapters, authors propose ways that criti- cal quantitative perspectives can be useful in studying American Indian and Alaska Native students as well as college students with disabilities.", 
  "These are populations that are not only underserved in college but are underrep- resented in institutional and higher education research as well.", 
  "Chapters 3, 4, and 5 have authors proposing a critical quantitative paradigm alongside the use of cutting-edge methods and approaches, point- ing out the power as well as the dangers of doing so.", 
  "Big data, person- centered approaches (rather than variable-centered approaches), and so- cial network analysis are all presented as methods than can be leveraged critically to improve equity and outcomes for oppressed and marginalized groups in college.", 
  "In Chapter 6, a critical quantitative project is used as an example to highlight the tensions and dangers in this type of work, cautioning and yet encouraging researchers about the approach.", 
  "Especially useful in this chap- ter are thoughts about the ways that qualitative and quantitative researchers, each with critical aims, can work productively together.", 
  "In the final chapter, we respond to each of the subsequent chapters and look back over the two-volume series.", 
  "In doing so, we see where this type of work has come in the past decade and propose where this type of research may go in the future.", 
  "We ultimately challenge institutional and higher ed- ucation researchers to both expand and critique this growing body of work by generating new ways of thinking about the broad array of populations participating in and served by higher education while keeping in mind the goals of revealing inequity, challenging marginalization, and helping all stu- dents to succeed.", 
  "Ryan S. Wells Frances K. Stage"
 ]
}