{
 "document_id": "1173293.1", 
 "sentences": [
  "What Can Students Learn from Making Games?", 
  "Findings from a Research Synthesis1  \nYasmin B. Kafai, University of Pennsylvania  \nQuinn Burke, College of Charleston  \nAbstract: For the past decade, one crucial dimension has been left out of discussions in serious  gaming\u2014namely, children\u2019s learning through making, or constructing, their own games.", 
  "These  constructionist activities have always been part of the larger gaming ecology but have received  far less attention than their instructionist counterparts.", 
  "This article addresses what, students can  learn in the process of making and sharing their own homemade and modded video games by  offering a review of the personal, social, and cultural dimensions of making games.", 
  "We propose  that future discussions of serious gaming ought to be inclusive of constructionist approaches to  realize the full potential of serious gaming.", 
  "Making games, we contend, not only more genuinely  introduces children to a range of technical skills but also ultimately connects them to each other  within the gaming ecology, addressing the persistent issues of access and diversity that have long  faced traditional digital gaming cultures.", 
  "Objectives.", 
  "The examination of the educational potential of serious games has focused mostly  on playing games and not on what students can learn through making, or constructing, their own  Theoretical Framework.", 
  "We examined the educational potential of making games for learning  in terms of personal, social and cultural dimensions informed by constructionist theory (Kafai,  2006;  Papert,  1980).", 
  "Personal  dimensions  refer  to  the  academic  and  attitudinal  outcomes  that  making  games  can  provide  to  learners.", 
  "The  social  dimension  focuses  on  collaborative  arrangements ranging from small groups to larger groups in massive online communities.", 
  "The  cultural dimensions focus on how factors such as gender and race have been part of the learning  arrangements and/or impacted outcomes.", 
  "Methods and Data.", 
  "Between 2014 and 2015, we conducted surveys of published papers on the   topic    of    children\u2019s    learning    while    making    games    and    identified    56    pertinent  studies.", 
  "Collectively  over  9,000  youth  participated  in  the  studies  reviewed  including  middle  school  (53%), followed by high school (20%), and elementary school (9%) students with 18% of the  studies including multiple school levels.", 
  "Over half of studies (57%) included both female and  male students as their participants.", 
  "Results.", 
  "Of  the  56  studies  included  in  our  review,  the  largest  number  of  studies  has  and  continues to focus on learning programming, followed by other academic subjects.", 
  "Forty- four   percent  of  studies  focused  on  children  developing  computational  strategies  to problem  solve followed by 34% explicitly dealing with children learning computational concepts while  27% examined shifts in learners\u2019 perspectives about the nature of programming  and  computer  science.", 
  "Furthermore,  34%  examined  children\u2019s  own  sense of learning as a particular process  \t\r \u00a0\t\r \u00a0\t\r \u00a0\t\r \u00a0\t\r \u00a0\t\r \u00a0\t\r \u00a0\t\r \u00a0\t\r \u00a0\t\r \u00a0\t\r \u00a0\t\r \u00a0\t\r \u00a0\t\r \u00a0\t\r \u00a0\t\r \u00a0\t\r \u00a0\t\r \u00a0\t\r \u00a0\t\r \u00a0\t\r \u00a0\t\r \u00a0\t\r \u00a0\t\r \u00a0\t\r \u00a0\t\r \u00a0\t\r \u00a0\t\r \u00a0\t\r \u00a0\t\r \u00a0\t\r \u00a0\t\r \u00a0\t\r \u00a0\t\r \u00a0\t\r \u00a0\t\r \u00a0\t\r \u00a0\t\r \u00a0\t\r \u00a0\t\r \u00a0\t\r \u00a0\t\r \u00a0\t\r \u00a0\t\r \u00a0\t\r \u00a0\t\r \u00a0\t\r \u00a0\t\r \u00a0\t\r \u00a0\t\r \u00a0\t\r \u00a0\t\r \u00a0\t\r \u00a0\t\r \u00a0\t\r \u00a0\t\r \u00a0\t\r \u00a0\t\r \u00a0\t\r \u00a0\t\r \u00a0\t\r \u00a0 1  For  more  detail,  consult  the  free  access  version  :Kafai,  Y.", 
  "B.", 
  "&  Burke,  Q.", 
  "(2015).", 
  "Constructionist  Gaming:  Understanding the Benefits of Making Games for Learning.", 
  "Educational Psychologist, 50(4), 313-334.", 
  "(e.g., \u201clearning about learning\u201d) while 16% of studies investigated children learning particular  subject matter content through the game making process.", 
  "One half of the studies took place out  of schools, while the other half of studies occurred during the school day with only a few, 5%,  running in combination with an afterschool program.", 
  "Scholarly  significance.", 
  "Making  and  modeling  games  proved  to  be  a  compelling  context  for  learning  computational  concepts  and  practices  and  broadening  participants\u2019  perspectives  on  computing and STEM overall.", 
  "These results, while overwhelmingly positive, also raised several  concerns: (1) the length of involvement in game design; (2) the framing of learning with and  about computation; (3) the collection of data and lack of information about race; (4) the lack of  negative findings, (5) the few studies focused on collaborative learning, and (6) the absence of  online  opportunities.", 
  "Future  directions  should  consider  combining  instructionist  and  constructionist gaming for learning (Kafai & Burke, 2016)."
 ]
}