{
 "document_id": "1173372.1", 
 "sentences": [
  "Running Head: CRITICAL EXAMINATION OF ELP CURRICULUM  \nLearning Language in a New Culture:  \nA Critical Examination of University ELP Curriculum   \n\f CRITICAL EXAMINATION OF ELP CURRICULUM   \nAbstract  \nThe globalization of education has led students from countries around the world to enroll in  \nAmerican institutions of higher education at significant rates.", 
  "Before doing so, these students  \noften enter programs to improve their English-language skills.", 
  "While the curricula of such  \nprograms most often have an overt linguistic focus, they can also function as instruments of  \nsocialization.", 
  "Socialization into discourse communities is often acceptable to students (and  \nunavoidable), yet it can be problematic when misidentified or ignored by those who may help  \nfacilitate it.", 
  "The current study drew on an interview of one teacher\u2019s perceptions of a curriculum  \nused in a business English program and used critical and positive discourse analysis to examine  \nthe curriculum for evidence of culturally-influenced qualities that serve to socialize students into  \nbusiness English communities, as defined by the program.", 
  "Findings revealed several curricular  \nelements identified through discourse analysis that can be identified as culturally related.", 
  "These  \nfindings serve to inform a re-examination of the relationship between language (curriculum) and  \nculture and how that relationship appears in the language classroom.", 
  "Keywords: United States, adult education, English language teaching, discourse analysis,  \ncurriculum, culture  \n\f CRITICAL EXAMINATION OF ELP CURRICULUM   \nIntroduction  \nThe many economic and political forces that have caused educational institutions to  \nbecome more internationally-focused have enabled (and been enabled by) the recent  \nglobalization of higher education.", 
  "This change has led to the categorization of English as the  \ncurrent lingua franca for academic and scientific communication (Altbach & Knight, 2007).", 
  "Because of such prestige, English has become a \u2018gatekeeper\u2019 to advancement on the personal,  \nnational, and international level (Pennycook, 1994, p. 13).", 
  "As might thus be expected, students  \nfrom around the world who seek to complete higher education often do so by either enrolling in  \nfull-time degree programs in the US or at least spending a portion of their home-based  \neducational efforts studying abroad here or in other English-dominant countries.", 
  "During the  \n2014-2015 school year alone, nearly one million students from other countries enrolled at  \nAmerican institutions of higher education (Institute of International Education, 2015).", 
  "Requisite  \nto an international student\u2019s acceptance to an American institution is an ability to speak English,  \nso prior to beginning their degree programs, these students may attend a program specifically  \nformulated to help them improve their English-language skills.", 
  "Almost 60,000 international  \nstudents utilized this option in 2008 and enrolled in intensive English programs (IEPs) or English  \nfor academic purposes (EAP) programs in the US (Institute of International Education, 2013).", 
  "The curricula of these programs often have an overt linguistic focus in which students are  \ninstructed in and evaluated on their English abilities.", 
  "As Nieto (2002) pointed out, notions that  \nlanguage could be taught in isolation from the culture(s) in which it is embedded prevailed in  \nprevious educational research but have been thoroughly undermined by current scholarship and  \ntheory.", 
  "Scholars now understand that language and culture are inherently connected (i.e., Agar\u2019s  \n(1994) concept of languaculture, which presents language as encompassing linguistic skills as  \n\f CRITICAL EXAMINATION OF ELP CURRICULUM   \nwell as cultural and experiential knowledge) and that language-focused curricula also help  \nstudents navigate the culture in which the language is spoken (Nieto, 2002).", 
  "This cultural layer  \nof curriculum, referred to as the \u2018hidden curriculum,\u2019 can most easily be seen outside of course  \nmaterials at the most general level via the extracurricular events planned for students (e.g.,  \nsporting events, holiday celebrations) and at the curricular level via the course catalogue (some  \nprograms offer courses on cultural communications, for example) (Joseph, 2011, p. 5).", 
  "However, in addition to these readily-identifiable cultural aspects of a language program,  \nthe curricula of the courses themselves often include hidden cultural themes.", 
  "These are the  \ncentral focus of the current paper.", 
  "With the presence of such a hidden curriculum, program goals  \ncan become two-fold: to assist students in improving their English language skills and to  \nsocialize them into the culture in which they are learning (Pennycook, 1994).", 
  "Research on  \nlanguage education has shown how this type of exposure to culture as it is connected to learning  \na language enhances language acquisition, so cultural exposure can be a welcomed aspect of  \nstudy when the students attending the program are expecting it (Nunan, 2010).", 
  "However, it can  \nalso be problematic for students if included in curricula in a covert or unanticipated manner.", 
  "Such an occurrence may indirectly encourage students to abandon their home culture in favor of  \nthe one in which they are learning, even if just temporarily, or send a message that one particular  \nculture is more valuable than another.", 
  "As discussed below, the latter issue can be remedied by  \nlooking for places in the curricula in which teachers and students are in fact able to incorporate  \nother cultural viewpoints rather than adopting just one.", 
  "Even further complexities arise when such cultural forces are acknowledged as part of the  \ncurriculum but labeled as arising from a wider set of values rather than pertaining to a single  \nculture.", 
  "The current study seeks to examine a curriculum that falls under this label, that of a  \n\f CRITICAL EXAMINATION OF ELP CURRICULUM   \nbusiness English program which serves students from other countries who would like to use  \nEnglish in international business settings.", 
  "In the context of this study, curriculum can be thought  \nof as the materials and guides given to teachers in this program that are used by them in the  \nclassroom activities and tasks, often in individualized ways (Joseph, 2011).", 
  "Of central interest in  \nthis article is the presence of culture in the curriculum materials of this business English program  \nand the way(s) in which these themes are portrayed to students.", 
  "Most generally, my goal is to  \nunderstand this complicated relationship between  (language) curriculum and culture.", 
  "The study  \nthus acknowledges that the program curriculum conveys cultural themes and therefore aims to  \nidentify via critical discourse analysis (CDA) and positive discourse analysis (PDA) what they  \nare and how they are conveyed to students in a manner that may encourage socialization.", 
  "My  \nresearch question is: How are socialization processes instantiated in the business English  \ncurriculum and reflective of specific cultural practices?", 
  "Literature Review  \nIn their extensive literature review of CDA in educational research, Rogers,  \nMalancharuvil-Berkes, Mosley, Hui and Joseph (2005) observed a \u2018proliferation of scholarship\u2019  \nthat utilizes CDA to understand how people make meaning in educational contexts and how  \nschools reproduce social structures through the discourses present in their academic materials (p.  \n366).", 
  "Because of the ways in which some of the studies the authors cited in this article address  \nrelationships between language, culture, and/or curriculum, they can inform my examination of  \nthe relationship between curriculum and culture in an IEP/EAP context.", 
  "For example, Barnard  \n(2001) examined history textbooks used in a Japanese high school and their relationship to the  \nculture in which they are used.", 
  "The author found that the language used in the textbooks  \nshielded readers from an accurate description of a historical event in 1930s Japan.", 
  "As a result of  \n\f CRITICAL EXAMINATION OF ELP CURRICULUM   \nthis lack of clarity, many Japanese deny that the event ever took place.", 
  "Barnard (2001) thus  \nshowed how the contents of course materials were culturally influenced but may actually  \nmisrepresent aspects of a culture and its history.", 
  "Other studies not cited in Rogers et al.", 
  "(2005) have also employed a CDA approach.", 
  "For  \nexample, Taki (2008) completed a document review in which he compared English-language  \nteaching textbooks produced and used in Iran with those used internationally.", 
  "The author found  \nthat the internationally-used textbooks represented discourses often associated with western  \nsociety, such as those focused more on consumerism and less on cultural understanding, but  \nthese discourses were not present in the Iranian-produced text books.", 
  "A similar finding in my  \nstudy might be expected given the high status of western culture(s) in the international business  \nworld and the production of the course materials in the US, as discussed below.", 
  "As Taki\u2019s (2008) textbook review revealed the presence of western themes and ideologies  \nin course documents, so too did Chun\u2019s (2009) analysis of the website of an IEP along with two  \ntextbooks commonly used in its curriculum to reveal how neoliberalism presented itself in the  \nprogram\u2019s discourse.", 
  "He discovered promotion of entrepreneurialism and self-understanding,  \nqualities supposedly needed to achieve success in the eyes of the curriculum writers.", 
  "As these studies have shown, CDA has been used in educational research to informative   \nends.", 
  "However, detractors of the method claim that it focuses only on critique and ignores  \n\u2018productive uses of power\u2019 (Rogers, 2014, p. 22).", 
  "In an attempt to counteract this criticism in my  \nown study, I incorporated PDA in addition to CDA.", 
  "My search parameters did not return any  \nstudies in which PDA was applied to print text (i.e., written curriculum) as in the current study,  \nbut several studies of PDA on spoken discourse can indirectly inform my own.", 
  "For example,  \nMosley and Rogers (2011) sought to remedy the critique against CDA by using PDA in their  \n\f CRITICAL EXAMINATION OF ELP CURRICULUM   \nexamination of white pre-service teachers\u2019 participation in a book club of children\u2019s literature.", 
  "The authors found that the teachers discussed two questions in their book club \u2013 What constitutes  \nracism?", 
  "What makes a person a white ally?", 
  "\u2013 but did not come to a conclusive answer for either.", 
  "Mosley and Rogers (2011) identified this indecisive result as a place where new positionings  \nwere able to arise, thus highlighting the teachers\u2019 discourse as a site for positive change.", 
  "PDA is  \nused similarly in the current study to examine areas of the curriculum that might enable broader  \ncultural recognition.", 
  "Another study that utilized PDA in a similar way was that of Baxter (2002), in which the  \nauthor compared girls\u2019 and boys\u2019 discourses in an English classroom.", 
  "Baxter (2002) found that  \nthe power associated with boys\u2019 discourses enabled them to be labeled as more effective public  \nspeakers than the girls, but the girls\u2019 multiple locations in the discourse also enabled them to  \nresist some dominant classroom practices.", 
  "Both Baxter (2002) and Mosley and Rogers (2011)  \ndisplayed the benefit of using PDA and CDA if one\u2019s goals are to examine power structures in  \ndiscourse and offer ideas for how to approach them in a positive and productive manner.", 
  "Conceptual Frameworks  \nTo discuss the cultural aspects of the curriculum under analysis, I employ Kramsch\u2019s  \n(1998) conceptualization of culture, which she defined as \u2018a discourse community that shares a  \ncommon social space and history, and a common system of standards for perceiving, believing,  \nevaluating, and acting\u2019 (p. 127).", 
  "I draw specifically on the notion of culture as a discourse  \ncommunity because it is an appropriate name for the locus in which the students perform and  \nenact what they learn in the business English program.", 
  "When enrolled in the program, they are  \nnot so much entering a physical community, such as what occurs with immigration and  \n(possible) cultural assimilation; rather, they are preparing for, as Kramsch (1998) stated,  \n\f CRITICAL EXAMINATION OF ELP CURRICULUM   \nmembership in the discourse community of the international business world.", 
  "Thus, the use of the  \nterm culture in this article is partially considered as such.", 
  "Additionally, I look to Ferraro\u2019s (2002) work on the role of English in the business world  \nin my understanding of culture.", 
  "The author conceptualized culture in business in terms of the  \npositioning of the West (equated implicitly in his work with the US) in the international business  \nworld and described the various ways in which western businesspeople need to adapt less to  \nother cultures because of the elevated status of their own culture.", 
  "Pennycook (1994) made a  \nsimilar albeit less direct observation about the connection of English to western values, noting  \nthat English is \u2018closely linked to national and increasingly non-national forms of culture and  \nknowledge that are dominant in the world\u2019 (p. 13).", 
  "The norms of the international business  \nworld as discussed in Ferraro (2002) could be taken as these \u2018national and non-national forms of  \nculture,\u2019 in that they are portrayed as values not particular to one specific culture or country but  \nare attached to ways of life that are highly influenced by western values (Pennycook, 1994, p.  \n13).", 
  "Pennycook (1994) elaborated on this point as such:   \nEnglish language teaching beliefs, practices and materials are never neutral, and indeed  \nrepresent very particular understandings of language, communication, learning,  \neducation, and so on.", 
  "Such understandings, in turn, are also not merely random views but  \nrather are very much part of a broader range of discursive and culture practices that  \nemanate from the \u201cWest.\u201d (p. 178)  \nWhile the author\u2019s lack of precise definition for the West makes it impossible to   \nknow if he was also referencing just the US or a broader geographic and cultural region, his   \nclaim necessarily calls into question the framing of a curriculum\u2019s cultural themes as  \ninternational if it is instead most highly connected to one set (or multiple related sets) of beliefs,  \n\f CRITICAL EXAMINATION OF ELP CURRICULUM   \npractices, and materials.", 
  "Cameron (2002) supported this observation with her assertion that  \nwestern presence in international business contexts has gone virtually unchallenged:   \nI know of no case in which the communicative norms of a non-Western, or indeed non- \nAnglophone society have been exported by expert consultants.", 
  "Finns do not run  \nworkshops for British businesses on the virtues of talking less; Japanese are not invited to  \ninstruct Americans in speaking indirectly.", 
  "(p. 70)   \nCameron (2002) therefore reinforced Ferraro\u2019s (2002) and Pennycook\u2019s (1994) claims  \nregarding the presence and status of Western (and Anglophone) values in the international  \nbusiness world.", 
  "Hence, the understanding of culture on which I base my analysis is not only one  \nof what the term means when it stands alone, as Kramsch (1998) described it, but also how the  \nlabel \u2018international\u2019 could complicate that definition.", 
  "What emerges from this portion of my  \nconceptual framework is a clear understanding of the culture of international business as being  \ninseparable from that of the West, rather than a truly international context.", 
  "This connection is  \ncentral to the current study because, as discussed below, the curriculum under analysis purports  \nto expose students to international (rather than simply American or Western) cultural values.", 
  "If the term culture is used to encompass all of the above considerations, the framework of  \nlanguage socialization is a proper one to tie these understandings of culture to language and  \nlanguage education.", 
  "As Watson-Gegeo (2004) defined it, language socialization is primarily  \nconcerned with the co-construction of linguistic and cultural knowledge and understanding.", 
  "Similarly, Ochs (2002) acknowledged that the \u2018process of acquiring a language is part of a much  \nlarger process of becoming a person in society\u2019 (p. 106).", 
  "Though study of language socialization  \nis often focused on the incorporation of young children into their home culture(s), Schecter and  \nBayley (2004) noted that the process in fact can occur at any point in life where a person seeks to  \n\f CRITICAL EXAMINATION OF ELP CURRICULUM   \nparticipate in a new community, thus making it an appropriate framework to support this study\u2019s  \nfocus on adult learners studying a new language in a new environment.", 
  "Within this new cultural environment, the site where language socialization occurs is the  \nspecific activity or interaction in which people participate (Ochs, 2002; Schecter & Bayley,  \n2004; Watson-Gegeo, 2004).", 
  "It is at this site that participants are able to learn about and act out  \n\u2018culturally sanctioned roles\u2019 that determine the events and outcomes of a certain situation  \n(Schecter & Bayley, 2004, p. 609).", 
  "In the context of the current study, the activity that allows  \nfor language socialization is the students\u2019 participation in the business English course.", 
  "This  \nstudy is confined to the curriculum because it treats the curriculum as the specific site where  \nlanguage socialization begins.", 
  "The culturally sanctioned roles that students are exposed to in the  \ncourse are conveyed via the curriculum and the assignments within it that they are asked to  \ncomplete.", 
  "Specifically for this course, students participate in mock business negotiations of a  \nstyle influenced by international (read: Western) norms.", 
  "If the outcome of this situation  \ndetermined by culturally sanctioned roles is a successful negotiation, then a student\u2019s  \ncompetence in an international business setting depends on his/her ability to perform accordingly  \nin this context.", 
  "Based on Bayley and Schecter\u2019s (2004) observation of an increased use of language   \nsocialization frameworks in research on multilingual environments and Watson-Gegeo\u2019s (2004)  \nclaim that second-language classrooms are full of cultural assumptions, the framework of  \nlanguage socialization is an adequate supplement to the notion of culture discussed above to  \nanalyze the discourse community created in the business English classroom and to question what  \ncultural messages the curriculum of the program is sending to its students.", 
  "Students enrolling in  \nthe business English program may leave not only with improved English skills, but also with  \n\f CRITICAL EXAMINATION OF ELP CURRICULUM   \nknowledge of a new set of cultural practices informed by socialization into an international  \nbusiness community (see Appendix A for visual representation of the way these processes  \ninform each other).", 
  "This exposure to new knowledge and socialization is acceptable if students  \nare made aware of and/or expecting it but problematic when one set of cultural values is  \ndisguised as another.", 
  "Because my research question required a methodological approach that addressed the  \npower dynamics that occur when socialization into a new culture is (implicitly) encouraged, the  \nstudy employed aspects of a critical approach to research via CDA and PDA (Rogers et.", 
  "al, 2005;  \nLuke, 1995-1996; Flyvbjerg, 2001; Luke, 2004).", 
  "Additionally, I answered my research question  \nby first drawing from participant interviews from a larger study in order to select curriculum  \nmaterials to analyze through the two complementary forms of discourse analysis.", 
  "These multiple  \nmethods of data collection and analysis lent credibility to my study and further supported my use  \nof qualitative methods throughout it (Creswell, 2014; Erickson, 1986; Gall, Gall & Borg, 2015).", 
  "Setting   \nI conducted this study at a major research university in the mid-Atlantic US that has a   \npopulation of about 25,000 students, approximately 20 percent of which are international  \n(University website).", 
  "I chose this particular site as the focus of my study because of my  \nfamiliarity with the university\u2019s English language program as a past instructor.", 
  "The English language program in which the curriculum under study is used serves  \napproximately 2,000 international students from 35 countries each year (Program website).", 
  "The  \nprogram\u2019s website broadly describes its mission as serving those who are in need of language  \nclasses, cross-cultural training, and consulting and testing services.", 
  "The staff of the program  \n\f CRITICAL EXAMINATION OF ELP CURRICULUM   \nincludes full-time administrators, full- and part-time instructors and lecturers, graduate student  \ninstructors, program coordinators, and student program assistants.", 
  "All full- and part-time  \ninstructors hold at least a master\u2019s degree in TESOL or a related field (Program website).", 
  "Under the umbrella of the larger English language program are several more focused  \nprograms aimed at specific student populations.", 
  "To stay true to the scope and research question  \nof my study, and for additional reasons discussed above, I focused my inquiry on one of these  \nspecialized programs, a four-week business English program for those with at least two years of  \nbusiness experience and an advanced level of proficiency in English.", 
  "Data Collection and Curriculum Overview  \nI chose the particular module that I analyzed for this study as a result of teacher  \ninterviews that I conducted for a larger study.", 
  "The module that I chose \u2013 on how to conduct  \nnegotiations (hereafter SN) \u2013 is one of 10 modules in the program, which was created by staff  \nmembers knowledgeable in both business concepts (e.g.", 
  "hold MBAs or have extensive business  \nexperience) and the English language (e.g.", 
  "hold graduate degrees in TESOL or similar fields).", 
  "Other modules of the curriculum address topics such as leadership, teamwork, and decision- \nmaking; cross-cultural issues; working with data; meeting facilitation; global business strategies;  \nand professional speaking and writing (Program curriculum).", 
  "SN is one of the modules in the  \ncourse that is two rather than four weeks in length.", 
  "In the interviews I conducted for the larger study, I asked the participants questions  \nregarding their conceptualization of the relationship between language and culture and their  \nperception of any cultural aspects of the business English curriculum.", 
  "One interview in  \nparticular, in which the participant identified the goal of a business English program as  \n\u2018provid[ing] practical lessons\u2019 in addition to linguistic skills, led me to select SN as the module  \n\f CRITICAL EXAMINATION OF ELP CURRICULUM   \nfor analysis (Interview, 7/14/15).", 
  "More specifically, this participant said that she focuses  \nexplicitly on one aspect of the module, negotiation protocols, when teaching this course.", 
  "She not  \nonly created this module but has also taught it on a regular basis, and she stated that the goal of  \nthe language program should move beyond just teaching language, implying that there are non- \nlinguistic goals of the course when she teaches it.", 
  "These statements provided me with a location  \nwhere I could investigate the relationship between a protocol, which is influenced by the culture  \nsurrounding it, as described below, and the language used while following it (See Appendix B).", 
  "The curriculum materials for SN begin with a page-long overview of the topics to be  \ncovered during the course.", 
  "This is followed by information regarding the steps for conducting or  \nparticipating in a negotiation, including starting the negotiation, bargaining and making  \nconcessions, asking for/providing clarification, closing the deal, and using softening and  \nemphasis to succeed in completing the negotiation.", 
  "The module itself includes listening and  \ngrammar activities that highlight the linguistic aspects of a negotiation, readings that discuss  \nbasic content knowledge regarding negotiations, vocabulary exercises that present \u2018commonly  \nused terms and phrases\u2019 in a negotiation, \u2018mini negotiations\u2019 where the students are asked to  \nsimulate a negotiation between, for example, a landlord and a renter as preparation for the larger  \nnegotiations at the end of the course (which act as summative evaluations), and a \u2018Language of  \nNegotiations \u201cCheat Sheet\u201d\u2019 that students can use during their simulations and assessments (SN  \ncurriculum, p. 19-21, 29).", 
  "The way that the SN module is organized thus allows for its individual  \nsections to be pieced together to form a negotiation protocol, with each lesson in the module  \nforming one piece of the protocol.", 
  "Students are encouraged to use the protocol (module) as a   \nwhole when completing their negotiation assignments for the course.", 
  "CRITICAL EXAMINATION OF ELP CURRICULUM   \nAnalysis  \nCDA is a way of studying relationships between \u2018discourse processes and social   \nstructures\u2019 (Rogers, 2014, p. 19).", 
  "Rogers\u2019s (2014) definition of this method drew on those of  \nprominent scholars of discourse analysis before her, namely on their conceptualizations of  \ndiscourse.", 
  "For example, Gee (1996) defined discourse as \u2018an association of socially accepted  \nways of using language\u2019 (p. 114).", 
  "Similarly, Fairclough (1992) used the same term to classify  \nlanguage as a social interaction.", 
  "Each of these understandings of discourse is relevant to the  \nlanguage socialization framework that shapes the current study and the conceptualization of  \nculture employed within it.", 
  "Additionally, van Dijk\u2019s (2001) understanding that \u2018CDA focuses on  \nthe way discourse structures enact, confirm, legitimate, reproduce, or challenge relations of  \npower and dominance in society\u2019 also informed my study (p. 353).", 
  "The clear relationship of  \nthese concepts to my work and the ways in which CDA has more currently been utilized in  \nglobalized educational contexts makes it an appropriate method for me to use in order to  \nunderstand the cultural threads present in the business English curriculum and their  \nconsequences (Rogers, 2014).", 
  "Classified as a version of CDA with a \u2018shift in analytic focus,\u2019 PDA is a method of  \nanalysis that examines the potential(s), rather than criticisms, of a discourse (Rogers, 2014, p.  \n22).", 
  "Macgilchrist (2007) and Luke (2004) identified the need for more work to be done in a  \nmanner similar to what PDA endeavors, with Luke (2004) calling for \u2018research and scholarship  \nthat documents and analytically explicates affirmative, emancipating and redressive texts and  \ndiscourse practices\u2019 (p. 151).", 
  "In addition to his work, Rogers and Wetzel\u2019s (2013) and Bartlett\u2019s  \n(2012) works with PDA also served as guides for me to examine positive aspects of discourse in  \naddition to those being critiqued within the CDA in my own study.", 
  "By taking this dual approach  \n\f CRITICAL EXAMINATION OF ELP CURRICULUM   \nto discourse analysis, I am able to lend credibility to my document analysis and provide a more  \nbalanced examination because I can identify problematic areas as well as those within the  \ncurriculum that signal a possibility of incorporating multiple cultural perspectives.", 
  "Practically, my use of CDA and PDA follows that of Rogers (2014) and Rogers and  \nWetzel (2013) and employed Rogers\u2019s (2014) \u2018survey of linguistic features and functions\u2019 as a  \nheuristic for parsing out the cultural elements of the curriculum (2014, p. 34-35).", 
  "After selecting  \nwhich curriculum module to examine, I adapted Rogers\u2019s (2014) extensive list of criteria to fit  \nmy research question more closely.", 
  "I decided to focus solely on her categories of information  \nfocus and exclusion for my CDA not only because of their ability to lend themselves to a more  \nglobal examination of the discourse and identify cultural themes that are either present or  \nmissing the documents, but also due to their larger applicability to printed text, which is the  \nfocus of my analysis.", 
  "This type of inquiry would encompass the \u2018ways of representing\u2019 to which  \nthis category of features lends itself (Rogers, 2014, p. 34).", 
  "I used Rogers\u2019s (2014) category of  \ninformation focus to answer her question of \u2018What ideas are represented?\u2019 (broadened from her  \nuse on the syntactical foregrounding of information at the sentence level) and I posed it in  \nopposition to her category of exclusion, which she used to classify any information that was not  \npresent in the discourse (p. 34).", 
  "In more general terms, the focus of my CDA in this paper is  \nwhat cultural information is both included in and left out of the curriculum.", 
  "In a similar manner as with information focus and exclusion, I used Rogers\u2019s (2014)  \ncategory of lexicalization within my PDA to examine how the wording of the curriculum  \ndocuments might enable several interpretations of it and thus create opportunities for multiple  \nculturally-related approaches to the materials.", 
  "I used only the category of lexicalization within  \nmy PDA because I wanted to analyze within the findings of my CDA to determine whether the  \n\f CRITICAL EXAMINATION OF ELP CURRICULUM   \nwording of the cultural themes present in the text allowed for positive and productive change  \n(Luke, 2004).", 
  "I present my findings from both document analyses in the following section (also  \nsee Appendix C), in which I address the three elements of information focus, exclusion, and  \nlexicalization for each of three pieces of the SN curriculum.", 
  "I included these three pieces in the  \nanalysis specifically because they contained the most evident culturally-influenced elements as  \nrevealed by the CDA and sites for potential positive adjustment, as indicated by the PDA.", 
  "Curriculum: Following Standard Negotiation Protocols  \nFindings  \nThere are several instances throughout the SN module that can constitute the inclusion of  \ncultural information and therefore lend themselves to language socialization.", 
  "The first occurs in  \nthe course overview in the reference to \u2018[s]tandard negotiation protocols\u2019 that the students are  \nasked to follow during their assessments (which are negotiation simulations) (SN curriculum, p.  \n1).", 
  "The mere inclusion of a protocol for such an interaction and the labeling of it as standard  \nimplies that there is a certain way that the students are expected to conduct the negotiations.", 
  "Since this curriculum is presented within the context of international business, which, as  \ndescribed above, is directly influenced by Western/American culture, I deduced that this so- \ncalled standard way of conducting a negotiation actually reflects a singular cultural approach and  \ndoes not incorporate ways of negotiating that are used in other cultures, such as those outlined by  \nSalacuse (2005).", 
  "Therefore, this particular example confirms a cultural undertone of the SN  \ncurriculum.", 
  "By virtue of including a standard protocol for negotiation, the SN curriculum   \nsimultaneously gives no immediate consideration to how negotiations may be conducted in other   \ncultures that perhaps do not have such an elevated status in the international business world.", 
  "CRITICAL EXAMINATION OF ELP CURRICULUM   \nThis realization is potentially problematic not only because students from these cultures often  \nenroll in this business English program, but also because the curriculum, whether inadvertently  \nor not, directs students to an accepted cultural way of operating that is presented as being  \ninternational but is in fact highly influenced by the West.", 
  "The use of only such protocols, while  \nperhaps realistic in the current international business climate, does not allow for varying  \nviewpoints or enable students to draw on their own cultural knowledge of how negotiations are  \nconducted in their countries.", 
  "Conversely, it indirectly encourages them to ignore that knowledge  \nin favor of the standard (western) way of negotiating.", 
  "This conclusion is reinforced by further  \ntext in the curriculum that elaborates on the use of these protocols: \u2018Negotiations, like other  \nmeetings, formal or informal, follow certain protocols, generally predictable procedures in which  \ngenerally predictable language is used.", 
  "The procedures in a negotiation are indeed \u201cformulas\u201d  \nand are usually followed\u2019 (SN curriculum, p. 4).", 
  "Within the context of this course, then, students  \nare directed to adhere to the western-influenced protocol, regardless of their own familiarity of  \nhow negotiations might be conducted in their own cultures.", 
  "As previously mentioned, a fair analysis of the curriculum would also address aspects of  \nthese particular citations that may provide an opportunity for more broadly based cultural  \nunderstanding.", 
  "For example, as written in the curriculum text that discusses the use of standard  \nnegotiation protocols, the word \u2018protocols\u2019 is in fact plural.", 
  "Despite the curriculum\u2019s less  \nobvious devotion to one set of cultural values on the whole, in this particular instance, this  \ngrammatical feature indicates that more than one way of conducting a negotiation may be  \nacceptable \u2013 or is at least acknowledged as existing.", 
  "Similarly, the description in the same  \nsentence of protocols as things that are \u2018generally\u2019 or \u2018usually\u2019 followed signals space in which  \nanother organizational format for a negotiation could potentially take its place (SN curriculum, p.  \n\f CRITICAL EXAMINATION OF ELP CURRICULUM   \n4).", 
  "As pointed out above, all of the negotiation assignments in the curriculum rely on a western- \ninfluenced standard protocol, but the recognition here that there may be more than one protocol  \nused in these settings as indicated by the word\u2019s plurality and the hedging through use of  \n\u2018generally\u2019 and \u2018usually\u2019 creates a site for potential inclusion of other protocols, either via  \nexplicit mention in redesigned curriculum documents or through the implementational choices of  \nthe instructors (SN curriculum, p. 4).", 
  "Curriculum: Establishing Goodwill in Negotiations  \nIn addition to the emphasis placed on standard negotiation protocols in the SN  \ncurriculum, another topic addressed is the need to establish goodwill at the beginning of a  \nnegotiation.", 
  "This aspect is explained in greater detail on p. 5 of the curriculum: \u2018It\u2019s important to  \nalways establish goodwill at the beginning of a negotiation; you also want to maintain that  \ngoodwill throughout the entire negotiation\u2019 (SN curriculum, emphasis in original).", 
  "Beneath this explanation on the same page, students are asked a series of discussion  \nquestions, two of which are: \u2018What might you do to establish goodwill at the beginning of a  \nnegotiation?", 
  "What might you do to maintain goodwill throughout the negotiation?\u2019 (SN  \ncurriculum, p. 5).", 
  "Although the curriculum contains information via listening clips of sample  \nnegotiations and discussion questions about how to establish goodwill in a negotiation, there is  \nan implicit initial assumption that establishing goodwill is a universally sought-after goal in  \nnegotiations.", 
  "There is no acknowledgement that establishing goodwill might not be a strategy  \nused in other cultures as a way to negotiate.", 
  "For example, as Salacuse (2005) found, the goal of  \nthe Japanese businesspeople he interviewed was beginning and maintain a relationship with the  \nother side in a negotiation while the Spaniards prioritized making a deal above all and did not  \nconcern themselves with anything that might happen along the way to enhance or damage the  \n\f CRITICAL EXAMINATION OF ELP CURRICULUM   \nrelationship between the two sides.", 
  "Though Salacuse (2005) did not specify whether the  \nbusinesspeople he interviewed were engaging in same-culture or cross-cultural negotiations  \nwhen identifying these priorities, his findings nonetheless reveal at minimum the need for  \nrecognition of different styles of negotiating, or perhaps ability to code-switch between/among  \nthem given the context in which negotiations occur, and the obvious cultural influences that can  \ndetermine what is acceptable in a certain situation.", 
  "Assuming that establishing goodwill does in fact have a place in a particular culture\u2019s  \nnegotiation style, there is no recognition in the curriculum that different cultures may perform  \nthis task differently.", 
  "For instance, there can be more than one way of conveying the goal of a  \nnegotiation, or displaying that both sides are interested in beginning/maintaining a positive  \nrelationship.", 
  "Rather than recognizing this, students are expected to perform this task and  \nestablish goodwill according to how the curriculum presents it in international business settings \u2013  \nby using certain expressions \u2013 which is currently highly influenced by western ideals.", 
  "As  \nconcluded above, then, the SN curriculum carries a cultural message, one that is inherently  \nwestern yet presented as international.", 
  "From this second critique of the SN curriculum, I deduced that the task of establishing   \ngoodwill at the beginning of a negotiation allows for the involvement of only one cultural   \nperspective in the course, that of the West.", 
  "However, upon examining the word choice   \n(lexicalization) in this feature, one could argue that there is indeed slight room for more breadth  \nof interpretation.", 
  "For instance, the discussion questions presented above contain a modal verb  \n(e.g.", 
  "What might you do to maintain goodwill throughout the negotiation?, What might you do  \nto maintain goodwill throughout the negotiation?, emphasis added).", 
  "This lexical choice  \ntheoretically leaves room for multiple interpretations, regardless of whether they are actually  \n\f CRITICAL EXAMINATION OF ELP CURRICULUM   \naddressed in class or not.", 
  "There is then at least an underlying recognition of the existence of  \nmultiple viewpoints in this curriculum, and they can either be improved upon in curricular  \nrevisions or adopted by instructors in their treatment of the questions in class in order to create a  \nmore culturally representative experience.", 
  "Curriculum: Softening and Emphasizing in Negotiations  \nFinally, another topic mentioned in the SN curriculum that conveys its adherence to a  \nparticular set of cultural values is the idea of using linguistic features to soften or emphasize  \nspeech when facilitating a negotiation.", 
  "Three full pages of the SN curriculum are devoted solely  \nto developing these skills; students are asked to consider the reasons for which softening and  \nemphasis might be important in such a context, the grammar of hypothetical statements that is  \noften employed when softening or emphasizing, and situations in which softening or emphasis  \nmight improve the outcome of the negotiation.", 
  "For example, the SN curriculum asks: \u2018Why  \nmight it be important to soften and emphasize when negotiating?\u2019 and \u2018When might you soften a  \nproposal?", 
  "When might you make a proposal firm?\u2019 (p. 24, 26; emphasis in original).", 
  "The  \ninclusion of such information implies that softening and emphasis are essential linguistic skills  \nfor successfully participating in an international business negotiation.", 
  "The curriculum does not  \ntake into account the tensions that might occur when softening or firming up a proposal or  \nrequest might not be culturally appropriate in a negotiation setting.", 
  "For instance, Salacuse  \n(2005) found that Egyptians viewed directness \u2013 as might be conveyed via firm language \u2013 as  \ninsulting and aggressive while Israelis interpreted indirectness \u2013 as might be carried out via  \nsoftening language \u2013 as a sign of insincerity.", 
  "Thus the finding again reveals itself that the SN  \ncurriculum presents a singular set of cultural values that are disguised instead as being  \ninternationally influenced.", 
  "CRITICAL EXAMINATION OF ELP CURRICULUM   \nAs stated above, a complete analysis of this portion of the curriculum must attend to both   \nthe critiques and the potential, or any aspect of the curriculum that might enable a culturally  \nbroader interpretation of it.", 
  "In the case of softening and emphasis, there are also some instances  \nwhich could enable teachers (and students) to discuss other cultural approaches or norms.", 
  "For  \ninstance, one discussion question asks: when might you soften a proposal?", 
  "(emphasis added), the  \nmodal verb thus indicating that such softening is not a requirement but rather a suggestion.", 
  "Similarly, when the curriculum presents information on using hypothetical statements to soften  \nor emphasize speech (\u2018p.", 
  "25), the wording is hedged, as in these examples: \u2018these types of  \nstatements are often used for making proposals,\u2019 \u2018it is important to soften your speech in a  \nvariety of situations,\u2019 \u2018there are also times when you may need to be firm\u2026\u2019 (italics theirs,  \nbold mine).", 
  "While these examples certainly may not offer as strong an opportunity to  \nincorporate additional cultural viewpoints as the previous two examples do, they arguably open  \nthe door for the teacher or students to broach the topic that softening and emphasizing one\u2019s  \nspeech might be done differently (or not at all) in other cultures, thus beginning a broader  \ndiscussion of the varying ways in which businesspeople from around the world might behave in  \nnegotiations (Salacuse, 2005; Shimutwikeni).", 
  "Conclusions and Implications  \nThese detailed analyses of the SN curriculum lead me to conclude that there are clear   \ncultural elements in the business English curriculum, as revealed by the CDA and PDA, that are  \ninformed by western/American values and customs.", 
  "My use of the information focus and  \nexclusion elements of Rogers\u2019s (2014) framework within my CDA revealed several aspects of  \nthe curriculum \u2013 namely the negotiation protocol, the need to establish goodwill, and the  \nemphasis placed on being able to soften or emphasize speech \u2013 that could be directly tied to   \n\f CRITICAL EXAMINATION OF ELP CURRICULUM   \n\nculture and therefore seen as representations of western values.", 
  "The constant reference to a protocol that governs the way negotiations are carried out (at  \nleast in this module) in effect discourages students from completing their negotiation  \nassignments in any way that does not follow the protocol and therefore does not enable them to  \ndraw on their own (cultural) knowledge and norms to perform in the course.", 
  "Rather, it socializes  \nthem into the dominant discourse in which they are studying.", 
  "Whether the business world would  \nvalue an ability to code-switch culturally in context is past the scope of this paper; the issue  \npresents itself when the course is advertised as addressing international norms while in reality  \nbasing its materials off those of one culture.", 
  "Similarly, the need to establish goodwill at the beginning of a negotiation is a culturally  \ninfluenced strategy that conveys to students the reliance on one proper way to negotiate.", 
  "Such  \nmessage again serves to socialize students into the larger discourse in which they are learning, as  \nthere is very little consideration of other ways to establish goodwill as employed in different  \ncultures or any reference to the notion that some businesspeople might not be concerned at all  \nwith the establishment of goodwill as part of a negotiation.", 
  "Once again, students are in effect  \nprevented from drawing on their own cultural knowledge of and past experiences in negotiations  \nin favor of adhering to the western way of doing so.", 
  "Finally, students are encouraged to rely on certain linguistic skills like softening and   \nemphasis when participating in a negotiation.", 
  "The amount of material devoted to helping  \nstudents improve their softening and emphasis skills sends the message that these skills are  \nrequired in order to take part successfully in an international business negotiation.", 
  "Therefore, the  \nSN curriculum only presents students with a singular culture viewpoint \u2013 thus socializing them  \ninto that discourse community \u2013 despite its advertisement as an internationally focused   \n\f CRITICAL EXAMINATION OF ELP CURRICULUM   \ncurriculum.", 
  "Despite these critiques as revealed by the CDA, I also identified several instances in the  \ncurriculum via the PDA that had the possibility for larger cultural interpretation: the plurality of  \n\u2018protocols\u2019 and the hedging or inclusive language used when discussing the protocols, the  \nestablishment goodwill, and the need to soften/emphasize speech when negotiating.", 
  "The plurality of \u2018protocols\u2019 provides space for multiple interpretations and  \nimplementations, even if they are not employed in the course assignments.", 
  "Therefore, what is  \nlargely an instance of a singular set of cultural ideals revealing themselves in the curriculum  \ncould also potentially be a site for the incorporation of multiple cultural viewpoints into the  \ncourse.", 
  "Similarly, there are instances in the curriculum that enable teachers and students to  \nincorporate a wider range of cultural perspectives on negotiating rather than only establishing  \ngoodwill or softening/emphasizing speech when western standards deem it necessary.", 
  "The  \nhedging employed in the discussion questions presented above affords the opportunity to discuss  \nif not use these other styles of negotiating.", 
  "Therefore, although the curriculum mainly presents  \nwestern ideals under the guise of international ways of operating, there are instances in it that  \nallow for wider application of cultural knowledge if recognized by the teacher and students.", 
  "I  \ntherefore concluded that despite these minor positive aspects of the curriculum, it largely  \nencourages students\u2019 adherence to one culturally influenced way of operating in negotiations \u2013   \nthat of the West \u2013 despite its purported employment of international negotiating strategies.", 
  "Though these findings pertain strictly to the curriculum and the presence of cultural  \nthemes in it, their implications stretch to curricular implementation and instantiation in the  \nclassroom as well.", 
  "A clear understanding of the relationship between language and culture  \n(language and socialization) as conveyed by the curriculum materials would allow teachers to  \n\f CRITICAL EXAMINATION OF ELP CURRICULUM   \nbecome more aware of the presence of such themes in the curriculum and thus enable them to  \nadjust their implementation strategies accordingly.", 
  "In a case where a broader cultural viewpoint  \nis desired, a teacher\u2019s cognizant understanding of this relationship would afford them the  \npossibility of making instructional decisions that incorporate larger cultural input from their  \ndiverse students.", 
  "In this event, though socialization would still occur by virtue of learning a  \nlanguage within the culture in which it is embedded, it will at least be done with knowledge of  \nalternative cultural perspectives and not carried out under the impression that there are no other  \nculturally influenced ways of operating in a particular setting.", 
  "Limitations and Further Research  \nThough I made every effort to conduct a sound study, I encountered several limitations in  \nthe process that I must address.", 
  "First is that which is inherent in CDA as a method of analysis.", 
  "As mentioned above, though the use of CDA, both in general and in educational settings, has  \nbeen highly informative and has yielded significant findings, researchers who have employed  \nthis framework have acknowledged the difficulty present in assigning value to one\u2019s  \ninterpretation of a speech or text document (Cameron, 2001).", 
  "I tried to overcome this limitation  \nin the current study and increase the credibility and validity of my findings by also utilizing  \nPDA.", 
  "Employing both methods of analysis prevented me from solely critiquing the curriculum  \nrather than also identifying positive aspects of it.", 
  "With PDA, I was able to identify particular  \nsites within the curriculum that could potentially counterbalance the critiques, thus completing  \nwhat I believe is a fair analysis.", 
  "As a way to continue the current study on the relationship of culture and (language)  \ncurriculum, one suggestion for further research is to focus on making instructors aware of the  \nways in which curriculum can encourage language socialization.", 
  "This goal could be reached by  \n\f CRITICAL EXAMINATION OF ELP CURRICULUM   \nconducting an autoethnography as I am teaching the course, which would illuminate ways in  \nwhich a teacher who is conscious of these cultural elements of the curriculum functions in the  \nclassroom.", 
  "Another way to achieve this goal of more teacher awareness is to expand the scope  \nof the study to include additional modules of the curriculum and observations of teachers  \nimplementing it.", 
  "As mentioned above, such an expansion would lend further support to the  \nnotion that teachers must be aware of the hidden aspects of a curriculum that they are  \nimplementing, especially when those aspects involve a power dynamic between students, the  \nmaterial they are learning, and their environments.", 
  "CRITICAL EXAMINATION OF ELP CURRICULUM"
 ]
}