{
 "document_id": "1173048.1", 
 "sentences": [
  "\nTeacher Educator Moves and Intern Responses in Rehearsals of Elementary Science  \nRachel Kuck and Elizabeth A. Davis  \n\nAbstract  \nThis study examines how teacher educators supporting interns engaged in rehearsals of selected  science lessons offer feedback, and how these interns engage with the feedback they receive.", 
  "Video records from six focal interns and the seven teacher educators who oversaw their  rehearsals were observed for feedback instances, and the teacher educators were also interviewed  about their practice.", 
  "We found that teacher educators were most likely to give directive feedback  concerning science teaching, and that interns were most likely to respond verbally to this  feedback.", 
  "This has implications for both the preparation and enactment of rehearsals in teacher  education courses.", 
  "Introduction  \nAll students deserve opportunities for rigorous and consequential learning.", 
  "Yet teaching  science at the elementary level presents challenges, particularly for novice teachers.", 
  "Thus, these  novices need support in learning to engage in the kinds of ambitious teaching necessary for  promoting rigorous and consequential learning for all students.", 
  "This research examines how preservice teachers (here, \"interns\") engage in teaching  \nrehearsals throughout an elementary science methods course.", 
  "Within our context, a \u201crehearsal\u201d is  a period of time in which a preservice teacher has the opportunity to enact a portion of a lesson  in a controlled setting, with a teacher educator and a small group of peers acting as students.", 
  "We  investigate what kind of feedback interns receive and how they interact with this feedback in the  context of the rehearsal.", 
  "We also explore how teacher educators, who work with small groups of  \ninterns during rehearsals, structure these opportunities in order to make them realistic and  effective for the rehearsing interns.", 
  "The questions that guide this research are:   1.", 
  "What moves does the teacher educator make during rehearsals?", 
  "2.", 
  "What gets talked about and worked on in rehearsals?", 
  "3.", 
  "How do interns take up suggestions or feedback from the teacher educator?", 
  "4.", 
  "How do teacher educators\u2019 goals for, or understanding of, the purposes of rehearsal  relate to their approach?", 
  "Literature Review  \nPractice-based teacher education (PBTE) is an approach to teacher training focused on  the theory of teaching and the application of concrete skills in the classroom setting.", 
  "The aim of  PBTE is to address the \u201c\u2026urgent need to build a system of professional training that can reliably  prepare large numbers of regular adults to do the skilled work involved in helping young people  learn and develop,\u201d (Ball & Cohen, 1999; p. 508).", 
  "One core tenet of PBTE is a focus on how  theory relates to the skills that are involved in the work of teaching (Ball & Forzani, 2009;  Forzani, 2014; McDonald et al., 2013).", 
  "This results in honing a set of core teaching practices,  such as eliciting students\u2019 ideas or presenting academic material (Forzani 2014; McDonald et al.,  2013).", 
  "Focusing on artifacts of classroom practice makes the practices in which teachers engage  both concrete and open to analysis (Hiebert, Morris, Berk, & Jansen, 2007).", 
  "Rehearsal of teaching practices is a common element in PBTE, which ideally enables the  \nteacher to more reliably enact a given skill in the classroom (Lampert et al., 2013; Benedict- Chambers, 2016).", 
  "Approximations of practice such as rehearsals provide interns the opportunity  to both enact practices and to receive feedback in the moment.", 
  "Pausing to receive feedback  \naffords the rehearsing intern the opportunity to \u201creflect on action\u201d (Sch\u00f6n, 1983), and to  potentially shape their identities as practitioners (Lampert, et al, 2013).", 
  "Lampert and colleagues  (2013) further elaborate on the benefits of feedback, saying, \u201c[d]eliberate practice in the  company of others (peers, more experienced teachers, and [teacher educators]) helps the learner  to develop an organized system for knowing when, why, and how aspects of their competency  are relevant to any particular situation,\u201d (p. 228).", 
  "Feedback, whether from a peer or an  experienced teacher, creates an additional lens through which a novice can view his or her  \nteaching practice.", 
  "Grossman and colleagues (2009), in describing how professionals in various fields of  \n\u201chuman improvement\u201d are prepared for practice, describe approximations of practice as  simulated experiences novices or preservice teachers engage in with peers (Grossman, et al,  2009).", 
  "Approximations allow novices the opportunity to rehearse a specific skill in a low-stakes  environment (e.g., teach a portion of a lesson to peers), as practice for teaching a class of  students in the field.", 
  "Within PBTE is also the understanding that learning occurs within a context, and that  \napprenticeship can lead to the ability of a teacher to carry skills into practice.", 
  "Lave (1996)  suggests that the vision of learning should shift from one that is idiosyncratic to one that is more  social and collective, meaning preservice teachers might learn better within a community of their  peers and instructors.", 
  "Approximations afford preservice teachers the opportunity to learn as part  of a community, and also work to combat the two-worlds pitfall described by Feiman-Nemser  and Buchmann (1985), which necessitates these new teachers navigate the differences between  teacher education courses and field placement settings on their own.", 
  "The differences between typical classroom settings and the reforms interns learn about in  \nmethods courses are particularly salient in elementary science.", 
  "Typical classrooms in the US  \nexperience very limited instructional time in science (Marx & Harris, 2006) so interns have  \nlimited opportunities to observe or teach science in their field placements.", 
  "Furthermore,  \ninvestigation-based science of the sort emphasized by current reforms (NRC, 2012)--involving  \nthe integration of disciplinary core ideas, science practices, and crosscutting concepts--is also  \ninfrequent.", 
  "Thus, opportunities to rehearse science instruction within an elementary teacher  \neducation program become paramount, because rehearsals give interns the chance to develop  \ntheir practice for investigation-based science teaching in low-stakes settings.", 
  "This study examines the types of feedback interns receive, and how they interact with  \nthat feedback, in the context of a science methods course that is required as part of the  university\u2019s teacher education program.", 
  "With IRB approval, we conducted this study in an  elementary undergraduate teacher education program in a large research-based university in the  Midwestern United States.", 
  "The science methods course takes place in the third of four semesters.", 
  "Using purposive sampling (Maxwell, 2013), a representative sample of focal interns was invited  to participate in the research based in part on science content knowledge, gender, racial or ethnic  background, and a spread between the two communities in which interns were placed for student  teaching during the program.", 
  "Six focal interns participated in this research.", 
  "We analyzed videos from their teaching  rehearsals during the science methods course.", 
  "Each focal intern participated in three rounds of  teaching rehearsals, designed as approximations of practice (Grossman, et al., 2009; Davis, 2016,  \nBenedict-Chambers, 2016), which included time for both the rehearsal (\u201cenactment\u201d) and group  debrief (\u201cdebrief\u201d).", 
  "In each round of rehearsal, interns each took one turn playing the role of the \u201cteacher,\u201d  during which time the other interns and the teacher educator acted as \u201cstudents.\u201d Following the  enactment, the teacher educator and other interns had the opportunity to give feedback to the  rehearsing intern.", 
  "The content of the rehearsals involved 3 different portions of one science  investigation lesson, guided by the instructional framework used in the class.", 
  "Based on the rehearsal groups the focal interns were in, we selected seven teacher  \neducators to analyze within the videos.", 
  "Each selected teacher educator was present in at least two  rehearsal periods with a focal intern, though those rehearsals could have been with different focal  interns (for example, if Denise supervised a rehearsal for Sandra and one for Claudia, or if she  supervised two rehearsals for Sandra, she would be included in the sample).", 
  "While this research includes data about both focal interns who are rehearsing a sample  \nlesson and the teacher educators who support them, the analysis and results are organized around  the teacher educators as the members of each rehearsal group who structure and facilitate the  interactions among the group.", 
  "All teacher educators have an affiliation with the university  through which the focal interns are trained, though some are faculty and some are graduate  students.", 
  "Table 1 provides brief contextual information about each teacher educator.", 
  "Beatrice  \n\nUniversity  Affiliation  Graduate  Graduate  Faculty/Science  Instructor  Field Instructor  Moderate  Graduate  Instructor/TE  Instructor  Graduate  \nTable 1: Descriptive information about teacher educators  \nNumber of  semesters serving as  a Teacher Educator*  Moderate  Extensive  \nNumber of rehearsals  from which data was  analyzed  \n*Limited: 1-2 semesters, Moderate: 3-6 semesters, Extensive: more than 6 semesters  \n\nWe also conducted interviews with four of the seven selected teacher educators who  worked with small groups during the teaching rehearsals.", 
  "These four teacher educators were  selected to represent a diverse range of experience and interactions with the group of interns.", 
  "We collected between 60 and 90 minutes of rehearsal footage for each focal intern  (each  \nintern had three rehearsal opportunities ranging between 20 and 30 minutes each).", 
  "To  characterize the feedback interns received, videos of rehearsals were divided into 2 minute  segments drawing on Borko and colleagues\u2019 (2008) discussion that this segment length enabled  analysis of teachers\u2019 practice for supporting students.", 
  "The coding focused on the interactions  among the focal interns leading the rehearsal, the teacher educator working with the group, and  additional interns who were playing the role of students during the rehearsal.", 
  "This scheme is  inspired by Lampert and colleagues (2013) and Davis and colleagues (in press).", 
  "The coding  scheme for rehearsal videos included:   \n\u2022  Who initiates or participates in the feedback (focal intern, teacher educator, or peer)  \u2022  When the feedback is delivered (during enactment or debrief)  \u2022  Type of feedback (directive, evaluative, scaffolded enactment, discussion, posing a  question, or asking for a replay)   \u2022  Topic of the feedback (this lesson, science teaching, teaching in general, or common  issues in teaching)  \nIntern\u2019s response to feedback (verbal uptake, uptake in practice, or acknowledgement  \nDescriptions and examples for each code can be found in Tables 2-4.", 
  "Feedback Delivery Style  Description  Directive/Suggestion  \nDirects intern by suggesting next  move or speculating about  possibilities  \nHighlights what was productive  about a move or what could be  improved upon  \nTakes role of classroom teacher of  students to increase or reduce  complexity  \nTable 2: Examples of Feedback by Delivery Style  \u201cYou need to display what  you\u2019re talking about here for  the students to see it.\u201d (TE  Denise, Claudia Rehearsal 2,  \u201cYou did a good job  responding to that student  misunderstanding about heat  energy.\u201d (TE Kate, Harry  Rehearsal 1, 1:21:20)  \u201cYou can say, \u2018Scientists need  to keep track of what they\u2019ve  done so they\u2019re able to  replicate experiments.\u2019\u201d (TE  Denise, Harry Rehearsal 2,  Angela: \u201cDepending on how  much students know about  temperature change, you may  be able to take the discussion  further.\u201d  Claudia: \u201cYeah we just found  out the other day they\u2019ve  never worked with this  before.\u201d (TE Angela, Claudia  Rehearsal 3, 2:10)  \u201cHow did you think it went?\u201d  (TE Kate, Claudia Rehearsal  1, 1:07:35)  \u201cAll we know is that there is  energy transferring, but we  don\u2019t know why.", 
  "Start there,  and get us to that point.\u201d (TE  Angela, Harry Rehearsal 3,  \nAsks question directly to rehearsing  intern about a choice that was made  Asks rehearsing intern to \u2018rewind\u2019  and try something again  \nRaises question about learning and  instruction that turns into a  reflective discussion  \nEvaluative  \nScaffolded Enactment  \nFacilitates/Participates  in Discussion  \nPoses a Question  \nAsks for a Replay  \nFeedback Topic\t This lesson\t Science teaching\t General teaching\t Common issues\t \nDescription\t \nHow to integrate students\u2019 prior  knowledge into the lesson, how  to phrase the investigation  \nTeacher educator Angela tells  intern Harry to rephrase the claim  he has written on the board (TE  Angela, Harry Rehearsal 3,  \u201cWhat kind of claims would you  want students to be writing?\u201d (TE  Angela, Claudia Rehearsal 3,  \nTable 3: Examples of Feedback by Topic\t question\t 0:21:15)\t 0:39:00)\t terminology\t support student engagement\t 0:00:30)\t insight into student thinking.", 
  "Beatrice: Should you get more  student responses before you  move on?", 
  "(Sandra calls on another student)  (TE Beatrice, Sandra Rehearsal 2,  Teacher educator Beatrice tells  interns they should circulate the  classroom to monitor student  work, as this will give them  \nHow to display student  thinking, how to manage  materials or processes in a  scientific exploration, science  How to give directions or  \nHow to pay attention to the  work students are generating at  their desks, how to pose  questions with clarity   \nTable 4: Intern\u2019s Response to Feedback  \nIntern Response  Verbal uptake  \nUptake in practice  \nAcknowledgement only  \nDescription  Intern responds to the feedback by  providing rationale or engaging in  discussion  Intern either \u2018rewinds\u2019 the rehearsal to  redo the portion discussed, or explicitly  implements the feedback in the  remainder of the enactment  Intern thanks teacher educator for  feedback, nonverbally responds with a  nod, or takes notes  \nAfter coding videos according to the schemes outlined above, we calculated descriptive  statistics about how often each code appeared, when in the rehearsal different types of feedback  occurred, and the breakdown of this information by teacher educator.", 
  "These descriptive statistics  provide preliminary answers to the research questions, and we complement these descriptive  \nstatistics with qualitative data from the videos of the rehearsals.", 
  "We then coded the interviews  with the four teacher educators using the same coding schemes above, in order to use the teacher  educators\u2019 words to add intention or framing to the moves they made in the rehearsals.", 
  "The findings for the research described above are organized by research question.", 
  "Briefly,  teacher educators were most likely to provide directive feedback to interns during rehearsals, and  this feedback most commonly concerned science teaching.", 
  "After receiving feedback, interns  were more likely to respond verbally than to immediately apply the feedback to their rehearsal.", 
  "What moves does the teacher educator make during rehearsals?", 
  "The moves considered in  \nthis case are incidents of providing feedback to the rehearsing intern, both in terms of the way  the feedback was delivered and when in the rehearsal it was provided.", 
  "Table 1 provides a brief  description of the categories into which the delivery of feedback are divided, as well as an  example of each.", 
  "Of these categories, directive was the most common feedback delivery style (see Figure  1).", 
  "For our purposes, directive feedback consisted of the teacher educator telling the intern what  to do or say during the rehearsal, and it occurred in 35% of feedback incidents.", 
  "For example, in a  pause during Claudia\u2019s second rehearsal, teacher educator Denise provided directive feedback by  stating, \u201cWhen one student is providing an answer to a question you\u2019ve asked, you can bring  other students into the conversation by asking them to respond to the student or discuss with a  peer,\u201d (TE Denise, Claudia Rehearsal 2, 14:25).", 
  "Depending on the content of the directive  feedback, the rehearsing intern may be able to apply it for the remaining portion of the enactment  of the sample lesson.", 
  "Figure 1  \nIn addition to directive feedback, we also provide more description about the other two  \nmost common delivery styles: facilitates or participates in a discussion and evaluative (23% and  21% of feedback incidents, respectively).", 
  "When teacher educators and focal interns participated  in discussions, other interns who were not currently rehearsing often joined into the  conversation, as well.", 
  "In this exchange between teacher educator Angela and interns Harry and  Claudia, they discussed their own preconceptions about heat energy and how they were impacted  by the design of the particular lesson they rehearsed.", 
  "Angela: Based on what you read in planning the lesson, would you think cold energy is a  real thing1?", 
  "Claudia: Yes I would, except that in this lesson they\u2019re telling me it\u2019s heat energy.", 
  "I can  accept the fact that cold energy is not a thing.", 
  "1\tHere, Angela is asking the rehearsing interns to consider a typical alternative idea (misconception) students are likely to have \u2013  responding to the idea if it comes up).", 
  "the idea of \u201ccold energy.\u201d Angela is helping the interns to anticipate that alternative idea (toward the goal of preparing a way of  \nHarry: It\u2019s because of the design of the experiment.", 
  "If it was a light bulb transferring  energy to your hand, you would know it was heat energy.", 
  "But because in this experiment  both bodies of water are changing temperatures, it is more complicated.", 
  "(Harry,  Rehearsal 3, 0:30:00)  Facilitating a discussion typically started with the teacher educator posing a question or  \n\nmaking a comment to the rehearsing intern or to the entire group, but it was distinct from the  code \u201cposes a question\u201d or simply providing evaluative or directive feedback because, in this  case, the type of comment led to more substantive engagement on the part of the interns.", 
  "In some  cases, teacher educators directed the interns to think about the prior knowledge their students  would bring into the lesson, or as in the example above, draw their attention to the planning  materials and how they impacted decisions the interns made.", 
  "Evaluative feedback was nearly as common as discussion facilitation, and typically  involved a teacher educator making a value-based comment about something the rehearsing  intern had said.", 
  "For example, in intern Sandra\u2019s first rehearsal, teacher educator Denise paused  the rehearsal to say, \u201cThat was really nice.", 
  "I thought your probing to encourage me to be more  precise was well done,\u201d (TE Denise, Sandra Rehearsal 1, 27:50)2.", 
  "We also consider where in the rehearsal the teacher educator provided feedback, either  during the enactment of the lesson or during the debrief.", 
  "Feedback during the enactment was  much more common than feedback in the debrief.", 
  "Out of 146 total feedback incidents recorded,  89 (61%) occurred during the enactment of the lesson and 57 (39%) occurred during the debrief  portion of the rehearsal.", 
  "It is important to note, however, that 2 of the 7 teacher educators (Kate  \n\t\t\t\t\t\t\t\t\t\t\t\t\t\t\t\t\t\t\t\t\t\t\t\t\t\t\t\t\t\t\t\t\t\t\t\t\t\t\t\t\t\t\t\t\t\t\t\t\t\t\t\t\t\t\t\t 2\tWhile the primary focus of this analysis is on the moves of the teacher educators, we also coded the moves made by the peers  \n\nposing as students for the rehearsals, and found that peers were much more likely to give evaluative feedback to the rehearsing  \nand Rebecca) observed were less likely to give feedback during the enactment than during the  debrief portion (see Table 5).", 
  "We did not interview either of these teacher educators so we do not  know why they might have focused their feedback more during the debrief than the enactment.", 
  "Educator  Beatrice  \nnumber of  comments  feedback  \n\nNumber of  recorded  rehearsals  \ncomments  feedback  \nTable 5: When does the TE make the comment?", 
  "number of  comments  comments  enactment  enactment  \nWhere in the rehearsal the teacher educator provides feedback has an effect on what the  \nrehearsing intern is able to do with said feedback.", 
  "For example, there were no occurrences of  teacher educators asking for a replay once the enactment portion of the rehearsal was complete,  meaning interns did not re-enter the enactment portion once they had completed teaching their  planned portion of the lesson.", 
  "Also, a rehearsing intern may be able to attempt to integrate the  feedback if it is received during the enactment portion.", 
  "Teacher educator Denise explained her  rationale for providing feedback during the enactment portion, saying, \u201cThat space of being able  to stop and communicate and then start again I think is super productive and really makes strong  memories for interns that I notice them carrying over.", 
  "And it makes strong memories for other  interns,\u201d (Denise, Interview).", 
  "She believed that providing feedback to the intern during the  enactment is useful not only for the rehearsing intern, but also for other members of the group,  who may be able to use it in their own rehearsals or in their classroom practice.", 
  "What gets talked about and worked on in rehearsals?", 
  "For the purposes of this question,  we considered the substance of the feedback teacher educators were providing and the scope of  it.", 
  "The substance and scope of the feedback served as a basis for the conversations teacher  educators and interns would have, and also, presumably, the areas in which interns would  develop as a result of participating in the rehearsal.", 
  "Feedback was categorized by the topic\u2014the  lesson being rehearsed, science teaching, teaching in general, or common issues in teaching.", 
  "Nearly two-thirds of the feedback comments that were made during the rehearsal were  focused on science teaching (see Figure 2).", 
  "While science teaching was the most common topic  overall, and was also the most common topic for each teacher educator individually, the second  most common topic varied by teacher educator.", 
  "This was split between comments about the  lesson being taught and comments about teaching in general.", 
  "One potential cause for this  difference could be each teacher educator\u2019s familiarity with science teaching.", 
  "While all teacher  educators were exposed to the sample lessons before the rehearsals, not all were content experts  in science.", 
  "This may have caused some of them to take a more generalist perspective when it  came to feedback that was not directly aligned to the lesson being rehearsed.", 
  "We present  examples from each feedback topic, from smallest grain size to largest grain size (see Table 2  above).", 
  "Figure 2  \nSome examples for feedback surrounding the lesson being rehearsed were comments  \nabout students\u2019 prior knowledge and how to integrate it, or how the investigation question should  be phrased.", 
  "In Claudia\u2019s third rehearsal, she and teacher educator Angela discussed how this  lesson would work in a classroom where students had limited science background.", 
  "Feedback about science teaching included topics such as how to display student thinking  \nor use visual aids, or how to manage materials or processes in a scientific investigation.", 
  "For  example, in Harry\u2019s third rehearsal, teacher educator Angela gave him feedback about science  teaching, when she stated, \u201cAt one point you said \u2018cold energy\u2019 and when a student asked about  it, you said, \u2018we\u2019re not going to talk about that today,\u2019 as if cold energy was a real phenomenon,\u201d  (TE Angela, Harry Rehearsal 3, 0:22:40).", 
  "This feedback could be useful to Harry and other  interns not just in the rehearsal of the lesson at hand, but also when dealing with student  misconceptions in future science teaching.", 
  "At a slightly larger grain size, topics surrounding teaching in general included how to  \ngive directions to students or how to support student engagement and learning during the lesson.", 
  "For example, in Sandra\u2019s rehearsal, teacher educator Denise said, \u201cHere you should tell the  \nstudents the directions,\u201d (TE Denise, Sandra Rehearsal 1, 0:40:00).", 
  "This feedback could  presumably be applied to science teaching, or any other content area.", 
  "Further increasing the grain size, feedback about common issues in teaching included,  \nfor example, how to pay attention to work students are generating at their desks and how to  phrase questions with clarity.", 
  "This differed from teaching in general because these comments  were more hypothetical and not about things that could happen during the rehearsal.", 
  "For  example, teacher educator Beatrice gave intern Jin advice on writing questions, saying, \u201cWhen  you have a question that is two questions, write two separate questions.", 
  "Combining them will be  confusing to students,\u201d (TE Beatrice, Jin Rehearsal 3, 0:16:20).", 
  "Beatrice was the only teacher  educator to provide feedback classified in this area, and it was only coded two times.", 
  "How do interns take up suggestions or feedback from the teacher educator?", 
  "Once interns  \nreceived feedback, they chose how to take this up during the rehearsal.", 
  "Interns could take up  suggestions in practice, they could respond verbally, or they could acknowledge the feedback  without a verbal response.", 
  "Interns were most likely to interact verbally with the feedback by  sharing their thinking or offering a response.", 
  "For example, in Claudia\u2019s first rehearsal teacher  educator Denise paused the enactment to discuss the phrasing of the investigation question.", 
  "Claudia responded by sharing the rationale for why she had phrased the investigation question  the way she did, but she did not rephrase or rewrite it for use in the rest of her rehearsal (TE  Denise, Claudia Rehearsal 1, 0:38:20).", 
  "Verbal response to feedback occurred in 44% of feedback  incidents (see Figure 3).", 
  "Figure 3  \nUptake in practice occurred 20% of the time and was always spurred by the teacher  educator, meaning the interns never decided to replay a portion of the rehearsal of their own  accord, nor did peers request a replay.", 
  "Teacher educator Patrick called for this explicitly, using  the words \u201cpause\u201d and \u201crewind\u201d when requesting an intern take feedback up in practice.", 
  "In a  rehearsal with intern Kelly and teacher educator Patrick, the following exchange occurred,  resulting in Kelly taking up the feedback in her practice:  \nKelly: (gives directions about returning materials at the end of class)  Patrick: Pause.", 
  "So what did you notice?", 
  "Kelly: Last time we picked it up here and we\u2019re putting it there.", 
  "This time we\u2019re doing  the reverse.", 
  "Peer: I don\u2019t think it needs to be that complicated.", 
  "Since they\u2019ve done it before, I think  you can just tell them to put the materials back  Patrick: That was my thinking too.", 
  "Okay, rewind, and try it again  Kelly: (gives directions again) (TE Patrick, Kelly Rehearsal 2, 1:15:00)  \nHow do teacher educators\u2019 goals for, or understanding of, the purposes of rehearsal  \nrelate to their approach?", 
  "The answer to this question varies, depending on the teacher educator  being questioned.", 
  "Three of the four teacher educators mentioned collective knowledge building  as a goal of rehearsals, meaning that not only will the rehearsing intern receive feedback he or  she can apply to practice, but the other interns in the group will also be able to take away  important lessons from the discussion Another key focus, held by teacher educators who have  science content expertise, is ensuring that the integrity of the content is maintained in the  rehearsals.", 
  "A third key theme that emerged was taking interns\u2019 feelings and comfort into  consideration  and ensuring the rehearsal was a positive experience for them, and one from  which they would be motivated to continue to build their practice as science teachers.", 
  "Below we provide a vignette about the four teacher educators who were interviewed,  \nSasha was a veteran middle school science teacher who has worked with this teacher  \nwhich describes how each of them views the purposes of rehearsals and their approach.", 
  "We then  weigh this conception of rehearsals with data collected from rehearsal observations about how  each teacher educator carried out his or her role.", 
  "education program for many years in various roles, including currently working as a field  instructor.", 
  "During rehearsals, she was primarily interested in interns having a positive and  supportive experience because she believed this would make the rehearsing intern more open to  receiving feedback from peers.", 
  "She also wanted interns to be excited about teaching science, but  not overwhelmed by the number of skills new teachers need to possess.", 
  "She believed it was  important to ensure scientific accuracy when interns were teaching, so as not to confuse their  students.", 
  "In preparing for rehearsals, she reviewed the lessons interns would be teaching to ensure  \nOne impact Sasha has seen as a result of rehearsals is interns who pick up best practices  \n\nshe was familiar enough with the content to spot where interns had made adjustments to the  lesson plan, \u201c\u2026not necessarily to say to them ahead of time anything, but just sometimes it helps  me to know\u2026when I should actually interject,\u201d (Sasha, Interview).", 
  "When providing feedback to  interns, she said she focused primarily on the Engage-Experience-Explain framework3, as well as  the teaching practices on which the program places particular focus.", 
  "from other members of their groups.", 
  "She was able to see this not only during the rehearsals  themselves, but had also seen this in the field when she observed interns in their placement  classrooms.", 
  "\u201cI\u2026see interns picking up ideas from other interns that they use in their teaching  later.", 
  "So that\u2019s really powerful and often those are the kinds of things where I say \u2018did you notice  this data sheet she made and how well it worked for us?", 
  "What is it about this data sheet that  made this lesson go so smoothly?\u2019\u201d (Sasha, Interview).", 
  "about science teaching.", 
  "In intern Diana\u2019s first rehearsal, she told her, \u201cif you\u2019re going to use a big  word, you might as well use the right one,\u201d (TE Sasha, Diana Rehearsal 1, 1:04:30).", 
  "She also  commonly gave interns feedback about science teaching with regards to managing processes for  scientific investigations, such as how to direct students to get the materials they would need.", 
  "Her  concern with group dynamics and ensuring interns had a positive rehearsal experience was clear.", 
  "She rarely interjected when interns were teaching, and tended to let the group engage with one  another more than she tried to dominate the conversation.", 
  "3\tThe Engage-Experience-Explain (EEE) framework is a tool used by the university\u2019s Teacher Education program, which divides  part of the investigation.", 
  "In the rehearsals Sasha facilitated, she was most likely to provide feedback to interns  \na science investigation into three parts and provides guidance about relevant science teaching practices that would occur in each  \nPatrick was a first year doctoral student in teacher education, and had four years of  \n\nexperience teaching elementary school.", 
  "He helped to teach a course on classroom management  earlier in the semester, in which he also facilitated rehearsals.", 
  "He volunteered to serve as a  teacher educator in this course because he was interested in both building his knowledge about  high quality instruction in science and seeing the different directions interns took the same  content.", 
  "While facilitating rehearsals, Patrick tried to keep his eyes on the big goals of the lesson  \nto ensure the interns playing the role of \u2018student\u2019 would actually achieve the learning outcomes.", 
  "To do this, he scanned the provided lesson plan during the rehearsal to get a clearer sense of  where the instruction was going.", 
  "This enabled him to ask targeted questions about the content,  which he might not have been able to follow as clearly otherwise.", 
  "collectively built knowledge.", 
  "\u201cI like when the rehearsals build on each other so that when you  give the first person feedback, the second or third person does something that you gave feedback  on,\u201d (Patrick, Interview).", 
  "He believed this made rehearsals more meaningful, both in the moment  and when interns take this feedback into consideration for their future teaching practice.", 
  "Perhaps because Patrick\u2019s teacher educator experience directly prior to this was  facilitating rehearsals in a course about classroom management, he tended to give interns  feedback about procedures and directions.", 
  "He might have also be more likely to focus on  classroom management with these interns because they were his students in that course and  shared a knowledge base about what this teacher education program holds as best practice in that  area.", 
  "When Patrick paused interns and gave feedback or asked for a replay, his directions were  \nSimilar to Sasha, Patrick saw benefit from rehearsals when the group of interns  \nvery clear, almost like a director\u2019s.", 
  "He used words like \u201cpause,\u201d \u201crewind,\u201d and \u201cplay\u201d when  providing interns with direction.", 
  "Denise was also a graduate student, in her fourth year of studying math education.", 
  "She  \nhad supervised interns in various capacities, including serving as a field instructor where she  visited interns in their field placements and organized rehearsals.", 
  "She enjoyed facilitating  rehearsals in this course because she was able to envision the ripple effect her support of these  teachers would have on their students for years to come.", 
  "She also saw this as an opportunity to  gain professional experience that would help her to better support other interns in the future.", 
  "Her primary goal in facilitating rehearsals was to give interns the opportunity to see  themselves as teachers.", 
  "She felt she was able to gauge how much she should push an intern based  on how reflective he or she was.", 
  "If an intern stopped herself during the rehearsal or thought out  loud about what was going on, Denise believed she (the intern) was highly reflective and would  be more open to feedback.", 
  "An example of this could be, \u201cwhen an intern will do something and  then stop him or herself and say, \u2018let me try that again\u2019\u201d (Denise, Interview).", 
  "She saw great value  in rehearsals as a safe space for interns to examine their own teaching.", 
  "In addition to considering interns\u2019 reflective capacity, Denise also hoped to push interns  \nto consider how the skills they were learning were adaptable to multiple content areas and  situations.", 
  "\u201cThey have ideas about how to give directions, but do they have ideas about how to  give directions specifically for the purpose of a science inquiry?", 
  "They\u2019re not going to be  monitored by teachers in the same way, or\u2026they\u2019re gonna be working with tools that are either  unfamiliar or they haven\u2019t had experience working with before.", 
  "And you give directions  differently for that,\u201d (Denise, Interview).", 
  "In rehearsals, Denise was the teacher educator who was most likely to pause the focal  \n\nDenise hoped to use her position to help interns to synthesize what they had seen in the  rehearsal.", 
  "\u201cI think sometimes they know it worked well, but they can\u2019t always tell you why\u2026So  it\u2019s not just identifying something is good, but being able to sort of extrapolate and say well, why  is it good,\u201d (Denise, Interview).", 
  "She realized interns were thinking about many different things  both as they prepared for, and executed their rehearsals, so it was her responsibility to help them  to hone in on the most important lessons.", 
  "intern to provide feedback or pose a question.", 
  "As shown in Table 5, Denise averaged 8  comments during enactment per rehearsal.", 
  "Her feedback also tended to skew more towards  discussions or more lengthy advice, such as a conversation about whether this generation of  students is familiar enough with thermometers to be able to use them effectively in a science  investigation.", 
  "She linked the amount she paused the rehearsal to the level of reflectiveness she  perceived in the intern, meaning she paused the enactment more if she thought the intern was not  reflecting on the enactment on his or her own.", 
  "Beatrice  \nAs the primary instructor of the course, Beatrice had the most experience with facilitating  rehearsals in this context, and was also the most familiar with the content.", 
  "She saw rehearsals as  one opportunity to gain more information about the interns, and what they were like in front of  their students.", 
  "She wanted interns to feel comfortable rehearsing, but also to gain a lot from this  experience, \u201cI try really hard to portray this as a low stakes experience.", 
  "This is a place to try  things out, to see how it works,\u201d (Beatrice, Interview).", 
  "She didn\u2019t believe they would have a  similar opportunity to experience teaching science content in a controlled setting elsewhere in  their preparation.", 
  "During the rehearsals, Beatrice tried to draw interns\u2019 attention to the EEE framework so  that the majority of the feedback conversation would fall in this area.", 
  "\u201cI try to do that both for the  intern who is teaching and also for everyone [else] so they know that\u2019s what they should be  paying attention to.", 
  "And then during my conversation or when I interject something or pause  them or when we\u2019re debriefing afterward, I try to focus my attention on those two things,\u201d  (Beatrice, Interview).", 
  "In addition to this, she also felt it was important that the scientific content  was correct so that misunderstandings were not spread.", 
  "Naturally, Beatrice tended to take a more global view of intern outcomes and success  \nwhen considering what this would look like in rehearsals.", 
  "As the instructor, she was not only  concerned with the group she was supervising on a given day, but also with the rest of the  students in the course.", 
  "She saw one of the greatest benefits of rehearsals to be collective  knowledge building, where one intern incorporated feedback that had been given to another  intern prior in the class.", 
  "Discussion and Conclusions  \nWe know that the quality of teaching makes a huge difference in student learning  \n\nopportunities, particularly in under-resourced schools.", 
  "However, we know less about how to  promote high-quality teaching in the brief time we have to prepare teachers.", 
  "Rehearsals are  hypothesized to be an important pedagogy in teacher education.", 
  "This research provides evidence  regarding the enactment and uptake of rehearsals.", 
  "In practice-based teacher education programs such as the one studied, it is important to  determine what feedback is offered and how the intern interacts with it during the rehearsal, as a  way to explore how rehearsal may shape a novice teacher's practice.", 
  "This study suggests that  teacher educators may be most likely to give directive feedback to interns during rehearsals, that  \nthis feedback may most commonly surround the content area of the rehearsal, and that interns  may be most likely to engage verbally with feedback rather than using it to inform their practice  in the rehearsal of the moment.", 
  "A potential implication for teacher education based on this  finding is that teacher educators could be more direct in asking interns to replay a specific  portion of the rehearsal, as these findings suggest that interns may not do this without prompting.", 
  "This research speaks to Lampert and colleagues' (2013) investigation into the types of  \nfeedback teacher educators provide to novice teachers during rehearsals.", 
  "In both studies,  directive and evaluative feedback were the two most common types of feedback provided.", 
  "Lampert and colleagues also found that the most effective feedback teacher educators provided  surrounded novice teachers\u2019 practice in eliciting and responding to student performance.", 
  "The  current study complements this work as it engages with the feedback topic of eliciting and  responding to student performance, and also considers other types of feedback teacher educators  provide to interns during rehearsals.", 
  "As the organizers and facilitators of this course, we would ideally like for the rehearsing  \ninterns to take up feedback in practice.", 
  "In a rehearsal, the intern has the benefit of receiving  feedback in real time and trying moves out again.", 
  "We believe that this is what makes these  approximations the most useful.", 
  "This is consistent with the assertion Grossman and colleagues  (2009) make about the need for amateurs to engage in approximations of practice in order to  develop expertise.", 
  "Neither real-time feedback nor \u201cdo-overs\u201d are possible in classrooms with real  children, and so it is important to us that interns take the utmost advantage of this gift.", 
  "When teacher educators provided feedback during rehearsals, we found that interns were  most likely to verbally engage in response, which was perhaps the type of response to feedback  with which they felt the most comfortable.", 
  "This verbal engagement with feedback at times  \nallowed the entire group of interns to discuss, and engage with what it would mean for future  teaching practice.", 
  "In interviews, teacher educators stated that one of the benefits of rehearsals, in  addition to this opportunity for the rehearsing intern to receive feedback, to be collective  knowledge building among the group.", 
  "In this sense, the rehearsing intern, while engaging with  feedback verbally, was helping the teacher educator to accomplish the goal of collective  knowledge building among the group.", 
  "This interest teacher educators express in collective  knowledge building is consistent with findings of Davis and colleagues (2016).", 
  "In contrast to what teacher educators expressed as one of their primary goals for  \nrehearsals, Beatrice, the teacher educator who was also the lead instructor of this course, was  primarily interested in interns\u2019 ability to take up feedback in their own practice.", 
  "Teacher  educators may believe that in discussing feedback among the group of interns, collective  knowledge is built which will have an impact on the practice of all members of the group, but it  is not possible to gauge whether this belief is true.", 
  "This begs the question of which party- interns,  teacher educators, or instructor- has the most influence over designating the intended outcomes  of rehearsals, and how is this upheld?", 
  "This question is important for teacher educators and  instructors to consider when designing or implementing rehearsals for preservice teachers.", 
  "that takes place socially and collectively, through the use of approximations in a controlled  classroom environment.", 
  "These interactions\u2014among teacher educators, rehearsing interns, and  their peers\u2014help preservice teachers in navigating Feiman-Nemser and Buchmann\u2019s (1985) two- worlds pitfall, as they are provided with a realistic rehearsal setting in which they can teach  students authentically, combining the skills they are learning in class with what they know of the  students they have encountered in field placements.", 
  "This opportunity may allow preservice  \nThis research demonstrates how rehearsals are able to support novice teachers in learning  \nteachers to make tighter connections between skills learned and actual classrooms of students.", 
  "Teacher educators providing feedback can focus their interactions during rehearsals on areas of  importance for bridging that gap."
 ]
}