{
 "document_id": "1173138.1", 
 "sentences": [
  "Running Header: CONTESTED SPACES  \nContested Spaces: Cultural Resource Centers in an Era of #BlackLivesMatter  \nErich N. Pitcher, PhD  \nDiversity & Cultural Engagement  \nOregon State University  \n\fCONTESTED SPACES  \n\nTo describe our current historical moment as turbulent is simultaneously accurate, but  \nmisses the long legacy of racism, xenophobia, and white supremacy in the U.S. For many  \nmembers of non-dominant cultures (i.e., Black and African American communities), the  \nascendency of yet another racist leader is hardly news worthy.", 
  "Yet, the ways that the current U.S.  \npresidential administration works to undermine higher education\u2013by using alternative facts  \nregarding science, issuing executive orders banning migration from particular countries, and  \nrising deportation efforts of undocumented individuals\u2013strikes at the very heart of the mission of  \nuniversities (Morphew & Hartley, 2006).", 
  "The evolving mission of higher education institutions  \nincludes creating and disseminating knowledge, educating a highly \u201cinternationalized\u201d student  \npopulation, and ensuring that undocumented high school graduates have access to higher  \neducation (Morphew & Hartley, 2006).", 
  "At the time I proposed this paper, the nature of contestation of space, particularly the  \ncultural resource center spaces, was markedly different, then it is now just a few months later.", 
  "Cultural resource centers are spaces on college campuses\u2013usually predominantly white  \ninstitutions\u2013that foster validation and support for the identities and cultures of students of color  \n(Patton, 2010).", 
  "While there is a somewhat changed political context, the same processes and  \npractices that made cultural centers on college campuses contested spaces are still ever-present.", 
  "Widespread racism and white supremacy on college campuses\u2013both historically and today\u2013as  \nwell as the inherited legacy of serving only elite white (cisgender) men in higher education  \nmakes college campuses ill-equipped to serve the students who currently enroll (Harper, 2012;  \nPatton, 2015).", 
  "CONTESTED SPACES  \n\nIn addition to the current political environment, the US is undergoing a demographic  \nshift1 (Pew Research Center, 2016).", 
  "There is increased understanding the U.S. will not have any  \nracial and ethnic group majority and several states have already experienced the demographic  \nshift that reflects the national trend (Pew Research Center, 2016).", 
  "Considering this demographic  \nshift, it seems unsurprising, at least to me, that there would be an insurgence of white  \nsupremacist thinking and racist vitriol.", 
  "If the post-Trump election context is any indicator, hate  \ncrimes against Muslims, Jews, Latinx2 and minoritized groups increased (Yan, Sgueglia, &  \nWalker, 2016).", 
  "Moreover, prior research suggests that white Americans see racism as a \u201czero-sum  \ngame,\u201d wherein whites view decreases in anti-Black racism as associated with increased anti- \nWhite \u201cracism\u201d (Norton & Sommers, 2011).", 
  "Further Bonilla-Silva\u2019s (2010) argument that there  \nis widespread racial inequality, within a context of complete denial of those facts, reflects a  \ncolor-blind racist ideology.", 
  "Setting aside the ableist language of \u201ccolor-blind\u201d Bonilla-Silva\u2019s  \n(2010) argument that there are four frames of color-blind racism: abstract liberalism,  \nnaturalization, cultural racism, and minimization of racism provides a compelling rubric through  \nwhich to understand contemporary racism evident in US society.", 
  "Most relevant to my discussion  \nof the contestations that cultural resources centers on college campuses face include abstract  \nliberalism, cultural racism, and minimization.", 
  "Abstract liberalism \u201cinvolves using ideas associated with political liberalism\u2026and  \neconomic liberalism\u2026in an abstract manner to explain racial matters\u201d (Bonilla-Silva, 2010, p.  \n                                                  1 To be more accurate, the US is undergoing yet another demographic shift when contextualizing the colonial legacy  of the US.", 
  "2 Here I use Latinx \u201cto symbolize and include gender nonconforming Latinxs, to challenge gender binaries, and to  queer myths about a unified homogenous Latinidad and challenge conventional identity politics\u201d (Alvarado, 2014, p.  \n\fCONTESTED SPACES  \n\n28).", 
  "Liberalism, particularly the notion of individualism, is used to \u201crationalize racially unfair  \nsituations\u201d (Bonilla-Silva, 2010, p. 28).", 
  "Abstract liberalism allows white folks to retain our  \ninnate \u201cgoodness\u201d while opposing policies that would address racism.", 
  "Another frame described  \nby Bonilla-Silva (2010) is the notion of cultural racism, wherein whites use culturally-based  \narguments about the dubious moral convictions of people of color to justify the inequitable,  \nunjust situation of white domination (Bonilla-Silva, 2010).", 
  "Finally, the minimization of racism  \nframe suggests that racism is no longer a central factor affecting racially minoritized individuals\u2019  \nlife chances (Bonilla-Silva, 2010).", 
  "Taken together, color-blind racist frames, the politically turbulent context, and the  \nhistorical and contemporary racism and white supremacy on college campuses creates a culture  \nwherein cultural centers are deeply contested spaces.", 
  "Even the formation of cultural centers  \narrived out of conflict and demands made by student-activists of color (Patton, 2005, 2010).", 
  "Additionally, cultural centers continue to be spaces of resistance to the hegemonic norms of a  \ngiven campus; serving as a space of refuge from the racial battle students of color engage on  \npredominantly white campuses (Patton, 2010).", 
  "While the debates of the continued utility of  \ncultural centers persists (see Magolda & Baxter Magolda, 2013), in this paper, I assume that  \nthere is an inherent value in cultural centers, both presently and in the future.", 
  "I also assume that  \ncultural centers are spaces of both academic and social support for students (Patton, 2006).", 
  "Finally, I assume that higher education leaders seek to leverage cultural centers to equalize  \neducational opportunities (Patton, 2010).", 
  "Connecting the current political moment to the physical space of cultural resource  \ncenters, I suggest that these spaces are under duress.", 
  "To explicate this duress, in this scholarly  \npaper, I explore the various interconnected issues facing university staff at cultural resource  \n\fCONTESTED SPACES  \n\ncenters and the activists and organizers of the Black Lives Matter movement.", 
  "In particular, I  \nconsider three common questions that cultural resource centers staff receive and their  \nrelationship to backlash expressed to Black Lives Matter activists and organizers.", 
  "Questions  \ndirected at the Black Lives Matter movement and cultural resource centers are attempts to place  \nboth on contested terrain.", 
  "Because of the nature of racism and white supremacy in a settler  \ncolonial context, analyzing the questions of Black Lives Matter movement and university  \ncultural resource centers allows me to draw important connections between social movements  \nand the ways discourses of racism circulate within college environments (Rojas, 2012).", 
  "The three questions that are the objects of study in this paper are: Why isn\u2019t there a white  \ncultural center?", 
  "; Am I allowed in this _____ space?", 
  "; and How is the work of the _____  \nintersectional?", 
  "I contend that these three questions connect to dominant racialized discourses  \nbuilt on three primary assumptions: a social context of assumed or eventual racial equality (Pew  \nResearch Center, 2016), ahistoricism of racial injustice (Delgado & Stefancic, 2012; Dixson &  \nRousseau, 2006), and denial of contemporary enactments of racism (Ahmed, 2004a, 2004b;  \nApplebaum, 2010; Bonilla-Silva, 2010; Schick, 2010).", 
  "These assumptions connect to larger  \ndiscourses about race in the contemporary U.S., including the racial frames previously described  \nby Bonilla-Silva (2010).", 
  "I became interested in these questions as a part of my professional work with Diversity &  \nCultural Engagement at Oregon State University.", 
  "This unit supports seven cultural centers and  \nsix programs and initiatives at a predominantly white, mostly STEM-focused campus.", 
  "The  \nquestions that form this analysis are ones that we as professional staff often respond to from  \nstudents.", 
  "CONTESTED SPACES  \n\nAnalytical Tools  \nIn this paper, I make several interrelated assumptions about speech acts.", 
  "Following from  \nAlcoff\u2019s (1991) assertion that speaking is constitutive of meaning, I join in a post-structural turn  \nwherein \u201cdiscursive practices of speaking or writing that involve not only the text or utterance  \nbut their position within a social space including the persons involved in, acting upon, and/or  \naffected by the words\u201d (p. 12).", 
  "Speech within context matters, as does one\u2019s social location.", 
  "To  \nanalyze the three questions that contest cultural resource centers and notions of racial belonging  \nlisted above, I used Ahmed\u2019s (2004) analytical tools for understanding performative speech acts  \nregarding anti-racism, specifically performance and non-performance.", 
  "Drawing on Austin  \n(1975), Ahmed (2004) stated that, \u201can utterance is performative when it does what it says\u201d (para.", 
  "11).", 
  "Conversely, when an utterance does not do what it says, it is a non-performance (Ahmed,  \n2004).", 
  "I argue that the questions asked of cultural resource center staff and of the Black Lives  \nMatter movement activists and organizers are both performative and non-performative.", 
  "That is,  \nthese utterances, in some ways, do what they say, and in other ways, do not do what they claim  \nto do.", 
  "The very notion that something is performative has become a staple of academic  \ndiscourse.", 
  "As Ahmed (2004) articulated, \u201cit seems as if almost everything is performative, where  \nperformative is used as a way of indicating that something is \u2018brought into existence\u2019 through  \nspeech, representation, writing, law, practice, or discourse\u201d (para.", 
  "51).", 
  "To speak of  \nperformativity as something other than as Butler (1997) described as a repetition of norms and  \nconventions is to forget the notion of the concept (Ahmed, 2004).", 
  "Taken further, while the  \nutterances analyzed in this paper are \u201cjust words\u201d they do a kind of action, a repetition of a  \ndiscourse that maintains a system of power.", 
  "Austin (1975) described sentences that perform a  \n\fCONTESTED SPACES  \n\nkind of action (e.g., naming a building) as a \u201cperformative sentence\u201d or performative, for short  \n(p. 6).", 
  "To name a building the \u201cBlack Cultural Center\u201d is performative in that the building  \nbecomes the thing described via the process of naming.", 
  "To ask the question \u201cwhy isn\u2019t there a  \nwhite cultural center\u201d does not do the same thing.", 
  "Instead it suggests that there ought to be a  \nwhite cultural center, versus making a white cultural center come into existence.", 
  "As such, I use  \nthe notion of performative as Austin (1975) and Ahmed (2004) do to understand how certain  \nspeech acts, namely the aforementioned questions, ultimately do certain kinds of action and do  \nnot do any actions at all.", 
  "I also draw on Applebaum\u2019s (2010) articulations of white complicity and white  \nignorance.", 
  "White complicity takes two forms: unconscious attitudes and beliefs about people of  \ncolor and whiteness as a way of being, or white performativity (Applebaum, 2010).", 
  "In advancing  \nthe white complicity claim, Applebaum (2010) argued for a re-articulation of white privilege.", 
  "Rather than speak to the systemic benefits of white privilege, white complicity is concerned with  \nthe moral responsibility that whiteness requires (Applebaum, 2010).", 
  "Applebaum (2010) is  \nbuilding on the work of several scholars including Ahmed (2004) and Harris (1993) to advance  \nthe white complicity claim, which \u201cmaintains that all whites, by virtue of systemic white  \nprivilege that is inseparable from white ways of being, are implicated in the production and  \nreproduction of systemic racial injustice\u201d (p. 179).", 
  "Furthermore, whiteness is a form of property  \nrights, protected by institutions, including higher education (Ahmed, 2012; Harris, 1993; Patel,  \n2015).", 
  "Related to the white complicity claim is white ignorance, or the ability to not have to  \nknow certain things or can ask certain questions (Applebaum, 2010).", 
  "As I will show in my analysis, the questions asked of cultural resource center staff and  \nMovement for Black Lives leaders are steeped in a particular racial discourses that flow in and  \n\fCONTESTED SPACES  \n\nthrough higher education institutions.", 
  "One caveat to the analysis that follows is that as Coates  \n(2015) described racism is a \u201cvisceral experience\u201d and the language and specifications that I  \nmake regarding whiteness, white complicity, white ignorance, and white entitlement are not a  \nmeans to mask the veracity of the lived experience of racism (p. 10).", 
  "Rather, I seek to illuminate  \nand specify how this veracity is part of a larger ideological structure enacted in and through  \nhigher education institutions.", 
  "Positionality  \nI am a white, queer and trans scholar currently working in solidarity with communities of  \nminoritized students (Black, indigenous).", 
  "I work professionally as the Associate Director for  \nResearch and Communication for Diversity & Cultural Engagement at Oregon State University.", 
  "This unit is a large, multi-functional student affairs unit responsible for supporting several  \nstudent communities including Asian American and Pacific Islander, Native American, Black  \nand African American, Latinx, Middle Eastern, LGBTQ+, and/or women.", 
  "While the largely left- \nleaning political climate at the institution made it possible to have seven free-standing cultural  \nresource centers, the campus climate is decidedly hostile, overtly and covertly racist.", 
  "As a white  \nperson navigating this campus, my role necessitates that I ask \u201cthe race question\u201d in nearly every  \nmeeting of which I am a part.", 
  "The often-cagey responses from my white colleagues to the  \nquestion of race suggests that the campus has not meaningfully considered how race mediates all  \nstudents\u2019 experiences.", 
  "While there is a robust network of cultural resource centers, these centers are often  \ntokenized.", 
  "For example, a college recently suggested that \u201cwe\u201d should host a diversity fair,  \nasking our unit to host seven tables, one for each center, to be staffed by professionals and  \nstudents.", 
  "Additionally, our unit as a whole is marginalized and tokenized, often being the source  \n\fCONTESTED SPACES  \n\nof photos of \u201cdiverse students\u201d.", 
  "Often reduced to diversity \u201cstuff\u201d or social justice \u201cissues,\u201d our  \nefforts to support, validate, and ensure the equalized academic success of students of color,  \ninternational students, women, and/or LGBTQ+ students are often dismissed.", 
  "What this means  \nfor me as a white person is that I exist in a liminal space of having all the privileges associated  \nwith my race and white skin, while working for a unit that marks me as different.", 
  "My presence as  \nan occasionally masculine presenting white person is never unproblematic, regardless of my  \nknowledge of my complicity with racism.", 
  "I enter into this inquiry from a contested place as a  \nresult of my own positionality and the positionality of my unit.", 
  "Analyzing Frequently Asked Questions to Understand Contestations   \nIn this paper, I argue that the questions asked of cultural centers relate to the questions  \nfrequently asked of the Movement for Black Lives.", 
  "Through my analysis, I reveal key parallels  \nbetween what happens on college campuses regarding cultural centers and how the same racial  \nrhetorics perform (or not) within questions asked of the Movement for Black Lives.", 
  "Using the  \nanalytical tools I just described, I seek to elucidate the ways that some utterances perform and  \nothers do not.", 
  "The three questions are: Why isn\u2019t there a white cultural center?", 
  "; Am I allowed in  \nthis _____ space?", 
  "; and How is the work of the _____ intersectional?", 
  "\u201cWhy isn\u2019t there a white cultural center?\u201d  \nThe first parallel I examine is between the common retort to Black Lives Matter of \u201call  \nlives matter\u201d and the question, \u201cwhy isn\u2019t there a white cultural center?\u201d \u201cAll lives matter\u201d co- \nopts the discourse of Black Lives Matter and counter protests and chants are common features at  \nrallies that seek to center anti-Black racism and police brutality (Garza, 2016).", 
  "The demand for  \nall lives mattering relates to the question \u201cwhy isn\u2019t there a white cultural center?\u201d in that both  \nsentiments re-center whiteness and co-opt movements.", 
  "Just as no one called for all lives to matter  \n\fCONTESTED SPACES  \n\nuntil the demand that Black Lives Matter emerged, the notion of a white cultural center only  \nemerged after there were cultural centers for Native, Black, Asian American, and/or Latinx  \nstudents.", 
  "Those student affairs professionals who have spent any time in or around cultural  \nresource centers are invariably asked the question: \u201cwhy isn\u2019t there a white cultural center?\u201d This  \nquestion comes most often from white folks with an air of indignation and perhaps an edge of  \nentitlement.", 
  "But, what is the question really asking?", 
  "What are the performative and non- \nperformative aspects of this question?", 
  "If this question is a genuine curiosity, the three assumptions of a social context of  \nassumed or eventual racial equality (Pew Research Center, 2016), ahistoricism of racial injustice  \n(Delgado & Stefancic, 2012; Dixson & Rousseau, 2006), and denial of contemporary enactments  \nof racism (Ahmed, 2004; Applebaum, 2010; Schick, 2010) are certainly at play.", 
  "Related to the  \nfirst assumption about presumed racial equality, what lurks just below the surface of this  \nquestion is an insistence that we have cultural centers for particular groups, then we should have  \na cultural resource center for all groups.", 
  "This question is a performance of white denial in that  \ninherent in the assumption of realized (or eventual) racial equality, denies the current realities of  \npeople of color in the U.S. (Ahmed, 2004; Applebaum, 2010).", 
  "Of course, this question also fails  \nto understand the ways in which whiteness shapes the university culture in the first place  \n(Ahmed, 2012).", 
  "A white student can ask this question without any amount of irony precisely  \nbecause of a system that has made whiteness invisible (Ahmed, 2004; Applebaum, 2010).", 
  "Further this question is undergirded by the second assumption regarding the ahistoricism  \nof racial injustice (Delgado & Stefancic, 2012; Dixson & Rousseau, 2006).", 
  "The very need for  \ncultural resource centers for Latino/a/xs or Asian Americans and Pacific Islanders in the first  \nplace derives from a history and contemporary social context of dividing communities and  \n\fCONTESTED SPACES  \n\nobliterating cultures that are not part of white hegemony (Powell, 1996).", 
  "This question is then  \none of a refusal and resistance to see whiteness and white privilege (Ahmed, 2004; Applebaum,  \n\nAdditionally, this question of \u201cwhy there isn\u2019t there a white cultural center?\u201d also is a  \ndenial of contemporary enactments of racism.", 
  "In fact, this question is an enactment of racism.", 
  "Most often the person asking this question is a white person who queries a person of color  \nworking in the space in question.", 
  "Thus, there is a racialized power dynamic.", 
  "The very subjects at  \nplay in this interaction are effects of power (Foucault, 1982).", 
  "Perhaps a more aggressive version of this same question is: Why do you get something  \nand I do not?", 
  "This is another way in which the question of why there is not a white cultural  \ncenter reflects whites\u2019 belief in a \u201czero-sum game\u201d as related to racial equality (Norton &  \nSommers, 2011).", 
  "Therefore, the question performs racism, even if the speaker offers the question  \nin a manner that attempts to do the opposite.", 
  "Even if the speaker is attempting to demonstrate a non-racist attitude through a view of  \nracial equality (i.e., designated spaces for each federally recognized racial or ethnic group), the  \nperformative that this question offers is in the end a racist one.", 
  "Rather than see how the question  \nreplicates and reproduces whiteness as a norm and performs whiteness as a way of being marked  \nby entitlement, there is no acknowledgement of white complicity (Applebaum, 2010).", 
  "In other  \nwords, there are performative and non-performative aspects of the question.", 
  "The non-performative aspect (Ahmed, 2004) relates to the white ignorance embedded  \nwithin the question (Applebaum, 2010).", 
  "Because of white privilege, and ultimately, white  \ncomplicity (Applebaum, 2010), the white questioner does not have to ask a deeper question  \nabout the presence or lack of certain cultural centers, or even the effect of having asked the  \n\fCONTESTED SPACES  \n\nquestion in the first place.", 
  "Nor does the questioner implicate themselves in the ongoing work of  \nmaintaining a system of racial subordination.", 
  "In the speaking of this question, a certain kind of  \nmeaning follows (Alcoff, 1991), which is that the questioner is not informed enough to know  \nwhy such a question is unnecessary.", 
  "In light of the performative and non-performative aspects of the question, \u201cwhy isn\u2019t  \nthere a white cultural center?\u201d educators, especially white educators committed to unsettling  \nracism on campus, have a responsibility deriving from the white complicity claim (Applebaum,  \n2010) to engage students in dialogue around these kinds of questions.", 
  "However, who is best  \nsuited to that work might not be folks of color, instead white people might best be suited to  \nengage this question with other white folks.", 
  "Specifically, while important to facilitate white  \nstudents\u2019 understanding of white privilege, white educators should also work to engage white  \nstudents in understanding complicity, the performative aspects of whiteness, and the associated  \nresponsibilities white people have as a result (Applebaum, 2010).", 
  "In short, even well intentioned  \nwhites are complicit in a system of racial injustice, even benign acts work to uphold white  \nsupremacy (Applebaum, 2010).", 
  "Thus, engaging white students in this question is critically  \nimportant in one\u2019s efforts to take responsibility for white people\u2019s role in sustaining systemic  \nracial injustice.", 
  "\u201cAm I allowed in this _____ [insert center name]?\u201d  \nThe second parallel between the questions asked of Black Lives Matter activists and  \norganizers and cultural resource centers is the role of white people in both the movement and  \ncenters.", 
  "This question is often accompanied by white people\u2019s fears of being unwelcomed in  \nspaces that do not center whiteness (Leonardo, 2004).", 
  "The fears related to whether a space is  \nwelcoming to white folks derives largely from the social location of white people.", 
  "By this I  \n\fCONTESTED SPACES  \n\nmean, U.S. society is structured around the needs of white people, from ensuring our safety in  \nhousing to schooling, and even conversations about race (DiAngelo, 2011; Leonardo, 2004;  \nLeonardo & Porter, 2010), white safety is the center of a larger social project.", 
  "Ahmed (2004),  \nbuilding on the work of Lorde (1984) and hooks (1989), noted that for whites \u201cfeeling bad about  \nracism or white privilege can function as a form of self-centeredness, which returns the white  \nsubject \u2018back into\u2019 itself, as the one whose feelings matter\u201d (para.", 
  "32).", 
  "The question of whether  \nwhite students are \u201callowed\u201d in the Native American Longhouse Eena Haws or the Asian and  \nPacific Cultural Center is a move to return the white question asker \u201cback into itself\u201d and serves  \nas a re-centering of white feelings and demands for racial belonging even in spaces that are  \ndesigned for people of color/racialized others (Ahmed, 2004, para.", 
  "32).", 
  "A parallel process occurs within the Movement for Black Lives.", 
  "The question of the role  \nof white people seems like an odd one because of white people\u2019s refusal to address anti-Black  \nracism and the various social structures that organize society around race that there even needs to  \nbe such a movement.", 
  "This is not to say that there is no role of white racial justice accomplices  \n(Indigenous Action Network, 2014), but the very question of the role of white people \u201cturns back  \ninto\u201d white subjectivity as being of primary concern (Ahmed, 2004) within a movement that is  \nfundamentally about Black Lives Mattering.", 
  "Similarly, for cultural centers, the question of  \nwhether white people can be in a particular space functions in much the same way.", 
  "Similar to other questions asked of the Movement for Black Lives and cultural centers,  \nthis question is both performative and non-performative.", 
  "The non-performative aspect derives  \nfrom the inquiry not genuinely attempting to understand the role or belongingness of particular  \nracial groups with a Black liberation movement and/or within a cultural center.", 
  "In other words,  \nthe question is not an action that interrogates the proper role of whites-as-accomplices in racial  \n\fCONTESTED SPACES  \n\njustice movements (Indigenous Action Network, 2014).", 
  "The question cannot be taken literally, as  \nthe question is not performing, what on the face it should be performing.", 
  "Given that this question does not do what it on the face should be doing, it is non- \nperformative.", 
  "In being a non-performative, this question is a form of repetition (Ahmed, 2004;  \nApplebaum, 2010).", 
  "In this case, the repetition is white entitlement, particularly the demands that  \nwe as white people have access to any and all spaces and material objects, as well as having a  \nspecified role in social movements.", 
  "As such, this inquiry is one manifestation of white performativity (Applebaum, 2010).", 
  "this utterance performs white racial anxiety and willful white ignorance (Applebaum, 2010;  \nAhmed, 2004).", 
  "This question maintains a system of power via white performativity (Applebaum,  \n2010).", 
  "Even if the performative aspect of the question is not in the utterance itself, the repetition  \nupholds the social structure that the very movements and spaces were designed to counter.", 
  "The  \nperformative aspect of this question is about maintaining a system of racial hierarchy via the  \nquestion of who belongs in what spaces.", 
  "The question of the place of white people in the cultural  \ncenter space and Movement for Black Lives is another mechanism by which whites re-center our  \nneeds, desires for belonging, need to be protected from our own fragility (DiAngelo, 2011).", 
  "Rather than being an effort to be deferential to people of color, this question ultimately relates to  \nwhite entitlement (Applebaum, 2010).", 
  "\u201cHow is your work intersectional?\u201d  \nThe final question addressed in this analysis is the demands for Black Lives Matter  \nactivists and organizers to articulate intersectionality, which relates to the question that cultural  \ncenters also face regarding the question \u201chow is your work intersectional?\u201d This question is both  \nperformative and non-performative, which is partially mediated by who asks the question.", 
  "Before  \n\fCONTESTED SPACES  \n\nI proceed with my analysis, I offer a few caveats.", 
  "The Black feminist intervention of  \nintersectionality was and is a highly necessary strategy to better articulate the various ways that  \nsystems of oppression overlap in the lives of Black women very particularly (Crenshaw, 1989,  \n1990).", 
  "However, the notion of intersectionality is more often than not disconnected from the  \nscholarly genealogy from which it emerged (Bilge, 2014).", 
  "The disconnection implicates white  \nscholars most acutely who often want to put the notion to work as a panacea of feminist  \ntheorizing (Bilge, 2014).", 
  "I posit that intersectionality, especially as taken up in popular social  \njustice discourses assumes that \u201cbeing intersectional\u201d seems to matter more than a depth of  \nanalysis of the issues facing a groups of people.", 
  "Centering race to the \u201cexclusion\u201d of other forms  \nof subordination is seen as somehow a weaker form of analysis (Rodrigues & Freeman, 2016).", 
  "As Applebaum (2010) and Rodriguez and Freeman (2016) argued, intersectionality can  \nbe used as a tool to derail and delegitimize discussions which center race and racism.", 
  "Related,  \nsome distancing strategies attempt to deny the continued influence of race and racism in the U.S.  \n(Case & Hemmings, 2005).", 
  "However, the continuous assertion and demand for intersectionality  \nmisses the point that one can be intersectional in their analysis and still have a central focus on  \nrace and racism.", 
  "For example, Rodriguez and Freeman (2016) argued that in racial justice work  \non college campuses, \u201cintersectionality operated as a tactic to undermine the specific experiences  \nof students of color by incorporating them into a framework in which diversity is defined in such  \na way that virtually everyone is positioned as marginalized and subordinated\u201d (p. 76).", 
  "While it is certainly the case that there are multiple systems of power which overlap  \nwithin people\u2019s lives (e.g., heterosexism), the population level control of racism cannot be  \nunderstated (Bonilla-Silva, 2010).", 
  "From shooting of unarmed Black men to the murder of Black  \nwomen for refusing a man\u2019s advance, to the life chances and quality of life indicators that clearly  \n\fCONTESTED SPACES  \n\ndemonstrate significant differences between racial groupings makes the claim that \u201cwe all  \nexperience marginalization\u201d a curious one at best (Bonilla-Silva, 2010).", 
  "At worst, the  \nmarginalization in one\u2019s experience as a white queer person is made commensurable with the  \nexperience of being Black or Latinx of any sexual orientation.", 
  "This is not to suggest that some  \nform of oppression is worse/better than another, since all forms of oppression are equally bad, it  \nis merely to say that in terms of distribution of life chances, being Black and queer is  \nfundamentally different from being white and queer (Spade, 2011).", 
  "Using Bonilla-Silva\u2019s (2010) terms, the minimization framing used to deny the continued  \ninfluence of racism can be found in some calls for intersectionality within the Movement for  \nBlack Lives and the questions facing cultural centers.", 
  "Yet, as Garza (2016) stated,   \nBlack Lives Matter affirms the lives of Black queer and trans folks, disabled folks, Black- \nundocumented folks, folks with records, women and all Black lives long the gender  \nspectrum.", 
  "It centers those that have been marginalized within Black liberation  \nmovements.", 
  "It is a tactic to (re)build the Black liberation movement (p. 25).", 
  "Thus, Black Lives Matter was always an intersectional movement, despite depictions of the  \nopposite.", 
  "Even if the movement was not intersectional, Garza\u2019s (2016) argument that when  \nBlack people get free, everybody gets free is a necessary \u201cpolitical and ideological intervention\u201d  \n(p. 23).", 
  "Likewise, the question of whether cultural centers are intersectional spaces is a tactic that  \nhas the potential to unsettle the focused effort to sustain and validate the cultural practices of  \nstudents of color.", 
  "While an intersectional approach may be a goal within social justice  \nmovements, this question also holds the assumption, \u201cwhy the narrow/particular focus on race?\u201d  \n(Rodriguez & Freeman, 2016, p. 69).", 
  "Especially given that institutional leaders responded to  \n\fCONTESTED SPACES  \n\nstudents\u2019 demands (e.g., prior social movements on college campuses, Patton, 2010; Rojas,  \n2012) and created cultural centers, a narrower focus only seems appropriate.", 
  "Like the first two questions, the interrogation or invocation of intersectionality has both  \nperformative and non-performative aspects.", 
  "While white individuals often ask the first two  \nquestions, this final question comes from both white folks and from racially minoritized  \nindividuals.", 
  "Thus, my analysis of this question differs slightly.", 
  "However, my argument that the  \nrepeated utterances do a kind of action that maintains a system of power is valid in this case as  \nThis question is performative in the sense that is does the action of interrogating the  \nintersectional nature of a program, physical space, and/or social movement (Ahmed, 2004).", 
  "But  \nit is also non-performative in the sense that it derails a conversation/program/movement/space  \nthat centers race, ethnicity, culture, and racism (Ahmed, 2004; Rodriguez & Freeman, 2016).", 
  "Asking about intersectionality in and of itself does not bring about \u201cmore intersectionality\u201d.", 
  "It  \ndoes the opposite.", 
  "Asking the question of whether something is intersectional suggests that the  \nvery object/space/experience in question is not intersectional.", 
  "This inquiry may even suggest that  \nbeing intersectional is a certain kind of ideal and that in not being intersectional enough, there is  \nsomething wrong with the program/space/movement.", 
  "When this question is asked by a white person, the intersectional discourse is often used  \nas a means to situate the asker as \u201cgood\u201d (Applebaum, 2010).", 
  "It is possible then to see the  \nquestion of intersectionality as a harbinger of the \u201cwoke-ness level\u201d of the white question asker.", 
  "In other words, the question is a performance of a white person\u2019s critical consciousness (Freire,  \n2013) and presumed goodness conferred by whiteness (Applebaum, 2010).", 
  "When asked by a  \nwhite person, the question of intersectionality is then about situating the  \n\fCONTESTED SPACES  \n\nspace/program/movement as somehow deficient or inadequate.", 
  "In making such a move, the white  \nquestion asker is performing a kind of evaluation arising from the clearly superior analysis of the  \ninquirer.", 
  "Thus, the question becomes a performance of white supremacy rather than a genuine  \nengagement with the live-giving and necessary intellectual intervention of intersectionality  \n(Crenshaw, 1989, 1990).", 
  "However, when students of color ask this question, the function of the question is quite  \ndifferent.", 
  "In fact, the purpose of the question is often an expression of having felt that a part of  \nthat student\u2019s identity was left out of the space/movement/program.", 
  "For example, when queer  \nBlack students raise the question of intersectionality within the Black Cultural Center, the  \nquestion is often interrogating whether the intersectional experiences of being Black and queer  \nare meaningfully addressed.", 
  "Within this context, the question is performative as the statement  \ndoes a kind of action by offering a social critique that may have resulted from being  \nmarginalized within a space because of one\u2019s multiple identities and the associated systems of  \npower, privilege, and oppression.", 
  "In the sense that the question becomes social critique, it is then  \nperformative as the question does what it says it does (Ahmed, 2004).", 
  "Closing Thoughts  \nMy central argument is that by understanding the parallels between the questions facing  \ncultural resource centers and Black Lives Matter movement, one can more deeply understand the  \ncontemporary discourses about racism in the United States and how these discourses manifest  \nwithin higher education, especially in questions asked of cultural centers.", 
  "Through increasing  \nunderstanding about racialized discourses through an analysis of their performative and non- \nperformative aspects of three questions asked of the Movement for Black Lives and cultural  \ncenters, I sought to use analytical tools of performative and non-performative (Ahmed, 2004)  \n\fCONTESTED SPACES  \n\nand white complicity and ignorance (Applebaum, 2010) to explicate and complicate what certain  \nutterances do and do not do.", 
  "In brief, all three questions, specifically, Why isn\u2019t there a white  \ncultural center?", 
  "; Am I allowed in this space?", 
  "; and How is this space/movement/program  \nintersectional?", 
  "have both performative and non-performative aspects.", 
  "These questions, especially  \nwhen asked by white people, perform white racial ignorance (Applebaum, 2010), rooted in a  \ncolorblind ideology (Bonilla-Silva, 2010) and ahistoricism (Delgado & Stephancic, 2012).", 
  "I close with a few implications for educators who want to unsettle racist assumptions and  \ncollaborate with students to develop critical consciousness (Freire, 1970).", 
  "Engaging students in a  \ndialogue about the question of \u201cwhy isn\u2019t there a white cultural center\u201d as a part of ongoing  \nconsciousness raising efforts will likely decrease the presence of this question in the physical  \nspaces of cultural centers.", 
  "For students who do not have sufficient racial literacy, this question  \nmay seem perfectly innocent and reasonable, but efforts to educate students, particularly in the  \nfirst year, would \u201cinoculate\u201d the campus against the persistence of such questions.", 
  "It is also  \npossible that the question of a white cultural center could be fended off during the admissions  \nand prospective student process.", 
  "By unsettling notions of a \u201czero-sum game\u201d with respect to  \ncultural centers through the prospective visit process, it is possible that students will be able to  \ndevelop more thoughtful questions about cultural centers earlier in their educational process  \n(Norton & Sommers, 2011).", 
  "Additionally, there is a need to develop caucus spaces on campuses where people of color  \nand particular communities (e.g., Latinx student communities) decide how spaces should operate  \nand who should be present in what spaces and under what circumstances.", 
  "Through advisory  \nboards, stakeholder meetings, and sustained dialogues with students, a determination can be  \nmade about the mode of operation a center will have.", 
  "If one considers cultural centers a brave  \n\fCONTESTED SPACES  \n\nspace (Self & Hudson, 2015), wherein the purpose of cultural centers is to engage in systemic  \nand social transformative, then having frank discussions about what is required of people in a  \ngiven space is critical to the success of such efforts.", 
  "If cultural centers are spaces of refuge, a  \nrelated but different conversation about expectations is also necessary (Patton, 2010; Self &  \nHudson, 2015).", 
  "This is not to say that spaces cannot have multiple aims and purposes, but rather  \nto suggest that to meet the needs of various constituency groups, it is necessary to thoughtfully  \nand mindfully consider the contested aims and purposes of cultural centers on college campuses.", 
  "Without re-centering whiteness and the needs of white people, some discussion of the role of  \nwhite people in cultural center spaces is necessary.", 
  "Finally, students in partnership with professional staff should engage in deep  \nconversations about the genealogy of intersectionality, the complexities that intersectional praxis  \nmight entail, and ways to honor students\u2019 holistic understandings of themselves and their  \nidentities across centers and programs.", 
  "In such dialogues, clarifying misconceptions about  \nintersectionality is necessary.", 
  "Honoring the work of Crenshaw (1989, 1990) requires a deep  \nengagement with systems of power, privilege, and oppression and must move beyond surface  \nlevel dialogues that amount to a discussion of multiple identities, largely ignoring systems of  \npower and the distribution of life chances (Bonilla-Silva, 2010; Spade, 2011).", 
  "Also, student  \naffairs educators working within centers might strive for intersectional praxis, while also  \ncentering race and racism.", 
  "While the work of cultural centers is clearly contested and make complex by the current  \npresidential administration, the persistence of racism and white supremacy on college campuses  \nnecessitates the continued presence of cultural centers.", 
  "Additionally, as continued attacks on  \ncommunities of color occur, cultural centers as spaces of healing and refuge remain important.", 
  "CONTESTED SPACES  \n\nCultural centers continue to serve as vital spaces that foster the success of racially minoritized  \nstudents and are necessary now more than ever.", 
  "CONTESTED SPACES  \n\nAhmed, S. (2004).", 
  "Declarations of whiteness: The non-performativity of anti-racism."
 ]
}