{
 "document_id": "1173639.1", 
 "sentences": [
  "\nTransdisciplinary Design for Undergraduate Engineering: Experimental Study with  \nImplications for Future Research and Teaching  \n1.", 
  "Introduction  \nIn this paper, we discuss the outcomes of testing the use of transdisciplinary (TD) pedagogical  techniques.", 
  "These  are  techniques  used  to  create  more  engagement  and  collaboration  in  the  classroom.", 
  "TD  courses  encourage  small  student  research  groups  to  take  on  new  behaviors  of  work \u2013 collaboration and team work to solve complex problem.", 
  "Active learning techniques are  incorporated.", 
  "We  highlight  the  overlooked  role  of  transdisciplinary  design  training  in  undergraduate  coursework  experience.", 
  "The  ultimate  goal  of  the  TD  class  is  to  promote  the  creative, innovative, and divergent thinking of students.", 
  "Engineering education must evolve to  teach  a  more  holistic  approach  to  problem  solving  to  prepare  students  for  the  growing  complexity of problems inherent in today\u2019s society.", 
  "This project is a quasi-experimental study of  the  impact  of  transdisciplinary  (TD)  project-based  learning  in  STEM  education  using  digital  learning platform and a diverse cohort of undergraduate students.", 
  "Definitions of TD research go back to the early 1970s (1, 2).", 
  "\u201cTransdisciplinarity can be defined  as the practice of acquiring new knowledge through education, research, design, and production  with a broad emphasis on complex problem solving and the use of knowledge and techniques  from multiple scholarly disciplines.", 
  "TD methods are unique in their ability to bring discipline- specific  knowledge  together  holistically  in  order  to  solve  complex  problems.", 
  "The  goal  of  transdisciplinary practice is to improve students\u2019 understanding of complex issues by extracting  the  valuable  aspects  of  typical  academic  disciplines  and  thereby  generating  both  a  more  integrative and universal solution to support an issue of importance to society\u201d (3).", 
  "The expected results of TD research and education are: emphasis on teamwork; bringing together  non-academic experts and academic researchers from diverse disciplines; developing and sharing  of  concepts,  methodologies,  processes,  and  tools;  all  to  create  fresh,  stimulating  ideas  that  expand the boundaries of possibilities, and more effectively target real-world problems.", 
  "The TD  approach  teaches  students  to  seek  collaboration  outside  the  bounds  of  their  professional  experience to make new discoveries, explore different perspectives, express and exchange ideas,  and gain new insights.", 
  "2.", 
  "Experimental Design  \nIn fall 2015 the Mechanical Engineering Department at a large southern university initiated a two  semester  transdisciplinary  senior  design  course  sequence  emphasizing  collaborative,  cross\u2013 disciplinary  team  based  research  efforts  to  engage  and  motivate  students  through  hands-on  transdisciplinary  learning  experiences.", 
  "This  TD  design  course  was  taught  during  the  same  semester  sequence  as  a  parallel  mechanical  engineering  design  course  taught  using  more  traditional methods.", 
  "A quasi-experimental design was set-up whereby both senior design courses  were taught by the same professor and graduate student, both courses dealt with similar content  knowledge,  but  one  course  was  taught  using  a  traditional  didactic  approach  to  engineering  \n\fdesign, and the other course was  taught using TD methods and with the goal of teaching TD  principles in engineering design.", 
  "After obtaining approval from the Institutional Review Board, a pre-test and post-test were given  to 38 students (17 students in the experiment section and 19 students in the control section).", 
  "The  pre-test and post-test consisted of the same questions, given at the beginning and end of the  course.", 
  "The test was intended to understand students\u2019 knowledge around complex issues in  engineering, and was designed to help researchers understand whether or not students understood  that various knowledge domains would have to be incorporated into the solving of an  engineering problem.", 
  "The pre-test and post-test was also designed to create an inventory of the  level of engagement in engineering courses, and the level of ability to collaborate with others  around engineering issues.", 
  "3.", 
  "Discussion on Students\u2019 TD learning and Data Analysis  \n\nStudents were unaware of the nature of the TD design study when they registered for the course  and students were not allowed to switch sections after they registered.", 
  "Both the experimental  section and the control section included all male students.", 
  "In the experimental section, there were  70.5% white males, and 29.5% males of color (African-American and Hispanic).", 
  "In the control  section there were 74% white males, and 26% males of color.", 
  "As part of this study, we wanted to  explore whether or not TD pedagogical methods had a more, less, or similar effect on minority  students as compared to white males.", 
  "While our sample size was too low to make robust claims  about TD effects on underrepresented students, our findings do show some differences.", 
  "This is  explained in more depth below.", 
  "All the students in both sections were mechanical engineering  senior students.", 
  "An independent sample t-test indicated that upon entering the design course,  grade point average of students in both experiment and control groups did not have significant  statistical difference in grade point averages at the 95% (two sided) level of confidence in two  means of GPA of two sections.", 
  "The following figure shows the outcomes of these tests.", 
  "Figure 1: Measuring TD learning.", 
  "Data Analysis  Data  collected  through  this  TD  design  class  is  modeled  by  location  scale  \u201ct\u201d  distribution  as  shown in Figure 1.", 
  "This figure shows pre and post-tests results for both experiment and control  groups.", 
  "To  address whether TD learning experiences were statistically  significant,  Confidence  Interval Estimation based on the difference in Two Means (Variance Unknown) test was used.", 
  "Since the sample size drawn from the normal population is less than 30, the \u201ct\u201d distribution is  used to compute the confidence interval for the difference in two means, (\u00b51 \u2212 \u00b52).", 
  "We assume  that variances are same within the two populations.", 
  "This assumption is often made in comparing  two manufacturing processes.", 
  "This unknown variance, can be estimated by using a \u201ccombined\u201d  or \u201cpooled\u201d estimator.", 
  "The equation for pooled estimator is  \n\n\ud835\udc46\ud835\udc46\ud835\udc5d\ud835\udc5d2=(\ud835\udc5b\ud835\udc5b1\u22121)\ud835\udc46\ud835\udc4612+(\ud835\udc5b\ud835\udc5b2\u22121)\ud835\udc46\ud835\udc4622 \ud835\udc5b\ud835\udc5b1+\ud835\udc5b\ud835\udc5b2\u22122 \nIn the analysis, a typical 95 percent level of confidence with two-tailed test is used (p = 0.025).", 
  "For  testing  the  difference  in  two  means,  we  used  the  following  test  hypothesis  --  if  the  confidence interval includes (\u00b51 \u2212 \u00b52=0), we will assume that there is no statistical difference in  TD learning at a given level of confidence.", 
  "The two-sided confidence interval for the difference  in means, (\u00b51 \u2212 \u00b52) is given by  \n ( \ud835\udc65\ud835\udc651\u2212\ud835\udc65\ud835\udc652 )\u2212\ud835\udc61\ud835\udc61\ud835\udefc\ud835\udefc 2\u2044 , \ud835\udc5b\ud835\udc5b1+  \ud835\udc5b\ud835\udc5b2\u22122\ud835\udc46\ud835\udc46\ud835\udc5d\ud835\udc5d\ufffd1\ud835\udc5b\ud835\udc5b1+1\ud835\udc5b\ud835\udc5b2\u2264(\ud835\udf07\ud835\udf071\u2212\ud835\udf07\ud835\udf072)\u2264(\ud835\udc65\ud835\udc651\u2212\ud835\udc65\ud835\udc652)+\ud835\udc61\ud835\udc61\ud835\udefc\ud835\udefc 2\u2044 , \ud835\udc5b\ud835\udc5b1+  \ud835\udc5b\ud835\udc5b2\u22122\ud835\udc46\ud835\udc46\ud835\udc5d\ud835\udc5d\ufffd1\ud835\udc5b\ud835\udc5b1+1\ud835\udc5b\ud835\udc5b2  \n\fTable 1: Summary of calculations for control and experiment groups.", 
  "Sections  \n\n\ud835\udc46\ud835\udc46\ud835\udc5d\ud835\udc5d  \n\ud835\udf08\ud835\udf08(\ud835\udc51\ud835\udc51\ud835\udc51\ud835\udc51)  \n\n\ud835\udc4b\ud835\udc4b\ud835\udc5d\ud835\udc5d\ud835\udc5d\ud835\udc5d\ud835\udc5d\ud835\udc5d  \n\ud835\udc4b\ud835\udc4b\ud835\udc5d\ud835\udc5d\ud835\udc5d\ud835\udc5d\ud835\udc5d\ud835\udc5d\ud835\udc5d\ud835\udc5d  \n\ud835\udc46\ud835\udc46\ud835\udc5d\ud835\udc5d\ud835\udc5d\ud835\udc5d\ud835\udc5d\ud835\udc5d  \n\ud835\udc46\ud835\udc46\ud835\udc5d\ud835\udc5d\ud835\udc5d\ud835\udc5d\ud835\udc5d\ud835\udc5d\ud835\udc5d\ud835\udc5d  \n5.7895  6.0921  0.6469  0.5151  \n5.2941  6.0294  0.6745  0.5512  \n\u2264(\ud835\udf07\ud835\udf071\u2212\ud835\udf07\ud835\udf072)\u2264  \u22120.675\u2264(\ud835\udf07\ud835\udf071\u2212\ud835\udf07\ud835\udf072)\u22640.069  \u22120.877\u2264(\ud835\udf07\ud835\udf071\u2212\ud835\udf07\ud835\udf072)\u2264\u22120.593  \nUsing  above  mentioned  two  equations  Table  1  was  formed.", 
  "Table  1  shows  that  there  is  a  statistical difference for the experiment section (confidence interval does not include (\u00b51\u2212\u00b52) =  0 at  the 95% level of confidence in two means.", 
  "By  checking means of  both pre and post-test  results,  we  can  conclude  that  students\u2019  learning  about  complexity  in  the  engineering  design  process in this section is significant whereas the learning for the control section is insignificant.", 
  "However, it is clear from the calculated values of standard deviations for pre and post-tests, that  in  both  sections,  students\u2019  learning  and  understanding  of  complexity  in  engineering  problems  approached the mean value.", 
  "The connection between race/ethnicity and learning is shown in Table 2.", 
  "The pre and post-test  results for 4 survey questions show differences in learning between different population groups  in  the  experiment  section.", 
  "The  summary  of  results  shown  in  the  table  reveals  that  minority  students performed 20% better than the white students for question #1 (Q1).", 
  "Minority students\u2019  ability to trust other members of the class improved as compared to white students.", 
  "While the  standard deviation for the white students remains the same, the standard deviation for minority  students was significantly reduced.", 
  "The calculated mean values for question #2 also indicates the  similar  improvement  for  minority  students  --  their  ability  to  use  \u201coutside'\u201d  knowledge  from  experts to solve complex problems is promising as compared to white students.", 
  "This situation  reversed  for  question  #3.", 
  "While  minority  students\u2019  ability  to  collaborate  with  others  from  different engineering fields remain the same (Mean = 5.80), white students\u2019 collaboration ability  increased (12%).", 
  "For question #4, both white and minority students\u2019 creativity level in solving  problems  showed  similar  improvements.", 
  "Overall,  both  white  and  minority  students  achieved  some level of proficiency in understanding complexity and the need for outside knowledge to  address engineering problems.", 
  "However, change in total standard deviation (from 0.84 to 0.14)  indicates that at the end of experiment class the minority students\u2019 had made greater gains.", 
  "Our  results, even limited by a small sample size, give credence to the claim that the collaboration,  support,  and  engagement\u2014all  integral  to  TD  methods\u2014improves  the  STEM  learning  of  underrepresented groups.", 
  "Table 2: Pre and Posttests results by race/ethnicity on 4 Questions on Understanding Complexity.", 
  "Ethnicity  \nSD  Mean  \nSD  Mean  \nSD  Mean  \nPre-Test  \nMinority  \nPost-Test  \nMinority  \n4.", 
  "Conclusion  \nTD  methods,  of  pedagogy  aim  to  create:  more  creative  problem-solving  skills  in  engineering  students, more innovative engineering designs, better understanding of how to tackle real-world  complex problems, better collaboration, and increased engagement for underrepresented groups.", 
  "Few studies have been done on how, and if, TD methods fulfill that promise.", 
  "This study works to  fill  that  gap.", 
  "While  our  results  are  preliminary  and  our  overall  sample  size  is  small,  we  have  nevertheless shown some real gains in skills and knowledge for students who took the TD-based  course.", 
  "Multiple  studies  (4,  5)  in  the  field  of  Education  have  shown  that  creating  collaboration  and  spaces for students to work with and be challenged by each other can create real learning gains\u2014 deeper  understanding  and  better  retention  of  concepts.", 
  "Current  research  on  cognition  (6)  underscores  not  only  the  need  for  students  to  talk  to  each  other,  and  to  feel  comfortable  and  supported  by  each  other,  but  also  for  students  to  develop  their  own  thinking  by  hearing  difference; that is, by seeing things from multiple perspectives.", 
  "An environment that facilitates  learning  from  each  other,  talking  with  each  other,  and  hearing  multiple\u2014and  diverging\u2014 experiences  and  ideas  leads  to  more  engaged  and  motivated  students;  to  better  learners  and  deeper learning.", 
  "This is exactly the type of environment that is promoted by TD-based pedagogy.", 
  "And,  in  our  study,  we  have  seen  that  TD  methods  truly  can  lead  to  increased  collaboration,  sharing  of  differences,  and  trust.", 
  "We  have  seen  that  this  type  of  teaching  can  lead  to  better  learning.", 
  "Multiple  studies  (7,  8)  have  shown  that  pedagogical  strategies  that  promote  collaboration  are  particularly  beneficial  for  minority  students.", 
  "Pedagogical  methods  that  consciously  create  opportunities for collaboration, for learning from each other, for working in small groups, and  for  multiple  types  of  learning,  have  been  shown  to  increase  engagement  and  the  retention  of  underrepresented students (9).", 
  "Students who may not otherwise feel comfortable interacting in a  standard lecture-based class tend to have the most gains when instructors employ methods that  focus  on  interaction  and  the  bringing  together  of  multiple  types  of  knowledge  and  interaction  (10).", 
  "Because  TD  methods  aim  to  encourage  multiple  types  of  collaboration,  nurture  multiple  perspectives,  create safe environments for diversity, and develop communities of learners that  span students, academics, and professionals working in the field, TD is ideal for creating the type  of environment that is nurturing to underrepresented people in STEM.", 
  "TD methods can promote  the kind of diversity, dynamism, experience, and creativity needed in the field, and by society  more  broadly.", 
  "This  study  validates  this  claim:  that  TD-methods  support  the  learning  of  underrepresented groups.", 
  "More work needs to be done on the ways that TD-research methods can lead to better innovation,  more creative problem-solving, and greater gains for and retention of underrepresented students.", 
  "The continuation of our current research project on TD methods in the classroom aims to do that  research."
 ]
}