{
 "document_id": "1173902.1", 
 "sentences": [
  "\nThe Impact of an Interdisciplinary Social Studies Content Institute on Elementary Teachers\u2019  \nTeacher Responsibility in an Age of Accountability:  \nResponsibility to Teach Social Studies  \n\nAbstract: Current trends in public education towards increased standardization and  accountability through the use of high-stakes testing have limited both the amount of time spent  teaching social studies and the quality of social studies instruction in American elementary  schools.", 
  "With these nationwide trends in mind, this article explores the roles and responsibilities  of the individual teacher in the teaching of social studies by asking how pre-service and in- service teachers understand their responsibility to teach social studies before and after a ten-day  social studies professional development institute.", 
  "Informed by the current status of elementary  social studies instruction and professional development, Noddings\u2019 (2009) conception of  responsibility as opposed to accountability, and the literature on rationale development in the  social studies, this study illustrates the potential for professional development to positively  impact teachers\u2019 felt sense of responsibility to teach social studies, and, as a result of those  deepening commitments, move teachers towards the desire to use more constructivist  pedagogies.", 
  "Keywords: elementary, social studies, responsibility, accountability, constructivism,  professional development  \nCurrent trends in public education towards increased standardization and accountability through  \nIntroduction  \nthe use of high-stakes testing have limited both the amount of time spent teaching social studies  \nand the quality of social studies instruction in American elementary schools (Binkley, Keiser, &  \nStrahan, 2011; Fitchett & Heafner, 2010; Levstik & Tyson, 2008; Pace, 2011).", 
  "This lack of  \nemphasis on social studies at the elementary level has been reported since at least the 1970s  \n(Passe, Good, & Libresco, 2014) and has been exacerbated by the more recent No Child Left  \nBehind legislation of 2002 and the adoption of Common Core standards in many states across  \nthe nation between 2012 and 2013.", 
  "The marginalization of social studies is alarming, as Passe et  \nal.", 
  "(2014) argue that elementary social studies is \u201cwhere students learn the skills necessary for  \nactive participation in our democratic society\u201d (p. 1).", 
  "Indeed, embedded in the social studies are  \ncore skills and aptitudes, such as perspective taking, critical thinking, and civic competence  \n(Agarwal-Rangnath, 2013; Parker, 2012).", 
  "As a result, the marginalization of social studies  \ninstruction at the elementary level significantly reduces students\u2019 access to skills essential to  \nactive participation in civic life (Binkley et al., 2011).", 
  "Lacking a nationwide emphasis on the  \nteaching of social studies, Passe et al.", 
  "(2014) argue, the ultimate burden of choosing whether  \n(and how) to teach social studies is placed on the individual classroom teacher.", 
  "With these nationwide trends in mind, this article explores the roles and responsibilities  \nof the individual teacher in the teaching of social studies by asking how pre-service and in- \nservice teachers understand their responsibility to teach social studies before and after a ten-day  \nsocial studies professional development institute.", 
  "Informed by the current status of elementary  \nsocial studies instruction and professional development, Noddings\u2019 (2009) conception of  \nresponsibility as opposed to accountability, and the literature on rationale development in the  \nsocial studies, this study asks the following questions: (a) How do elementary level in-service  \nand pre-service teachers characterize and make sense of their responsibility to teach social  \nstudies before immersion in a ten-day interdisciplinary social studies, language arts, and  \ntechnology professional development institute; (b) How does the institute impact teachers\u2019 sense  \nof responsibility to teach social studies and what experiences contribute to that change; and (c)  \nWhat differences do in-service and pre-service teachers exhibit in how they describe their sense  \nof responsibility to teach social studies both before and after participating in the institute?", 
  "This study was informed by the current status of social studies instruction in American  \nRelated Literature  \nelementary schools and research on the impact of social studies oriented professional  \ndevelopment on teacher learning and classroom practice.", 
  "Within this larger context I made use of  \nNoddings\u2019 (2009; 2013) notion of teacher responsibility as a way to understand the moral and  \nethical work of teachers in restrictive teaching environments.", 
  "Literature and theory on rationale  \nbuilding in the social studies, closely connected to Noddings\u2019 notion of responsibility to teach,  \nalso guided the study design.", 
  "Both transmissive (or traditional) and constructivist (or  \nprogressive) learning theories informed data analysis, as they helped to illuminate how teachers\u2019  \nepistemological paradigms may have guided the articulation of their responsibility to teach social  \nstudies.", 
  "The State of the Field  \nAs stated previously, social studies instruction at the elementary level is largely seen as an  \nafterthought in many schools nationwide, pushed to the backburner in favor of math and literacy  \n(Agarwal-Rangnath, 2013).", 
  "Moreover, schools serving low-income students have been found to  \nreceive lower quality social studies instruction than their wealthier counterparts (Binkley et al,  \n2001; von Zastrow & Janc, 2004).", 
  "Indeed, pressured by policy-makers to improve low  \nstandardized test scores, social studies is often forfeited in order to teach tested subjects.", 
  "A  \nnationwide study of elementary teachers in 2006 indicated that teachers taught social studies less  \nthan one hour per day (Vontz, Franke, Burenheide, & Bietau, 2007), and other nationwide  \nstudies suggest that in some schools, social studies is taught far less (von Zastrow & Janc, 2004).", 
  "While high-stakes testing is indeed part of the problem, the marginalization of social  \nstudies may also stem from the lack of preparation provided to elementary teachers to meet the  \n\u201cmethodological challenge of teaching social studies,\u201d as many teachers lack preparation in  \n\u201chistorical thinking and writing\u201d (Olwell & Raphael, 2006, p. 223).", 
  "As a result, even when social  \nstudies is taught, studies suggest it is taught from a nationalistic or patriotic perspective (Myers,  \n2006) usually culled from a textbook predominated by a focus on \u201cfactual information presented  \nfrom a singular perspective\u201d (MacPhee & Kaufman, 2014, p. 125).", 
  "Written to avoid public  \ncontroversy, traditional textbooks used in public schools largely present the United States as  \ncentral, heroic, and the standard by which to judge all other societies (Loewen, 2007; MacPhee  \n& Kaufman, 2014).", 
  "Fact-driven pedagogies prevail, Westheimer (2009) suggests, because  \nsubstantive visions of social studies for democracy rooted in local contexts and seen through  \nmultiple and competing perspectives are largely incompatible with the goals of standardization.", 
  "Coupled with the marginalization of social studies methods courses in teacher preparation  \nprograms (Fitchett et al., 2012) and the shallow content knowledge pre-service tend to leave  \ncertification programs with (Sanchez, 2010), pre-service teachers entering field placements and  \nthe job market are unprepared to counter these norms, as teaching for \u201cconceptual understanding  \nof social studies means that teachers must themselves have that conceptual understanding and the  \nmeans and methods of getting students there\u201d (Brice & Johnson, 2000, p. 542).", 
  "Neither the  \ncurriculum offered to teachers, nor the preparation provided to them in teacher education  \nprograms, readies elementary teachers to combat the marginalized nature and fact-based  \nimplementation of social studies (Yon & Passe, 1994).", 
  "Elementary Social Studies Professional Development  \nProfessional development in the social studies has done little to foster more conceptual,  \ndemocratic, or civic-oriented teaching at the elementary level.", 
  "Despite the existence of research  \nthat describes high quality professional development (Desimone, 2009), social studies  \nprofessional development has failed to provide elementary teachers sustained, high quality PD.", 
  "For almost three decades, professional development for elementary social studies teachers has  \nbeen characterized as inconsistent, incoherent, and haphazard (Adler, 1991; Armento, 1996; van  \nHover, 2008).", 
  "Moreover, Howell and Saye (2016) note that \u201cfew social studies-specific  \nprofessional development opportunities exist for elementary teachers, and when such programs  \ndo exist, they often fail to attend to how teachers learn and the complexities of the teaching  \nprofession\u201d (p. 27).", 
  "Vontz et al.", 
  "(2007) attribute this disconnect to the inadequate \u201cbridges\u201d  \nbetween the \u201c\u2019ivory tower\u2019 of university faculty and the \u2018real world\u2019 of teachers\u201d (p. 255).", 
  "Other  \ngulfs, including the profound disconnect between secondary and elementary teachers and the  \nincoherence between a \u201csprawling\u201d curriculum and the realities of classroom life (Olwell &  \nRaphael, 2006, p. 222), have also hindered widespread high quality professional development in  \nthe social studies (Vontz et al., 2007).", 
  "Despite the lack of widespread high quality professional development, smaller scale  \nstudies indicate that many university faculty, states, school districts, and teachers are committed  \nto enhancing social studies instruction.", 
  "Recent studies have focused on developing teachers\u2019  \ncapacities to integrate social studies with language arts (Binkley et al., 2011; Giles, Wang,  \nSmith, & Jonhson, 2013), prepare students for standardized assessments (Brice & Johnson,  \n2000), improve subject matter knowledge (Duffield et al., 2013; MacPhee & Kaufman, 2014),  \nestablish a professional knowledge culture (Howell & Saye, 2016) and implement specific  \npractices taught in workshops (Kallemeyn, Schiazza, Ryan, Peters, & Johnson, 2013).", 
  "The  \npresence of professional development does not, however, guarantee that it is of high quality, and  \neven when it is, Duffield et al.", 
  "(2013) caution that \u201cprofessional development experiences do not  \nalways translate into new or changed classroom practices\u201d (p. 126).", 
  "Teachers must maintain a  \nstrong commitment to the subject matter or a larger purpose for teaching to make lasting changes  \nto practice.", 
  "Of recent studies reviewed regarding professional development for social studies,  \nvery few asked questions regarding teachers\u2019 larger purpose for teaching and how it might be  \nimpacted by participating in professional development, and fewer still questioned how  \nepistemological outlooks on teaching and learning might impact teachers\u2019 purpose and  \nsubsequent pedagogy.", 
  "When researchers did ask about conceptual frameworks as in Brice and  \nJohnson (2000), the focus was on conceptual understanding of content, not teachers\u2019 sense of  \npurpose to teach such content.", 
  "This study, with its focus on pre-service and in-service teachers, begins to fill a gap in  \nboth the study of professional development of beginning social studies teachers and elementary  \nsocial studies teachers (van Hover, 2008).", 
  "Heeding Duffield et al.\u2019s (2013) caution that  \nprofessional development will not necessarily lead to substantial changes to classroom practice  \nand van Hover\u2019s (2008) call for researchers to ask, \u201cHow does social studies professional  \ndevelopment make a difference?\u201d (pp.", 
  "366-367), this study focuses on how professional  \ndevelopment impacted teachers\u2019 sense of responsibility to teach social studies in an effort to  \nunderstand what experiences, content, and activities might promote the inclusion of social  \nstudies instruction in elementary classrooms.", 
  "Teacher Responsibility   \nIn this study I make use of Noddings\u2019 (2009) notion of responsibility to understand how teachers  \nmight feel compelled to teach social studies even when pressured to do otherwise.", 
  "Noddings  \n(2009) distinguishes between accountability and responsibility by explaining that accountability  \n\u201cforces us to answer to authorities for what we have accomplished or failed to accomplish; it  \npoints upward in the chain of power, and it encourages compliance or the appearance of  \ncompliance\u201d (p. 17).", 
  "Because of the requirement that accountability measures in education prove  \nto authorities that specific learning goals have been met, accountability may foster corruption, as  \nrecent media stories suggest (Cooper, 2016), and often paints teachers in a negative light  \n(Kumashiro, 2012).", 
  "Conversely, responsibility \u201cpoints downward in the power chain; it asks us  \nto respond to the legitimate needs of those placed in our care.", 
  "It is not satisfied by meeting one  \nnarrow goal\u201d (Noddings, 2009, p. 17).", 
  "Framing educational research around responsibility rather  \nthan accountability helps to shift a focus to the deep-seated ethical and moral commitments many  \nteachers bring to their work (Noddings, 2003).", 
  "As Noddings (2009) explains, \u201caccountability is  \nfar too weak a concept by which to judge the work of teachers, and when it is used too narrowly,  \nit actually demeans our work and undermines the effort to increase the quality of teaching\u201d (p.  \n22).", 
  "Viewing teachers\u2019 work as an outgrowth and product of their sense of responsibility to  \nteach, not as a reaction to accountability measures requiring them to teach, \u201cleaves us in some  \nawe at the scope and significance of the work we have undertaken\u201d (Noddings, 2009, p. 22).", 
  "Rationale Building  \nNoddings\u2019 recommendation that we focus on teachers\u2019 sense of responsibility speaks to the  \nliterature on rationale building in the field of social studies education.", 
  "Shaver (1977) is widely  \ncited for renewing a focus on social studies teachers\u2019 rationales in his edited volume Building  \nrationales for citizenship education, in which he argues that rationale development allows  \nteachers to question their own assumptions and relate \u201cthem consciously to their curricular  \ndecisions\u201d (Shaver, 1977, p. 99, as cited in Hawley & Jordan, 2014, p. 6).", 
  "As \u201ccurricular- \ninstructional gatekeepers\u201d (Thornton, 1989, p. 2), teachers have decisions over the instruction  \nthat occurs in their classroom, even in an age of accountability in which curriculum is narrowed  \nand time spent on social studies is limited.", 
  "As Thornton (1989) argues, \u201cthe operational  \ncurriculum\u2014the curriculum that is actually provided in the classroom\u2014is, on a daily basis,  \nconstructed by the teacher\u201d (p. 2).", 
  "Rather than operating as assembly line workers constrained by  \ndemands of conformity, teachers continue to make curricular and instructional decisions that are  \noften guided by their \u201csense of purpose\u201d (Thornton, 2006, p. 417).", 
  "Hawley and Jordan (2014)  \nexplain that having a strong sense of purpose improves classroom decision-making, student  \nlearning, and the overall learning environment.", 
  "As a result, they conclude that \u201crationale  \ndevelopment has the potential to reframe and quite possibly transform teachers\u2019 content and  \npedagogical decision-making\u201d (Hawley & Jordan, 2014, p. 5).", 
  "Dinkelman (2009), citing Levstik  \nand Barton (2004), also argues that developing and articulating rationales for social studies  \ninstruction helps to increase the likelihood that teachers will teach for \u201cparticipatory, pluralistic  \ndemocracy\u201d (p. 104).", 
  "This study is guided by such assumptions.", 
  "Transmissive and Constructivist Learning   \nThe contextual literature and theories expanded upon above guided the design and purpose of the  \nstudy.", 
  "During data analysis I found it useful to bring constructivist and transmission learning  \ntheory to the data to understand how participants made sense of their responsibilities as teachers  \nof social studies, particularly as they wrote and spoke about their goals for students, what skills,  \nconcepts, or content they planned to emphasize in their classroom, and the pedagogies they  \nmight use to do so.", 
  "Transmissive learning, \u201cwhere information is transmitted from teachers (or  \ntechnologies) to learners\u201d (Jonassen & Land, 2012, p. vii) is a learning theory that, although still  \npopular in practice, has been largely replaced in educational literature and teacher education  \nprograms by constructivist theories of learning, which posit that \u201clearning is willful, intentional,  \nactive, conscious, constructive practice that includes reciprocal intention-action-reflection  \nactivities\u201d (p. ix).", 
  "Under the traditional model, teaching is understood to be a \u201cprocess of  \nconveying ideas to students.", 
  "Good teaching means more effective communication\u201d (Jonassen &  \nLand, 2012, p. viii).", 
  "In this model students can be likened to a bank, taking deposits of  \nknowledge directly from the teacher (Freire, 2005).", 
  "Those who abide by the transmission model  \nbelieve that knowledge acts as \u201can object that can be conveyed and owned by individuals, which  \nassumes that students can come to know the world as the teacher does\u201d (Jonassen & Land, 2012,  \np. viii).", 
  "The transmission model stems from behaviorist theories of learning that emphasize  \nrepeated reinforcement.", 
  "Pedagogical styles associated with the transmission model include  \nmemorization, drill and practice, and lecture (Jonassen & Land, 2012).", 
  "As illustrated previously,  \nthis model of education is overwhelmingly present in elementary social studies education  \nthrough the use of textbooks and fact-based styles of teaching.", 
  "The dominance of transmissive  \neducation in social studies instruction is concerning, as transmission models enforce compliance  \n(Land, Hannafin, & Oliver, 2012) rather than dialogue or perspective taking so necessary for  \ncivic competence.", 
  "Constructivism, on the other hand, emphasizes student-centered learning in which  \nstudents are encouraged to \u201cnegotiate meaning while engaging in authentic activities\u201d (Land et  \nal., 2012, p. 4).", 
  "Constructivist learning theories assume that \u201clearning is enriched via access to  \nmultiple perspectives, resources, and representations\u201d (Land et al., 2012, p. 13), as learning is  \nboth social and mediated by context.", 
  "Constructivist pedagogies include simulations, problem- \nbased learning, and discussion.", 
  "The National Council for the Social Studies (NCSS), in their  \n2016 position statement A Vision of Powerful Teaching and Learning in the Social Studies,  \npromote the use of constructivist pedagogies, including the promotion of \u201ccritical, creative, and  \nethical thinking\u2026through discussions, debates, the use of authentic documents, simulations,  \nresearch, and other occasions for critical thinking and decision making.\u201d (NCSS, 2016).", 
  "Moreover, they urge social studies educators to make use of pedagogies that \u201cengage students  \nwith significant ideas,\u201d encouraging them \u201cto connect what they are learning to their prior  \nknowledge and to current issues, to think critically and creatively about what they are learning,  \nand to apply that learning to authentic situations\u201d (p. 180).", 
  "While quality instruction may not  \nalways be physically active or \u201chands on,\u201d it is most certainly \u201cminds on,\u201d as students should  \nactively engage in the construction of meaning and knowledge (p. 182).", 
  "Based on what we know  \nabout social studies instruction in the United States\u2014and the epistemological beliefs that  \nunderscore those goals\u2014there appears to be a wide gulf between the reality of social studies  \ninstruction in American elementary school classrooms and the stated goals of NCSS.", 
  "Methodology  \nThe purpose of this study is to gain insight into elementary teachers\u2019 sense of responsibility to  \nteach social studies.", 
  "Research questions guiding this study include:   \n(a) How do elementary level in-service and pre-service teachers characterize and make  \nsense of their responsibility to teach social studies before immersion in a ten-day  \ninterdisciplinary social studies, language arts, and technology professional development  \ninstitute?", 
  "(b) How does the institute impact teachers\u2019 sense of responsibility to teach social studies  \nand what experiences contribute to that change?", 
  "(c) What differences do in-service and pre-service teachers exhibit in how they describe  \ntheir sense of responsibility to teach social studies both before and after participating in  \nthe institute?", 
  "In order to investigate these questions I conducted a qualitative study, as my goal in the research  \nwas to \u201cmake sense of, or interpret, phenomena in terms of the meanings people bring to them\u201d  \n(Creswell, 2013, p. 44).", 
  "I engaged at the research site as a participant observer (Spradley, 1980)  \nand collected field notes that I recorded as jottings (Emerson, Fretz, & Shaw, 2011) and later  \nexpanded into narrative form.", 
  "Surveys, focus group interviews, and teacher-created artifacts were  \nalso collected.", 
  "All participants of the professional development were asked to take part in the  \ndata collection and provided an informed consent document.", 
  "In the following sections I outline  \nthe context of the professional development, data sources collected, and the data analysis method  \n\nStudy Context  \nParticipants in this study took part in a ten-day grant-funded professional development institute  \nfocused on increasing the content knowledge and interdisciplinary teaching skills of pre-service  \nand in-service teacher pairs.", 
  "The professional development opportunity was designed to pair pre- \nservice interns with the in-service mentor teacher they would be partnered with for their yearlong  \ngraduate internship.", 
  "Mentor and intern pairs were chosen based on their school site, as the grant  \nstipulated that the focus of the institute should also be to improve instruction in low-performing  \nschools, although teachers from higher-performing schools in the district attended as well.", 
  "At the  \ntime of the institute all interns were entering or completing their first semester of graduate study  \nand each mentor had at least three years of teaching experience.", 
  "The content of the institute was focused on the essential question: What does it mean to  \nbe a citizen?", 
  "Institute facilitators brought in guest speakers from the community and university to  \nspeak on topics such as Jim Crow era violence, the Civil Rights era, school integration,  \nimmigration, economics, and human rights.", 
  "Activities included visual analysis of historical  \nphotographs and critical readings of children\u2019s literature focused on history, government, and  \nglobal issues.", 
  "Technology and language arts were integrated into the social studies content  \nthrough the creation of a digital multi-genre children\u2019s book, stop-motion videos, public service  \nannouncements, personal reflective writing, and the development of interdisciplinary unit plans.", 
  "Participants were provided with extensive book lists of children\u2019s books related to history, civics,  \nimmigration, global issues, and economics.", 
  "Facilitators hoped to expand teacher conceptions of  \ncitizenship and foster in participants a more critical lens on social studies content.", 
  "As a non-participant observer at the institute, I operated as \u201can outsider of the group  \nunder study, watching and taking field notes from a distance\u201d (Creswell, 2013, p. 167).", 
  "Attending the institute each day, I took notes during lectures and activities, observed participants,  \nrecorded informal conversations, and also reflected on how my behavior impacted the activities  \naround me (Merriam, 1998).", 
  "My positionality and epistemological approach to this research is  \nimportant to disclose, as \u201cthe writing of a qualitative text cannot be separated from the author\u201d  \n(Creswell, 2013, p. 215).", 
  "Indeed, as a social constructionist, I believe that \u201cmeaning is not  \ndiscovered but constructed\u201d (Crotty, 1998, p. 42).", 
  "As a result, I recognize that people, differently  \npositioned, \u201cknow and value different things\u201d and \u201coften interpret events differently\u201d (Weinberg,  \n2014, p. 18).", 
  "There is no one \u201cunequivocal meaning\u201d (Weinberg, 2014, p. 18), as \u201call ways of  \nunderstanding are historically and culturally relative\u201d (Burr, 2015, p. 4).", 
  "Another researcher,  \ndifferently positioned, may come to different conclusions after reviewing this data.", 
  "Because I  \nacknowledge the contingent nature of qualitative research, I have gone to lengths to ensure  \ntrustworthiness of the findings, including the collection of multiple data sources, the  \ntriangulation of those sources, and peer review of my findings with colleagues (Creswell, 2013).", 
  "Data Sources  \nResearch participants completed two online open-ended qualitative surveys on the first and last  \ndays of the institute.", 
  "The initial online survey asked participants questions centered on how they  \nunderstand their responsibility to teach social studies, who they feel responsible to, what they  \nfeel responsible to teach, and how they navigate the demands of accountability and their sense of  \nresponsibility.", 
  "The second survey, given the final day of the institute, asked how the institute  \nimpacted their thinking on those same topics.", 
  "On the last day of the institute, self-selected  \nparticipants engaged in a semi-structured focus group lasting 45 minutes.", 
  "Two focus groups took  \nplace, one exclusively for in-service teachers and one exclusively for pre-service teachers.", 
  "Relevant artifacts (lesson plans and daily reflections) were also collected during the institute.", 
  "All research participants self-selected to participate in this study.", 
  "47 participants took the  \npre-survey (21 of whom were in-service teachers and 26 of whom were pre-service teachers).", 
  "53  \nparticipants took the post-survey (22 of whom were in-service teachers and 31 of whom were  \npre-service teachers).", 
  "Discrepancies in the number of participants can be attributed to absences  \nor initial indecision to take part in the study.", 
  "Of the 53 participants who took a survey, 37 took  \nboth a pre- and post-survey.", 
  "10 pre-service teachers and seven in-service teachers took part in the  \nfocus groups.", 
  "Lesson plans were collected from all participants.", 
  "Data Analysis  \nData analysis proceeded in multiple stages similar to Braun and Clarke\u2019s (2006) six phases of  \nthematic data analysis.", 
  "Survey data was collapsed into four data sources divided based on  \npre/post responses and in-service/pre-service responses in an effort to understand how overall  \npatterns emerged between the two groups and over time.", 
  "As a result, discrepancies in individual  \nparticipation (i.e.", 
  "not having both pre- and post-survey data from an individual participant) did  \nnot hinder the gathering of overarching trends.", 
  "Data from each focus group was similarly divided  \nbetween the two groups.", 
  "After reading and annotating the data sets multiple times, I began the  \nprocess of coding, in which I chunked data and assigned those chunks thematic codes (Braun &  \nClarke, 2006; Miles et al., 2014).", 
  "After rereading and annotating the data, I then began a process  \nof second cycle coding in which I coded the data \u201cinto a smaller number of categories, themes,  \nor constructs\u201d (Miles et al., 2014, p. 86).", 
  "Noticing trends in the data suggesting adherence to both  \ntransmissive and constructivist pedagogies, theoretical/inductive codes (for example,  \n\u201ctransmission\u201d and \u201cconstructivism\u201d) were also applied to the data.", 
  "I then recorded the list of  \ncodes into a matrix organized by research question and level of experience (i.e.", 
  "pre-service  \nteacher or in-service teacher).", 
  "I also divided the matrix into pre-institute and post-institute  \nsections.", 
  "After recording the codes, I began to make connections that helped to group the codes  \ninto larger categories (Braun & Clarke, 2006).", 
  "Examples of these categories include  \n\u201cpedagogies,\u201d \u201ccontent focus,\u201d and \u201cstudent outcomes.\u201d Under each of these larger categories I  \nlinked specific codes with exact quotations from participants, notations from field notes, and  \nexamples from lesson plans.", 
  "Each category was evaluated and refined once again after a  \nsubsequent review of the entire data set and uncoded data that fit within a larger category was  \ncoded and grouped appropriately.", 
  "In this process I accounted for disconfirming evidence and  \ntriangulated data across the multiple data sources analyzed in this study (Creswell, 2013).", 
  "The data collected in this study illustrates the potential for professional development to  \nFindings  \npositively impact teachers\u2019 felt sense of responsibility to teach social studies, and, more  \nimportantly, the types of pedagogies they plan to implement.", 
  "Pre and post data indicated not only  \na more nuanced desire to teach, but an overwhelming shift in the ways in which teachers, both  \npre-service and in-service, thought about social studies pedagogy.", 
  "In the following section I  \nanswer the research questions that guided this study by illustrating three key trends in the data,  \nincluding (a) the move from both in-service and pre-service teachers to a more nuanced sense of  \nresponsibility to teach social studies after the institute, (b) the orientation of in-service teachers  \nbefore the institute to transmission models of pedagogy as opposed to pre-service teachers\u2019 more  \nconstructivist outlook, and (c) the shift in in-service teachers\u2019 pedagogical outlooks from  \ntransmissive pedagogical models towards constructivist pedagogical models by the end of the  \ninstitute.", 
  "Increased Nuance in Expressed Responsibility to Teach Social Studies  \nThis study found that many institute participants understood their responsibility to teach social  \nstudies before the institute in relatively generic terms.", 
  "Many reported that teaching social studies  \nwas \u201cimportant\u201d or \u201cessential\u201d to developing \u201cwell-rounded\u201d students who know their history,  \ndevelop social skills, and \u201canswer basic civics questions correctly.\u201d The majority of respondents  \nagreed that their overall responsibility was to the students (rather than society, other citizens, or  \nthe state).", 
  "Differences did appear between prospective teachers and practicing teachers,  \nparticularly in their conception of the content, nature, and desired outcomes of social studies  \ninstruction.", 
  "By the end of the institute, however, all responses indicated a deeper and more  \nnuanced expressed responsibility to teach social studies.", 
  "In-service teacher responses at the outset of the institute largely reflected a belief in the  \nstatic nature of social studies as a set of unchanging and unbiased knowledge to be learned to  \nfunction well in society.", 
  "Indeed, many explained that their responsibility was to teach the  \nstandards and explain to children the \u201cway the world works.\u201d One teacher explained, \u201csocial  \nstudies is the way we help our students understand their part in society and how/why things are  \nthe way they are.\u201d Another explained, \u201cI don\u2019t want my students to answer basic civics questions  \nincorrectly,\u201d and \u201cI want my students to be educated adults.\u201d To many practicing teachers,  \nexplaining to students \u201chow and why our country works\u201d was the most important responsibility  \nthey had as elementary social studies teachers.", 
  "Prospective teachers, on the other hand, expressed the need to integrate social studies  \nwith other disciplines and move beyond standards.", 
  "Rather than focusing on static knowledge or  \nmeeting the minimum standards required by the state, prospective teachers indicated a  \nresponsibility to make social studies relevant.", 
  "One prospective teacher explained, \u201cI know that  \nwe are supposed to cover the standards that are designated to certain grade levels, but I think it\u2019s  \nimportant to start discussions about our community, country, and culture.\u201d Another expressed a  \ndesire to help students apply social studies to the real world, noting that \u201cstudents [should be]  \nlearning things that they can directly relate to their lives and experiences.\u201d Others expressed  \ncommitments to activism and social justice.", 
  "A prospective teacher explained, \u201cSchool should be  \na source of change by preparing students to contribute positively to society and to solve national  \nand global problems.", 
  "Thus, students should be taught about historical problems and solutions, as  \nwell as contemporary issues.\u201d Another cited the need to teach \u201ctraditional social studies  \ncontent\u2026but also social justice, activism, societal impact on the environment and more.\u201d In sum,  \nprospective teachers at the outset of the institute expressed a responsibility to teach social studies  \nthat went beyond merely explaining how the world worked to students, and instead they  \nexpressed responsibilities to relevance, social justice, activism, and social change.", 
  "Citing technology integration, speeches and lectures from local historians who spoke on  \nthe history of the local area, activities involving photo analysis of children\u2019s books past and  \npresent, the discussion of controversial topics, and a pathos-laden video about the impact of  \nAmerican immigration legislation on students, participants at the institute deepened their  \nrationales for teaching social studies.", 
  "Many explained in post-surveys and focus groups that after  \nparticipating in these activities they felt it their duty to instill in children the ability to see from  \n(or seek out) multiple perspectives, to think critically, and to overcome stereotypes or  \npreconceived ideas about other cultures.", 
  "A pre-service teacher explained, \u201cI feel as teachers, we  \nneed to give students fresh perspectives about their own lives and others out in the world.\u201d  \nAnother suggested that \u201cteaching children about social studies is the only way to foster problem  \nsolving of contemporary and future issues.\u201d An in-service teacher explained, \u201csocial studies is  \nimportant because it helps students connect to their communities and the global world.", 
  "Students  \nneed to learn from history and become critical thinkers about their world.\u201d   \nOthers felt responsible to give students the tools to promote positive change and to chart  \na better future for society and the world.", 
  "Many pre-service teachers underscored how social  \nstudies is not just about isolated facts, but about the actual realities students experience each day.", 
  "A practicing teacher explained, \u201csocial studies is helping students figure out the world, their  \nplace in the world, and empowers them to make a change.\u201d Thus, at the end of the institute  \nrespondents expanded their conception of who they were responsible to as teachers of social  \nstudies, moving beyond just students to indicate a responsibility to historical figures, themselves,  \nsociety as a whole, the future of the United States, and the adults their students would eventually  \nbecome.", 
  "These shifts suggest that teachers, both prospective and practicing, came to understand  \nsocial studies as more dynamic than they previously assumed\u2014less about bits of knowledge or  \nfacts to be known, and more about action, change, understanding, and bettering the human  \nexperience.", 
  "The shift was greater for in-service teachers, as prospective teachers indicated more  \ncomplex responsibilities to teach from the outset of the institute.", 
  "Indeed, in-service teachers at  \nthe outset of the institute focused on the static nature of social studies content and a belief that  \nthey could convey to students the way the world operated.", 
  "By the end, however, they focused on  \nnot what students should know, but how they should know it\u2014from multiple, critical  \nperspectives.", 
  "Importantly, as respondents expanded their conceptions of social studies  \nthroughout the institute, their sense of responsibility to teach critical thinking for social change  \nincreased, suggesting that with more content knowledge teachers are better able to conceive of  \naction-oriented lessons.", 
  "In-Service Teachers and Transmissive Pedagogies  \nAlthough in-service and pre-service teachers explained their responsibility to teach social studies  \nsimilarly in terms of outcomes for students (i.e.", 
  "for citizenship, being well-rounded) at the outset  \nof the institute, the pedagogical methods they planned to make use of to meet those  \nresponsibilities differed dramatically.", 
  "In-service teachers were more likely to describe teaching  \nas a transmissive activity in which knowledge is transmitted to students through instruction,  \nwhile pre-service teachers expressed more hands-on, authentic experiences for students in line  \nwith their university preparation in constructivist methods (Jonassen & Land, 2012).", 
  "For  \nexample, when asked at the outset of the institute what teachers envisioned social studies  \ninstruction looking like in their classroom in the upcoming year, only five in-service teachers  \nindicated authentic activities, such as discussion, project based learning, or simulations.", 
  "The  \nmajority vaguely indicated that they would integrate social studies with language arts through  \nmini-lessons or reading assignments.", 
  "One explained, \u201cI\u2019m hoping to do a better job teaching  \nexplicit social studies lessons.\u201d What those explicit lessons entailed was not elaborated on by this  \nparticipant or others.", 
  "However, insight into the ways teachers thought about teaching social studies can be  \ngleaned from the language they used to describe their teaching.", 
  "For instance, one teacher wrote,  \n\u201cIn first grade, I feel like \u2026 explaining the importance of rules and leaders is a huge  \nresponsibility.\u201d Explaining to students the importance of rules and leaders, rather than allowing  \nthem to construct such knowledge for themselves, illustrates the notion that the teacher is there to  \ntransmit unshakable or unchanging knowledge to students.", 
  "This appeared in other responses as  \nwell, as another in-service teacher explained, \u201cI want my students to know social studies\u201d  \n(emphasis added).", 
  "The notion that students can know social studies echoes the belief that social  \nstudies content is unchanging or static, easily transmitted.", 
  "The notion that social studies content  \ncould be transmitted to students appeared in other responses, as teachers claimed, \u201cI am just  \nplaying \u2018catch up\u2019 to try and hit all of the standards.\u201d Another claimed she would \u201cuse literature  \nto cover topics.\u201d Indeed, a focus on \u201chitting\u201d or \u201ccovering\u201d topics abounded in the responses  \nfrom in-service teachers, as they were largely concerned with content that needed to be covered  \nrather than developing habits of mind or larger conceptual understandings in students.", 
  "Prospective teachers, however, were far more constructivist in their pedagogical  \noutlooks.", 
  "For example, many prospective teachers desired a \u201cdiscussion heavy classroom\u201d that  \nwould allow students to \u201cconstruct their knowledge.\u201d One explained that she \u201cenvisioned social  \nstudies being a part of a social learning community of instruction,\u201d while another desired \u201csocial  \nstudies instruction to be engaging, authentic, and meaningful to students\u201d which would require  \n\u201cincorporating the community, technology, and collaboration.\u201d In addition to explicitly using  \nconstructivist language, pre-service teachers indicated a desire to engage students in authentic  \nlearning activities, including exploration, role play, research, collaborative activities, projects,  \nand community outreach.", 
  "Having witnessed very little social studies instruction in their previous  \nfield experiences, many pre-service teachers indicated a desire to move beyond the \u201cSocial  \nStudies Weekly\u201d magazine used by the district teachers that required students to silently read and  \nanswer questions.", 
  "As one prospective teacher explained, \u201cmany teachers teach social studies just  \nwith content and not [by] asking students to form opinions.\u201d As a result, she (and many of her  \npeers) believed that social studies should be taught through discussion-based lessons.", 
  "In sum,  \npre-service teachers indicated a stronger commitment to constructivism than in-service teachers  \nat the outset of the institute.", 
  "Shift to Constructivist Pedagogies  \nBy the end of the institute, in-service teachers experienced a shift in their pedagogical outlooks  \nfrom transmissive pedagogical models towards constructivist pedagogical models.", 
  "In fact, after  \nthe institute nearly all participants expressed a more constructivist outlook and were able to cite  \nspecific examples of constructivist pedagogy they planned to make use of the following year.", 
  "Institute participants indicated a variety of activities they planned to implement including the use  \nof stop-motion animation, public service announcements, the integration of social studies with  \nboth fiction and non-fiction texts, photo analysis, digital projects, and free writing.", 
  "More general  \nactivities mentioned included hands-on learning, moving beyond the textbook, real world  \napplications and case studies, and the use of simulations.", 
  "The decision to use those pedagogies stemmed from having experienced those very same  \npedagogies during the institute.", 
  "One participant explained, \u201cI think this workshop has given us  \nactual scenarios to implement.", 
  "They\u2019re giving us resources, which is huge because you can see it  \nand you can do it.\u201d In focus group discussions, pre-service teachers explained how the institute  \nhelped them see that social studies is more about \u201ccritical thinking and social justice\u201d rather than  \nmemorizing facts.", 
  "Pre-service teachers mentioned specific activities, such as small group  \nsimulations or descriptions of a classroom economy, that engaged them in ways that made them  \nforget they were actually learning.", 
  "They discussed how literature helped to make \u201chistory more  \ntangible for kids,\u201d particularly when multiple perspectives were presented that moved away from  \nthe \u201cwhitewashed textbook.\u201d One pre-service teacher explained that she wanted to teach with  \nhands-on technologies and simulations rather than standing in front of a class saying, \u201cin 1776  \nwe signed the Declaration of Independence\u201d or \u201cread this part of your textbook.\u201d She explained,  \n\u201cI feel like kids, especially with all the gadgets they have now, they don\u2019t want to read a book.", 
  "Having all these opportunities to learn through hands-on activities will really benefit teaching  \nsocial studies.\u201d   \nIn-service teachers agreed.", 
  "A first grade teacher explained, \u201cWhat I took away from this  \nwas being more mindful of presenting a different perspective.", 
  "It was nice to do hands-on  \nexperiential stuff.", 
  "I can do a stop-motion video.", 
  "If I can do it, my kids can do it.\u201d A kindergarten  \nteacher concurred, claiming, \u201cI\u2019ve been anti-technology especially with kindergarten because I  \nonly see them using technology as play, so I\u2019ve learned about being able to use technology to  \nteach to learn, interact, and produce.\u201d According to in-service teachers, engaging with learning,  \nrather than simply consuming facts, would help social studies \u201cmean something\u201d to students.", 
  "The shift towards constructivism for in-service teachers and the deepening of  \n\nconstructivist commitments in pre-service teachers can perhaps be attributed to a deepening of  \ncontent knowledge as a result of participating in the institute.", 
  "One pre-service teacher explained,  \n\u201cthis workshop, like I said before, has made me aware of so much more of what social studies is,  \nand how important it is.\u201d An in-service teacher explained that by deepening her own content  \nknowledge of civics, she felt more capable and committed to teach the subject.", 
  "Others indicated  \nthat the institute changed their approach to teaching social studies to incorporate multiple  \nperspectives on citizenship.", 
  "As participants grew more comfortable with social studies content  \nand more aware of the multiple perspectives embedded in social studies content, they grew more  \ncomfortable with allowing students to sift through diverse viewpoints rather than dictating to  \nthem specific content that must be learned.", 
  "Implications and Conclusion  \nOverall, this study suggests that professional development focused on improving teachers\u2019 social  studies content knowledge enhances and provides nuance to teachers\u2019 sense of responsibility to  teach social studies.", 
  "Specifically, the professional development experience deepened pre-service  teachers\u2019 commitments to constructivist pedagogy and actually helped shift in-service teachers\u2019  commitment to transmission-oriented pedagogy towards constructivism.", 
  "By the end of the  institute both in-service and pre-service teachers cited specific constructivist pedagogies they  might use in their classroom, as well as more nuanced understandings of social studies as a  content area.", 
  "Being engaged in constructivist processes during the institute helped to facilitate  this shift.", 
  "Deepening content knowledge also likely helped to facilitate such a shift.", 
  "As teachers  learned more about specific content, they began to see the multiple perspectives inherent in  social studies content, thereby increasing their desire to teach students from multiple  \nperspectives.", 
  "This study also indicated that pre- and in-service teachers at the outset of the institute  held differing epistemological and pedagogical outlooks.", 
  "Pre-service teachers were far more  constructivist in nature than in-service teachers and described their responsibility to teach social  studies in terms reminiscent of constructivist learning theory.", 
  "Perhaps because of recent  coursework in their teacher preparation program focused on the topic of citizenship and  education for democracy and the overwhelming focus on constructivism in previous courses,  pre-service teachers were more inclined from the outset of the institute to embrace uncertainty in  their teaching.", 
  "In-service teachers, however, expressed a more standards, topic-driven approach  to teaching social studies at the outset of the institute and felt their responsibility was to relay  information to students about \u201cthe way the world works.\u201d High-stakes standardized testing could  play a role in these transmission-oriented approaches, as the high-stakes nature of the tests limit  the time available for social studies instruction, forcing teachers to \u201ccover\u201d content rather than  allowing their students to construct knowledge.", 
  "Future study is necessary to understand what  might facilitate the swing towards transmission-style pedagogy once in the classroom and what  types of ongoing supports can help to combat the slide towards transmission.", 
  "It does appear that support can ward off a slide towards transmission\u2014at least in theory.", 
  "Indeed, by the end of the institute all participants indicated a responsibility to teach social studies  through constructivist methods that engaged students in active learning.", 
  "More importantly,  teachers also indicated more nuanced rationales for teaching social studies.", 
  "Having experienced  hands-on, content-focused social studies lessons themselves, teachers could envision this type of  learning in their classroom and indicated that they would be implementing active, hands-on  social studies lessons the following school year.", 
  "Teachers\u2019 commitments to active engagement in  \nthe classroom through the use of multiple perspectives, discussion, and simulations suggests that  engaging teachers in such processes in professional development is one method of combatting  the dominant fact-based approach to teaching social studies at the elementary level.", 
  "Importantly,  the professional development also deepened the participants commitments to social studies  instruction even if they had to \u201csneak it in\u201d to other content areas, suggesting that professional  development that is focused on constructivist pedagogy and the deepening of content knowledge  is one promising component of a larger and necessary arsenal of strategies meant to combat the  lack of social studies instruction in American elementary schools.", 
  "Adler, S. (1991).", 
  "The education of social studies teachers.", 
  "In J. P. Shaver (Ed.", 
  "), Handbook of"
 ]
}