{
 "document_id": "1173463.1", 
 "sentences": [
  "Caring for Patients in the Pharmacology Inter-Leaved Learning-Virtual Reality  \n(PILL-VR) Hospital to Bridge the Theory\u2013Practice Gap in Higher Education  \n\u201cPractice without theory is blind, theory without practice is sterile\u201d (Karl Marx, 1975, p. 182).", 
  "In this study, we address the gap between theory and practice in higher education by studying  \nthe  low-cost  and  easily  accessible  training  opportunities  of  non-immersive  virtual  reality  \n(VR) simulations.", 
  "VR environments have been used as educational platforms in many areas  \nincluding art, architecture, business, sociology, urban planning, game design and health care  \n(review: Delp et al., 2007).", 
  "The present study focused on nursing education and applied the  \nPharmacology InterLeaved Learning Virtual-Reality (PILL-VR) environment (Dubovi, Levy  \n&  Dagan,  2015)  that  supports  the  learning  and  practicing  of  medication  administration  \nprocedures via a desktop virtual environment.", 
  "Many  studies  have  highlighted  the  theory\u2013practice  gap  between  the  theoretical  \nabstractions  learned  in  academic  education  and  the  practical  skills  required  for  their  \napplication  in  real-world  professional  practice  settings  (e.g.,  Burnet  &  Smith,  2000;  de  la  \nHarpe  &  Radloff,  2000).", 
  "Moreover,  practitioners  of  all  sorts,  including  nurses,  report  \nexperiencing a noticeable gap between what they have learned in university and what they  \npractice in the workplace.", 
  "With respect to nursing and other health professions, a significant  \nconcern worldwide is the limited opportunities available for practicing in the clinical setting,  \nmainly due to a shortage of clinical placement sites and the priority for patient safety (Hayden  \net al., 2014).", 
  "For example, one study found that while nursing students are expected to learn  \nmedication  administration  practices  to  ensure  the  safety  of  their  patients,  which  requires  \npractical  procedural  knowledge and skills, only  10% of nurse  managers  believe  that those  \nnew graduate nurses are ready  to administer medications (Berkow et al., 2008).", 
  "Likewise,  \nnear-error situations and adverse events are disproportionately associated with treatment by  \nnovice nurses (review: Hickerson et al., 2016).", 
  "Medication administration errors were identified as the most common type of error in  \nhealth  care  in  the  USA  in  a  2006  Institute  of  Medicine  report  (Aspden  et  al.,  2006).", 
  "It  is  \nestimated that at least 44,000 American deaths in hospitals each year are attributed to such  \nerrors (Kohn et al., 2000), most of which are preventable (Lisby et al., 2010), and exceed the  \nnumber of annual deaths from motor vehicle accidents (43,458) and breast cancer (42,297)  \n(Aspden et al., 2006).", 
  "Therefore, in  the nursing domain, promising efforts have been made involving the  \ncreation of simulations.", 
  "However, there are still several challenges, especially financial, due  \nto  their  high  cost,  which  prevent  many  nursing  schools  from  purchasing  them  (Lapkin  &  \nLevett-Jones,  2011).", 
  "Here  we  suggest  that  computer-based  virtual  simulations  can  be  an  \naccessible  and  affordable  strategy  for  delivering  flexible  and  broad-ranging  scenarios  that  \nfocus on cognitive and manual skills in nursing.", 
  "In nursing research and practice, VR has not  \nbeen extensively used, and there are no studies incorporating a large sample of participants  \n(Aebersold et al., 2012; Foronda et al., 2016; Honey et al., 2012; Jenson & Forsyth, 2012;  \nMcCallum,  Ness  &  Price,  2011;  Smith  &  Hamilton,  2015).", 
  "Clearly,  teaching  via  the  VR  \nmedium is at an early stage, and larger cohorts of students are needed to further understand  \nthis tool in undergraduate studies (Irwin  & Coutts, 2015).", 
  "Research Aim  \nThe purpose of this study was to evaluate the effectiveness of the PILL-VR simulation as a  \nlarge-scale teaching strategy for medication administration among nursing students.", 
  "Research Questions  \n1)  What impact does learning with the PILL-VR environment have on conceptual and  \nprocedural  learning  of  the  medication  administration  procedures  in  comparison  to  \nlearning with a normative lecture-based curriculum?", 
  "2)  How  does  the  PILL-VR  environment  facilitate  learning  of  the  medication  \nadministration  procedure  in  terms  of  participants\u2019  sense  of  presence  in  the  \nenvironment?", 
  "Participants  \n\nParticipants included volunteer nursing students (N=129) at the University of Haifa, Israel:  \n47 students in the comparison group and 82 in the experimental group (Table 1).", 
  "Research Design  \nThe study employed a quasi-experimental pre- and post-test design.", 
  "Procedure  \nThe experimental group learned with the PILL-VR environment for a total of 3 hours instead  \nof  the  normative  lecture-based  curriculum;  the  comparison  group  learned  medication  \nadministration  via  \nthe  normative  pharmacology  curriculum  consisting  of  \nlectures  \n(approximately 3\u20134 hours).", 
  "Pre- and post-test evaluations were conducted at the beginning  \nand at the end of the semester (nearly 1 month before and 2 months after the activities on the  \nlast day of the academic semester).", 
  "Students in the experimental group who completed the  \npre- and post-simulation test were asked to complete a delayed post-test measure 5 months  \nafter the intervention.", 
  "Table 1.", 
  "Demographic Characteristics and University Baseline Achievements:   Comparisons between the Experimental and Control Student Groups  \nExperimental  Group (n=82)  \nComparison  Group (n=47)  \nTotal (N=129)  \nStatistics1  \nAge (years)   \n22.7\u00b12.4  \n22.9\u00b12.8  \n\n0.64 (p=.52)  \n61 (74%)  \n36 (77%)  \n97 (75%)  \n21 (26%)  \n11 (23%)  \n32 (25%)  \n0.078 (p=.78)  \nArabs (n=80):  \nChristian  \nPsychometric Entrance  Test score2   \nHebrew (YAEL test)  \n29 (35%)  \n21 (45%)  \n50 (39%)  \n17 (21%)  \n\n23 (18%)  \n31 (38%)  \n16 (34%)  \n47 (36%)  \n\n1 ( %1 )  \n\n2.1 (p=.71)  \n-1.25 (p=.20)  \n-0.46 (p=.61)  \nChemistry course score  \n1.8 (p=.07)  \nMicrobiology course score  \nCell-biology course score  \nBiology course score  \n-1.8 (p=.07)  \n-0.55 (p=.57)  \n-1.12 (p=.21)  \nNumbers represented: N (%) or Mean\u00b1SD  1 Based on Chi-square test or independent sample t-test as appropriate.", 
  "2 Psychometric Entrance Test is a standardized test in Israel, generally taken as a higher education  admission exam.", 
  "It covers three areas: mathematics, verbal reasoning and English language.", 
  "3 The YAEL test is a Hebrew proficiency test.", 
  "Students who take the Psychometric Entrance Test in  any language other than Hebrew are also required to take the YAEL test.", 
  "Here we report the mean  scores of 27 students in the control group and 50 in the experimental group who took the YAEL  \nData Collection Instruments  \nThe PILL-VR Environment for Medication Administration.", 
  "The PILL-VR environment  \nwas designed by this research group in early 2014 (Dubovi et al., 2015).", 
  "The environment  \nwas  developed  with  OpenSim,  an  open-source  3D  desktop  VR  multi-platform  \n(http://opensimulator.org/wiki/Main_Page).", 
  "The  architecture  is  of  a  hospital  ward  (in  a  \nhospital on a virtual  island)  and includes two rooms:  (1) a patient  room with  an animated  \npatient lying on a bed, and (2) a room with a range of medical equipment and a variety of  \n\fdifferent medications which are available in a medicine cabinet.", 
  "Patient history and physician  \norders are available on an electronic medication management cart.", 
  "A student participant enters the PILL-VR environment as a nurse-avatar.", 
  "Initially, the  \nstudent  is  invited  to  explore  his/her  avatar-body,  and  to  perform  actions  such  as  moving  \nabout, opening cabinets, picking up equipment and reading charts.", 
  "This exploration phase is  \ndesigned to last for 45 minutes.", 
  "After  the  acclimation,  two  scenarios  are  presented  as  basic  medication  procedural  \nexercises.", 
  "The student has to learn and apply his/her knowledge by carrying out the following  \nsteps: assessing the patient\u2019s clinical condition, interpreting the physician\u2019s orders, preparing  \nthe  medication  for  administration  (e.g.,  choosing  the  correct  medication,  calculating  the  \nmedication  dose),  administering  it  to  the  patient,  and  monitoring  and  evaluating  the  \neffectiveness and side effects of the treatment (Figure 1).", 
  "The PILL-VR environment was designed to respond to a student\u2019s performance by  \ngiving feedback with imbedded video-based directions.", 
  "The environment encourages active  \nexploration with error-management instructions including worksheets of guided activities.", 
  "Figure 1.", 
  "Photograph and screenshots of students following guided-inquiry activities which  are scripted as scenarios in the PILL-VR environment.", 
  "b.", 
  "Participants as nurse-avatars in a virtual ward in the PILL-VR environment a.", 
  "Participants practice the medication administration procedures   c. A safe arena for learning in which errors are tolerated, revealed and provided with feedback  You chose the wrong medication Try again \fThe Medication Administration Procedure (MAP).", 
  "The MAP questionnaire was  \ndeveloped  specifically  for  this  study,  to  assess  conceptual  and  procedural  learning  of  \nmedication administration procedures.", 
  "The items were validated by experienced lecturers in  \nour nursing department  to  ensure content-alignment  and an appropriate level of difficulty.", 
  "The MAP includes 13 multiple-choice questions divided into three subscales (for example,  \nsee Figure 2): (1) Medication Administration Sequence, (2) Basic Procedural Concepts, and  \n(3) Reasoning and Accountability (this was developed at a later stage of the study).", 
  "The MAP  \nquestionnaire responses were coded as correct or incorrect answers, and the total score was  \ncalculated  as the percentage of  correct  answers.", 
  "Analysis of the MAP  questionnaire using  \nCronbach\u2019s alpha yielded a high internal consistency score of .78.", 
  "Figure 2.", 
  "Two example questions from the MAP knowledge questionnaire (Example A: the  correct answer is D; Example B: the correct answer is B).", 
  "Presence  Questionnaire  (PQ).", 
  "We  used  the  PQ  questionnaire  during  the  study  in  \norder  to  evaluate  how  the  PILL-VR  environment  facilitates  learning  in  the  experimental  \n\fgroup.", 
  "The PQ was developed by Witmer and Singer (1998) to measure sense of presence,  \nor  the  degree  to  which  the  subject  is  \u201cexperiencing  the  computer-generated  environment  \nrather than the actual physical locale\u201d (p. 225).", 
  "The instrument addresses three subscales: (1)  \nInvolved/Control  (11  items)  refers  to  the  degree  of  subjective  control  felt  in  the  VR,  \nresponsiveness  of  the  VR  environment  to  initiated  actions,  and  involvement  in  the  VR  \nenvironment;  (2)  Natural  (3  items)  refers  to  the  degree  to  which  interactions  with  the  \nenvironment felt natural; and (3) Interface Quality (3 items) refers to degree of distraction  \ndue to the quality of the interface.", 
  "The subjects rated their experiences on a 7-point Likert  \nscale from 1 (not at all) to 7 (completely).", 
  "The PQ was translated to and validated for Hebrew  \nby Kizony (2006) with high internal consistency (\u03b1=.89).", 
  "The overall internal consistency in  \nthe current study was \u03b1=.88, similar to previous reports (Witmer & Singer, 1998).", 
  "Conceptual and Procedural Learning  \n\nTable 2 describes the learning gains in the experimental and comparison groups.", 
  "Significantly  \nhigher  scores  with  a  strong  effect  size  were  found  in  the  experimental  compared  to  the  \ncomparison group, for overall score and all subscale scores of the MAP questionnaire.", 
  "The  \nhighest  learning  gain  was  found  for  the  Administration  Sequence  subscale  (Table  2).", 
  "Although the Reasoning and Accountability subscale included data and analysis only for the  \npost-test evaluation, a higher mean score was calculated in the post-test experimental group  \ncompared to the control group (unpaired t(127) = \u22123.8, p<.001), with a strong size effect of  \nCohen\u2019s d (.91).", 
  "Table 2  Comparisons of Pre-test and Post-test MAP Questionnaire Scores and Learning Gains  between the Two Student Groups (N=129)1  \nOverall:  \nSubscales:  \nPre-test  \nPost-test  \n\nLearning gain2  \nStatistical tests  \nExp.", 
  "(n=82)  Comp.", 
  "52\u00b125  Mdn.=62,  98\u00b11.3   \nMedication Admin.", 
  "Sequence  \nBasic Procedural Concepts  \nMdn.=100,  \nMdn.=50,  \n649.5***  \n\nReasoning and Accountability  \nExp., experimental group; Comp., comparison group.", 
  "1 Data are represented in percentages: Mean\u00b1SD, Median=Mdn., Range 0\u2013100  2 Learning gains were computed to take into account differences in prior knowledge before using the  PILL-VR training sessions.", 
  "MAP questionnaire (post-score\u2013pre-score)/(pre-score), i.e.", 
  "the  proportional change from baseline initial understanding of the medication administration  requirements.", 
  "3 Reasoning and Accountability component was developed at a late stage of this study; consequently  during the pre-test we have no data collected.", 
  "*** p<.001.", 
  "A repeated-measures ANOVA with a Greenhouse-Geisser correction determined that  \nMAP questionnaire scores differed significantly between the time points (F(1.62, 113.4) =  \n251.8,  p<.001).", 
  "Post-hoc  tests  using  the  Bonferroni  correction  revealed  a  significant  \ndifference between pre- and post-test evaluations (2 months after the experiment; p<.001).", 
  "No significant difference was found between the post-test and delayed post-test evaluations  \nin the experimental group (2 and 5 months after the experiment; p=.14), showing retention  \nof medication administration knowledge 5 months after the PILL-VR training (Figure 3).", 
  "post test  (2 months after learning with PILL-VR) \ndelayed post-test (5 months after learning with PILL-VR) \nFigure 3.", 
  "MAP knowledge questionnaire scores  for the experimental  group (n=82) before  and after learning with the PILL-VR environment.", 
  "Facilitation of Learning with the PILL-VR Environment  \nResults  revealed  that  students  perceived  a  high  sense  of  presence  while  learning  with  the  \nPILL-VR  environment.", 
  "Our  results  showed  that  the  three  PQ  subscales,  Involved/Control  \n(5.2\u00b10.7),  Natural  (4.7\u00b11.03),  and  Interface  Quality  (5.0\u00b11.1),  were  either  higher  than  or  \nsimilar to those reported by Witmer and Singer (1998; 5.2\u00b1.8; 4.1\u00b11.1; 4.8\u00b11.1, respectively)  \nin their work with immersive VR.", 
  "A significant  correlation was found between scores on the MAP questionnaire and  \nthe PQ Involved/Control subscale score (Pearson r=.211; p<0.05) (Table 3).", 
  "Sense of Presence and Conceptual-Procedural Learning: Results of Pearson\u2019s Correlations  between the PQ and MAP Scores in Experimental group (n=82)  \nMAP score  \n\nMedication Admin.", 
  "Sequence  \nBasic Procedural Concepts  \nReasoning and Accountability  \nData represent the Pearson r.  * p< 0.05.", 
  "Interface Quality  \n\nInvolved/Control  \n\fDiscussion  \nNarrowing  the  gap  between  theory  and  practice  in  education  is  an  ongoing  challenge  for  \nacademic educators of practical professions.", 
  "To demonstrate how the VR environment can  \nintegrate theoretical components into practice, we examined a particular skill within nursing  \neducation:  medication  administration.", 
  "Although  we  used  the  low-cost  non-immersive  VR  \ndesktop system, our results clearly show that learning medication administration procedures  \nwith the PILL-VR enabled significantly higher persistent understanding and consolidation of  \nthe practical skills required than when learning with the lecture-based curriculum.", 
  "The  main  difference  in  students\u2019  learning  outcomes  with  the  PILL-VR  versus  the  \nnormative  curriculum  involved  understanding  the  medication  administration  sequence.", 
  "Procedural understanding of the step-by-step details in this sequence is a necessary condition  \nfor  successful  execution.", 
  "Fitts  and  Posner  (1967)  and  later  Anderson  (1983)  explain  that  \nlearning  a  new  skill  involves  the  three  stages:  the  cognitive,  associative  and  autonomous  \nstages.", 
  "The cognitive stage involves the learner developing an understanding of what the skill  \ncomprises.", 
  "The associative stage includes experiential learning.", 
  "Anderson (2009) explains  \nthat  at  the  associative  stage,  competence  is  low  and  performance  is  very  slow  and  full  of  \nerrors.", 
  "Learning  with  a  VR  simulation,  in  contrast  to  learning  from  lectures,  allows  \nexperiential  learning  and  error  training.", 
  "Errors  during  training  are  valuable  pieces  of  \ninformation because they serve as feedback for one\u2019s actions and can identify which aspects  \nof one\u2019s knowledge need further correction and refinement.", 
  "Exposure to errors during initial  \nskill acquisition was found to improve retention, decision making, performance, and transfer  \nof safer practices (Gardner et al., 2015; Keith & Frese 2008; Ivancic IV & Hesketh, 2000).", 
  "Interestingly, our findings show a positive correlation between experiences of the VR  \nsimulation and learning: between control, as a subcategory of the sense of presence, and the  \nlearning outcomes.", 
  "Specifically, as the sense of control increases, so does understanding of  \n\fmedication  administration  procedures.", 
  "In  developing  the  PQ,  Witmer  and  Singer  (1998)  \nassumed that an increase in the sense of presence would increase learning and performance,  \nbut then they admitted, \u201cyet we have no direct evidence to support our contention\u201d (p. 239).", 
  "Although 16 years have passed since that assumption, there is still little research evidence for  \nit using Witmer and Singer\u2019s measurement tool (T\u00fcz\u00fcn & \u00d6zdin\u00e7 2016).", 
  "In line with T\u00fcz\u00fcn  \nand \u00d6zdin\u00e7\u2019s conclusions, we show an additional case for supporting this assumption with  \nour positive, though small, correlation results.", 
  "This result is important, as it provides a design  \nprinciple for successful VR simulations for learning: ensuring that participants gain sufficient  \ncontrol of the environment is an important condition for learning.", 
  "This study contributes to the professional education field by suggesting that VR may  \nprovide greater access to practice opportunities in higher education, bridging the gap between  \nthe  formal  and  practical  learning  of  professionals,  a  crucial  step  in  developing  students\u2019  \nexpertise."
 ]
}