{
 "document_id": "1174243.1", 
 "sentences": [
  "Getting into University from Poor Rural and Ethnic Minority Regions of China  \nAbstract: Rapid expansion of Chinese higher education has meant more opportunity but a drop in the proportion of poor rural and  ethnic minority student, especially in top-tier universities.", 
  "Research shows that those from major cities, higher income families with  better educated parents in high status occupations are more likely to enter better universities.", 
  "This study goes one step further by  considering the influence of culture, specifically three types of concerted cultivation.", 
  "We collected a stratified sample of data from  2,586 senior high school students nested in 18 schools of 10 counties along with entrance examination scores.", 
  "The results highlight  the growing importance of concerted cultivation strategies through parental particpation in home, school, and community.", 
  "Objective  \nDespite having the second largest economy, an increasing number of world class universities and more students in higher education  than any country, there is a decline in the proportion of students from poor rural and ethnic minority areas gaining access to China\u2019s  top-tier universities.", 
  "An economic slowdown has added fuel to domestic frustration with current economic, political and social policies.", 
  "Growing  inequality  is  driving  critiques  of  economic  globalization.", 
  "Meanwhile  parents  in  wealthier  provinces  have  initiated  protest  marches  in  opposition  to  government  efforts  to  increase  access  for  students  from  poorer  provinces  which  they  perceive  as  disadvantaging their children\u2019s chances of entering university.", 
  "As  Chinese  higher  education  continues  to  expand,  the  relative  equality  of  higher  education  access  has  becomes  more  complex  (Chen,  2015;  Li,  2015;  Liu,  &  Gao,  2015;  Wang,  2015;  Xie  &  Postiglione,  2015).", 
  "The  gross  enrollment  rate  of  China\u2019s  higher  education achieved 40% in 2015 (MOE, 2016).", 
  "However, the literature suggests that while access has increased, some groups have  benefitted  much  more  than  others  (Li,  2015;  Postiglione,  2015;  Xie  &  Postiglione,  2015).", 
  "The  distribution  of  higher  education  opportunities has become influenced by an interrelated assortment of macro-structural factors, insitutional factors, and micro-family  factors (Liu, & Qian, 2015).", 
  "Li (2015) used the data from population cohorts in the 1960s, 1970s, and 1980s, and found that higher  education access has become more unequal, essentially due to the increasing gap between urban and rural students the latter of  whom have lower results in getting into and completing primary school, junior secondary school, and senior secondary school.", 
  "Wang  (2015) collected data from  household registration cards of 25,880 students in 16 higher education institutions, and found that the  \n\faccess differences to key universities enlarged first and then narrowed among seven social classes, while the access differences to  other regular universities and to HVPCs narrowed since 1982.", 
  "Liu and Gao (2015) collected data from 2,100 students in 14 higher  education institutes in Jiangsu province, and their quantity of higher education opportunities was influenced by family economic and  political  capital  with  significant  statistical  differences,  while  the  quality  of  higher  education  opportunities  was  influenced  by  family  political and social capital.", 
  "Chen (2015) found that the increased higher education opportunities for different social groups does not  mean  the  higher  education  system  has  become  more  equal,  because  the  distribution  of  quality  higher  education  opportunity  is  significantly  related  to  students\u2019  family  background  and  their  parents\u2019  sociao-economic  status.", 
  "Those  from  major  cities,  higher  income families with better educated parents in priviledged occupations are more likely to enter better higher education institutions.", 
  "While  family  income  was  not  the  main  reason  for  this  advantage,  higher  income  families  had  access  to  opportunities  for  quality  higher education.", 
  "Conceptual perspective  \nThese  studies  lead  us  to  consider  giving  greater  weight  to  cultural  factors,  especially  those  referred  to  by  Laureau  (2003)  as  \u201cconcerted  cultivation,\u201d  as  well  as  Cheadle  (2008)  in  citing  \u201ca  series  of  pathways  through  which  social  class  is  reproduced  intergenerationally.\u201d  Previous  empirical  studies  in  America  confirmed  that  concerted  cultivation  has  a  positive  effect  on  students\u2019  academic  achievement.", 
  "The  quantitative  literature  measured  concerted  cultivation  in  several  different  ways.", 
  "For  purposes  of  this  research  which  includes  a  sample of  over  40  percent  ethnic  minority  students,  we  recognize  that  concerted  cultivation  often has  overlapping boundaries with social status.", 
  "The literature on concerted cultivation suggests that the point of concerted cultivation is to  help improve children\u2019s academic achievement.", 
  "However, since rural students lack family social capital and cultural resources, their  low levels of concerted cultivation are obstacles to quality higher education access.", 
  "Methods and data sources  \nWe  use  data  from  a  cross-sectional  survey  of  final  year  senior  middle  school  students  that  took  the  National  College  Entrance  Examination that assesses their performance in  Chinese, Mathematics, English, and Physics, Chemistry (or Geography, History).", 
  "The College Entrance Examination has been carried out by China\u2019s Ministry of Education every year once (twice) since 1978.", 
  "Our  \n\fsample  includes  2,586  students  nested  in  18  schools.", 
  "This  study  uses  the  school  as  part  of  a  four-category  stratified  design  for  sampling optimization.", 
  "This sample is representative of final year students at senior middle schools in China\u2019s Gansu province.", 
  "We  use  two-staged  stratified  sampling  procedures.", 
  "First,  we  prepared  a  comprehensive  list  of  counties  and  divided  them  into  four  subgroups, namely, non-ethnic minority counties in rural areas, non-ethnic minority counties in urban areas, ethnic minority counties  in  rural  areas,  and  ethnic  minority  counties  in  urban  areas.", 
  "Then,  we  randomly  drew  two  counties  from  each  subgroup  (except  ethnic-counties in rural area), ten counties in total.", 
  "Second, we prepared a comprehensive senior high school  list  in ten selected  counties and divided all school into two categories, namely, key schools and non-key schools.", 
  "We randomly drew one key school  and one non-key school from each selected county.", 
  "We selected 18 senior high schools (two sampled schools had cancelled senior  high curriculum).", 
  "Third, we prepared a comprehensive final year list of classes in 18 selected senior high schools.", 
  "We randomly drew  3 classes in urban schools and 2 classes in rural schools.", 
  "Eventually, we obtained nearly 3,000 final year senior high school students.", 
  "The majority were between 16-21 years old.", 
  "10 counties  \nFigure 5.", 
  "Sampling strategy  \n\nNon-ethnic  \ncounties in  \nrural area    \n\nNon-ethnic  \ncounties in  \nurban area *  \ncounties in  \nrural area    \ncounties in  \nurban area  \n2 classes  \n/per school *  \n4 schools  \n3 classes  \n/per school *  \n4 schools  \n2 classes  \n/per school *  \n4 schools  \n3 classes  \n/per school *  \n4 schools  \n40 classes  \n2,586 students  \nUrban & Rural  \n% of Total  % of Total  \n\n% of Total  \nThe outcomes of interest in our analyses were student scores achieved on the College and University Entrance Examination (CUEE)  for Chinese, Mathematics, English, and Science (or Humanities).", 
  "The independent variables are student\u2019s household registration,  residence, gender, ethnicity, SES composite (including household occupation, household assets, parental education), and concerted  cultivation (including parent participation, child activities, and material resources).", 
  "The independent variables at school level were  school types, school location and class categories.", 
  "We recorded school types into four: urban-ethnic, urban-regular, rural-ethnic, and  rural-regular.", 
  "Given  that  half  of  Gansu\u2019s  population  is  composed  of  farmers  and  respondents  on  average  were  18  years  old,  household  possessions  are  a  more  reliable  measure  than  family  income.", 
  "We  constructed  a  possession  index  of  14  household  items  \u2013the  possession  of  one  item  was  coded  as  1,  greater  values  of  the  summation  indicate  wealthier  families.", 
  "Parental  education  is  expressed as a six-level categorical variable; Bachelor degree education and above is the reference, and the other categories were  no formal education, primary education, junior secondary education, senior secondary education,  and associate degree education  (dazhuan).", 
  "The main independent variable of interest is a latent factor measuring family concerted cultivation via parents\u2019 participations, child  activities,  and  material  resources.", 
  "We  used  a  composite  index  of  cultural  cultivation.", 
  "The  material  resources  were  measured  by  number of books possessed, we recorded the books into six-level categories: more than 100 books was the reference, and the other  \n\fcategories were no books, 1-10 books,10-19 books, 20-49 books, and 50-99 books.", 
  "Child activities were measured by summation of  six activities attended during senior secondary school period, the museum, the Zoological/Botanical garden, the symphony concerts  or  dramas,  the  concerts,  the  library,  the  Teenagers\u2019  Land  (shaonian  gong).", 
  "The  parent  participation  includes  the  instructional  behavior, discussion on study related issues, face-to-face communications with teachers, mother/father knows my best friends, the  regulations  on  watching  TV  or  playing  electronic  games,  doing  other  things  after  finishing  homework.", 
  "The  instructional  behavior,  discussion on study related issues, and face-to-face communications with teachers were all four-level categorical variables-never,  few, sometimes, and frequently.", 
  "The regulations on watching TV or playing electronic games and doing other things after finishing  homework were dummy variables.", 
  "We selected 12 items that included three dimensions of concerted cultivation: parent participation  (8), child activities (3), and material resources (1) as follows.", 
  "Table 1 Items and Their Original Scales for Concerted Cultivation Measures  Short description of item  \nFull description (original scale)  \nfrequency)    \npercentage)  \nParent Participation  study-related  issues  with  Regulations  entertainments at home  Regulations  homework first  Guide on homework  \nCommunications  teachers  \n\nChat with your friends  \nWhen you are at home, do parents spend time discussing school- or  study-related  issues  with  you?", 
  "(1=  Never,  2=  Few,  3=  Sometimes,  4= Often)            Do your parents make regulations on how long you can watch TV or  play computer games at home?", 
  "(1= Yes, 2= No)  Do your parents make regulations that you should do homework first  before other things?", 
  "(1= Yes, 2= No)  How often did your parents guide you the completion of homework  last year?", 
  "(1= Rarely or never, 2= Few, 3= Sometimes, 4= Often)  How often did your parents have face-to-face communications with  your  teachers  last  year?", 
  "(1=  Rarely  or  never,  2=  Few,  3=  Sometimes, 4= Often)  How  often  did  your  parents  chat  with  your  friends  last  year?", 
  "(1=  Rarely or never, 2= Few, 3= Sometimes, 4= Often)  \n\fMother  knows  my  best  \nFather  knows  my  best  \nHow  much  do  you  agree  with  the  following  statement:  \u201cMy  mother  knows my best friends\u201d?", 
  "(1= strongly agree, 2= agree, 3= disagree,  4= strongly disagree)  How  much  do  you  agree  with  the  following  statement:  \u201cMy  father  knows my best friends\u201d?", 
  "(1= strongly agree, 2= agree, 3= disagree,  4= strongly disagree)  \nChild activities  Private tutoring  \nPrivate tutoring last year  \nHave you been to these  Places or attended these  Activities  \nMaterial resources  \nHave  you  attended  private  tutoring  after  class  in  primary/  junior  secondary education?", 
  "(1= No, 2= Yes)  Have  you  attended  private  tutoring  after  class/in  holiday  last  year?", 
  "(1= Yes, 2= No)  A Museum (1= Yes, 2= No)  B Zoological/Botanic Garden (1= Yes, 2= No)  C Symphonic concert/drama (1= Yes, 2= No)  D Concerts (1= Yes, 2= No)  E Library (1= Yes, 2= No)  F Teenagers\u2019 Land (Shaonian gong) (1= Yes, 2= No)  How many books does your family own?", 
  "(1= None\uff0c2= 1-9, 3= 10-19,  4= 20-49, 5= 50-99\uff0c6= 100-199\uff0c7= 200-299\uff0c8= 300-499\uff0c9= 500  or above)  \nPreliminary analysis and significance  \nWhile  opportunities  for  student,  including  from  poor  rural  and  ethnic  minority  areas  of  western  China  to  access  higher  education  have increased, they still score below the national average on the national college and entrance examination, despite the increased  efforts and strategies of their parents to support their educational success.", 
  "Research on access to higher education in China has  been increasing, but there is less analysis of the role of household social and economic capital.", 
  "This research takes note of efforts of  the role of families in emergent rural and ethnic stratification in western regions of China.", 
  "The data set include 10 counties (incl.", 
  "the  \n\ffive ethnic minority autonomous counties) in which nearly 3,000 final year senior high school students (the majority were between  16-21 years old) and nearly 500 teachers were surveyed.", 
  "We acquired the scores on the national college and university entrance  examination of the students we surveyed.", 
  "Preliminary results indicate that opportunities have become increasingly stratified as cadre  families maintain  their  advantage over  traditional farming families and new  economic  elite  brings  their  social  capital and  material  resources to bear on fostering an enabling environment of cultural cultivation that improved their children\u2019s educational future.", 
  "Rural  families  have  become  increasingly  involved  in  their  children\u2019s  education  at  all  levels,  and  increasingly  in  senior  secondary  level  education  (Xie  &  Postiglione  2014).", 
  "Students  who  are  most  successful  in  their  gaokao  scores  and  their  access  to  university  are  those whose families have the time and household resources to engage with their children at home, but also outside of the home  (Sargent, Kong, Zhang 2014).", 
  "Some families provide more of an enabling environment for the fostering of cultural cultivation that  helps their children succeed in school (Xie & Postiglione 2015).", 
  "Cultural cultivation includes parent participation at home with study  related issues, as well as guidance and communication.", 
  "Materials resources contributing to cultural cultivation included books as  well as payment for private tutoring.", 
  "Successful parent strategies to overcome unequal opportunities include providing their children  with  sufficient  food,  nutritional  support  (especially  when  children  board  at  school),  as  well  as  time  spent  and  interest  in  their  well-being (Postiglione, Kong, Hannum, in press)."
 ]
}