{
 "document_id": "1174052.1", 
 "sentences": [
  "Enhancing Practice through Clinically Rich Methods Courses in Physical Education:  \nPerceptions of Pre-Service Teachers and Their Cooperating Teachers  \nSara Barnard Flory & Rebecca West Burns  \nDepartment of Teaching & Learning  \nCollege of Education  \nUniversity of South Florida, Tampa, Florida USA  \n\nContact for corresponding author:  Sara Barnard Flory  Physical Education Program, Department of Teaching & Learning  College of Education  University of South Florida  4202 E. Fowler Ave.  STOP PED 214  Tampa, FL 33620  sbflory@usf.edu  \n\fEnhancing Practice through Clinically Rich Methods Courses in Physical Education:  \nPerceptions of Pre-Service Teachers and Their Cooperating Teachers  \nAbstract:  \nFramed by occupational socialization theory (Lawson, 1986), the purpose of this research was to  \nexamine perspectives of one university faculty member, eleven pre-service teachers and two  \ncooperating teachers while enacting two clinically rich methods courses in a physical education  \nteacher education program.", 
  "We analyzed the data (researcher notes, researcher journal entries,  \ninterviews, reflection assignments, and course evaluations) using inductive analysis and constant  \ncomparison.", 
  "Each group of stakeholders reported benefits of the experience, and provided  \nvaluable insights for enhancing clinically rich practice.", 
  "Pre-service teachers reported enjoying  \nthe more realistic experiences of the courses as well as enhanced confidence for teaching.", 
  "Cooperating teachers appreciated staying in touch with best practices in the field, as well as the  \nadditional responsibility of preparing the next generation of teachers.", 
  "The findings of this study  \nsuggest the value of a practice-to-theory approach, and created a professional learning  \nopportunity for all stakeholders.", 
  "Keywords:  clinically rich, physical education, methods courses  \n\fIntroduction  \nTeacher education in the United States is undergoing a monumental shift to enact recent  \ncalls of placing clinical practice at the center of teacher preparation (American Association of  \nColleges for Teacher Education (AACTE), 2010; National Council for Accreditation of Teacher  \nEducation (NCATE), 2010).", 
  "While student teaching has historically been the capstone for  \ncertification (Cuenca, 2012), clinically rich teacher education scaffolds experiences throughout  \nthe curriculum.", 
  "To be responsive to the calls for clinically rich teacher education, teacher  \neducators from all disciplines will need to form school-university partnerships that integrate  \nclinical experiences.", 
  "Building relationships with schools is an expanded expectation for teacher  \neducators and it will require a paradigmatic shift for clinical faculty, methods course instructors,  \nand teacher education programs (Burns, Jacobs, & Yendol-Hoppey, 2016).", 
  "Successful school- \nuniversity partnerships in teacher education will require surface-level and fundamental changes  \nin structure, and one of those fundamental changes involves innovation in the conceptualization  \nand delivery of methods coursework to develop knowledge of pedagogy, content, and content- \nspecific pedagogy through practice (Burns, Yendol-Hoppey, & Jacobs, 2015).", 
  "Similar to other disciplines in teacher education, Physical Education Teacher Education  \n(PETE) must also adjust to the calls for clinically rich teacher preparation particularly because  \nknowledge learned in the PETE classroom does not easily transfer to the cultures of schools,  \nclassrooms, and gymnasia (Rovegno, 1992).", 
  "Transforming PETE will require similar attention to  \nclinical practice and school-university partnerships that is being called for in general teacher  \neducation.", 
  "By integrating clinical experiences in physical education methods courses, pre-service  \nteachers\u2019 theoretical learning can become grounded in classroom experience.", 
  "With the  \nimplementation to clinically rich teacher preparation in PETE, opportunity exists to understand  \n\fmore about clinically rich PETE courses, particularly through the lenses of those engaged in  \nclinical practice.", 
  "Using qualitative case study methodology, the purpose of this research was to  \nexamine multiple participants\u2019 perspectives regarding the creation and enactment of clinically  \nrich courses in a PETE program.", 
  "The aim of this research was to determine the perspectives of  \npre-service teachers, cooperating teachers, and teacher education faculty when implementing  \nclinically rich methods courses in a PETE program.", 
  "The specific research questions guiding this  \nstudy were 1) What are the perceived benefits for pre-service teachers in clinically rich methods  \ncourses?", 
  "and 2) What are the perceived benefits for cooperating teachers in clinically rich  \nmethods courses?", 
  "Relevant Literature  \nThe exploration into clinically rich methods courses in PETE is connected to literature  \nrelated to teacher preparation broadly and teacher preparation specific to physical education.", 
  "In  \nthis section, we discuss issues facing the field of teacher education at large, challenges specific to  \nthe preparation of physical education teachers, and the connection to pedagogical content  \nknowledge and physical education pedagogical content knowledge.", 
  "Issues in Teacher Education  \nAs a field, teacher education has been plagued by many issues that have contributed to its  \nwoes as a low-status field.", 
  "Some scholars contribute the genesis of these troubles as stemming  \nfrom a shift in institutional focus.", 
  "Historically, normal schools were the primary institutions of  \npreparing teachers, but as these institutions shifted their gaze towards research and other  \ndisciplines in search of more prestige, teacher education moved from the core to the periphery.", 
  "No longer the sole academic field, teacher education competed for resources and attention (Soder  \n& Sirotnik, 1990).", 
  "In addition, teacher education has been criticized as being \u201cintellectually weak\u201d (The  \nHolmes Group, 1986).", 
  "This criticism stems from a lack of common nomenclature (Teitel, 1998;  \nZeichner, 2005) and an  inadequate curriculum that distanced theory and practice (Goodlad,  \n1990), and a severe gap among teacher preparation, induction, and inservice teacher professional  \ndevelopment (Feiman-Nemser, 2001).", 
  "Recent calls for increased school-university collaboration  \nto create a more pronounced role of clinical practice in the teacher education curriculum are  \naimed at eliminating these concerns in order to professionalize education.", 
  "Challenges in PETE  \nSimilar to teacher education broadly, PETE has struggles of its own.", 
  "PETE teacher  \neducators have the challenging task of overcoming \u201csubjective warrants\u201d and the apprenticeship  \nof observation that pre-service teachers bring with them into PETE programs (both of which will  \nbe discussed further in the theoretical framework).", 
  "According to Schempp and Graber (1992),  \n\u201cstudents enter teacher education programs believing that they already know what occurs in  \nschools and have little more to learn\u201d (p. 334).", 
  "Viewpoints pre-service teachers accumulate  \nthroughout K-12 influence not only beliefs about PE, but also beliefs about teaching PE, and  \npedagogical methods they employ.", 
  "PETE students are often resistant to new knowledge, and  \nclaim their own biography and experiences are more influential than teacher education programs  \n(Curtner-Smith, Hastie & Kinchin, 2008; Curtner-Smith, 2009; Lawson, 1983, Schempp &  \nGraber, 1992).", 
  "Curtner-Smith (2001) and Graber (1995) suggest that shifting the orientations of  \npre-service teachers in PETE is more likely when they perceive the faculty as credible.", 
  "Additionally, Schempp and Graber (1992) argue that the role of PETE faculty is to challenge the  \nvalues and beliefs of pre-service teachers if any change is likely to take place.", 
  "They write \u201cIn the  \nabsence of a vigorous dialectic in teacher education, little is likely to change.", 
  "Only when recruits  \n\fencounter teacher educators with alternative orientations is a dialectic likely to emerge and  \nenable change to take place\u201d (p. 336).", 
  "Pedagogical Content Knowledge and Physical Education Pedagogical Content Knowledge   \nThe knowledge that teachers must learn in order to teach effectively is extensive.", 
  "Teachers must have content knowledge, general pedagogical knowledge, and pedagogical  \ncontent knowledge, often referred to as PCK.", 
  "Shulman (1987) defined PCK as \u201ca special  \namalgam of content and pedagogy that is uniquely the province of teachers, their own special  \nform of professional understanding\u201d (p. 8).", 
  "He added that PCK is:   \nthe blending of content and pedagogy into an understanding of how particular topics,  \nproblems, or issues are organized, represented, and adapted to the diverse interests and  \nabilities of learners, and presented for instruction.", 
  "(p. 8)  \nMany researchers have built upon Shulman\u2019s work (see Ball, Thames, & Phelps, 2008;  \nCarpenter, Frank, & Levi, 2003; Ma, 1999 for example).", 
  "Some scholars would argue that PCK is specific to each discipline.", 
  "For example, Mishra  \nand Koehler (2006) argued that technology has its own PCK which they deemed TPCK or  \ntechnological pedagogical content knowledge.", 
  "The same is true for some scholars in physical  \neducation.", 
  "Although somewhat contested, You (2011) argued that physical education has its own  \nPCK, which he referred to as PE-PCK.", 
  "You (2011) contended that PE-PCK was not a singular  \nknowledge but rather a collection of practice-based knowledge that preserves the wisdom of  \npractice.", 
  "PE-PCK includes knowledge of physical education as a subject, the physical education  \ncurriculum, teaching methods in physical education, students\u2019 learning of physical activity,  \nphysical education assessment, and instructional environments for physical education.", 
  "While  \nYou (2011) made attempts to define PE-PCK, the research on PE-PCK is still emerging.", 
  "In the Handbook of Educational Supervision, Yendol-Hoppey, Jacobs, and Burns (in  \npress) examined how teachers learn and develop practice-based knowledge in teacher inquiry,  \nequity, and pedagogical content knowledge across various disciplines.", 
  "They found that strategies  \nfor developing PCK include providing opportunities for observation and reflection, engaging  \nteacher candidates in social learning opportunities, and pairing coursework and fieldwork.", 
  "Knowing that these components are powerful in teacher preparation broadly, this study aimed to  \nbuild upon this literature to examine the experiences of participants in physical education  \nmethods courses that paired coursework with fieldwork.", 
  "Theoretical Framework  \n          To frame this study, we used occupational socialization theory, which examines how  \nindividuals learn about and become an insider within the \u201cculture\u201d of an occupation.", 
  "Pioneers of  \nteacher socialization research (Lawson, 1986; Lortie, 1975) describe occupational socialization  \ntheory as the phenomenon of internalizing the accepted practices of a particular subculture, and  \ninfluence their perceptions as teachers and teacher educators.", 
  "More recently, Richards, Templin  \nand Gaudreault (2013) assert that teacher socialization also includes the knowledge and skills to  \n\u201cnavigate the sociopolitical contexts of schools\u201d (p. 442) and meet the needs of their students,  \nparents, administrators, and colleagues while filling various roles (such as teacher, athletic coach,  \ndepartment head, curriculum coordinator, etc.).", 
  "We view occupational socialization as three  \nphases: pre-professional socialization, professional socialization, and induction.", 
  "Pre-professional socialization refers to events, influences, and milestones related to sport,  \nschool physical education, and interactions with teachers and coaches that occur prior to entering  \na PETE program.", 
  "Professional socialization begins upon admission and includes experiences  \nnecessary for success in the field.", 
  "Induction is a teacher\u2019s admission and initiation into the  \n\fprofession, sometimes described as the \u201cnovice years.\u201d Several factors influence phases of  \noccupational socialization; in this study, we focus on the subjective warrant as it relates to pre- \nprofessional and professional socialization.", 
  "The subjective warrant is an individual\u2019s conceptualization of the roles and  \nresponsibilities of becoming a teacher (Richards et al., 2013).", 
  "Values, beliefs, and assumptions,  \nknown as personal theories (Sergiovanni & Starratt, 2007) that make up the subjective warrant  \nhelps an individual determine if s/he is fit to become a teacher.", 
  "Some researchers suggest that  \npre-service teachers enter PETE programs with one of two orientations: either a teaching  \norientation or a coaching orientation (Curtner-Smith, Hastie & Kinchin, 2008; Lawson, 1983).", 
  "Pre-service teachers with a teaching orientation tend to prioritize teaching over coaching, and  \nmay have been involved in non-sport physical activities prior to entering a teacher education  \nprogram.", 
  "Pre-service teachers with a coaching orientation prioritize coaching sport activities  \nover teaching and have developed powerful personal theories about physical education, sport,  \nand physical activity in the extensive time spent in school gymnasia and on playing fields as K- \n12 students (Lawson, 1983; Su 1992).", 
  "The personal theories of pre-service teachers with a  \ncoaching orientation developed during childhood and adolescence are so powerful that PETE  \nprograms have little influence; the personal theories are not easily changed, particularly in formal  \nteacher education (Curtner-Smith, 2009; Placek et al., 1995; Schempp & Graber, 1992).", 
  "Teacher  \neducators, thus, face the challenge of disrupting the subjective warrant of pre-service teachers in  \nphysical education.", 
  "Opportunity exists for understanding how the subjective warrant can be  \nchallenged through clinical practice in a PETE program and what barriers teacher educators face  \nas they attempt to disrupt the subjective warrant.", 
  "Methodology  \n\f          \nIn teacher education, interpretive qualitative research can be useful in understanding the  \ncomplexity of teaching in clinically rich contexts.", 
  "Borko, Whitcomb, and Byrnes (2008) state  \nthat,  \u201c\u2026interpretive research seeks to perceive, describe, analyze, and interpret features of a  \nspecific situation or context, preserving its complexity and communicating the perspectives of  \nthe actual participants\u201d (p. 1025).", 
  "In research on physical education, Ovens and Fletcher (2014)  \nstated that there is  \n\u2026an increasing need for teachers and teacher educators to ensure that practice continues  \nto adapt, evolve, and be coherent with the principles that characterize quality in each  \nsetting.", 
  "In other words, there is both a need and a niche for examples of how practitioners  \ncan research the situational and complex nature of what they do and explore the interplay  \nbetween scholarship and practice.", 
  "(p. 4)  \nSince we aimed to understand the perspectives of pre-service teachers, cooperating teachers, and  \na university faculty member during two clinically rich methods courses in a PETE program, an  \ninterpretative qualitative approach allowed the researchers to recognize the situatedness of this  \nstudy and the complex nature of the reality and the multiple realities of the participants (Denzin  \n& Lincoln, 2003).", 
  "We searched for meaning, not truth; valued the situatedness of participants\u2019  \nreality, not detached objectivity; and focused on the whole, rather than parts (Moustakas, 1994).", 
  "We drew upon case study as a qualitative methodological approach.", 
  "Given that case  \nstudies are bounded (Stake, 2003), we used five boundaries to guide our study: (1) a specific  \ncontext - two urban schools in a school-university partnership, (2) a single discipline - physical  \neducation, (3) a specific aspect of teacher preparation curricula - two discipline-specific methods  \ncourses, (4) a defined time - two semesters, and (5) the same participants - the same cohort of  \nstudents and instructors over time.", 
  "To understand the situatedness of this qualitative case study,  \n\fwe describe each of these boundaries.", 
  "Boundary 1: A Specific Context  \nThis study took place in the unique, hybrid space of a school-university partnership  \nbetween a large, urban research university and its neighboring school district in the southeastern  \nUnited States.", 
  "The university serves over 40,000 students from diverse backgrounds, and over  \n2,500 are enrolled in the College of Education.", 
  "The College of Education has a history of  \nsupporting school-university partnerships and being innovators in clinical practice.", 
  "In fact, it has  \nwon multiple awards related to school-university partnerships and clinically rich teacher  \neducation programs from various professional organizations.", 
  "A majority of the College of Education graduates teach in the local school district, which  \nserves over 200,000 students, making it one of the top ten largest school districts in the United  \nStates.", 
  "There are almost 150 elementary schools, over 40 middle schools, and over 25 high  \nschools.", 
  "Two schools were involved in this study - one middle school and one high school; both  \nwere located within five miles of the university campus.", 
  "The middle school had 750 students and  \nthe high school served 1,800 students.", 
  "Both schools are considered urban Title I schools, a  \nfederal designation in the United States given to schools where over 75% of students receive free  \nor reduced lunch.", 
  "In both school, many students speak English as a second or third language.", 
  "Boundary 2: A Specific Discipline  \nAs a second boundary, we focused our study in PETE as a specific discipline of teacher  \neducation.", 
  "Research on the challenges of preparing pre-service teachers in the field of physical  \neducation in various contexts has been studied and published for many years.", 
  "Boundary 3: The Teacher Preparation Curricular Context  \nThe PETE program spanned five semesters.", 
  "In each semester, pre-service teachers take  \n\fapproximately five three-credit courses - at least one of those courses is a PETE methods course  \nwhere they learn about PETE curriculum and pedagogy.", 
  "Pre-service teachers also have credits  \ndevoted to clinical experiences that are in addition to the methods coursework.", 
  "By the end of the  \nprogram, they complete a one semester full-time internship, which is divided between  \nelementary and secondary settings.", 
  "Data from this study came from two revised PETE courses in  \nthe middle of the program that specifically connected methods with clinical experiences.", 
  "The two methods courses used in this study were considered innovative as compared to  \nthe other methods coursework in the PETE program.", 
  "Whereas the traditional PE methods  \ncoursework were taught at the university and used peer teaching as a signature pedagogy, the  \nmethods courses under investigation were taught on-site at two local urban secondary schools  \nand used signature pedagogies found in strong school-university partnerships such as focused  \nobservation, co-teaching, coaching and mentoring, and integrated coursework and fieldwork  \n(Yendol-Hoppey & Franco, 2014).", 
  "Signature pedagogies are \u201cthe forms of instruction that leap  \nto mind when we think about the preparation of members of a particular profession\u201d (Shulman,  \n2005, p. 52).", 
  "Drawing upon Shulman\u2019s (2005) work, Yendol-Hoppey and Franco (2014) defined  \nsignature pedagogies for teacher preparation as,  \na systematic and intentionally designed teaching routine that facilitates pre-service  \nteacher learning within clinically rich contexts.", 
  "The routine can be bounded for study as it  \nseeks to: (a) engage the pre-service teacher; (b) help the pre-service teacher recognize the  \nuncertainty associated with teaching and learning; and (c) potentially shape pre-service  \nteacher professional habits and dispositions.", 
  "(p. 20)  \nInnovating methods courses to teach on site, in local urban schools required collaboration in  \norder to establish relationships, identify cooperating teachers, and bring pre-service teachers to  \n\fthe clinical sites two times per week throughout the courses.", 
  "Once established, an additional  \nlayer of collaboration with the cooperating teachers was necessary to facilitate clinically rich  \ncoursework.", 
  "This collaboration involved meeting with the cooperating teachers to discuss course  \ngoals, curricular models, and strategies before the semester began.", 
  "Both methods courses followed a similar format in terms of integrating clinical practice.", 
  "Early in the semester the pre-service teachers and faculty observed the cooperating teacher\u2019s  \nclass to understand the class climate.", 
  "As the semester progressed, the faculty member modeled  \nlessons in the cooperating teacher\u2019s class, demonstrating specific teaching strategies or curricular  \nmodels, while pre-service teachers observed and assisted.", 
  "Cooperating teachers provided support  \nand helped with management, especially in early class meetings.", 
  "In between classes, the  \nuniversity faculty discussed noteworthy events or management strategies with pre-service  \nteachers and then assigned parts of the same lesson for pre-service teachers to teach in the next  \nclass.", 
  "For example, one group of pre-service teachers might cover the introduction, and another  \nmight handle closure and review.", 
  "All pre-service teachers taught lesson tasks to small groups of  \nstudents using the same lesson format from the previous class period.", 
  "While the pre-service  \nteachers taught, the cooperating teacher and the university faculty would circulate among the  \npre-service teachers to ask questions and provide immediate feedback on teaching strategies.", 
  "The  \ncooperating teacher stayed involved during both classes by reinforcing learning cues and helping  \nwith management.", 
  "Often, the cooperating teacher and the university faculty discussed ways to  \ncontinue lessons or use curricular approaches with other classes on days when the group  \nmembers were not on site.", 
  "In this non-traditional method, pre-service teachers, cooperating  \nteachers, and university faculty not only observed, but they were also simultaneously involved.", 
  "Boundary 4: Duration  \nThe innovative methods courses were taught in two different semesters (Fall 2014 and  \nSpring 2015) in the middle of the program with the same cohort of students.", 
  "Each semester is  \nfifteen weeks in length; therefore, the duration of this two-semester study was thirty weeks.", 
  "Boundary 5: The Participants  \nThe PETE Program enrollment is approximately 30 students divided into two cohorts.", 
  "To  \nidentify participants, we used purposeful sampling intentionally focusing on students who  \nexperienced the innovative PE methods courses because they had access to and unique  \nexperiences with the innovation that were not accessible to other participants at the time of the  \nstudy, making these participants appropriate for case study research (Creswell, 1998; Maxwell,  \n2005; Stake, 2003).", 
  "The participants in this study were from one cohort and included a university  \nfaculty teacher educator, 11 pre-service teachers, and four cooperating teachers.", 
  "All names are  \npseudonyms to protect the identity of participants.", 
  "University Faculty.", 
  "The university faculty member was a tenure-track physical  \neducation teacher educator, whom we call Sara.", 
  "She spent several years working in urban  \ncommunities and schools during her graduate research.", 
  "Her research interests and teaching  \nphilosophies were grounded in sociocultural issues (i.e., race, gender, sexuality, social class,  \nlanguage, diversity, social inequalities, etc.).", 
  "Sara taught physical education methods courses and  \nsupervised internship experiences in the PETE program, which were the focus of this study.", 
  "Sara  \nbelieved strongly in the importance of practical application, so she aimed to teach pre-service  \nteachers using strategies that were relevant, current, and practical.", 
  "Her approach to PETE was  \ninnovative and re-conceptualized PETE coursework to be more clinically rich.", 
  "Pre-service Teachers.", 
  "The 11 pre-service teachers were between 20 and 28 years old.", 
  "Four pre-service teachers were female, and seven were male.", 
  "Eight of the pre-service teachers  \n\fself-identified as White, one self-identified as African American, another self-identified as  \nHispanic, and yet another self-identified as multiracial.", 
  "The pre-service teachers took the middle  \nschool course during semester two and the high school course in semester four.", 
  "Each 3-credit  \ncourse met twice per week for approximately 15 weeks.", 
  "Nine of the pre-service teachers  \nidentified as having a \u201ccoaching orientation\u201d based a biographical reflection paper (to be  \noutlined in the data collection section).", 
  "Cooperating Teachers.", 
  "The middle school employed three PE teachers, but Sara and the  \npre-service teachers worked primarily with Jeff during this study.", 
  "Jeff was in his second year of  \nteaching after graduating from the PETE program, so he was familiar with the curriculum and  \nSara\u2019s philosophy.", 
  "Throughout the course, pre-service teachers and Sara usually observed and  \ntaught Jeff\u2019s classes, but sometimes worked with another cooperating teacher, Bill, when there  \nwas a teacher absence within the department.", 
  "Bill taught at the school for over 14 years and  \nwitnessed a long period of principal and teacher turnover.", 
  "Classes in this school had up to 36  \nstudents in grades 6-8.", 
  "The high school employed four PE teachers, but pre-service teachers and Sara worked  \nprimarily with Mary during the study.", 
  "Mary was Department Head at the school and had over 25  \nyears of experience in the district.", 
  "If there was a teacher absence or schedule change, Sara and  \nthe pre-service teachers worked with another cooperating teacher, Hector, who had over 10 years  \nof teaching experience, but was only in his third year at the high school.", 
  "Class size in the high  \nschool was similar to class size in the middle school.", 
  "In case study methodology, data collection instruments vary (Creswell, 1998), but  \ninterviews are particularly important (Yin, 2003) especially when researchers are examining  \n\fmultiple perspectives (Maxwell, 2005).", 
  "For this study, data collection included interviews,  \ncourse assignments, student evaluations, and research notes from both methods courses.", 
  "Description of Data Collection Instruments  \nWe collected data from a variety of sources for all participants.", 
  "A summary of all data is  \nincluded in Table 1.", 
  "Cooperating teacher interviews.", 
  "Cooperating teachers participated in two one-hour  \ninterviews at the conclusion of each course.", 
  "The interviews appeared conversational because of  \nthe longstanding relationship the researchers had with the cooperating teachers, but they were  \nmuch more intentional than a conversation.", 
  "The interviews were semi-structured, followed an  \ninterview guide developed by the researcher based on the clinically-rich course experiences, and  \nhad purposeful probing questions planned for their duration.", 
  "The first interview focused on the  \ncooperating teachers\u2019 perceptions of the courses and the impact on the secondary students.", 
  "Sample questions included \u201cHow do you think your secondary students responded to the pre- \nservice teachers during classes?", 
  "Did you perceive any benefits to students\u2019 learning?", 
  "To  \nstudents\u2019 behavior?", 
  "To students\u2019 level of physical activity?\u201d and \u201cWhat challenges or barriers to  \nlearning did you perceive when the pre-service teachers worked with your students?\u201d The second  \ninterview focused on the perceptions of the courses and the impact on the pre-service teachers as  \nwell as the cooperating teachers\u2019 perceptions of the benefits and challenges to their own  \nteaching.", 
  "Sample interview questions included \u201cHow do you think this course benefitted the pre- \nservice teachers?", 
  "How do you think this course benefitted your understanding of teaching?\u201d and  \n\u201cHow could the delivery of this course be changed to provide more benefits to the pre-service  \nteachers?", 
  "How could the delivery of this course be altered to improve your teaching?\u201d All  \ninterviews were audio-recorded and transcribed.", 
  "Interviews with cooperating teachers were a  \n\fpreferred method for data collection since, as Maxwell (2005) states, \u201cInterviews can provide  \nadditional information that was missed in observation, and can be used to check the accuracy of  \nthe observations (p. 94).\u201d  \nPre-service teacher reflections.", 
  "Pre-service teachers completed reflection assignments  \nin both courses.", 
  "In one course, the comprehensive reflection assignment focused on examining  \npre-service teachers\u2019 teaching philosophies and any changes to their philosophies based on their  \nexperiences in the course.", 
  "This reflection assignment was due near the end of the course, and was  \napproximately 5-6 pages long.", 
  "In the other course, pre-service teachers completed reflection  \nassignments approximately once every three weeks throughout the course.", 
  "These reflection  \nassignments were focused on specific topics related to implementing specific curricular models,  \nmanagement techniques, or the culture of the school site.", 
  "The first reflection assignment was  \nautobiographical - that is, pre-service teachers were asked how they were inspired to enter the  \nfield of PE, where they envisioned themselves teaching after graduating (suburban, rural, or  \nurban setting), what their ideal PE program would entail, and what additional activities they may  \nengage in at their school (i.e., sports team coaching, sponsoring clubs, other extracurricular  \nactivities, etc.).", 
  "This first reflection revealed that most of these pre-service teachers operated  \nfrom a \u201ccoaching orientation\u201d and wished to coach sport activities as well as teach.", 
  "In subsequent  \nreflections,  pre-service teachers were provided with a prompt or question, and each response  \nwas approximately 2-4 pages long.", 
  "Sample questions included, \u201cWhat were your emotional,  \ncognitive, or physical responses to today\u2019s lesson?\u201d \u201cHow did this experience make you feel  \nabout being a teacher of diverse students?\u201d or \u201cHow did this experience influence your teaching  \nphilosophy?\u201d The final journal entry prompted the pre-service teachers to reflect on their  \nexperiences, identify critical moments from the courses that had an impact on their views of  \n\fteaching, and to revisit their teaching philosophies and perspectives related to where they might  \nteach after graduation.", 
  "Reflective journaling is a common in teacher education programs (Minott,  \n2008), and provides an opportunity for pre-service teachers to examine their perceptions  \nregarding specific learning experiences.", 
  "As Dyment and O\u2019Connell (2011) state, \u201cThrough the  \nreflective practice of journal writing, university students can begin to contextualise their  \nexperiences in terms of the relationship of these experiences to their current academic and future  \nprofessional life\u201d (p. 81).", 
  "Pre-service teacher course evaluations.", 
  "Pre-service teachers completed course  \nevaluations at the end of each course to rate the quality of instruction, the rigor of the course, and  \ntheir experiences.", 
  "Pre-service teachers also shared anonymous comments and feedback related to  \nthe course.", 
  "Comments each of the course evaluations (n=22) were collected.", 
  "Researcher notes and journal entries.", 
  "Data collection also included research notes and  \nresearcher journal entries.", 
  "Research notes were written after each class session by the researchers  \n(n=56) to capture informal conversations and remarkable events that occurred in that class  \nperiod.", 
  "These research notes often included anecdotes from cooperating teachers, pre-service  \nteachers, interactions with students, or direct quotes from class discussions.", 
  "Research notes  \nprovided a starting point for the weekly research journal entries (n=28).", 
  "In the research journal  \nentries, the researchers reflected on the progress of the course, the interactions with other  \nparticipants, and the other sources of data (such as reflection assignments) to begin seeing  \nemerging themes within the data.", 
  "Keeping research notes and journal entries allowed us to track  \nthoughts, perceptions, and developing ideas during data collection (Corbin & Strauss, 2008).", 
  "Data Analysis  \nQualitative data analysis involves awareness; it is a self-conscious, systematic approach  \n\fto knowing.", 
  "In fact, it is \u201ca process of generating, developing, and verifying concepts...that  \nbuilds over time and with the acquisition of data\u201d (Corbin & Strauss, 2008, p. 57).", 
  "To analyze  \nthe data, we used constant comparison and inductive analysis (Corbin & Strauss, 2008).", 
  "In total  \nthere were three phases of data analysis: (1) Initial Coding, (2) First Round Grouping, and (3)  \nHigher Order Construct Grouping.", 
  "In Phase 1: Initial Coding, we read through all of the data and drew upon Saldana\u2019s  \n(2009) method of open coding, which creates codes to capture the essence of the data.", 
  "We listed  \nthese codes in a code book where we defined the codes and continually refined them to ensure  \nthat no codes were duplicated.", 
  "Examples of codes included: \u201cPST (pre-service teacher) reaction,\u201d  \nwhen pre-service teachers shared a positive reaction to a lesson or episode in class; and  \n\u201cIncreased Confidence,\u201d when pre-service teachers or cooperating teachers specifically  \nmentioned confidence in regards to their teaching or interactions.", 
  "In Phase 2: First Round Grouping, we examined the initial codes and compared them  \nlooking for similarities and differences.", 
  "Then we grouped like concepts to create categories.", 
  "Some of these categories included the benefits to the pre-service teachers, the challenges  \nperceived by the pre-service teachers, and the benefits to the cooperating teachers.", 
  "In Phase 3: Higher Order Construct Analysis, we drew upon Corbin and Strauss\u2019s (2008)  \nnotions of higher-level descriptive constructs to form themes.", 
  "They state, \u201cIncidents found to be  \nconceptually similar are grouped together under a higher-level descriptive concept such as flight  \n(p. 73).\u201d One example included \u201cwalking the walk\u201d when discussing Sara\u2019s serving as an  \nexample to the pre-service teachers during lessons.", 
  "Another example included the development  \nof the cooperating teachers as fellow teacher educators as they assisted the pre-service teachers.", 
  "These higher-level concepts can be seen in the findings.", 
  "The researchers regularly discussed the  \n\fdata, the groupings, and the higher-level concepts being keenly aware of and searching for any  \nnegative cases or alternative explanations.", 
  "Trustworthiness  \nTo ensure trustworthiness in the data, we engaged in relationship monitoring,  member- \nchecking, and research conversations.", 
  "Since this study took place over the course of 30 weeks,  \nthe researchers developed close relationships with the cooperating teachers, which is critical in  \nqualitative research.", 
  "However, we were keenly aware of and constantly monitoring our research  \nrelationships.", 
  "Research relationships differ from collegial relationships (Maxwell, 2005) but they  \nare not neutral; they usually are beyond neutrality (Glesne, 2006).", 
  "For this reason, research  \nrelationship monitoring is critical in conducting quality qualitative research (Stake, 2003).", 
  "We also used member checking to strengthen our research.", 
  "We regularly shared themes  \nthat emerged from the data with the participants.", 
  "During subsequent class meetings, we would  \nshare themes from the pre-service teachers\u2019 perceptions for accuracy.", 
  "With the cooperating  \nteachers, we member-checked themes either face-to-face or via digital mediums such as email or  \ntexting to be in accordance with cooperating teachers\u2019 limited time and busy schedules.", 
  "Member- \nchecking with participants ensured that our interpretations were aligned with their perceptions.", 
  "Finally, we engaged in ongoing research conversations to discuss data and  \ninterpretations.", 
  "These conversations were critical in strengthening our research as they served as  \na verbal form of an analytic memo.", 
  "Qualitative researchers use analytic memoing as a means of  \ncapturing the researcher\u2019s thoughts during the research process (Emerson, Fretz, & Shaw, 1995;  \nSalda\u00f1a, 2009).", 
  "Our critical research conversations served as a safe, collaborative space for  \nprocessing the data, discussing emerging themes, considering alternative interpretations, and  \ncritically reflecting on the research relationships.", 
  "Findings  \nEach group of stakeholders provided valuable insights for enhancing clinically rich  \npreparation in PETE.", 
  "Pre-service teachers and cooperating teachers shared the perceived benefits  \nof clinically rich methods course design as well as suggestions for improving practices.", 
  "Pre- \nservice teachers reported a more realistic learning experience in their preparation and an  \nincreased confidence in their teaching practice as benefits.", 
  "Cooperating teachers reported  \nincreased relevancy of their teaching by learning about current best practices while participating  \nin the PETE program.", 
  "They also developed as teacher educators to prepare future physical  \neducation teachers.", 
  "In this section, we outline perspectives of stakeholders in relation to  \nclinically rich experiences.", 
  "Pre-service Teachers  \n          Pre-service teachers reported two main benefits to participating in clinically rich courses,  \nwhich included a more realistic learning experience and an increased confidence for teaching.", 
  "More realistic experiences.", 
  "Several pre-service teachers mentioned that clinically rich  \ncourses were more realistic than learning curricular models in isolation in more traditional  \ncourses.", 
  "Pre-service teachers took other methods courses within the PETE program, which did  \nnot have a planned clinically rich focus.", 
  "Observing Sara teach a class, discussing the lesson, then  \nhaving the opportunity to teach the same lesson with Sara\u2019s support was a different approach  \nthan pre-service teachers experienced in other courses.", 
  "Within this strand, two sub-themes  \nemerged: (1) developing management techniques and (2) teaching in authentic settings.", 
  "Developing management techniques.", 
  "One of the main benefits the pre-service teachers  \nidentified in clinically rich courses was the development of classroom management techniques  \nwithin curricular models.", 
  "In traditional methods courses, pre-service teachers might participate in  \n\fa curricular model and then peer-teach a lesson near the end of the unit to other pre-service  \nteachers.", 
  "Although students experienced curricular models through simulated experience as a  \nstudent and application through peer teaching, translating these models in an actual school  \nsetting was challenging.", 
  "In clinically rich methods courses, Sara led the first lesson with local  \nsecondary students and addressed classroom management concerns as they surfaced.", 
  "Brandon  \nshared, \u201cThese classes were very helpful because we were able to watch [Sara] teach and see  \nhow she handled students when they got off task or didn\u2019t do exactly what she had planned\u201d  \n(Reflection Assignment).", 
  "A researcher journal entry confirmed what the pre-service teachers  \nshared.", 
  "One entry stated:  \nThey [pre-service teachers] really \u201cget it\u201d when we teach \u201creal\u201d students.", 
  "They see the  \nvalue of the curricular model, and they see me teach it live and deal with all of the  \nclassroom issues that happen, like student absences, some kids refusing to dress out, kids  \nteasing one another.", 
  "I can remember previous cohorts being very hesitant when I  \nintroduced Sport Education.", 
  "They were able to experience the model with peers, but I\u2019m  \nnot sure they were confident enough to implement it on their own.", 
  "This cohort has  \nparticipated in an entire Sport Education season, from start to finish with high school  \nstudents.", 
  "They were skeptical at first, but when they saw how much students enjoy the  \nmodel, and how much more they participate with their class, I think the pre-service  \nteachers are \u201csold\u201d (Researcher Journal Entry, November).", 
  "Allison said \u201c\u2026having this experience was very eye-opening and comforting, because we could  \nsee a professional teach and interact with students before we were expected to teach on our own\u201d  \n(Reflection Assignment).", 
  "During one class, two middle school students frequently strayed from  \nlesson activities.", 
  "After two or three attempts to re-direct them, Sara pulled the students aside and  \n\ftalked to them individually, rather than administering any public discipline.", 
  "This became a  \ndiscussion topic during the break among pre-service teachers, and was important because it  \noccurred early in the semester (Research Notes).", 
  "Pre-service teachers were still learning about  \nschool context and culture, and students were unsure about the guest teachers in the gym.", 
  "The  \ndiscussion allowed Sara to explain why she approached the situation in that manner, and  \nencouraged pre-service teachers to ask questions.", 
  "Several pre-service teachers commented that  \nthe example made them re-think their approach.", 
  "Michael shared \u201c\u2026instead of punishing  \n[students], you respectfully talked to them about their behavior, and it worked immediately.", 
  "I  \nprobably wouldn\u2019t have done that, but I can see how effective that can be than just calling a kid  \nout in class.", 
  "I\u2019ll definitely think about that when I\u2019m teaching now\u201d (Reflection Assignment).", 
  "Teaching in authentic settings.", 
  "Clinically rich courses also allowed pre-service teachers  \nto experience the reality of teaching in an authentic setting and use those experiences as impeti  \nfor learning.", 
  "Jack discussed frustration experienced when a planned activity was postponed.", 
  "He  \nsaid, \u201cSometimes our lessons were affected because of an assembly, or the teacher being out  \nsick, or whatever, and it felt like you\u2019ve wasted all this time preparing.", 
  "I guess that\u2019s real life,  \nthough\u201d (Reflection Assignment).", 
  "Kendall commented about the length of time spent on  \nactivities because the class only met twice per week.", 
  "She shared \u201cI could tell [high school]  \nstudents were starting to get bored with Ultimate Frisbee [Sport Education unit] near the end.", 
  "I  \ncan\u2019t blame them \u2013 we played for like four or five weeks because we were only there Tuesdays  \nand Thursdays\u201d (Reflection Assignment).", 
  "Although some of these reflections seemed negative,  \nthe experiences enhanced the realism of teaching for pre-service teachers.", 
  "Providing the pre-service teachers with more realistic experiences in clinically rich  \nmethods courses was one way of disrupting their subjective warrants regarding teaching PE.", 
  "Prior to the clinically rich methods courses, many of the pre-service teachers had personal  \ntheories about what teaching PE might \u201cbe\u201d like based on their previous experiences with sport,  \nPE, and physical activity, and other methods courses that did not have a clinically rich design.", 
  "Erin wrote, \u201cI loved the rawness of the students and the practice we had to teach content  \nourselves.", 
  "It was a gut check to see if you\u2019re really cut out for this, and to learn what grade level  \nyou actually enjoy\u201d (Reflection Assignment).", 
  "Sean shared,  \nIt was so practical and hands-on.", 
  "Not everyone learns from just reading a book, listening  \nto a lecture, or taking notes, so this was an opportunity for us to experience teaching and  \nsee it in action.", 
  "It was very realistic compared to other courses that are supposed to  \nprepare you to teach.", 
  "(Reflection Assignment).", 
  "By observing Sara and other cooperating teachers, then having opportunities to interact with  \nsecondary students, the pre-service teachers developed more nuanced understandings of what  \nteaching PE would entail after they left the program.", 
  "Increased Confidence for Teaching.", 
  "The second benefit pre-service teachers shared was  \nincreased confidence for teaching.", 
  "Michael said, \u201cHaving us teach the second lesson was perfect  \nbecause if we struggled or needed additional advice, she was right there to help any way she  \ncould\u201d (Reflection Assignment).", 
  "Another pre-service teacher wrote, \u201c[Sara] really cares about  \nhelping us be successful, her enthusiasm is contagious and makes you want to be a better  \nteacher\u201d (Course Evaluation).", 
  "The perceived support from Sara in clinically rich courses helped  \nsome pre-service teachers feel more comfortable teaching unfamiliar content or managing large  \ngroups of students.", 
  "Some pre-service teachers viewed clinically rich courses as less intimidating  \nthan an internship.", 
  "Mikayla said \u201c..not only did I learn from watching [Sara] teach, but I was able  \nto implement my own way of teaching and put my own \u2018spin\u2019 on activities \u2013 we never worried  \n\fabout messing up!\u201d (Reflection Assignment).", 
  "Several pre-service teachers claimed their teaching improved, and they were able to  \nfurther identify their \u201cniche\u201d as a K-12 PE teacher.", 
  "Paul shared, \u201cLearning from experience is  \nmuch more valuable to me \u2013 I loved interacting with students, and I am much more confident  \nabout teaching high school now that we\u2019ve had that experience\u201d (Reflection Assignment).", 
  "Brandon said, \u201cMy teaching skills have definitely improved, because I was able to apply what I  \nhad learned in a school setting.", 
  "It helped me get comfortable in a school I might not have  \nconsidered before\u201d (Reflection Assignment).", 
  "Many pre-service teachers entered the course with  \npreconceived notions about teaching secondary students, and were concerned about content they  \nwere expected to cover according to state requirements.", 
  "As outlined previously, many of the pre- \nservice teachers entered the program with a coaching orientation rather than a teaching  \norientation.", 
  "According to Steve, clinically rich experiences dispelled myths regarding students  \nand improved his content knowledge and comfort.", 
  "He said,  \nThe students we worked with at the high school responded much better than I expected  \nthem to, and [Sara\u2019s] example allowed us to relate to the students, make connections and  \nform relationships.", 
  "I was worried about teaching health, but her lessons, activities and  \nexamples made me feel so much more prepared.", 
  "[Sara] always says that teaching is about  \nrelationships, and you can really see that come to life in this course (Reflection  \nAssignment).", 
  "Clinically rich courses gave pre-service teachers opportunities to become more immersed in the  \nculture of school, develop more of a teaching orientation, and gain a deeper understanding of the  \nprofession of teaching, a hallmark of occupational socialization theory.", 
  "Exposure to the realities  \nof schools and the increased confidence for teaching helped transform pre-service teachers  \n\fperceptions of themselves as emerging professionals.", 
  "Cooperating Teachers  \nCooperating teachers reported several outcomes from hosting clinically rich courses,  \nincluding opportunities to experience up-to-date practices and curricular models for grade levels  \nthey taught and a sense of pride for helping develop pre-service teachers\u2019 skills.", 
  "Staying \u201cin touch\u201d with best practices.", 
  "The cooperating teachers were excited to have  \nenthusiastic guest teachers each week.", 
  "However, cooperating teachers shared during interviews  \nand discussions that observing and participating in effective and engaging curricular models was  \neven more valuable.", 
  "Mary said, \u201cThere\u2019s only so much you get from some professional  \ndevelopment opportunities, it\u2019s not always related to PE.", 
  "This keeps my finger on the pulse of  \nwhat\u2019s happening in the field\u201d (Research Note).", 
  "Bill mentioned how much Sara and pre-service  \nteachers\u2019 presence kept him informed of engaging curricular models.", 
  "He said, \u201cI know [Sara)]  \nwouldn\u2019t teach it to my students if it wasn\u2019t effective or proven.", 
  "I benefit from getting to see it in  \naction\u201d (Interview #1).", 
  "Jeff shared that hosting Sara and the pre-service teachers reinforced practices he learned  \nduring his own PETE program.", 
  "Jeff was Sara\u2019s student when she taught methods courses more  \n\u201cdirectly,\u201d and shared that having Sara at his school improved his teaching.", 
  "He said,  \nI know the program [pre-service teachers] go through, and I can see how bringing them to  \nmy school reinforces the models [Sport Education Model, Tactical Games Model] more  \nthan when I went through the program.", 
  "But it\u2019s good for me, too; it\u2019s a reminder of how  \nmuch more students learn and participate when you really dig in...not just a watered- \ndown version of the curriculum.", 
  "I keep lessons going on days when [Sara and pre-service  \nteachers] aren\u2019t here.", 
  "I feel like a better teacher knowing I\u2019m implementing the same  \n\fthings that my professor did, and getting my students active and excited (Interview #2).", 
  "Bill addressed pre-service teachers at the end of a few classes to provide encouragement and  \nadvice about teaching in a large school district.", 
  "Bill had taught for over 14 years, but he  \nstruggled with new and more rigorous evaluation procedures.", 
  "He shared with pre-service  \nteachers that the curricular models were exactly what the district expected.", 
  "He said,  \nI know some of you think that teaching will be \u2018fun\u2019 because you\u2019re outside the  \nclassroom and working with students, but it\u2019s a lot of work, and you have to show  \nsupervisors that PE isn\u2019t just a free hour.", 
  "The way [Sara] is teaching you here is great,  \nand these lessons are things that your evaluators will be looking for - are you asking the  \nkids higher order thinking questions?", 
  "Are kids involved in their own learning?", 
  "Or are you  \njust sending them out to the field to do the same thing every day?", 
  "(Research Note)  \nThe cooperating teachers involved in clinically rich methods courses were invested in curricular  \nmodels and teaching methods that Sara brought to their schools.", 
  "Cooperating teachers did not  \nview Sara and the pre-service teachers as visitors who would lighten their teaching load but as  \nmembers of an educational community that benefitted more experienced teachers as much as  \nnovices.", 
  "This expanded the subjective warrant of the cooperating teachers because their previous  \nperceptions of teaching PE did not always include the methodologies and techniques that Sara  \nand the pre-service teachers demonstrated at their schools.", 
  "Developing skills in future teachers.", 
  "Another positive outcome cooperating teachers  \nshared was helping to develop the next generation of PE teachers.", 
  "There was an overall sense of  \npride that cooperating teachers took in participating in these courses because they provided  \nfeedback and mentoring to pre-service teachers.", 
  "Cooperating teachers discussed requirements of  \nhosting an intern with Sara during courses and started taking steps to become intern-eligible with  \n\fthe district and university as a result.", 
  "Mary said, \u201cWatching their growth from day one to their  \nfinal class is amazing.", 
  "You see their confidence, you see them take command of a group\u201d  \n(Interview #2).", 
  "Hector commented on pre-service teachers\u2019 development, which was more  \napparent to him because we did not work with his students every week.", 
  "He said,  \nI\u2019m glad that we\u2019re able to help [pre-service teachers] grow as professionals.", 
  "You can tell that  \nsome are terrified of high schoolers at the beginning of the semester.", 
  "But by the end, [pre-service  \nteachers] found their voices and really came out of their shells.", 
  "It\u2019s cool that I was part of that -  \nthat my teaching and my students helped the profession (Research Note).", 
  "Although cooperating teachers valued their role as teacher educators, their involvement in  \nclinically rich courses did not come without challenges.", 
  "One challenge cooperating teachers  \nshared was their desire for more co-teaching opportunities with Sara to improve outcomes for  \npre-service teachers.", 
  "Mary shared, \u201cIn the future, it would be great for us to teach more lessons  \ntogether \u2013 that way, I can get even more comfortable with the curriculum you\u2019re using, and I can  \nhelp more of the pre-service teachers during lessons\u201d (Research Note).", 
  "Sara shared lesson plans  \nwith cooperating teachers upon arrival at schools, but prior planning with more input from  \ncooperating teachers would have allowed cooperating teachers to keep a more continuous  \ncurriculum with their students.", 
  "The cooperating teachers were all invested in the success of pre-service teachers during  \ncourses, which fostered a community-like feeling among all stakeholders.", 
  "This also expanded the  \nsubjective warrant of the cooperating teachers, because they realized that their role as a PE  \nteacher also included stewardship to the next generation of PE teachers.", 
  "Cooperating teachers  \nbecame teacher educators alongside Sara as she taught pre-service teachers and students in  \ngrades 6-12.", 
  "Methods the cooperating teachers used when teaching their own students became  \n\fanother perspective for pre-service teachers to consider as they learned how to teach and what  \nteaching physical education looked like in a real world setting.", 
  "Discussion  \nThe purpose of this study was to examine pre-service teachers\u2019 and cooperating teachers\u2019  \nperspectives regarding the enactment of clinically rich PETE courses.", 
  "When reflecting on  \nvarious perceptions, all stakeholders felt the experience was worthwhile and influenced learning,  \nindicating that clinically rich coursework can connect schools and universities, improve teacher  \npreparation, and improve teacher professional development.", 
  "Sara\u2019s ability to teach PETE courses  \non site, in schools, alongside practicing teachers gave authenticity to experiences and credibility  \nas a practitioner.", 
  "Seeing Sara teach a curricular model or use a teaching strategy, then discussing  \nwhy she used that particular technique after the lesson was a way that pre-service teachers could  \nsee Sara \u201cwalking the walk\u201d rather than just \u201ctalking the talk.\u201d This deeper level of learning  \nwould not occur in a direct method of teaching in a more traditional methods course.", 
  "The findings suggest that the subjective warrant of both the pre-service teachers and the  \ncooperating teachers expanded to include broader understandings of what it means to teach  \nphysical education.", 
  "We aimed to disrupt the subjective warrant and shift the coaching  \norientations of the pre-service teachers throughout these clinically rich methods courses and  \nprovide a broader perspective of what it means to be a teacher.", 
  "Watching their instructor employ  \neffective teaching methods in historically \u201cdifficult\u201d teaching situations, the pre-service teachers  \nbegan to reconsider their previous values and beliefs regarding teaching.", 
  "Although the subjective  \nwarrant of a pre-service teacher is challenging to overcome in a teacher education program  \n(Morgan & Hansen, 2008), experiences in clinically rich methods courses altered these notions.", 
  "The cooperating teachers also benefitted from an expanded subjective warrant, as they  \n\fbegan to view themselves as PE teachers to K-12 students as well as teacher educators alongside  \nSara.", 
  "Many times it is assumed that great teachers automatically equate to great cooperating  \nteachers, but teacher education has a knowledge base and skill set that must be learned  \n(Loughran, 2006).", 
  "Teaching about teaching in the clinical context also has a knowledge base and  \na distinct set of pedagogical skills known as clinical pedagogy (Burns & Badiali, 2016).", 
  "By  \nteaching in schools, Sara enacted clinical pedagogy through her use of \u201cthinking aloud\u201d and  \nreflecting on practice to process experiences for pre-service teachers.", 
  "Sara was employing  \nSchon\u2019s (1987) notions of reflection on practice simultaneously with reflection in practice by  \nmaking her tacit decisions explicit for pre-service teachers and cooperating teachers.", 
  "This  \nreflection on practice while in practice is one of six clinical pedagogical skills known as  \nprocessing and can be an effective way for fostering learning in clinical practice (Burns &  \nBadiali, 2016).", 
  "As cooperating teachers watched Sara teach and listened to her explanations of  \nteaching, they learned about their pedagogy when working with secondary students, and they  \nlearned about their pedagogy of teacher education when working with pre-service teachers as  \nadult learners.", 
  "The findings demonstrate that clinical pedagogy can be used to support pre-service  \nteacher learning in clinical contexts, but also supports cooperating teacher learning as teacher  \neducators.", 
  "Sara set forth to improve experiences for pre-service teachers by making PETE  \ncourses clinically rich; an unintended result was her ability to influence cooperating teachers.", 
  "Enacting clinically rich coursework became a powerful form of professional development for  \ncooperating teachers as practicing teachers and cultivated their desire to be stewards of the  \nprofession, thus expanding their subjective warrant to include this role.", 
  "Together, cooperating  \nteachers and Sara were nurturing the next generation of teachers.", 
  "This unexpected benefit of the  \n\fclinically rich methods courses suggests that perhaps teacher education faculty could adjust their  \nfocus from the development of pre-service teachers to focusing on K-12 student learning, and  \nworking with all stakeholders together to achieve this goal.", 
  "The clinically rich courses also disrupted the notion of the disconnected \u201civory tower,\u201d  \n(Glickman, Lunsford, & Szuminski, 1995) in that Sara enacted her espoused teaching practices  \nin schools with actual students, as compared to using other pedagogies like hypothetical  \nsituations, simulations, or case studies.", 
  "Sara was teaching in the negotiated \u201cthird space\u201d (Ikpeze,  \nBroikou, & Hildenbrand, 2012; Williams, 2013), which requires a shared understanding of  \nschools, K-12 students, pre-service teachers, cooperating teachers, and the curriculum.", 
  "As  \nGlickman, et al., (1995) note, \u201cUltimately, the best way for people to understand one another is  \nthrough active participation in mutually important work\u201d (p. 23).", 
  "While working in this space is  \nchallenging, Sara successfully negotiated the third space to connect the school and PETE  \ncurriculum, target specific skills from coursework and use a reverse \u201cpractice-to-theory\u201d  \napproach for developing pre-service teachers\u2019 learning.", 
  "Sara used the experiences as the impetus  \nfor theoretical discussion.", 
  "In this way, Sara was not teaching a concept devoid of context and  \nasking pre-service teachers to apply that concept later; she used experiences within the context to  \nteach about course concepts.", 
  "By connecting schools and the university through teaching, Sara  \nimproved her merit and practice as a practitioner of teacher education.", 
  "Implications  \nWith the push towards integrating clinical practice in teacher preparation (AACTE, 2010;  \nNCATE, 2010), much can be learned from Sara\u2019s experiences that has implications for teacher  \neducators.", 
  "In a qualitative meta-analysis of the empirical literature of pre-service teacher  \nsupervision, Burns, Jacobs, and Yendol-Hoppey (2016) found that the role of the university  \n\fsupervisor as a clinical educator was expanding beyond observation and feedback to include  \ntasks and practices associated with developing relationships and partnerships with schools.", 
  "While  \nthis study did not focus on the university supervisor, it did focus on a university faculty member  \nwho was a methods course instructor.", 
  "Findings from this study suggest that Sara\u2019s success in  \nteaching a clinically rich methods course was dependent upon an expanded skillset that required  \nrelationship building with school-based practitioners which is similar to the expanding tasks of  \nuniversity supervisors.", 
  "This expanding skillset of methods course instructors suggests that as  \nclinical practice becomes an integral part of the teacher preparation curriculum, the role of the  \nmethods course instructor may also be expanding to include partnership development.", 
  "Successful  \nclinically rich methods courses will require university discipline faculty who teach methods  \ncourses to develop relationships with school-based partners and learn more about local school  \ncontexts.", 
  "Colleges of Education will need explicit attention to developing teacher educators\u2019  \nclinical pedagogy to cultivate necessary knowledge, skills, and dispositions of working in and  \nwith schools.", 
  "While Sara successfully enacted clinically rich coursework, it cannot be assumed that  \nevery teacher educator will be equally successful.", 
  "As Williams (2002) writes, moderatum  \ngeneralization suggest a \u201ccultural consistency generated by shared norms, values, rationality, and  \nsimilar physical situations\u2026\u201d (p. 56).", 
  "This means that Colleges of Education will need to  \ncultivate environments with shared norms that move beyond individual, isolated pockets of  \ncollaborative innovation to robust school-university partnerships often found in professional  \ndevelopment schools (Burns, Yendol-Hoppey, & Jacobs, 2015; NAPDS, 2008).", 
  "These robust  \npartnerships must have a shared, comprehensive mission beyond either institution dedicated to  \nequity, designated partnership sites with articulated agreements, clinical practice at the core of  \n\fteaching and learning, active engagement in the school and local community, intentional and  \nexplicit commitment to professional learning of all stakeholders, and shared commitment to  \nresearch and innovation (Burns, Jacobs, Baker, & Donahue, 2016).", 
  "The presence of \u201ccore  \ningredients\u201d could encourage what Glickman, et al.", 
  "(1995) referred to as educational revolution:  \nPerhaps the only way that teacher education and public school educators get past  \nthrowing criticism and collaborate is to engage in a common revolution that weeds out  \nthose practices inconsistent with education and democracy.", 
  "This bonding of teacher  \neducators and public school teachers for the mutual benefit of public schools and teacher  \neducation programs is defined as co-reform.", 
  "(p. 14)  \nThis co-reform is desperately needed if teacher education is going to be transformed.", 
  "Fostering co-reform will require changes in how schools and universities value  \ncollaborative clinical practice.", 
  "Schools must realize the valuable professional development  \ngained from working alongside university faculty members, and likewise, university faculty need  \nto realize the valuable professional development gained from working in schools alongside  \npractitioners.", 
  "This kind of learning is unique from traditional professional development trainings  \nor workshops.", 
  "It is a meaningful, contextually rich, co-generative experience that recognizes the  \nsituatedness of learning.", 
  "Collaboration needs to be the norm, not the exception.", 
  "Likewise, both  \nschools and universities need to consider ways these collaborative, rich experiences can be  \ndocumented, particularly in teachers\u2019 annual evaluations and university faculty\u2019s annual review  \nand tenure and promotion decisions.", 
  "In addition to valuing clinical practice, co-reform requires a rethinking of resources.", 
  "If  \nteacher education recognizes the value and role of clinical practice in preparing teachers and in  \nproviding meaningful professional learning for practitioners and researchers, then how teachers\u2019  \n\fand university faculty time is structured needs changed.", 
  "Practicing teachers, like the ones in this  \nstudy, who work with university faculty should be provided time to co-plan, co-teach, and co- \nreflect on experiences.", 
  "In a middle or high school, this could come in the form of an additional  \nplanning period.", 
  "At the university, small class sizes at the undergraduate level and reconsidering  \n\u201cwhat counts\u201d in faculty load are important.", 
  "Working in schools requires flexibility and  \navailability to meet on-site in schools.", 
  "It also requires universities to be responsive to Colleges of  \nEducation\u2019s needs to operate on alternative calendars that align with school district calendars.", 
  "These changes can have implications for pre-service teachers with regard to housing and  \ntransportation.", 
  "Schools and Colleges of Education face similar challenges in helping school  \ndistricts and large universities understand the value, importance, and resourcing needs that make  \na difference for teachers, faculty, and students.", 
  "Perhaps by unifying their collaborative voices,  \nschools and Colleges of Education might amplify a shared vision that ignites Glickman\u2019s (1995)  \nco-reform for educational renewal."
 ]
}