{
 "document_id": "1174305.1", 
 "sentences": [
  "EXAMINING THE SERVICE WORK OF ENGINEERING FACULTY: THE  \nINFLUENCE OF FACULTY GENDER AND INSTITUTIONAL SUPPORT  \nHyun Kyoung Ro  Assistant Professor  \nHigher Education and Student Affairs  \nBowling Green State University  \n330 Education Building  Bowling Green, OH 43403  \nhro@bgsu.edu  \nKarla I. Loya  \nAssistant Professor  \nEducational Leadership  University of Hartford  200 Bloomfield Ave.  \nWest Hartford, CT  06340  loyasuare@hartford.edu  \nKrystal N. Allen  \nDoctoral Graduate Assistant  \nHigher Education and Student Affairs  \nBowling Green State University  \n330 Education Building  Bowling Green, OH 43403  \nknallen@bgsu.edu \n\fEXAMINING THE SERVICE WORK OF ENGINEERING FACULTY: THE  \nINFLUENCE OF FACULTY GENDER AND INSTITUTIONAL SUPPORT  \nAlthough women faculty are still a minority in traditionally male-dominated fields, such  \nas engineering, the number has been gradually increasing (Richman, vanDellen, & Wood,  \n2011).", 
  "The number of women tenure-track or tenured engineering faculty increased from less  \nthan 1% in 1979 to 11% in 2006 (National Science Foundation, 2008).", 
  "However, lower  \npersistence rates among women faculty, and lack of senior-level women faculty might signal that  \nnavigating engineering and science fields can still be challenging for women (Rosser, 2004;  \nWard, 2008).", 
  "Compared to men faculty, women faculty tend to experience more challenges  \nnavigating academe, from isolating in academic disciplines, research groups and departmental  \nand institutional decision making, lacking mentoring, role models, and networks, and perceiving  \nnon-collegial and non-collaborative (Farley, 1996; McKendall, 2000; O\u2019Meara, 2015).", 
  "Although  \nthe challenges faced by women faculty in engineering might not be unique to them, compared to  \nother women in academia they are compounded by the low representation of women faculty in  \ntheir department (McKendall, 2000).", 
  "Of the three main areas of faculty workload, research, teaching, and service, this study  \nfocuses on gender inequalities in service workload.", 
  "Hirshfield and Joseph\u2019s (2012) suggested the  \nconcept of identity taxation to explain the extra work that many women faculty are expected to  \nengage in due to their marginalized identity in higher education or academic disciplines.", 
  "Empirical research also confirms that women faculty do more service work than men faculty  \n(Flaherty, 2017; Ginther & Hayes, 2003; Perna, 2001; Tack & Patitu, 1992).", 
  "Compared to  \nresearch and teaching, service is rarely held in high esteem and is the least important criterion for  \nevaluating faculty (Baez, 1999; Porter, 2007; Pyke, 2011; Turner, 2002).", 
  "Moreover, doing too  \n\fmuch service can impact women faculty members adversely during the promotion and tenure  \nprocess (Baez, 1999; Pyke, 2011; Danowitz & Agans, 2011).", 
  "Baez (1999) noted that \u201cservice is  \nthe downfall of most women faculty and faculty of color.", 
  "They are pulled in so many directions  \nfor service that frequently their research is not as high priority\u201d (p. 133).", 
  "Porter (2007) also  \nargued that excessive service may be one of the several reasons why women faculty are not  \nproportionately represented in the higher ranks of the professoriate.", 
  "Just like faculty work and  \nsuccess vary depending on institutional and department context (Cipriano, 2011; Rosser &  \nTabata, 2010), institutional and departmental culture, leadership, and policy and practices might  \nintensify or reduce gender equity in service workload.", 
  "Scholars have suggested women faculty  \nmight perform different loads of service than their men counterparts depending on institutional  \nor departmental characteristics (Porter, 2007).", 
  "Using Hirshfield and Joseph\u2019s (2012) concept of identity taxation, we examine if there is  \na gender difference in service activities in engineering faculty.", 
  "We look at specific kinds of  \nservice work among engineering faculty, such as committee load, extra-curricular or outreach  \nactivities, and student advising.", 
  "We also explore whether the gender difference in service work  \ndiffers by the level of diversity efforts (e.g., support for recruiting women and racial minority  \nfaculty and students) in engineering departments.", 
  "We used data from a national survey of more  \nthan 1,000 engineering faculty at 31 institutions.", 
  "This study offers insight on the women faculty  \nservice workloads by types of services, compared to men faculty peers.", 
  "Additionally, this study  \nprovides implications on how department- or college-level environments may enhance gender  \nequity in faculty service workload; it thus can inform future studies and practices for faculty  \nworkload in engineering and other fields.", 
  "Literature Review  \nIn this literature review, we present Hirshfield and Joseph\u2019s (2012) concept of identity  \ntaxation as our conceptual framework.", 
  "We also examine empirical studies showing differences  \nin faculty service workload by faculty characteristics and disciplines.", 
  "Because women faculty  \nshare to some extent a marginalized social identity experience with faculty of color, we include  \nliterature on service work on both women faculty and faculty of color in general, in engineering,  \nand other science and technology fields.", 
  "We also review literature on gender differences in  \nfaculty work and career depending on institutional and departmental context, such as leadership,  \nculture, and policies.", 
  "Women Faculty Service as Identity Taxation  \nOur study is framed by Hirshfield and Joseph\u2019s (2012) concept of identity taxation, which  \nderives from Padilla\u2019s (1994) concept of cultural taxation.", 
  "Padilla originally introduced the  \nconcept of cultural taxation to describe the work that ethnic faculty and graduate students are  \noften expected to provide because of their ethnic \u201cexpertise\u201d.", 
  "Examples of cultural taxation  \ninclude being called upon to serve as an expert and teacher on diversity matters, to serve on  \naffirmative action committees, and to serve as a liaison between the organization and the ethnic  \ncommunity (Padilla, 1994).", 
  "Cultural taxation is a term that has been applied to explain the  \nhigher expectations of service reported by faculty of any race (Joseph & Hirshfield, 2011; Padilla,  \n1994; Tierney & Bensimon, 1996).", 
  "Although institutions benefit from these services provided  \nby faculty of color, universities often do not recognize or reward this work.", 
  "Based on the concept of cultural taxation, Hirshfield and Joseph (2012) proposed the term  \nidentity taxation to describe the extra \u201clabor\u201d that women faculty members undertake due to their  \nmarginalized gender identity in higher education.", 
  "Hirshfield and Joseph (2012) conducted a  \n\fstudy to explore identity taxation.", 
  "The study included interviews with 66 faculty members, 32 of  \nwhich were women.", 
  "Focusing first on gender in the study, women faculty reported three forms  \nof gendered identity taxation: experiencing tokenism, a heavier service load (specifically, heavier  \nmentoring and advising loads of women students) compared to their men peers, and facing  \nprejudice and discrimination from their men colleagues.", 
  "The authors concluded that women  \nfaculty members\u2019 experiences, compared to their peers, can be detrimental to their mental,  \nemotional, and physical health condition and academic productivity, which are closely connected  \nto their promotion and tenure.", 
  "Hirshfield and Joseph\u2019s study also suggested that women faculty of color experience  \nidentity taxation not only because of their gender, but also because of their race.", 
  "Of the 32  \nwomen faculty in the study, 24 were women of color from different races and ethnicities.", 
  "A  \nsecond round of analyses examined the responses of women faculty of color members.", 
  "These  \nfaculty reported the same types of identity taxation reported by their White women peers in  \nintersectional ways.", 
  "Regardless of their racial or ethnic background, women faculty of color  \nadded after the three forms of identity taxation listed by their White women peers an additional  \none stemming from their experiences as women of color: \u201cdealing with (negative) stereotypes  \nportraying them as maternal or nurturing\u201d (p. 220); this was experienced in their interactions  \nwith both students and fellow faculty members.", 
  "Hirshfield and Joseph\u2019s (2012) findings confirm  \nthose of other studies on women faculty of color\u2019s reports of heavier service loads and its  \npotential damage on promotion and tenure (Griffin, Bennett, & Harris, 2013; Thomas &  \nHollenshead, 2001; Turner, 2002; Turner, Gonz\u00e1lez, & Harris, 2008).", 
  "Identity taxation \u201cmight differentially influence a faculty member\u2019s academic  \nproductivity and social integration within an academic department of institution\u201d (Hirshfield &  \n\fJoseph, 2012, p. 2).", 
  "For this reason, identity taxation is a useful tool to examine women faculty  \nmembers\u2019 service workloads in a male-dominated field, such as engineering.", 
  "Although our study  \ndid not analyze the service workload of engineering faculty by both gender and race/ethnicity  \ndue to the small sample size, this intersectionality among faculty workload in engineering fields  \nis critical.", 
  "We address more future research ideas and implications for policy and practice in the  \ndiscussion.", 
  "Different Types of Academic Service and Gender   \nColleges and universities expect service work from all faculty members because it is an  \nintegral component of their work (Baez, 1999; Porter, 2007; Turner, 2002).", 
  "Service work may  \ninclude non-scholarship activities such as institutional (departmental, college, or university-wide  \nservice) committee work, community or civic engagement, and professional services, like  \nreviewing manuscripts, conference planning, and organization committee work (Baez, 1999).", 
  "Certain faculty members express feeling extra burdened by service work.", 
  "Women faculty and  \nfaculty of color are expected to serve and ultimately offer more by both their colleagues and  \nstudents (Baez, 1999; Demb & Wade, 2012).", 
  "Women faculty and women faculty of color are  \noften called upon to serve as informal or ad hoc service work, especially if the work is related to  \ndiversity committee, or community work (Baez, 1999; Porter, 2007; Pyke, 2011).", 
  "Treating  \nwomen faculty as the \u2018expert\u2019 on issues of diversity and requesting more service work found to  \nbe more severe in science and engineering fields (Hirshfield & Joseph, 2012).", 
  "We also include advising under service activities, even though advising students is  \nsometimes categorized as teaching.", 
  "While faculty members\u2019 teaching load is explicit in faculty  \ncontracts (e.g., how many credits they teach in a semester), advising and mentoring are not  \nusually clear.", 
  "Faculty members\u2019 advising roles require both formal and informal interaction with  \n\fstudents, and their time commitment often varies by students\u2019 needs (Griffin et al., 2011; Main,  \n2012).", 
  "Just like other service commitment, women faculty and faculty of color tend to have a  \nheavy workload in terms of student advising (Griffin et al., 2011, Pyke, 2011; Turner et al.,  \n2008).", 
  "Women doctoral students tend to choose women faculty over men faculty to serve as  \ntheir advisors (Main, 2012).", 
  "This preference is also true to students of color and their faculty  \nadvisor choice (Griffin et al., 2011).", 
  "Same gender mentorship proposes as a tool for increasing  \nthe retention and advancement of women students (Quimby & DeSantis, 2006).", 
  "Given that most  \nengineering programs aim at recruiting and retaining women and racial minority students,  \nwomen and faculty of color in engineering might have even higher expectation for student  \nadvising than other fields.", 
  "Institutional Diversity Efforts and Faculty Service Workload   \nScholars have suggested that organizations are not gender neutral.", 
  "Acker (1990)  \nexplained how the divisions of labor, construction of symbols, communication patterns, and  \nconceptualization of social structures are gendered phenomena.", 
  "Based on the theory of gendered  \norganizations, researchers revealed how organizations reproduce gender inequality in the  \nworkplace by universities and departments may recognize and value certain types of services  \nactivities than others (Demb & Wade, 2012; Williams, Muller, & Kilanski, 2012).", 
  "While some  \nresearchers found that faculty workload including service varies across institutional  \ncharacteristics (Porter, 2007), others argue that academic departmental environments, such as  \nstructures, culture, support, or socialization, influence more faculty roles, work, and success,  \nrather than institutional environments (Antonio, 2002; Boyer, 1990).", 
  "Gender inequality in service work happens because of systematic barriers in higher  \neducation institutions, rather than individual faculty\u2019s failure.", 
  "Some researchers have critiqued  \n\fwomen faculty, noting that they are the option of saying no to service requests, and focus their  \nwork on research activities (e.g., Gartrell, 2008; Hogan, 2010).", 
  "These critiques fail to  \nacknowledge organizational issues and instead blame overburdened women faculty (or what  \nRyan, 1976, calls \u201cblaming the victim\u201d).", 
  "Often women faculty cannot reject the requests for  \nservice commitments that need women faculty representation because their rejection might  \ntransfer the burden to other women faculty or would be left without representation.", 
  "This  \nstructural pressure is not faced by men faculty (Pyke, 2011).", 
  "Gender inequity in the distribution  \nof service workloads has been reinforced not because of individual women faculty members\u2019  \nbehaviors, choices, or abilities but because of organizational structures, policies, practices, norms,  \nand presumptions (Pyke, 2011).", 
  "Institutional barriers to gender equality are embedded in  \ndepartmental and institutional everyday practices.", 
  "Thus, it is imperative to examine how  \ninstitutional or departmental leadership, values, policy and practice towards supporting diversity  \ninfluence faculty service workload.", 
  "Design, Population, and Sample  \n\nFor this study, we used a nationally representative faculty and associate dean data set of  \n31 four-year institutions to generate an understanding of individual-level and college-level  \nvariables related to the service work of women faculty members in engineering programs.", 
  "The  \ndata derived from a larger study that focused on the organizational conditions, policies and  \npractices, and student experiences supporting the development of a variety of student learning  \noutcomes by collecting data from engineering students, faculty, administrators, and alumni.", 
  "Twenty-three institutions were selected using a disproportionate, 6 x 3 x 2 stratified random  \nsample that was drawn using the following strata: six engineering disciplines  \n\f(biomedical/bioengineering, chemical, civil, electrical, industrial, and mechanical), three levels  \nof highest degree offered (bachelor\u2019s, master\u2019s, and doctorate), and two levels of institutional  \ncontrol (public and private).", 
  "To this sample, the research team added five case study institutions  \nthat were participants in a companion qualitative study.", 
  "Because one of the case study  \ninstitutions only offers a general engineering degree, three institutions that offer general  \nengineering degrees were included in the sample to serve as comparison institutions for a total of  \nseven disciplines (biomedical/bioengineering, chemical, civil, electrical, general, industrial, and  \nmechanical).", 
  "Together, these seven disciplines accounted for 70% of all baccalaureate  \nengineering degrees awarded in 2009.", 
  "This sampling design ensured that institutions in the final  \nsample were representative of the population with respect to type, mission, and highest degree  \noffered.", 
  "A university survey research organization handled data collection through a web-based  \nquestionnaire.", 
  "Chi-square Goodness-of-Fit tests indicated that respondents were marginally  \nunrepresentative of the overall population of engineering faculty at the 31 institutions (institution  \npopulation-sample differences ranged from 1 to 11 percentage points).", 
  "Consequently, individual  \nweights were created to adjust for any campus-specific response bias based on respondents\u2019  \ngender, race/ethnicity, faculty academic rank, and engineering discipline, as well as for different  \nresponse rates across institutions.", 
  "An overall weight was calculated (by multiplying the gender  \nby race/ethnicity by academic rank by discipline weight by institutional response weight) and  \napplied to all faculty respondents to produce a sample that can be considered representative of  \nthe population of engineering faculty (as specified) on each campus.", 
  "In addition, missing data  \nwere imputed based on procedures recommended by Dempster, Laird, and Rubin (1977) and  \nGraham (2009) using the Expectation-Maximization (EM) algorithm of the Statistical Package  \n\ffor the Social Sciences (SPSS) software (v.18).", 
  "The study also surveyed associate deans for  \nundergraduate engineering program.", 
  "Associate deans were surveyed on their college\u2019s  \ncharacteristics, curricula, practices, and policies.", 
  "Of the 32 associate deans invited to participate,  \n29 (91%) responded.", 
  "These cases were left unweighted and unimputed.", 
  "For this paper, we omitted survey responses from 132 non-tenure-line faculty because  \nthese faculty members typically engage in different workload and have different reward  \nstructures and criteria than their tenured and tenure-track colleagues (Baldwin & Chronister,  \n2001).", 
  "After cleaning the data, analyses used the weighted responses of 1,258 tenure-eligible or  \ntenured engineering faculty members (an overall response rate of 38%): 1,115 men faculty (89%)  \nand 143 women faculty (11%).", 
  "Table 1 presents weighted descriptive statistics of faculty  \nrespondents by gender.", 
  "[INSERT TABLE 1]  \nVariables    \nWe used three main types of variables in this study: 1) main independent variables were  \ngender and college support for diversity; 2) dependent variables were measures of the committee  \nwork, participation in extra-curricular and outreach work, and number of undergraduate and  \ngraduate advisees; and 3) control variables.", 
  "Independent Variable.", 
  "The main individual-level variable of this study was faculty  \ngender, women (coded as 1) and men (coded as 0).", 
  "We also included college-level main variable,  \ncollege support for diversity to measure if service workload by gender differs depending on  \ncollege environment.", 
  "A four-item college support for diversity scale (alpha=0.91) included  \nassociate deans\u2019 reports of what extent the engineering college or school provide financial,  \nlogistical, or staff support for 1) recruiting women students; 2) recruiting women faculty; 3)  \n\frecruiting historically underrepresented students; 4) recruiting historically underrepresented  \nfaculty.", 
  "Control Variables.", 
  "In each analysis, we controlled for several different variables.", 
  "Institutional type was coded into two categories, defined by highest degree offered (doctoral  \ninstitutions coded as 1; master\u2019s and bachelor\u2019s institutions coded as 0).", 
  "Most faculty members  \nin our sample were from doctoral institutions (85%), and fewer represented master\u2019s and  \nbachelor\u2019s institutions (12% and 3%, respectively) and proportion of the sample by institutional  \ntype were quite similar by faculty gender (Table 1).", 
  "We also controlled for institutional size  \n(large size coded as 1; and medium and small size coded as 0).", 
  "Most faculty members were in  \nlarge size institutions.", 
  "Specific characteristics of faculty members were included: academic rank  \n(assistant, associate, full as a reference group), race/ethnicity (white or non-white), and years  \nspent at their current institutions.", 
  "Dependent Variables.", 
  "The dependent variables in our models represented three different  \nservice works: 1) serving as a committee member; 2) participating in extra-curricular activities  \nand outreach programs; and 3) advising undergraduate and graduate students.", 
  "Serving as a  \ncommittee member at their current institution in the past five years included four separate items:  \n1) a department-level committee, 2) a college-level committee, 3) a search committee, and 4) a  \npromotion and tenure committee.", 
  "The survey asked seven individual items to measure faculty  \nmembers\u2019 participation in extra-curricular programs for current undergraduate students and  \noutreach activities for future students.", 
  "A binary outcome for faculty participation in extra- \ncurricular programs was created to include faculty who participated in either advising a design  \nteam, international tour, or engineering-related student organization or not.", 
  "Participation of  \noutreach activities consisted of four items, such as teaching or developing a summer program or  \n\fcamp for incoming or K-12 students and recruiting women and underrepresented minority  \nstudents.", 
  "We also created a binary variable if faculty participated in one of the activities or not at  \nall.", 
  "The last dependent variable of this study was the number of undergraduate and graduate  \nstudents advised by faculty.", 
  "The faculty survey asked how many students have they advised as a  \nfaculty supervisor, mentor, or advisor through different activities, such as a credit-bearing and  \ninformal undergraduate research, or undergraduate independent study, or internship and  \ncooperative internship advising for undergraduate students as well as a graduate thesis or  \ndissertation advisor.", 
  "More details on the questions and response options are in Appendix A.   \nAnalytical methods  \nWe used Generalized Hierarchical Linear Modeling (GHLM) for the binary categorical  \noutcome variables for the two outcomes (committee work and extra-curricular/outreach services)  \nand Hierarchical Linear Modeling (HLM) for the continuous outcome (number of undergraduate  \nand graduate students) in our analysis.", 
  "The approach had several advantages over conventional  \nanalysis, such as ordinary least squares regression, because it considers nested data (i.e., faculty  \nnested within multiple programs within an institution).", 
  "Because this study\u2019s aim was to explore  \nthe cross-level interaction between faculty gender and the college-level support for diversity, a  \nmultilevel analysis was more appropriate.", 
  "To complete our analyses, we established three models based on Raudenbush and Bryk  \n(2002).", 
  "The first model included the faculty individual-level variables: gender, race, academic  \nrank, and years at the current institution.", 
  "The second model contained the institution-level  \nvariables, including institutional size, type, and college support for diversity as well as the  \nfaculty individual-level variables.", 
  "The final model contained the cross-level interaction between  \ngender and college support for diversity.", 
  "Because of the inclusion of interaction effect variables,  \n\fit would have been inappropriate to compare the coefficients of variables in this model (i.e.,  \nconditional effects) with those included in individual-level model (i.e., main effects).", 
  "Rather, we  \nfocused on the statistically significant interaction terms to highlight how faculty service work  \nbetween women and men differs by college support for diversity.", 
  "Two research questions were  \nexplored in this study:   \n1.", 
  "Do faculty service work differ between men and women, after controlling for individual  \nand institutional characteristics?", 
  "2.", 
  "Do faculty service work between men and women differ by college support for diversity,  \nafter controlling for individual and institutional characteristics?", 
  "Limitations  \nWe acknowledge that our study has limitations.", 
  "First, we used faculty data containing  \nlarge sample with multiple questions on faculty teaching, research, and service workload.", 
  "Because of small sample size of women faculty in engineering programs, however, we could not  \ntake into account other factors that might influence faculty workload, such as family situation  \n(Bellas & Toutkoushian, 1999), faculty research productivity or teaching load, and faculty  \nmotivation to participate in service work (Blackburn & Lawrence, 1995).", 
  "This study merely  \ncompares women and men engineering faculty in service work after controlling for several  \ncharacteristics for model simplicity.", 
  "We suggest future research ideas based on this limitation.", 
  "Second, the study relies on self-reports of service work rather than observations.", 
  "To  \nmaximize external validity (i.e., generalizability) of our results, we compromised on precision of  \nmeasurement (McGrath, Martin, & Kulka, 1982).", 
  "Since faculty members\u2019 identities remained  \nanonymous as they completed the survey, and we have no way of verifying their actual service  \nwork.", 
  "Our concern is not the truthfulness of faculty responses but rather the variation in how  \n\ffaculty members might interpret survey items and response options differently by gender.", 
  "In this  \nregard, it is important to emphasize that in this analysis, we are assessing the relative frequency  \nof serving committee work between groups of faculty including gender rather than comparing  \nthe absolute frequency of serving.", 
  "Finally, we do not use an experimental design in our study, so we can only speculate  \nabout causal relationships suggested by our results.", 
  "Though our findings are correlational, our  \nhypotheses have theoretical support from the literature, and we speculate that our results provide  \nadditional evidence that there are differences in faculty service work by gender, not only  \nresearch and teaching load.", 
  "We organized and present the findings by the three types of service work examined: 1)  \ncommittee work, 2) extra-curricular/outreach participation; and 3) student advising.", 
  "Committee work.", 
  "After controlling for faculty rank, years at the institution, race, and  \ninstitutional characteristics, we found no difference between women and men on department- \nlevel, college-level, or search committee workload (see Tables 2 and 3).", 
  "Compared to men  \nhowever, women faculty were found to be two and half times more likely to serve on promotion  \nand tenure committees after controlling for individual and institutional characteristics (Table  \n3).", 
  "Regarding committee work, not surprisingly, faculty rank makes a difference: full professors,  \ncompared to assistant and associate professors, serve more on a variety of committees  \n(department-level, college-level, search, and promotion and tenure committees), regardless of  \ngender, race, and institutional type.", 
  "[INSERT TABLE 2 and TABLE 3]  \n\fExtra-curricular and Outreach Services.", 
  "While there was no gender difference in faculty  \nparticipation in extra-curricular activities, women faculty are almost four times more likely to  \nparticipate in outreach activities (See Table 4).", 
  "Such activities include teaching in, developing,  \nor directing summer bridge programs or camps for incoming engineering students or recruiting  \nwomen and underrepresented students.", 
  "[INSERT TABLE 4]  \nAdvising Undergraduate and Graduate Students.", 
  "While there was no gender difference  \nin advising in terms of the number of graduate students, men faculty tend to advise more  \nundergraduate students than women faculty (See Table 5).", 
  "Not surprisingly, full professors are  \nmore likely to advise graduate students, compared to assistant and associate professors.", 
  "Faculty  \nmembers tend to advise more graduate students when they stay longer at their institutions, work  \nat large institutions, or at research institutions.", 
  "[INSERT TABLE 5]  \nInteraction Effects.", 
  "We also explored whether there were any cross-level interaction  \neffects between faculty gender and college support for diversity (See Table 6).", 
  "Compared to  \nwomen faculty, men faculty working at an engineering college supportive of diversity are more  \nlikely to serve on department-level and search committees, to participate in extra-curricular  \nactivities, and to advise graduate students.", 
  "Though the statistical results are significant, these  \ngender differences are small, with a 1.2 to 1.5 odds ratio.", 
  "[INSERT TABLE 6]  \nDiscussion and Implications  \nDiscussion and Future Research   \n\fThis study confirms existing research findings and advances our understanding of gender  \ndifferences in service workload.", 
  "We found only a few differences in service work by gender,  \nwhich is consistent with existing quantitative studies (e.g., Porter, 2007).", 
  "There was no gender  \ndifference found for service on either department- or college-level search committees.", 
  "Women  \nfaculty, however, tend to serve more on promotion and tenure committees even after considering  \nacademic rank (Porter, 2007; Turner, 2002).", 
  "Given that only tenured members serve on  \npromotion and tenure committees at most institutions (Porter, 2007), we assume that mid-career  \nor senior-level women faculty might participate more in this committee work than their men  \ncolleagues with the same academic rank.", 
  "Literature suggests that tenured women faculty suffer  \nfrom a lack of support and mentorship while also feeling pressured to perform a lot of service  \nwork (Wenzel & Hollaenshead, 1994; Rosser, 2004).", 
  "This empirical study suggests that tenured  \nwomen faculty serve more in certain service work than their tenured men colleagues, which  \nmight be related to the low persistence rate among mid-career and senior-level faculty members.", 
  "While there was no gender difference in participation in extra-curricular programs for  \nengineering students (e.g., advising design team or design competition, international tour, and  \nengineering-related student organization), women faculty tend to serve more in outreach  \nactivities aimed at recruiting women or underrepresented students.", 
  "This finding is consistent to  \nwhat current literature suggests (Porter, 2007; Turner, 2002).", 
  "While these services are important  \nespecially for diversity mission, their contribution might be less visible and recognized in  \npromotion and tenure (Hirshfield and Joseph, 2012).", 
  "Interestingly, men faculty advise undergraduate students more than women faculty even  \nafter considering academic rank.", 
  "Advising undergraduate students may be beneficial in some  \nways to men faculty, especially in engineering departments at research universities which make  \n\fup the most of the sample institutions that we studied.", 
  "Compared to graduate student advising,  \nundergraduate student advising might be less time-consuming, given that many engineering  \nprograms have academic advising services along with universities offering advising services for  \nthe campus community.", 
  "Furthermore, this result might be more related to a self-reported  \nmeasurement issue: while men faculty might report in the survey including both formal and  \ninformal advisees, women faculty might only report formal advisees.", 
  "Researchers have found  \nthat women and faculty of color often need to offer informal advising and mentoring to women  \nand students of color who often have high expectations and unique needs (Tierney & Bensimon,  \n1996; Griffin et al., 2011).", 
  "Despite the importance of their contribution in achieving diversity,  \nadvising and mentoring minority students may take additional mental and emotional labor to  \nwomen faculty members.", 
  "We also found that men faculty engage more and women faculty engage less in all  \nservice activities (i.e., department-level committees, search committees, outreach activities, and  \ngraduate student advisement) when they work at colleges providing more support for recruiting  \nwomen and racial minority faculty and students.", 
  "We assumed that if their engineering programs  \nspend more financial, logistical, or staff support for recruiting women and racial minority faculty  \nand students, the college-level culture is more welcoming to women and faculty of color.", 
  "These  \nfindings point to ways in which college of engineering can support women faculty:  The findings  \nsuggest the importance of institutional policies and procedures that recognize and aim to correct  \nidentity taxation practices in service workload (Hirshfield & Joseph, 2012).", 
  "Administrators can  \ncultivate environments that are accepting and supportive of diversity, where historically  \nunderrepresented faculty are no longer marginalized and can thrive and succeed.", 
  "Further  \nresearch can help uncover how this change occurs, but our study suggests its plausibility.", 
  "We also provide future research ideas.", 
  "Although women faculty of color have expressed  \nother types of discrimination and unequal service workload expectation from their colleagues  \nand students, compared to both White women and men faculty members (Hirshfield & Joseph,  \n2012), we could not examine the intersectionality between gender and race/ethnicity due to the  \nsmall sample size of women faculty of color in engineering.", 
  "More data having an equal sample  \nsize of different racial groups of women faculty should be collected.", 
  "Most research examining  \nthe intersectionality between gender and race has been done in qualitative study design (Ford,  \n2011; Turner, 2002; Hirshfield & Joseph, 2012).", 
  "These studies offered more subtle narratives  \nregarding the issues on the negotiation of intersectional identities in academia.", 
  "Large scale,  \nnationally representative, longitudinal, and quantitative studies will contribute to uncovering how  \nwomen faculty of color\u2019s service workload influences their promotion and tenure decisions and  \npersistence in academia, compared to their colleagues, White women, White men, or men faculty  \nof color.", 
  "Among departmental and institutional factors, we merely focused on institutional policy  \nefforts to recruit women and racial minority faculty and students, which presumably are related  \nto their culture.", 
  "More research should be conducted to examine how a variety of department-,  \ncollege-, and institution-level culture, structure, supports, socialization, and workload policy and  \npractices influence women and men faculty workloads.", 
  "Organizational culture might very across  \ndisciplines.", 
  "Current studies have focused on women faculty in male-dominated disciplines or STEM  \ndisciplines where women faculty usually suffer more due to the underrepresentation in particular  \ndisciplines.", 
  "The broad categories might hinder from finding the nuance in gender inequalities  \nacross disciplines.", 
  "Women faculty members in engineering might be perceived by their men  \n\fcolleagues differently from those in the natural sciences, even though privileged White men have  \nbeen pervasive in most science fields (Ward, 2008).", 
  "Furthermore, women faculty service  \nworkload might vary across subdisciplines in engineering.", 
  "Research shows that faculty members  \nshare a subdisciplinary culture in which they approach teaching and learning practices, and value  \non their work differently across subdisciplines (Smart, Feldman, & Ethington, 2000).", 
  "This study  \nexamines women faculty in engineering, but could not scrutinize across subdisciplines in  \nengineering due to small sample size.", 
  "Studies examining faculty service workload by  \nsubdisciplines within academic programs should be conducted.", 
  "Although faculty\u2019s family dynamics, such as dual career households, academic couples,  \nand childcare are vital in retaining faculty and increasing productivity (Mason & Ekman, 2007;  \nSallee, 2011), this study could not consider these factors.", 
  "More studies, however, should  \nexamine how administrators, faculty, and students have different perceptions and expectations of  \nwomen faculty, based on their marriage and parental status.", 
  "Single women faculty members  \nmight encounter even higher expectations for service and advising workload because they are  \nperceived as being more available.", 
  "Research that explores the linkage between service and tenure is necessary in future  \nresearch.", 
  "Even though this study did not examine the relationship between service and tenure,  \nthis study contributes to a better understanding of how service workload potentially influences  \nwomen faculty retention and success in tenure-track positions.", 
  "Their voices are needed to  \ntransform male-dominated fields into more inclusive and welcoming environments.", 
  "A  \nredefinition of how we value service is vital if we are to diversify academia (Baez, 1999).", 
  "Turner  \n(2002) and Boyer (1990, 1997) echo this sentiment, arguing the need to validate service efforts,  \nrather than discouraging faculty from engaging in them.", 
  "Implications for Policy and Practice  \nThis study\u2019s findings inform policy and practice decision-making at the university and  \ndepartment levels.", 
  "First, academic programs and departments should review and revise their  \ncurrent expectations of service and actual service workload of their current faculty members.", 
  "Administrators and faculty members should evaluate current systems and practices to remove  \nany unequal or overburden service assignments toward women faculty and women faculty of  \ncolor.", 
  "The low persistence rate among women faculty and women faculty of color in academia  \nmay be connected to high expectation and inequitable systems of service work.", 
  "Second, administrators and faculty members should clearly communicate the  \nexpectations of service to newly hired faculty members.", 
  "Given that women and minority  \ngraduate students often lack the networks that their white men peers have (Foor, Walden, &  \nTrytten, 2007), they may not be aware of the expectations around informal service workload.", 
  "Department chairs and academic deans should clarify the differential value placed on service on  \ndifferent committees, activities, and student advising.", 
  "Department- and college-level new faculty  \norientations can dedicate time to bring promotion and tenure committees to speak with new  \nfaculty.", 
  "Formal and informal peer mentoring of new women faculty is another way to  \ncommunicate these institutional and departmental values of service.", 
  "Third, given that research shows women faculty and women faculty of color also enjoy  \nthe role of mentorship and understand their contribution to diversity, the current structures of the  \npromotion and tenure system should be changed to acknowledge their contribution and value  \nservice work.", 
  "Given the low percentage of women and women faculty of color represented in  \nhigher education, postsecondary institutions should not take advantage of women and women  \n\ffaculty of color\u2019s burdens of identity taxation as it perpetuates the vicious cycle of burnout and  \nturnover.", 
  "Although women faculty regardless of their academic ranks are overburdened by their  \nservice work, academic administrators also should provide resources for midcareer and senior- \nlevel women faculty.", 
  "This study shows that women faculty, probably tenured women faculty,  \ntend to serve on more promotion and tenure committees, compared to their men peers.", 
  "Institutions should provide more systematic ways to support associate and full women faculty  \nmembers for their commitment into their academic disciplines and institutions as tenured women  \nfaculty in engineering fields might serve more committee works and spend more mentoring time  \nfor both junior women faculty and undergraduate and graduate students.", 
  "Otherwise, higher  \neducation might not be able to retain women faculty in academia.", 
  "Institutional support of diversity initiatives, such as recruiting women and racial minority  \nfaculty and students, was found to influence the more even distribution of service loads among  \nmen and women faculty members.", 
  "We urge institutions to work on genuine efforts towards  \nsupporting diversity in ways that focus not only on hiring, training, and advising women faculty,  \nbut also men faculty.", 
  "Men faculty members can serve as powerful allies and advocates within  \ncommittees, program and department meetings, and can contribute to creating better climates for  \nall participants."
 ]
}