{
 "document_id": "1174384.1", 
 "sentences": [
  "\n\nAmerican Education Research Association  \nAnnual Meeting  \nApril 27 \u2013 May 1, 2017  \nSan Antonio, TX  \nTheme: \u201cKnowledge to Action: Achieving the Promise of Equal Educational Opportunity\u201d  \nSUBMISSION TYPE: Paper  Research in Mathematics Education SIG  \n\nMeasuring and Understanding Black1 Women\u2019s Mathematics Identity  \nAbstract  \nUsing data from the Sustainability and Gender in Engineering (SaGE) project, the authors conducted secondary  analyses of the Explanatory Model for Mathematics Identity (EMMI) framework to explore mathematics  identity among Black women.", 
  "Three factors make up the EMMI\u2014interest, recognition, and   competence/performance.", 
  "Item Response Theory partial credit Rasch model analysis showed that the EMMI is  unbiased when measuring mathematics identity for Black women.", 
  "Structural Equation Modeling indicated that  (a) interest and recognition have a direct effect on mathematics identity and (b) while there wasn\u2019t statistical  difference for recognition (.02 < .052), there were differences for interest (.6 > 0.32).", 
  "This finding suggests that  the role of interest for Black women needs further interrogation.", 
  "Future research and implications are discussed.", 
  "Significance/Objective/Purpose  \nA national movement (i.e., #Blackgirlmagic) persist in the U.S. to understand the structural inequalities  experienced by Black women and girls in our educational systems (Authors, in press a).", 
  "Although widespread  focus on the importance of Black women\u2019s lives is not a new phenomenon, the confluence of social media,  federal attention, and research funding is driving the increased visibility.", 
  "These inequalities span multiple social  systems, but here, the focus is on participation in mathematics (see Table 1).", 
  "The authors focus on participation  in mathematics because broadening STEM in the academy and workforce for underrepresented minorities is a  national effort in the United States (NSF, 2015).", 
  "As the table shows, significant underrepresentation exists for  all women in mathematics, but especially among Black women.", 
  "Mathematics Doctorates awarded to Black and White Females and White Males: 2003 \u2013 2012  \nWhite females  \nBlack Females  \nWhite males  \n                                                 1 Black refers to individuals who are multigenerationally born and raised in the United States; a group of people whose families  identified themselves as African American for generations, and for whom that identification is a crucial part of their sense of  themselves, their families, and their communities.", 
  "Black people have a distinct identity that has been shaped in large measure by a  common history of slavery and by the political struggle of the Civil Rights Movement.", 
  "Multigenerational African Americans have  been enculturated in how the Unites States socially constructs race and ethnicity (Clark, 2010).", 
  "Source: Women, Minorities, and Persons with Disabilities in Science and Engineering: 2016  \n\nMathematics identity is one construct in the literature that can inform underrepresentation for all groups,  \nspecifically Black women.", 
  "Mathematics identity is a significant contributor to longer-term persistence and  engagement in mathematics (Boaler & Greeno, 2000), thus the mathematics education field should focus its  attention on promoting positive mathematics identity formation.", 
  "Robust body of research in mathematics  identity often neglects the role played by race, gender and structural inequalities in mathematics identity  formation (authors, in press b; Martin, 2006).", 
  "The existing research fails to draw attention to the ways in which  mathematics identity develops in Black women.", 
  "This study asked and answered the following question, \u201cWhat  contributes to, impacts, and predicts mathematics identity in Black women?\u201d Understanding mathematics  identity for Black women can bring a new perspective to the national conversation on underrepresentation of  racial minorities in mathematics.", 
  "This study can also inform the mathematics and mathematics education fields  about more encompassing factors that influence mathematics participation since the promise of achieving equal  opportunity for vulnerable populations has not yet been realized.", 
  "Conceptual Framework  \nTwo frameworks informed the study\u2014EMMI and Black Feminism.", 
  "The EMMI is a framework that  \nincludes three factors\u2014 interest (defined as a student\u2019s desire or curiosity to think about and learn  mathematics), recognition (defined as how students perceive that others view them in relation to mathematics),  and competence/performance (defined as students\u2019 beliefs about their ability to perform in and understand  mathematics).", 
  "Interest was found to have statistical differences for Black women and Black Feminism theory is  discussed as an explanation for these differences.", 
  "The three statements on the EMMI survey associated with  interest used a 5-point (0-5) Likert scale and included: (a) I am interested in learning more about math, (b) I  enjoy learning math, and (c) I wish I didn\u2019t have to take math.", 
  "Black Feminism informing Exploratory Model for Mathematics Identity (EMMI) Conceptual Framework  \nFigure 1  \nInterest depends on context and has been linked to students\u2019 motivation and engagement with  \nmathematics (Frenzel, Goetz, Pekrun, & Watt, 2010).", 
  "More specifically, gender, family, and school context can  influence interest in mathematics.", 
  "In their investigation of adolescents\u2019 developmental trajectories of  mathematics interest and the related effects of gender, family, and school context, Frenzel et al.", 
  "(2010) found  overall that developmental change in mathematics interest seems to be higher for students from high-value  families (parents with strong value in the importance of mathematics), classrooms with enthusiastic teachers,  and that change in mathematics interest happens later for girls and less for students in lower school tracks.", 
  "These findings about context\u2014gender, parents, and school\u2014is informative for Black girls and women because  research suggest that although many Black parents have had negative experiences in mathematics (Martin,  2006), some Black parents are aware of inequities in schools and actively respond by becoming advocates,  motivators, and even early teachers of mathematics for their children (McGee & Spencer, 2015).", 
  "Other studies  suggest important connections between interest and identity development and the role of interest development  in informing educational settings (Hidi & Renninger, 2006; Renninger, 2009).", 
  "The EMMI framework is an excellent starting tool for understanding mathematics identity for Black  women.", 
  "However, mathematics identity development for Black women is complex because of their unique  experiences in mathematics related to the intersections of race, gender, and structural inequalities (Author, in  press b; Borum & Walker, 2012).", 
  "In other words, mathematics identity gets constructed through the process of  being Black and a woman.", 
  "Black womanhood in the United States is informed by race, gender, power,  hegemony, and other important political and economic constructs (Collins, 2000).", 
  "Black feminism is concerned  with addressing oppression Black women face in all aspects of society, including education systems (Collins,  2000; Evans-Winters & Love, 2015).", 
  "Black women experience oppression in mathematics (authors, in press b;  Borum & Walker, 2012) and this oppression could be operating on their interest in mathematics explaining  differences in their responses on the EMMI survey.", 
  "Black feminism can help interpret Black women\u2019s lived  experiences in mathematics identity processes because Black feminism contends that Black women experience  a unique kind of oppression, due to their race and gender identities (Guy-Sheftall, 1995).", 
  "Black feminism also  suggests that the political, social, and intellectual needs of Black women are distinctly different from that of  Black men and White women, thus, their strategies of mathematics identity development might look different.", 
  "Black feminism helps us understand that Black women must fight for racial and gender equality simultaneously  in mathematics.", 
  "Overall, Black women\u2019s commitment to challenging racism and sexism in mathematics and in  society is rooted in their lived experience as Black and woman; and it is hypothesized that their a posteriori  knowledge in mathematics can illustrate why there were differences in their responses to the interest statements  on the EMMI framework.", 
  "We collaborated with the developers of the EMMI (Cribbs, Harzari, Sadler, 2015) framework that is  \nfoundational for this current study.", 
  "The EMMI model has been previously tested with a study that used the data  set from the NSF funded (0813702) Factors Influencing College Success in Mathematics (FICSMath) project  (Cribbs, et al., 2015) and then with a second study with the Sustainability and Gender in Engineering(SaGE)  project (Cribbs, Potvin, Hazari, Godwin, & Lock, 2015).", 
  "The EMMI builds from the work of Cass, Hazari,  Cribbs, Sadler, and Sonnert (2011), whose participants were engineering students.", 
  "We used the SaGE existing  data set to run analyses for Black women, and a joint manuscript based on these analyses is forthcoming.", 
  "Two  sets of analyses were conducted\u2014(a) Item response theory validation of the EMMI and (b) structural equation  modeling exploration of the EMMI specifically for Black women.", 
  "Both sets of analyses used the data provided  by the Sustainability and Gender in Engineering (SaGE) project.", 
  "The SaGE data included 45% female and  9.7% African-American participants; there were 6,772 participants, including 360 Black women, or 5.3% of the  sample.", 
  "Item Response Theory (IRT)            The purpose of this set of analyses was to further validate the measure of EMMI and to confirm  invariance of all items for Black women, meaning the measure works the same for Black women as for other  participant groups.", 
  "The original EMMI was developed using factor analysis; this research study uses item  response theory (IRT) to validate the EMMI.", 
  "While both factor analysis and item response theory are useful in  grouping items to measure a latent construct or ability (mathematics identity), the sample-free nature of item  response theory makes it more stable with changing samples than factor analysis that yields participants\u2019 test- based ability scores (Wright, 1996).", 
  "As a result, IRT was used to confirm the stability of the EMMI in general  and among Black females.", 
  "A partial credit Rasch model is the specific IRT model used in the analysis to  examine the EMMI.", 
  "A partial credit Rasch model allows for different items to have different rating scales and  thus allows for further examination of the scale use of individual items within the EMMI.", 
  "In addition to rating  scale use, the use of a partial credit Rasch IRT model allows for invariance by item to be scrutinized.", 
  "To test  item parameter invariance, a differential item function (DIF) statistic is used, where items are found not to be  invariant when they have a statistically significant p-value (\u03b1 = 0.01) and have a DIF contrast value greater than  |.64| (Bond and Fox, 2007).", 
  "Structural Equation Modeling (SEM) Exploration of EMMI for Black Women  \nThe purpose of the structural equation modeling analyses was to explore the original EMMI model  \nspecifically for Black Women.", 
  "IBM SPSS Amos was used to reconstruct the final model of the EMMI, where a  correlation matrix was used as the input data to account for missing data.", 
  "Maximum likelihood parameter  estimates were evaluated in both their unstandardized and standardized forms, using the specified model  constraints used for the original EMMI.", 
  "In addition, as identified in the original EEMI model the item related to  a student\u2019s own perceptions of being a math person (Q27Math_a) was used as a scaling item for all other items  in the EMMI model.", 
  "Table 2 displays the results of the item response theory partial credit Rasch model analyses.", 
  "It was  \nfound that the EMMI is a unidimensional measure and all items are invariant for Black Females when compared  to all other participant groups.", 
  "This means that this measure of mathematics identity will be unbiased when  measuring mathematics identity for Black females and for comparing mathematics identity components or  predictors for Black females to other participant groups.", 
  "Table 2: IRT Partial Credit Rasch Model Analyses for Black Women  \nIBM SPSS Amos was used to reconstruct the final model of the EMMI, where a correlation matrix was  \nused as the input data to account for missing data.", 
  "Table 3 shows that the same conclusions presented in the  SaGE research were confirmed.", 
  "Specifically, there was a direct effect of Interest (.118) and Recognition (.582)  on Mathematics Identity, as well as an indirect mediated effect of Competence/Performance through Interest  and Recognition (Cribbs et al., 2015).", 
  "Although there was not statistical difference for recognition (.02 < .052),  there were differences for interest.", 
  "For the construct of interest, the difference in the unstandardized structural  coefficients between Black women and all participants in the SaGE was outside of the unstandardized standard  error (.6 > .032).", 
  "This finding suggests that the role of interest for Black women needs further examination.", 
  "Table 3: EMMI Final Model for Black Women  \nDiscussion  \nMeasuring and understanding mathematics identity for Black women is important for thinking about  underrepresentation of Black women in mathematics and STEM broadly.", 
  "The results of this study showed that  interest or Black women\u2019s curiosity to think about and learn mathematics was a factor with differences from all  other groups in the SaGE data set.", 
  "We take up Black feminism as a way to situate how and why there were  differences.", 
  "For example, \u201cI love math\u201d is limited in that it does not explain the nuances of Black women\u2019s  lived experiences in mathematics.", 
  "Further research should include qualitative studies that advance the notion of  interest by interviewing and listening to the particulars of Black women.", 
  "Ultimately, the authors will continue  this work to create a stronger EMMI, one that is more encompassing and relevant for explaining factors that  influence who participates in mathematics or STEM broadly.", 
  "Implications  \nUsing the EMMI framework to measure mathematics identity for Black women is a contribution to the  \nfield by giving us a baseline to build upon in understanding what impacts and shapes mathematics identity  processes among Black women.", 
  "How do Black women construct mathematics identity?", 
  "What is distinct about  the way they engage in mathematics identity formation?", 
  "These findings have potential to inform the national  movement about Black women and girls as well as policies that aim to re-imagine curriculum and programming  for increasing participation in mathematics for underrepresented minorities."
 ]
}