{
 "document_id": "1174124.1", 
 "sentences": [
  "RUNNING HEAD: Blurred Lines  \nBlurred lines: How college sports maintain social structures  \nPaper Submission: 2017 American Educational Research Association Annual Conference  \nDivision J: Postsecondary Education   \nSection 6: Society, Culture, and Change  \nKirsten Hextrum  \nPh.D.", 
  "Candidate, Graduate School of Education  \nUniversity of California, Berkeley  \n\fBlurred Lines  \nAbstract  \nCollege sports remain one of the most visible portions of higher education.", 
  "As such, the  \ninstitution is a potent site for both social control and resistance.", 
  "Using critical education scholars  \nand data from multiple, in-depth interviews with 47 current college athletes, this paper examines  \nhow the ideologies of \u201cnatural\u201d race and gender difference that substantiate White male  \nsupremacy circulate within higher education.", 
  "It identifies three institutional mechanisms  \nincluding time, self-presentation, and language that perpetuate these ideologies.", 
  "In doing so, it  \npoints to some of the challenges that remain in achieving gender and race based equity within  \ncollege sports and higher education more broadly.", 
  "Blurred Lines  \nIntroduction  \nThe National Collegiate Athletic Association (NCAA) or governing body of college  \nsport, supports and regulates over 460,000 student-athletes who attend higher education  \ninstitutions across the United States (NCAA, 2017).", 
  "The NCAA promotes the uniquely  \nAmerican model of \u201ccollege sports\u201d in that athletes must be amateurs, or non-professional, and  \nfull-time students (NCAA, 2016; Smith, 2011; Thelin, 2011).", 
  "This model implies that colleges  \nfinancially and morally support elite athletics as part of their operating mission.", 
  "The model also  \nimplies that college athletes are students who must enroll in a full course load, attend class, and  \ninteract with the campus community.", 
  "As a result, what happens within sport settings on college  \ncampuses cannot be isolated or cordoned off to athletics.", 
  "Instead, there are \u201cblurred lines\u201d  \nbetween sport and school.", 
  "The experiences within sport are potent sites reproduce the ideologies  \nof \u201cnatural\u201d race and gender difference that re-substantiate White, male supremacy.", 
  "To examine how school sports maintain unequal race and gender relations, this paper  \nuses a power-centric theory of \u201csocial reproduction,\u201d more commonly explored in the K-12  \nliterature, that contends state-sponsored educational institutions maintain rather than minimize  \ninequality (Bowles & Gintis, 1976; Lareau, 2003; Oakes, 2005).", 
  "It uses data collected from a  \nyear-long qualitative study conducted at one large, public university, henceforth known as  \n\u201cCoastal U.\u201d The paper uses interviews with 47 Coastal U athletes to identify three mechanisms  \nwithin school sponsored sports in which \u201cnatural\u201d race and gender ideologies are produced,  \ncontested, and ultimately reproduced: 1) Time, 2) Self-presentation, and 3) Language.", 
  "In doing  \nso, it points to some of the challenges that remain in achieving gender and race based equity  \nwithin college sports and higher education more broadly.", 
  "Blurred Lines  \nTheoretical Frameworks and Literature Review  \nPrusser and Marginson (2013) examined thirty years of higher education research and  \nassert that most remains \u201cfunctionalist\u201d or free from theories of power.", 
  "They define power  \ntheories as those of the Marxist orientation that explore the connection between political states,  \neducational entities, and capitalism.", 
  "Their article demonstrates the connections between higher  \neducation and political systems by showing how colleges receive funding from the government,  \nadhere to state regulations, and provide the research that shapes state policy aims.", 
  "By doing so,  \nPrusser and Marginson (2013) open avenues for future researchers to apply Marxist power  \ntheories to higher education.", 
  "This paper contributes to their call for a greater attention to power  \ntheories by bringing K-12 Marxist approaches to critical education theory into a higher education  \ncontext.", 
  "There are two Marxist educational scholars that are used in this paper.", 
  "First, is  \nAlthusser\u2019s (1971) view of ideology.", 
  "The second is Willis\u2019 (1977; 1981) notion of cultural  \nproduction.", 
  "In tandem, their theoretical contributions are used to highlight how ideologies are  \ndisseminated, contested, and reproduced within school sports.", 
  "The functionalist view of education \u2013 at both K-12 and Higher Education levels \u2013  \npresents schools as state sponsored institutions designed to give rise to a more egalitarian society  \n(McLaren, 2007).", 
  "Over the late 19th and early 20th century, the expansion of public, or state  \nfunded elementary, secondary, and higher education (through the 1862 and 1890 Morrill Acts  \nwhich established federal land grant universities) reflected State policies that seemed to provide  \ngreater opportunity for U.S. citizens of any social standing to improve their lot in life through  \neducation and in turn greater economic opportunity (Bowles & Gintis, 1976; Kleibard, 1995;  \nThelin, 2011).", 
  "But a critical or power-theory view of the expanding public educational system  \npresents a different account for why governments would fund public schooling opportunities.", 
  "Blurred Lines  \nEarly power critiques drew on Marx\u2019s theory of the political-economy to show the  \nconnection between schools, state governments, and capitalism (Bowles & Gintis, 1976).", 
  "They  \noutlined a \u201ccorrespondence theory\u201d of schooling and demonstrated how schools promote  \nmeritocratic ideals, promising a pathway for greater equity through hard work, effort, and  \ntraining.", 
  "In reality, the system promotes the behaviors, knowledges, and beliefs of middle and  \nupper classes furthering their social advantages (Bowles & Gintis, 1976; Bourdieu, 1977).", 
  "But  \nthis approach was criticized for offering an over-determined relationship between the schools  \nand the economy (Apple, 2004; McLaren, 2007).", 
  "Another wave of power-theories emerged in conversation with Marxist views of  \nschooling.", 
  "This second wave of reproduction scholars uncovered how schools as inherently  \nideological institutions, with particular hierarchies, knowledge systems, and organizational  \nmechanisms, all of which produce, reproduce, and ultimately maintain unequal social relations  \n(Apple, 2004; Giroux, 1981; McLaren, 2007).", 
  "This scholarship used Antonio Gramsci\u2019s theory  \nof hegemony.", 
  "Rather than assuming schools mirror the economy, Gramsci (1971) examines how  \ncultural sites, such as education shape and legitimate unequal social relations.", 
  "Gramsci\u2019s (1971)  \ntheory of hegemony, explains how capitalism is maintained through a complex and contradictory  \ncultural process of interactions between elites and various allied groups in which the capitalist  \nvalues are co-constructed and agreed upon.", 
  "Hegemony allows scholars to examine the  \ncontradictory nature of power relationships (Willis, 1977), explore how other structures such as  \nrace and gender shape capitalism (Leonardo, 2009), and locates power relations in multiple  \nsocial sites beyond labor such as the media, schools, and sports (Althusser, 1971).", 
  "While Gramsci theorized the importance of ruling groups to gain \u201cconsent\u201d of the public,  \nhe had yet to develop a robust understanding of ideology, or what subordinate groups consented  \n\fBlurred Lines  \nto.", 
  "Ideology refers to the beliefs, meanings, and ideas in society that structure how an individual  \ninteracts with others and with institutions (Althusser, 1971; Weedon, 1987).", 
  "Althusser\u2019s (1971)  \ntheory of ideology demonstrates how inequality is maintained, not simply about the  \naccumulation of wealth, but by building a population that agrees to the mechanisms that produce  \nthe accumulation of wealth for select groups.", 
  "Ideologies are built and maintained through  \nconstant interaction with Ideological State Apparatus (ISA) which are social entities ranging  \nfrom schools, sports, to literature that produce a set of diverse ideologies.", 
  "Through these  \ninteractions, people internalize, learn, identify with, and in turn promote ideologies of the State  \napparatus.", 
  "One example he drew upon in his theorization is how schools and sports offer nation  \nbuilding opportunities through the innocuous presentation of flags and anthems.", 
  "In these small  \ninteractions people do not simply believe that they are state citizens, they become state citizens.", 
  "Althusser also theorized ideology as plural or that there are many ideologies.", 
  "ISAs  \nproduce multiple and competing ideologies to sustain the State.", 
  "But \u201cdespite its diversity and its  \ncontradictions\u201d the ISAs are united \u201cbeneath the ruling ideology, which is the ideology of the  \nruling class\u201d (emphasis in original, p.146).", 
  "In sports, for instance, two ideologies reviewed in the  \nfindings below, may seem different at first glance, but contribute to the ruling ideologies of  \nWhite, male supremacy.", 
  "Sports showcase that Black bodies are inherently designed to be  \nsuperior in certain physical feats (Davis & Harris, 1998; Eitzen, 2012; Washington & Karen,  \n2001).", 
  "But the exclusion of Black bodies from other physical terrains that may require more  \n\u201cmental\u201d skill or preparation reinforces a connection between Black physicality and mental  \ninferiority (Carrington, 2001; Davis & Harris, 1998; Van Sterkenburg, et al., 2010).", 
  "Of most  \nimportance for this study is Althusser\u2019s notion that ideologies are not fleeting or temporary.", 
  "Rather they emerge through a life-long experience interacting with multiple institutions and  \n\fBlurred Lines  \nindividuals that support the ruling ideology in disparate ways.", 
  "Although Althusser focuses  \nexclusively on the falsity of capitalist relationships, other scholars have applied this to other  \nsocial relations such as race, reproduced through the ruling ideology of White supremacy  \n(Leonardo, 2003, 2009) and gender reproduced through the ruling ideology of patriarchy  \n(Weedon, 1987).", 
  "Thus, Althusser\u2019s articulation of how a ruling ideology is produced within  \nideological institutions like schools, should now be viewed as ruling ideologies that reinforce  \nbroader relationships of inequality like race, class, and gender.", 
  "Yet Althusser\u2019s notion of ideology still fell into the Marxist trap of denying individuals  \nagency.", 
  "Willis (1977, 1981) explored what happens when individuals within ideological  \ninstitutions like schools, are in on the game, or are aware they are being reproduced for lower  \nstatus in society.", 
  "Willis\u2019 (1977) multi-year ethnography in a British working class factory town  \nshowcases how students contest capitalism within school settings.", 
  "By focusing on the agency of  \nworking class \u201clads\u201d in a British school he uncovers how the lads produce a counter-school  \nculture to resist what they see as a feminized and capitalist educational system.", 
  "Willis  \ndocumented cultural production by observing the informal moments of schooling.", 
  "He  \ndemonstrated how formal policies such as attendance, testing, and grading, are just as important  \nto maintaining inequality as the informal interactions like speech, behavior, and dress in the  \nproduction and reproduction processes.", 
  "Yet the lads\u2019 resistance is incomplete because their  \nculture is defined in opposition to whom they perceive as representatives of the school: teachers,  \nadministrators, and the \u201cear\u2019oles\u201d or academically high-achieving peers.", 
  "By rejecting the school,  \nwhich the lads knew they never had a fair shot at in the first place, the lads all ultimately become  \nworking class laborers.", 
  "The system maintained itself in the process.", 
  "Blurred Lines  \nAlthusser and Willis show how cultural sites like schools and sports are essential for the  \nproduction and reproduction of ideologies and in turn power relations.", 
  "Sociologists find that  \nsport in general, and college sport remains an important cultural cite to disseminate ideologies.", 
  "They examine how sport dispenses national ideologies that reinforces male supremacy, denies  \nthe existence of a set class structure, and naturalizes race-based poverty (Carrington, 2013;  \nCoakley, 2007; Dworkin & Messner, 2002; Eitzen, 2012; Messner, 2002, 2007; Sut, 1989).", 
  "The  \nruling ideology in Althusserian terms, that White, elite, male bodies, should be the rightful power  \nbrokers of society, is supported through two connected ideologies promoted in sports: \u201cnatural\u201d  \nrace and gender differences.", 
  "Through sport, scholars note, the public comes to see race and  \ngender as biologically based, scientific, and in turn hierarchies within these structures as  \njustified, rather than socially constructed with no scientific basis (Bruce, 2004; Carrington, 2001;  \nCooky et al, 2015, Messner, 2002, 2007; Van Sterkenburg, 2010).", 
  "Most approaches cited above  \nexamine the circulation of ideology in sport through media coverage.", 
  "The media approaches to ideology circulation examine how sports coverage portrays  \nathletes.", 
  "Research demonstrates that the physical feats of African Americans are more likely to  \nbe highlighted, whereas the cerebral, strategy, and skill of White athletes is celebrated in the  \nmedia (Bruce, 2004; Carrington, 2001, 2013; Majors, 2001).", 
  "Positioning African Americans as  \nmore physical feeds the centuries old racial construction of dehumanized Black bodies more apt  \nfor hard labor (Skiba, 2012).", 
  "The relational racial construction allows White bodies, then, to be  \npositioned as more intelligent, schematic, and better suited for managerial, leadership, or  \nownership positions (Bruce, 2004; Eitzen, 2012).", 
  "Gender in the sports media serves a similar  \nfunction but occurs through a different method.", 
  "Male bodies are presented a physically superior,  \nhighlighting their natural strength and stamina.", 
  "Women athletes are often erased through limited  \n\fBlurred Lines  \ncoverage, or when presented, they are depicted as sexual objects (Cooky, Messner, Musto, 2015;  \nMessner, 2007).", 
  "Rhetoric of women\u2019s athletic inferiority bleeds into other social institutions  \njustifying their exclusion from organizations like labor and politics (Gems, 2000; Messner, 2001,  \n2007; Milner & Braddock II, 2016).", 
  "While the sociological accounts point to how sports in schools have the social function of  \ntraining the public to view race and gender difference and in turn, inequality as \u201cnatural\u201d rather  \nthan an expression of the historical and economic socially constructed power relationships, much  \nof this research focuses on the experiences of the \u201cpublic\u201d or in this case the \u201cfans\u201d rather than  \nthe participants.", 
  "The second wave reproduction scholars indicated the importance of looking  \nwithin ideological sites like schools to see the inner workings and processes of ideological  \ndissemination.", 
  "Therefore, much less is known regarding how nearly 460,000 American college  \nathletes participate in the dissemination, adoption, or contestation of these ideologies.", 
  "By looking within the institution of college sport this paper offers several contributions.", 
  "First, it makes the theoretical case that higher education literature should be interrogated by  \ncritical theorist of education, including those emerging from Althusserian and Gramscian  \napproaches to power.", 
  "Second, it makes the theoretical case for why sports are an important point  \nwithin higher education to examine said relationships of power.", 
  "Third, it contributes to Willis\u2019  \n(1977, 1981) concept of cultural production by examining how micro-interactions within  \ninstitutions create a culture that both resists and maintains inequality within college sport and  \nsociety at large.", 
  "And finally, in accomplishing the above three points, it becomes clear why  \nreformers must consider reshaping ideology as they implement policy.", 
  "Blurred Lines  \nThis qualitative study occurred within an athletically and academically prestigious public  \nresearch university.", 
  "To see how both men and women experience sport in higher education, this  \nstudy moved away from the most studied sport, football, because there is no women\u2019s college  \nfootball program.", 
  "Four teams were included: men\u2019s and women\u2019s track & field and rowing.", 
  "The  \ndifferences and similarities between track & field and rowing provide multiple comparison  \nopportunities.", 
  "Both sports have 50 participants, host individual and team competition, and  \nemphasize rigorous physical conditioning.", 
  "Yet the demographic make-up of the teams vary.", 
  "Rowing draws from white and elite communities because it requires tremendous resources to  \nparticipate (Bourdieu, 1978; Eitzen, 2012).", 
  "Conversely, track & field requires fewer resources  \nand draws more participants from marginalized communities (Bourdieu, 1978; Eitzen, 2012).", 
  "Participants self-identified their race and gender positions.", 
  "Twenty-eight participants  \nidentified as women and nineteen as men.", 
  "Eleven classified themselves as \u201cpeople of color\u201d,  \nidentifying as Black or mixed-raced, and thirty-six identified as \u201cWhite.\u201d Only three people in  \nthe study (all female) identified as \u201cpoor.\u201d They all relied on some form of scholarship or aid for  \naccess to sports.", 
  "One participant strongly identified as upper class, the remainder were middle or  \nupper-middle class.", 
  "To maintain participants\u2019 confidentiality, pseudonyms are used here.", 
  "Semi-structured interviews constituted the major data source for the study.", 
  "Interviews are  \nimportant for researchers engaged with historically disenfranchised populations and/or those  \ninterested in uncovering structural inequality (Oakley, 1981; Rudolph, 2005; Soss, 2013).", 
  "Two  \ninterviews were conducted with each student-athlete, using a \u201clife history\u201d method to understand  \nhow they gained access to the institution of college sports and how they experienced said  \ninstitution (Connell, 2005).", 
  "The interviews were coded through both emergent and fixed-coding  \n\fBlurred Lines  \nmethods (Creswell, 2013).", 
  "Fixed-codes were derived from critical educational literature,  \nidentifying institutional features such as curriculums, hierarchical relationships, bureaucratic  \nlayers, and policies in both sports and school (Anyon, 1983, Apple, 2004; McLaren, 2007).", 
  "Emergent codes were produced through a year of field-work research memos, reflections, and  \niterative readings of interview transcripts (LeCompet, 2000; Yanow, 2013).", 
  "In total, over 500  \nunique codes guided the interview analysis.", 
  "Responses uncovered a myriad of ways that  \ninstitutional inequalities persist for women and people of color.", 
  "Findings  \nFindings from this study reveal a complicated and contradictory process of how \u201cnatural\u201d  \nideologies of race and gender are disseminated, adopted, and contested within college sports.", 
  "Like the second wave of reproduction scholars noted, the circulation of ideologies occurred in  \ninformal moments and interactions.", 
  "Spaces like dining halls, training rooms, dorms, classrooms,  \nor simply walking across campus, became opportunities to (re)learn and (re)produce notions of  \ndifference.", 
  "In part, the informal interactions were so central to the college athlete experience  \nbecause of the immersive nature of this student culture.", 
  "Athletes were admitted to the university  \nthrough an exceptional admission process; introduced to the campus often by a coach and  \nteammates; and lived, trained, and took classes with their teammates.", 
  "All but two study  \nparticipants said in their \u201cfree time\u201d they are most likely to be with their teammates.", 
  "Their non- \npractice hours are filled with relationships and interactions forged through sports.", 
  "As a result, the  \nlines are blurred between where and how \u201csports\u201d maintain unequal social relations.", 
  "The resistance for student athletes also was different than how Willis (1977) theorized.", 
  "Whereas the lads banded together to create a \u201ccounter-school culture\u201d athletes in this study had  \nno such unity.", 
  "Unlike the lads, athletes needed to adopt a \u201cpro-school-sports-culture\u201d to be part  \n\fBlurred Lines  \nof the University.1 But, even in this highly contingent social membership participants did not  \nblindly accept these ideologies.", 
  "Some, actively challenge and resist them.", 
  "Others were complicit,  \nacting as bystanders aware of the harmful impact but not impeding the transmission.", 
  "Like the  \nlads, their resistance remained incomplete because it was inconsistence, lacked unity, and did not  \nproduce a new and competing ideology.", 
  "Three social mechanisms informed participants interactions with peers and authority  \nfigures: Time, Self-Presentation, and Language.", 
  "Each feature of social interaction helped  \ncirculate the ideologies of \u201cnatural\u201d race and gender difference.", 
  "Researchers demonstrate that student-athletes spend more time practicing their sport than  \non their schoolwork (Adler & Adler, 1991; Martens & Lee, 1998; McCormick & McCormick,  \n2006; Watt & Moore, 2001).", 
  "In focusing on where student-athletes\u2019 allocate time, it is easy to  \nmiss other attributes of time such as time as a unit of measurement and evaluation that confers  \nsocial meaning and value.", 
  "In Gramsci\u2019s theory of hegemony, one of the recommendations to  \nunmasking how power operates is to tackle \u201ccommon sense\u201d aspects of social life.", 
  "In racing  \nsports like track and rowing programs \u201ctime\u201d ranks athletes hierarchically against one another,  \nelevating a victor in a contest.", 
  "Time functions as the \u201ccommon sense\u201d mechanism that gives  \nthese sports meaning (Guttman, 1994, 2004; Lenskyj, 1988).", 
  "But embedded within the time- \nbased evaluation systems are the ideologies of \u201cnatural\u201d race and gender differences.", 
  "By  \nsponsoring sports programs, higher education provides the arena for both athletes and the public  \nto reaffirm unequal social relationships.", 
  "1 Due to the constraints of this paper, the enculturation process into sport is not explored.", 
  "But this can be found in  the author\u2019s dissertation which she intends to publish in future articles.", 
  "Blurred Lines  \nTime as a unit of measurement to rank athletes hierarchically against one another helped  \nundergird understandings of both natural racial and gender differences.", 
  "The belief that men and  \nwomen are inherently physically different and therefore should have separate teams and practices  \ngoverned still governs most sporting experiences in the U.S. (Milner & Braddock, 2016).", 
  "This is  \nparticularly true for high-level elite sports such as NCAA college athletics, professional leagues  \nand the Olympics.", 
  "One of the sports in the study, track and field, had both gender integrated and  \nsegregated moments.", 
  "The track program was unified under one head coach, practice would occur  \nat similar times, but the workouts and competitions were gender segregated.", 
  "In reviewing the training schedules for athletes in the study, the distance running portion  \nof the track team had different and lesser mileage and time goals for women.", 
  "Women at their  \npeak averaging between forty-five to sixty miles compared to men who averaged between sixty  \nto seventy miles per week.", 
  "When I spoke to athletes about why track women would separate  \npractices or mileage and time goals, participants offered \u201cscientific\u201d explanations of the natural  \ndifferences between men and women.", 
  "Men and women track athletes alike spouted a great deal  \nof \u201cfacts\u201d about how their bodies differed.", 
  "Many referenced the \u201ctriad\u201d for women runners or  \nhow women are at greater risk for injury because extreme-training leads to altered menstrual  \ncycles.", 
  "The belief is, fewer periods can lead to low-iron levels, which makes athletes even more  \nsusceptible to osteoporosis and in turn stress fractures and other injuries.", 
  "\u201cScience\u201d justifying  \nwomen\u2019s limited athletic ability dates back nearly 150 years in the U.S., most of which has been  \ndisproven (Messner, 2002; Milner & Braddock, 2016; Stanley, 1996; Suggs, 2005).", 
  "The social  \nimpact of the triad still influenced men\u2019s perceptions of their women teammates.", 
  "Some men  \nmade affirmative statements like, \u201cgirls just break,\u201d justifying why women cannot train alongside  \nmen.", 
  "There were no gender patterns of injury in the study.", 
  "All forty-seven athletes regardless of  \n\fBlurred Lines  \nsport, race, or gender incurred a serious muscular, joint, ligament, or bone fracture injury at some  \npoint during their college career.", 
  "Even a few men\u2019s distance runners fell victim to the supposed  \nwomen \u201ctriad\u201d by having low-iron levels at some point during their training.", 
  "This perceived  \n\u201cfemale\u201d disorder is more likely due to high levels of training on hard surfaces than to gender.", 
  "Women track athletes did not passively accept the ideology of female inferiority.", 
  "More  \noften, they found through a life-long participation in sports areas to challenge the ideology of  \nnatural gender differences.", 
  "But there still was a tacit acceptance that as a woman, they could  \nnever be the \u201cbest\u201d in sport.", 
  "Kayla, a mixed-race long-distance runner spent most of her life  \ntraining with men.", 
  "She drew great confidence from beating her male teammates at practice.", 
  "But  \nshe could never be the best \u201cathlete.\u201d   \nI like the idea of a girl doing something that is considered better than what probably 99%  of people [can do].", 
  "Its annoying to me still that no matter what, the boys are going to be  faster... That bothers me.", 
  "But, its just the way it is.", 
  "But I think as a female athlete, I'm still  able to say that I'm better than most people at [running] (Interview One).", 
  "Kayla\u2019s statement reflects the partial rejection of the natural ideology of gender  \ndifference.", 
  "In one way she challenges the notion that she is athletically inferior to men.", 
  "As a  \nnationally ranked collegiate runner, she knows there are few men that could compete alongside  \nher.", 
  "But, she also believes that gender segregation is necessary because she is still slower than  \nher male teammates.", 
  "The fact that Kayla is measured by her times reflects how time as a unit of measurement  \nreinforces the ideology of natural differences.", 
  "In rowing, time was equally used as a  \nmeasurement to rank athletes ability.", 
  "The women rowers seemed simultaneously at peace with  \nand frustrated by the fact that men are just \u201cfaster\u201d than women.", 
  "The level of physicality, drive,  \nand fitness cannot be understated.", 
  "Many of these women spent over thirty hours per week, year- \nround to the best in the world at their sport.", 
  "But there was a somber recognition that they would  \n\fBlurred Lines  \nnever be as good as men.", 
  "Cooper, a White woman who competed in multiple world  \nchampionships, felt conflicted about gender segregation in sports:   \nIn the rowing world, the guys times, [are] just a minute faster.", 
  "And my competitive side  is like, 'So what they're a minute faster.", 
  "Be a minute faster.'", 
  "But for some reason we can't  get it down that low...And its just like, as long as there are guys there, for some reason we  can't be the fastest.", 
  "Its separated so its OK. And that's just the way it is.", 
  "They are better  than us and they deserve it if they really are.", 
  "Cause we train our butts off.", 
  "So if they're  able to beat us we know they're working hard too (Interview One)   \nCooper, like other top-female athletes felt grateful for the opportunity to be part of and  \ncompete for national championships, world championships, and Olympic medals.", 
  "But they were  \naware that if sports were integrated, they could not be the best in the world; having the asterisk  \nof \u201cwomen\u2019s\u201d champion seemed like a tolerable compromise.", 
  "Time also reinforced natural racial differences.", 
  "Rowing is a sport with two positions,  \ncoxswain and rower.", 
  "In contrast, track has multiple events, each with its own connection  \nbetween race and body.", 
  "During the interviews, track athletes recounted how they adopted their  \ncurrent position, either as a long-distance runner, jumper, sprinter, or thrower, through time- \nbased tests.", 
  "Youth athletes were assigned to an event based on how \u201cfast\u201d someone could be over  \na short distance.", 
  "Race-based slotting of people in different events to highlight physical skills  \nshapes the public\u2019s understanding that certain corporeal feats are connected to race (Carrington,  \n2013; Washington & Karen, 2001).", 
  "The rigid characterizations between body and race deny the  \nfluidity of racial categories.", 
  "There are just as many differences within a given category of race,  \nsay \u201cBlack,\u201d as there are across racial categories, say Black vs. White (Omi & Winnat, 2014;  \nSkiba, 2012).", 
  "Participants of all sports thought sprinters and jumpers were more likely to be  \nBlack, whereas mid and long-distance runners were more likely to be White.", 
  "Several White long distance runners began in the sprinting events and were weeded out  \ndue to their lack of speed.", 
  "Seamus, had one such history in the sport.", 
  "He began running sprints  \n\fBlurred Lines  \nand he was better than most kids at his school.", 
  "But at meets, \u201cI\u2019d get my ass kicked,\u201d he recalled.", 
  "One of his mentors intervened and said to him:   \n\u2018You're not a sprinter.", 
  "You're not what you think you are.", 
  "You're not Usain Bolt.\u2019 So that  was that.", 
  "That was the transition...and I guess all the sprinters were Black and I was  White, and all the distance runners were White.", 
  "So that was identifying where should I be  as a runner.", 
  "I definitely used that I was skinny and White and short (Interview One).", 
  "Seamus\u2019s story reflects the forces that positioned him as a distance runner.", 
  "He evaluated his  \ninitial performance against competitors; attributing his failure to his body, race, and sport.", 
  "Then,  \nhis mentor, someone with a long history of success in the sport, examined Seamus\u2019s body, and  \nbased on his race and physical features said he needed to do a different event.", 
  "After assessing his  \nbody, team\u2019s racial composition and mentor\u2019s advice, Seamus switched events.", 
  "Vera, a slender, six-foot tall woman, who is half German and half Haitian, also  \nexperienced racial slotting.", 
  "As early as Elementary school, Vera excelled in all forms of athletic  \nactivity.", 
  "She enjoyed running both long and short distances, but admitted her coaches and  \ncompetitors contributed to why she became a jumper.", 
  "I do think that some coaches thought, 'Oh she has Black in her so maybe she can be fast,'  or something like that.", 
  "Because they know that some Black people with a certain body  type are really good.", 
  "So I do think it kind of influences what people think of you.", 
  "For  example, once I had a meet, we were running hurdles and then, there was the person who  does the gun thing, and he was saying, 'Oh, I bet you'll win.'", 
  "To me.", 
  "I was the only Black  girl in the race.", 
  "Or half-Black.", 
  "And I was thinking, he said that probably because I'm  Black.", 
  "And I didn't end up winning (Interview One).", 
  "As a track athlete, Vera was also racialized as a Black person with innate physical differences.", 
  "Coaches used her Blackness to place her in events and cultivate certain talents.", 
  "Each time she  \nlined up to race, her Blackness was on display, as a marker that she should win.", 
  "When she loses,  \nher Blackness is not erased, instead, she fails both her race and as an individual.", 
  "The process of slotting athletes into events based on race continues within college.", 
  "Vera,  \nwas part of an exclusively Black jump squad at Coastal U.", 
  "In contrast, Andrew was one of two  \n\fBlurred Lines  \nWhite male sprinters on the track team and experienced the \u201cstigma\u201d associated to White  \nsprinters that reinforces a connection between Black bodies and \u201craw athleticism.\u201d   \nAndrew: I was a pretty key part of the four-by-four [relay squad].", 
  "I was part of the team  that ran the fastest time.", 
  "And I was replaced on that four-by-four for [Conference  championships] and so everyone on the [new relay] team, was African American origin.", 
  "So I was replaced by a Black athlete.", 
  "And there was some grumblings to me about that.", 
  "I  try to shrug that off.", 
  "They also did really poorly, which I try not to be too happy about.", 
  "I  think there's always some stigma about being a White sprinter\u2026people talk about it.", 
  "Like  there's another White sprinter\u2026and he always talks about, 'Like yeah, I beat a Black guy.'", 
  "And I was like, 'OK.", 
  "I don't normally look at the color of my competition.'", 
  "I guess other  people do.", 
  "Because it is so prevalent.", 
  "And there's a negative or stigma about being a  White sprinter.", 
  "KH: What's the stigma around it?", 
  "Andrew: That we're not as fast.", 
  "You don't see a lot of--there's some good White sprinters.", 
  "There's generally the thought that White sprinting is not as fast (Interview One).", 
  "Andrew\u2019s account of a \u201cstigma\u201d against White sprinters reaffirms natural racial differences on  \nvarious levels.", 
  "Andrew is caught within the social understandings that substantiate White  \nsupremacy.", 
  "White supremacy is sustained through the interrelated racial logic that 1) sprinting is  \na \u201cBlack\u201d event, which reinforces how 2) that Black and White bodies are fundamentally  \ndifferent, which leads to the final assumption or 3) that Black bodies are \u201cfaster\u201d or can complete  \na set distance in a shorter time.", 
  "The negative stigma, as Andrew put it, connected to White sprinters, reinforces that  \nBlack bodies are inherently faster than White bodies.", 
  "This denies the process of social slotting,  \nor as Seamus\u2019 earlier account showed, how young athletes are identified by coaches and placed  \nin events based on race.", 
  "It also denies the continued labor and effort that goes into a top  \nperforming athlete.", 
  "The athlete interviews showed that across sports, athletes had ten years of  \ntraining, averaging between 15-20 hours per week, year-round, before they arrived at college.", 
  "This effort and investment is erased as Black sprinters are reduced to success based on \u201cnatural\u201d  \nracial differences rather than the time and effort they put into a life-time of sports participation  \n\fBlurred Lines  \n(Azzarito & Harrison, 2008).", 
  "Finally, Andrew\u2019s potential to resist the racial connection between  \nspeed and Blackness is denied in this interaction.", 
  "Andrew as a successful White sprinter should  \nhave the opportunity to disprove the connection between race and certain time-based physical  \nfeats.", 
  "Instead, he is stuck between two social meanings: support \u201creverse racism\u201d or \u201ccolorblind\u201d  \ntalk.", 
  "He can join his teammates \u201cgrumblings\u201d of reverse racism, that he was denied a spot on the  \nconference championship sprinting team not because of his ability but because of his race.", 
  "Reverse racism disguises White supremacy by trying to equate the experiences of White people  \nas racial subjects as equal to that of other racial groups (Delgado & Stefancic 2012).", 
  "Instead, he  \nchooses colorblind talk that also denies the existence of race (Bonilla-Silva, 2010).", 
  "He has to  \nerase his own and his competitors racial position which does little to contest the dominant  \nunderstanding of race as \u201cnatural\u201d feature of human society.", 
  "Time as a unit of measurement and evaluation is used throughout sports to confer a  \nvictor.", 
  "Yet within social settings in which humans interact with one another, time cannot be an  \n\u201cobjective\u201d measure.", 
  "Instead, it is imbued with social meanings, in this case, those that  \ncontribute to \u201cnatural\u201d differences across race and gender.", 
  "Time helps categorize certain bodies  \nbased on race and gender.", 
  "White, male supremacy is maintained as women bodies are  \nconstructed as inherently weaker and Black bodies are constructed as \u201cnaturally\u201d physical.", 
  "In  \neach instance, the differences across race and gender are exaggerated and seen as \u201cnatural.\u201d In  \ndoing so the socialization processes that bring about race and gender categories are denied.", 
  "Further, the production, contestation, and ultimately reproduction of natural ideologies within  \nsport do not remain in the sports context.", 
  "The stories shared above come from student-athletes.", 
  "Their understanding of race and gender are carried with them into other parts of the University.", 
  "Blurred Lines  \n\nSelf-Presentation  \nAnother way athletes reinforced ideologies of natural difference was through self- \npresentation, defined here as dress and behavior.", 
  "As part of the enculturation into athletic  \nprograms, college athletes signed agreements with their teams, athletic department, and the  \nNCAA that governed \u201cappropriate\u201d self-presentation.", 
  "Equally important were the informal  \nbehavioral norms that emerged through interactions amongst the team.", 
  "These \u201ccommon sense\u201d  \nideas about what constituted a proper athlete\u2019s appearance, demeanor, and approach to training,  \nwere another mechanism that circulated the natural ideologies of race and gender.", 
  "Policies extended to both the type of clothing and how to wear the clothing.", 
  "In general,  \nthere was more attention paid to the rules around women\u2019s clothing and attire at practice.", 
  "Casey,  \na white woman on the rowing team, noted that in the weight room, men could go shirtless.", 
  "\u201cOf  \ncourse, the men's teams get to practice with their shirts off.", 
  "Whereas if we even have a crop-top,  \nit\u2019s like, what are you doing?", 
  "Who are you?", 
  "You're crazy, put a shirt on,\u201d (Interview two).", 
  "CM,  \nalso a white woman, also noticed that male track athletes went shirtless at practice, but in five  \nyears on the team, she never saw women do the same.", 
  "One reason for this are the gender-based  \nrules associated with behavior.", 
  "The assumption that men could train shirtless while women could  \nnot is a social norm that reinforces \u201cnatural\u201d bodily differences between men and women.", 
  "As  \nathletes performing the same physical acts there should be no different in the approach to  \nuniform and equipment.", 
  "Yet female bodies in sport settings are seen as sexual objects rather than  \npeers or athletic performers (Cooky et al, 2015; Daniels & Wartena, 2011; Dworkin & Messner,  \n2002; Messner, 2002; 2007).", 
  "A famous example occurred in the 1999 World Cup tournament in  \nwhich Brandi Chastain, after scoring a goal to win the championship for the United States, took  \noff her jersey in a moment of sheer celebration.", 
  "The continued commentary in sports media  \n\fBlurred Lines  \nshifted to her aesthetics and if it was \u201cappropriate\u201d for a woman to showcase her body in this  \nway, rather than to the athletic accomplishments of the U.S. women\u2019s team (Messner, 2002;  \nMessner et al, 2003; Schultz, 2004).", 
  "As Casey recounted, when she tried to resist this dress code  \nby taking off her shirt or showing off her stomach in any way, she was called \u201ccrazy.\u201d The  \ncensoring of her behavior came from those around her, focusing on how she looked, rather than  \nhow she performed during the practice or weight-lifting session.", 
  "The \u201crules\u201d around proper female behavior and dress, were often enforced by teammates  \ninteracting with one another.", 
  "Female athletes on both teams easily recited the behavioral and  \nappearance standards attached to their sports like how to wear the uniform; appropriate brand  \nnames to wear to practice; self-presentation and aesthetics; and how to compose oneself.", 
  "The way in which we're told to carry ourselves.", 
  "The way in which you present yourself in  social media.", 
  "The way in which you act at practice.", 
  "If you are erging a really hard piece,  you don't dramatically fall off your erg.", 
  "You do not scream\u2026I think it\u2019s much more than  an athletic thing.", 
  "It\u2019s a person thing of how you're expected to even look.", 
  "You're not  going to walk around with your uni rolled down.", 
  "When you walk in when you're ready to  go to practice, your hair is pulled back.", 
  "You're ready to go.", 
  "And I think that you have to  buy into it.", 
  "That's not everyone.", 
  "(Noelle, Interview two).", 
  "The commonsense attitude that women\u2019s rowers took towards these behavioral norms reinforced  \nthe exclusivity behind the sport.", 
  "As Noelle put it, people had to \u201cbuy in\u201d to their team culture, or  \nthey would be rejected.", 
  "Noelle\u2019s team was composed of mostly White, middle and upper middle  \nwomen emerging from a similar schooling, sport, and socio-economic background.", 
  "In order to fit  \ninto her team, athletes had to display a narrow form of White, middle class femininity.", 
  "In her  \nresponse, she references that women must censor their tone and emotions during a hard workout.", 
  "They cannot \u201cscream\u201d or show too much emotion during a hard practice.", 
  "They cannot roll down  \ntheir \u201cuni\u201d or one-piece uniform, which would display their sports-bra and stomach.", 
  "In this way,  \nthey must keep their torso covered.", 
  "They must have their hair worn in a certain way.", 
  "All of these  \n\fBlurred Lines  \nrules inscribe a particular form of White, middle class femininity, that someone from a different  \ncultural orientation towards sport, or with different hair or phenotypical features, may  \nautomatically be rejected from.", 
  "The \u201cnatural\u201d gender differences, therefore are connected to race  \nand class understanding.", 
  "A \u201cwoman\u201d therefore, is not only different from a man, but she is more  \nlikely to be White and middle class.", 
  "The behavioral and dress standards were amplified in the more racially and  \nsocioeconomically diverse setting of track and field.", 
  "Sprinting and jumping were described by  \nboth Black and White participants as more physical and natural events.", 
  "In contrast distance  \nrunning, an endurance sport, was seen as requiring consistent practice, discipline, time, and  \neffort.", 
  "Sanya, a White distance runner, lamented that the jumpers and sprinters can treat their  \nbodies and their sport with less seriousness and intention compared to the distance runners.", 
  "Jumpers and sprinters, those girls eat like shit.", 
  "They're very unhealthy.", 
  "I'm telling you.", 
  "It\u2019s amazing what they eat before races in the locker-room.", 
  "All of us distance runners are  like, 'I haven't eaten that since--' It\u2019s insane what they do.", 
  "But they're just, the power  movement.", 
  "I think too, the power moves, the way that uses energy in your body, helps  you burn fat more (Interview One).", 
  "Sanya\u2019s articulation of the various eating patterns amongst her team reaffirms the  \nconnection between bodies, sport, and race.", 
  "She sees the sprinters, which are majority Black, as  \ninherently different from herself.", 
  "They can eat, diet, and athletically perform in a way that is  \ndifferent from her mostly White long-distance running teammates.", 
  "She relies on her knowledge  \nof the sport\u2014that sprinting requires \u201cpower\u201d whereas long distance running requires  \n\u201cendurance\u201d\u2014to justify the racial differences.", 
  "Yet when I spoke with jumpers and sprinters, they  \ntoo worried about their weight and what they eat.", 
  "Imani, Chantae, Brittany, and Vera, all  \nexplained how they had been on and off weight-loss routines to improve their athletic  \nperformance.", 
  "Due to the pervasiveness of the ideology that there are natural racial difference,  \n\fBlurred Lines  \nSanya linked her observations to biological rather than socially constructed boundaries between  \nracial groups.", 
  "Duane, a Black male who spent time in both sprinting and long-distance running events,  \nconfirmed Sanya\u2019s observations.", 
  "He too believed there were behavioral differences that factor  \ninto the social stereotypes associated to Black and White racial categories.", 
  "The sprinter side of things and the distance side of things were very different.", 
  "It goes  from, sprinters like, 'Aw, I'm going to be faster than you today.", 
  "Who can beat you.", 
  "Blah  blah.'", 
  "And then the distance side which is a lot more humble, a lot more modest, a lot  more--you prove what you have on the track... You can't do what you do as a football  player or basketball player and succeed in a distance sort of regime.", 
  "Their diet is a lot  looser.", 
  "Their habits outside are a lot different...[In distance events] you run, and you're in  pain.", 
  "You're running for so long.", 
  "I do like sixty to seventy miles a week.", 
  "When you're  running that long, and doing a lot that work, it\u2019s an intense thing (Interview One).", 
  "In Duane\u2019s own formulation, it seemed that long distance runners put in more work and had  \nbetter habits and routines whereas sprinters were more likely to be \u201clooser\u201d and have a more  \nunstructured approach to sport.", 
  "In his explanation, he ties sprinters to other predominately Black  \nsports like football and basketball to further his point, reaffirm a connection between race and  \nbehavior.", 
  "He also elevates the behavior in a predominately White running squad as more serious,  \nfocused, disciplined, and overall better than in the predominately Black sprinting community.", 
  "In  \ndoing so, White bodies and behavior remain the normed and dominant group.", 
  "Through a life-time in school sports, Duane like his female teammates, came to adopt the  \nideologies of \u201cnatural\u201d difference that denies their oppression.", 
  "As the next section demonstrates,  \nDuane too is on the receiving end of harmful racial constructions that separate and naturalize  \ndifferences between Black and White bodies.", 
  "Language (and silence)  \nIn Althusser\u2019s formulation of interpellation, or how ideology creates a subject, language  \nplays an essential role.", 
  "Words exchanged within social communities can (re)inscribe or (re)create  \n\fBlurred Lines  \na particular subjectivity (Althusser, 1971; Weedon, 1987).", 
  "The ideologies of \u201cnatural\u201d racial  \ndifference are transmitted through particular words that within context evoke particular meanings  \nthat reposition disenfranchised groups as unequal and relegated to a marginalized social status.", 
  "In  \nthis study, I observed the power of language to unite one community against another.", 
  "But I also  \nobserved the power of silence or the lack of language regarding certain racially and gendered  \ncharged moments.", 
  "In both instances language became the vehicle to transmit dominant  \nideologies and reinforce White male supremacy.", 
  "Duane\u2019s understanding of racial difference amongst the sprinting and long distance  \nevents was further complicated by this own racial position on the team.", 
  "As one of two Black  \nmale distance runners on the squad, he noted how language practices, namely his teammates and  \ncoaches calling him the wrong name and mistaking him for the other Black long distance runner,  \nreinforced their otherness and separateness from the rest of the squad.", 
  "We do get mixed up a lot.", 
  "So his name is Ed.", 
  "And sometimes, I'll be walking up to my  coach or something, and I'm like, 'hey coach, here's what I'm going to do.'", 
  "And he's like,  'Alright, good job Ed.'", 
  "Or something\u2026I've been mixed up with a few other Black athletes  on the sprint squad, with the equipment lady.", 
  "So, my teammates, sometimes, slip up.", 
  "They'll be like, 'hey Ed.'", 
  "Or something.", 
  "And I'll look around like, 'Where?'", 
  "I mean, it  happens a lot.", 
  "I mean we hang out a lot.", 
  "So I think that's part of it (Interview Two).", 
  "Through this interactions with their coach and teammates, Duane and his teammate Ed morphed  \ninto an interchangeable token Black long distance runner.", 
  "With the male-only team of men\u2019s rowing, women were constructed in a similarly  \ndehumanizing form with language practices.", 
  "The previous descriptions of how women must be  \naesthetically prepared and behaviorally censored at practice starkly contrasted with the men\u2019s  \nrowing descriptions.", 
  "None of the male rowers recalled rules about dress or behavior for their  \nteam.", 
  "Instead, they recounted how their culture that leads to athletic success is all about the  \n\u201chype.\u201d The \u201chype\u201d included shouting, hitting, and yelling at one another before the workout  \n\fBlurred Lines  \nbegan.", 
  "The team viewed it as a necessary part of their training to develop the \u201caggression\u201d  \nneeded for their sport.", 
  "Steve, a white British rower described his team as \u201cvocal.\u201d \u201c[W]e'll shout  \nand scream a lot and sort of hype each other up and slap each other and stuff like that.\u201d When I  \npressed several of the men to describe what they meant by \u201chype\u201d or \u201caggression\u201d they  \nresponded with a general sense of \u201cdon\u2019t be a pussy.\u201d  Will, an Australian on the men\u2019s team,  \nelaborated on what this \u201cdon\u2019t be a pussy\u201d culture meant to him.", 
  "We're out there to try and win.", 
  "I don't know how to say it kinda nicely.", 
  "There's no one  being a pussy.", 
  "That's the one thing, no one wants to see someone being a pussy... No  people being weak.", 
  "And people are scared to look weak.", 
  "If you get off an erg, everyone  will talk.", 
  "Everyone knows, 'Oh that guy he's a pussy.'", 
  "...So it's a culture that, in a way,  that's a bit aggressive of a way to pull people up, having the fear of being out-casted, but  in a way, it works, and it works very well (Interview Two).", 
  "The word \u201cpussy\u201d represents a set of socializing athletic behaviors including elevating their  \nathletic performance, pushing through pain, finishing the task at hand, and building trust amongst  \none another.", 
  "To build a cohesive team bond the men enacted a caricature of overt masculinity  \nthat hinged on degrading women.", 
  "Their sense of what it meant to be a high performing \u201cmale\u201d  \nathlete was defined in opposition to women.", 
  "They all kept in line because they did not want to be  \nperceived as \u201cweak\u201d or womanly.", 
  "Further, the word \u201cpussy\u201d which is a slang term for female  \ngenitals, reinforced that there are inherent and natural differences between men and women.", 
  "One reason why the male rowers\u2019 actions went unquestioned was the school\u2019s athletic  \ncommunity remained silent around critical issues.", 
  "Despite several high-profile sexist and racist  \ninstances through the year, and, infinite micro-aggressions, no student-athlete recalled a coach or  \na leader engaging the team in discussions\u2014critical or otherwise\u2014about race or gender.", 
  "The  \nsilence surrounding inequity in sports settings seemed particularly jarring to the students who  \nsuffered at the hands of social structures and/or who studied these ideas in the classrooms.", 
  "LeVar, a Black male triple-jumper, could not understand how his fellow teammates and  \n\fBlurred Lines  \nSociology majors failed to grasp how their actions and language harmed him.", 
  "LeVar explained  \nhow his event is often perceived as more \u201cfeminine\u201d because, on the surface it looks like  \n\u201cprancing down the runway.\u201d   \nYeah, it\u2019s come pretty frequently from people inside the team that just make grossly,  sexist, grossly demeaning comments based on things that are within the nature of the  event.", 
  "And it\u2019s ridiculous...There's no excuse for ignorance... God, you can't go to class  everyday and get an A on a final talking about gender stereotypes and then go back and  call somebody a Faggot.", 
  "It\u2019s like, 'Ey, come on now, let's be adults here' (Interview one).", 
  "LeVar\u2019s experience reflects how critical ideas floating through the community are in  \nthemselves not enough to bring about social change.", 
  "He noted that as college students, athletes  \nare exposed to a great wealth of knowledge, such as critical theories of power that discuss  \npatriarchy and White supremacy.", 
  "In addition, Coastal U itself required sexual harassment  \ntraining and periodically invited guest speakers to talk about student-athlete stereotypes or sexual  \nassault.", 
  "But critical inquiry into how racism, sexism, capitalism, and homophobia shape the  \ninteractions between student-athletes was absent.", 
  "No participant recalled their team or coach  \nmeetings discussing how larger inequalities impacted how they interacted with one another.", 
  "The  \nsilence surrounding racism and sexism in sport is especially troubling because educational  \nscholarship advocates social change through critical inquiry (Freire, 2000; Giroux, 1981).", 
  "Conclusion  \nThe Gramscian approach to reproduction encourages scholars to examine for individuals  \nand social groups pick up, contest, and produce their own meanings in the social world.", 
  "This  \nsecond wave of critical education scholarship noted that ideology is not simply something forced  \nupon subjects, but rather emerges in a collaborative effort.", 
  "This study found the same to be true  \nwithin college sports.", 
  "Through an educationally sponsored entity, athletes learn, adopt, and  \nreinforce dominant ideologies of race and gender difference.", 
  "But as Willis (1977) noted,  \n\fBlurred Lines  \nparticipants do not passively accept these ideologies.", 
  "Instead, I also observed participants of  \nhistorically oppressed communities, women and/or people of color, grappling with the ideologies  \nthey knew reproduced their own social inferiority.", 
  "They could name and articulate how the  \nnotions of \u201cnatural\u201d race and gender difference reproduced their marginalized status.", 
  "But they  \nstill participated in the reproduction process.", 
  "To better understand why members of oppressed groups reproduce ideologies that harm  \nthem, future research will examine, in greater detail, the enculturation process for college sports.", 
  "The initial findings showcased an all-encompassing state of being connected to college athletics  \nthat is not present in other explanations of sport or school.", 
  "For college athletes, their entire lived  \nexperience in higher education is predicated on their sport community, in a way that is  \nunparalleled to any other student group.", 
  "I will further examine what binds athletes to their team  \nand makes them feel semi-powerless to question the key notions within sports.", 
  "A related  \nendeavor will be to understand how to introduce critical dialogue into these all-inclusive sport  \ncommunities.", 
  "The fundamental mechanisms within schools are meant to promote rather than  \nminimize social differences.", 
  "But a kernel of utopia remains in their theories.", 
  "Critical education  \nscholars believe if schools can shape national-wide inequity, the same mechanisms within  \nschools could also undo persistent inequality (Cho, 2011; Giroux, 1981; Freire, 2000; McLaren,  \n2007).", 
  "Future research will examine if the same possibility is true for school-sports.", 
  "Blurred Lines  \nAdler, P. & Adler, P. (1991).", 
  "Backboards & Blackboards.", 
  "New York: Columbia University   \nReference List  \nAlthusser, L.  (1971).", 
  "Lenin and Philosophy.", 
  "New York: Monthly Review.", 
  "Apple, M. (2004) Ideology and Curriculum.", 
  "3rd Ed.", 
  "New York, NY: RoutledgeFalmer.", 
  "Azzarito, L., & Harrison Jr, L. (2008).", 
  "White Men Can't Jump' Race, Gender and Natural   \nAthleticism.", 
  "International review for the sociology of sport, 43(4), 347-364.", 
  "Bonilla-Silva, E. (2010).", 
  "Racism without racists: Color-blind racism and the persistence of   \nracial inequality in the United States, 3rd Edition.", 
  "New York, NY: Rowman & Littlefield.", 
  "Bourdieu P. (1978) Sport and Social Class.", 
  "Social Science Information, 17(6): 819-840.", 
  "Bourdieu, P., & Passeron, J.", 
  "(1977).", 
  "Reproduction in Education, Society, and Culture.", 
  "Thousand  \nOaks, CA: Sage Publications.", 
  "Bowles, S. & Gintis, H. (1976).", 
  "Schooling in capitalist America.", 
  "New York: Basic Books.", 
  "Bruce, T. (2004).", 
  "Marking the boundaries of the \u2018normal\u2019in televised sports: The play-by-play of   \nrace.", 
  "Media, Culture & Society, 26(6), 861-879.", 
  "Carrington, B.", 
  "(2001) \u2018Fear of a Black Athlete: Masculinity, Politics and The Body\u2019, New   \nFormations, 45: 91\u2013110.", 
  "Carrington, B.", 
  "(2013).", 
  "The critical sociology of race and sport: The first fifty years.", 
  "Annual   \nReview of Sociology, 39, 379-398.", 
  "Cho, S. (2012).", 
  "Critical pedagogy and social change.", 
  "New York: Routledge.", 
  "Comeaux, E. & Harrison, C.K.", 
  "(2011).", 
  "A conceptual model of academic success for student-  \nathletes.", 
  "Educational Researcher, 40: 235-246  \n\nConnell, R. W. (2005).", 
  "Masculinites, 2nd Ed.", 
  "Berkeley, CA: University of California Press.", 
  "Cooky, C., Messner, M. A., & Musto, M. (2015).", 
  "\u201cIt\u2019s dude time!\u201d A quarter century of   \nexcluding women\u2019s sports in televised news and highlight shows.", 
  "Communication &  Sport, 1-27.", 
  "Daniels, E. A., & Wartena, H. (2011).", 
  "Athlete or sex symbol: What boys think of media   \nrepresentations of female athletes.", 
  "Sex Roles, 65(7-8), 566-579.", 
  "Davis, L. R., & Harris, O.", 
  "(1998).", 
  "Race and ethnicity in US sports media.", 
  "In L. Wenner (Ed.)", 
  "MediaSport (pp.154-169) London, UK: Routledge.", 
  "Blurred Lines  \nDelgado, R., & Stefancic, J.", 
  "(2012).", 
  "Critical race theory: An introduction.", 
  "New York, NY: New   \nYork University Press.", 
  "Dworkin, S. & Messner, M. (2002).", 
  "Just do\u2026what?", 
  "Sports, bodies, and gender.", 
  "In, Sheila   \nScranton and Anne Flintoff (Eds.)", 
  "Gender and Sport: A Reader, p. 17-29.", 
  "London, UK:  Routledge.", 
  "Freire, P. (2000).", 
  "Pedagogy of the oppressed.", 
  "Bloomsbury Publishing.", 
  "Gaston-Gayles, J. L. (2004).", 
  "Examining academic and athletic motivation among student-athletes   \nat a Division I university.", 
  "Journal of College Student Development, 45(1), 75-83.", 
  "Giroux, H. (1981).", 
  "Ideology, culture, and the process of schooling.", 
  "Philadelphia, PA: Temple   \nUniversity Press.", 
  "Gramsci, A.", 
  "(1971).", 
  "Selections from Prison Notebooks.", 
  "New York: International.", 
  "Guttmann, A.", 
  "(1994).", 
  "Games and empires: modern sports and cultural imperialism.", 
  "New York,   \nNY: Columbia University Press.", 
  "Guttmann, A.", 
  "(2004).", 
  "From ritual to record: The nature of modern sports.", 
  "New York,   \nNY:  Columbia University Press.", 
  "Jayakumar, U. M., & Comeaux, E. (2016).", 
  "The Cultural Cover-Up of College Athletics: How   \nOrganizational Culture Perpetuates an Unrealistic and Idealized Balancing Act.", 
  "The  Journal of Higher Education, 87(4), 488-515.", 
  "Kaliss, G. (2013).", 
  "Men\u2019s college athletics and the politics of racial equality: Five pioneer   \nstories of Black manliness, White citizenship, and American democracy.", 
  "Philadelphia,  PA: Temple University Press.", 
  "Kliebard, H. (1995).", 
  "The Struggle for the American Curriculum, 2nd Ed.", 
  "New York, NY:   \nRoutledge.", 
  "Lareau, A.", 
  "(2003).", 
  "Unequal childhoods.", 
  "Berkeley: UC Press.", 
  "LeCompet, M. (2000).", 
  "Analyzing qualitative data.", 
  "Theory into practice, 39(2): 146-154.", 
  "Leonardo, Z.", 
  "(2010a).", 
  "Affirming Ambivalence: Introduction to Cultural Politics and Education.", 
  "In Z. Leonardo (Ed.", 
  "), Handbook of Cultural Politics and Education, (1-45).", 
  "Rotterdam:   Sense Publishers.", 
  "Lenskyj, H. (1988).", 
  "Measured time: Women, sport and leisure.", 
  "Leisure Studies, 7(3), 233-240.", 
  "Martens, M.P, & Lee, F.K.", 
  "(1998) Promoting life-career development in the student-athlete:   \n\fBlurred Lines  \nHow can career centers help?", 
  "Journal of Career Development, 25: 123-134.", 
  "Martin, C. (2010).", 
  "Benching Jim Crow: The Rise and Fall of the Color Line in Southern   \nCollege Sports 1890-1980.", 
  "Urbana: University of Illinois Press.", 
  "McCormick, R., & McCormick, A.", 
  "(2006).", 
  "The Myth of the Student-Athlete: The College   \nAthlete as an Employee.", 
  "Washington Law Review Association.", 
  "81(71) 71-157.", 
  "McLaren, P. (2007).", 
  "Life in schools: an introduction to critical pedagogy in the foundations of   \neducation.", 
  "5th Ed.", 
  "Boston, MA: Pearson/Allyn and Bacon.", 
  "Messner, M. (1995).", 
  "Power at Play: Sports and the Problem of Masculinity.", 
  "Boston,   \nMA: Beacon Press.", 
  "Messner, M. (2002).", 
  "Taking the Field: Women, men and Sports.", 
  "Minneapolis, MN: University of  Minnesota Press.", 
  "Messner, M. (2007).", 
  "Out of play: Critical essays on gender and sport.", 
  "New York, NY: State   \nUniversity of New York Press.", 
  "Messner, M. A., Duncan, M. C., & Cooky, C. (2003).", 
  "Silence, sports bras, and wrestling porn:   \nWomen in televised sports news and highlights shows.", 
  "Journal of Sport and Social  Issues, 27(1), 38-51.", 
  "Milner, A., & Braddock II, J.", 
  "(2016).", 
  "Sex Segregation in Sports: Why separate is not equal.", 
  "Santa Barbara, CA: Praeger  \n\nNCAA (2016).", 
  "Division I Manual, 2016-2017.", 
  "Indianapolis, ID: National Collegiate Athletic   \nAssociation.", 
  "NCAA (2017).", 
  "Student-Athletes.", 
  "NCAA.org.", 
  "Retrieved from: http://www.ncaa.org/student-  athletes  \nNoguera, P. (2003).", 
  "Schools, prisons, and the social implications of punishment: Rethinking   \ndisciplinary practices, Theory into Practice, 42, 341-50.", 
  "Oakes, J.", 
  "(2005).", 
  "Keeping track: How schools structure inequality.", 
  "New Haven, CT: Yale   \nUniversity Press.", 
  "Oakley, A.", 
  "(1981) Interviewing Women: a contradiction in terms.", 
  "In H. Roberts (Ed.)", 
  "Doing   \nFeminist Research.", 
  "(p. 30-61) London, UK: Routledge and Kegan Paul.", 
  "Prusser, B., & Marginson, S. (2013).", 
  "University rankings in critical perspective.", 
  "The Journal of   \nHigher Education, 84(4): 544-568.", 
  "Rudolph, S. (2005).", 
  "Presidential address: The imperialism of categories: Situating knowledge in   \na globalizing world.", 
  "Perspectives on Politics, 3(1): 5-14.", 
  "Blurred Lines  \nSchultz, J.", 
  "(2004).", 
  "Discipline and push-up: Female bodies, femininity, and sexuality in popular   \nrepresentations of sports bras.", 
  "Sociology of Sport Journal, 21(2), 185-205.", 
  "Smith, R. (2011).", 
  "Pay for Play: A history of big-time college athletic reform.", 
  "Urbana, IL:   \nUniversity of Illinois Press.", 
  "Soss, J.", 
  "(2013).", 
  "Talking our way to meaningful explanations: A practice-centered view of  \ninterviewing for interpretive research.", 
  "In D. Yanow and P. Schwartz-Shea (Eds.)", 
  "Interpretation and method: Empirical research methods and the interpretive Turn, 2nd ed.", 
  "(pp.161-182).", 
  "Armonk, NY: M.E.", 
  "Sharpe.", 
  "Sperber, M. (2000).", 
  "Beer and Circus: How Big-Time College Sports is Crippling Undergraduate   \nEducation.", 
  "New York: Henry Holt and Company.", 
  "Suggs, W. (2005).", 
  "A place on the team: The triumph and tragedy of Title IX.", 
  "Princeton, NJ:   \nPrinceton University Press.", 
  "Sut, J.", 
  "(1989) Cultural Studies and the Sport/Media Complex.", 
  "In L. Wenner (Ed).", 
  "Media, Sports,   \nand Society.", 
  "(pp.", 
  "70-97).", 
  "Newbury Park: Sage Publications.", 
  "Thelin, J.", 
  "(2011).", 
  "A history of American higher education, 2nd Edition.", 
  "Baltimore, MD: The   \nJohns Hopkins University Press.", 
  "Upcraft, M. L., & Stephens, P. S. (2000).", 
  "Academic advising and today\u2019s changing students.", 
  "In   \nV. N. Gordon & W. Habley (Eds.", 
  "), Academic advising: A comprehensive handbook   (pp.73\u201383).", 
  "San Francisco: Jossey-Bass.", 
  "Van Sterkenburg, J., Knoppers, A., & De Leeuw, S. (2010).", 
  "Race, ethnicity, and content analysis   \nof the sports media: A critical reflection.", 
  "Media, Culture & Society, 32(5), 819-839.", 
  "Washington, R., & Karen, D. (2001).", 
  "Sport & society.", 
  "Annual Review of Sociology.", 
  "27: 187-212.", 
  "Watt, S., & Moore, J.", 
  "(2001).", 
  "Who are student-athletes?", 
  "New Directions for Student Services.", 
  "2001(93): 7-18.", 
  "Willis, P. (1977).", 
  "Learning to labor: How working class kids get working class jobs.", 
  "New York,  NY:  Columbia University Press.", 
  "Willis, P. (1981).", 
  "Cultural production is different from cultural reproduction is different from   \nsocial reproduction is different from reproduction.", 
  "Interchange, 12(2-3): 48-67.", 
  "Yanow, D. (2013).", 
  "Neither rigorous nor objective?", 
  "Interrogating criteria for knowledge in   \nclaims in interpretive science.", 
  "In D. Yanow and P. Schwartz-Shea (Eds.)", 
  "Interpretation  and method: Empirical research methods and the interpretive Turn, 2nd ed.", 
  "(pp.97-119).", 
  "Armonk, NY: M.E.", 
  "Sharpe."
 ]
}