{
 "document_id": "1174165.1", 
 "sentences": [
  "Running head: MULTILEVEL MODEL OF EARLY READING GROWTH  \nDoes SES Gap and Racial Gap exist in Early Reading Growth?", 
  "A Multilevel Model of Early Reading Growth   \n\fMULTILEVEL MODEL OF EARLY READING GROWTH     \nAbstract  \nSubstantial development and changes have occurred in our social, and educational systems, and a  \nchild\u2019s growth trajectory might be influenced.", 
  "Data from the first two years of the Early  \nChildhood Longitudinal Study \u2013 Kindergarten: 2011 were used to document early reading  \ngrowth trajectories of children from kindergarten to first grade via hierarchical linear models to  \nillustrate current children\u2019s reading growth in the United States.", 
  "The purpose of the current study  \nis to illustrate the racial/ethnic and socioeconomic disparities in early reading ability among  \nchildren.", 
  "Results found children from minority groups had lower initial reading ability and  \ngrowth rate.", 
  "However, while the SES gap existed in child\u2019s initial reading ability, but children  \nfrom low SES family could catch up after entering kindergarten.", 
  "Keywords: reading growth, ECLS-K:2011, longitudinal study, hierarchical linear model  \n\fMULTILEVEL MODEL OF EARLY READING GROWTH     \nIntroduction  \nReading skills in early childhood are known to influence reading achievement in later grades  \n(Butler, Marsh, Sheppard, & Sheppard, 1985; Cunningham & Stanovich, 1997).", 
  "As early as  \nkindergarten, children can display a variety of levels of reading ability, which could  \nsubsequently relate to their growth trajectories (Adams, 1991; Christian, Morrison, & Bryant,  \n1998 ).", 
  "Additionally, many factors have been proposed that are linked to children\u2019s early reading  \ngrowth, including gender, race, family socioeconomic status and cultivation, and schooling  \n(McCoach, O'Connell, Reis, & Levitt, 2006; Cheadle, 2008).", 
  "The current study uses data from ECLS-K:2011 to investigate the reading growth of children  \nwithin this cohort and explore racial and socioeconomic disparities in early reading ability across  \nchildren with and without disabilities.", 
  "Research Questions   \nThe purpose of this study is to illustrate the reading growth trajectory of children who attended  \nkindergarten during the 2010-11 school year and investigate if racial or socioeconomic  \ndisparities exist.", 
  "The current study features several research questions:  \n1.", 
  "Does reading ability vary among individual children?", 
  "2.", 
  "Does a linear or quadratic growth trajectory curve best describe the rate of change in  \nreading ability from kindergarten to first grade?", 
  "3.", 
  "Is there significant variability in children\u2019s initial reading ability or reading growth rate  \nfrom kindergarten to first grade?", 
  "MULTILEVEL MODEL OF EARLY READING GROWTH     \n4.", 
  "Do racial disparities exist in child\u2019s initial reading ability or growth rate from the  \nkindergarten to first grade?", 
  "5.", 
  "Do socioeconomic disparities exist in children\u2019s initial reading ability or growth rate from  \nkindergarten to first grade?", 
  "The Early Childhood Longitudinal Study (ECLS) program was conducted by the  \nNational Center for Education Statistics (NCES), which currently comprises of three longitudinal  \nstudies of young children.", 
  "The ECLS-K:2011 covers child development, early learning, and  \nschool progress, and collects information from multiple sources.", 
  "All of this information is  \nintended to provide current information about today\u2019s elementary school children.", 
  "The current study used four waves of released data from the public-use dataset of ECLS- \nK:2011: the fall and spring semesters of kindergarten and first grade, containing children level  \ninformation and parent interview.", 
  "Exclusionary criteria were applied to the original dataset before data analysis.", 
  "Participants were excluded from our analysis if they were:  \n1.", 
  "Children who were repeating kindergarten.", 
  "2.", 
  "Children who answered less than ten items in reading assessment during any of the four- \ntime points.", 
  "3.", 
  "Children who didn\u2019t pass the pre-test in English language ability.", 
  "4.", 
  "One of a set of twins to avoid clustering effects.", 
  "MULTILEVEL MODEL OF EARLY READING GROWTH     \nAfter removing those who met the exclusion criteria, the effective sample size for the study was  \n2668 children.", 
  "Of these children, 19.90% are children with disability, and 47.41% of them are  \n\nInstrumentation1  \nReading assessments.", 
  "The ECLS-K:2011 measures early literacy and reading skills  \nusing an adaptive item response theory (IRT)-scaled reading assessment.", 
  "The reading assessment  \nincluded questions measuring basic skills (print familiarity, letter recognition, beginning and  \nending sounds, rhyming words, word recognition), vocabulary knowledge, and reading  \ncomprehension.", 
  "The reading test features a two-stage adaptive test.", 
  "Spanish speakers who were routed out  \nof the English cognitive assessment after the EBRS were administered an assessment that  \nmeasured Spanish early reading skills, which were not within our interests.", 
  "Parents Interview.", 
  "For the current study, the composite socioeconomic status scores  \nwere used.", 
  "In ECLS-K:2011, SES was computed at the household level using the parent  \ninterview data.", 
  "The value of the SES score was normalized so that the component had a mean of 0 and  \nstandard deviation of 1.", 
  "Only SES scores from the first data collection round were used in the  \n\nRace information was also collected from the parent interviews.", 
  "Five race categories  \n(White, Black or African American, Asian, Native Hawaiian or other Pacific Islander, American  \n                                                            1 Cited from Early Childhood Longitudinal Study, Kindergarten Class of 2010-11 (ECLS-K:2011): User\u2019s manual for  the ECLS-L:2011 Kindergarten Data File and Electronic Codebook, Public Version.", 
  "(PP:38)  \n\fMULTILEVEL MODEL OF EARLY READING GROWTH     \nIndian or Alaska Native) were provided to parents, and parents were also allowed to indicate  \nmore than one categories.", 
  "Variables  \nOutcome variables.", 
  "ECLS-K:2011 reported IRT-based theta scores of reading ability for  \neach child estimated for each wave of data collection.", 
  "These scores were calibrated to be  \nfollowing a normal distribution.", 
  "Predictor variables.", 
  "Our time-varying variable is Exposure to Education, created to  \nrepresent the time (in months) of education between assessments.", 
  "Three time-invariant variables and their interactions were proposed to be used as level 2  \nvariables to explain variability in child initial reading ability and growth rate: disability status,  \nrace, and SES scores from the first data collection round.", 
  "For the race variable, White, but not  \nHispanic, children were the reference group.", 
  "Data analysis  \nA progressive series of two-level hierarchical linear models were built to model the  \ngrowth in children\u2019s reading ability.", 
  "The first level described the individual growth curve over  \ntime.", 
  "The second level is for the effects of other variables on individual growth curves, and child  \nfactors serve as the level two units.", 
  "Model specifications are described in Appendix A.  \nUnrepresentative samples and missing data  \nThe current study uses full sample weights provided from ECLS-K:2011 (\u201cW4CF4P20\u201d )  \nto adjust for nonresponse patterns associated with the child assessment data from both the  \nkindergarten and first-grade rounds, as well as the parent data from both kindergarten rounds.", 
  "MULTILEVEL MODEL OF EARLY READING GROWTH     \nA jackknife method was used in the current study to get unbiased variance estimates.", 
  "The  \nvariance estimation is computed as the sum of squared deviations of the replicated estimates  \nfrom the full sample estimate:  \n\n\ud835\udc63(\ud835\udf03) = \u2211(\ud835\udf03\u0302(\ud835\udc54) \u2212 \ud835\udf03\u0302) \nEquation 1  \nWhere, \ud835\udf03 is the survey estimate of interest, \ud835\udf03\u0302 is the estimate of \ud835\udf03 based on the full  \nsample, G is the number of replicates, and \ud835\udf03\u0302(\ud835\udc54) is the gth replicated estimate of \ud835\udf03 based on the  \nobservations in the gth replicate.", 
  "The replicated weights were associated with each full sampling weights, which were  \nprovided in the original dataset as well.", 
  "There is a total of forty replicated weights for  \n\u201cW4CF4P20\u201d.", 
  "Estimation and Model Comparison  \nRestricted maximum likelihood (REML) was used to estimate the fixed and random  \neffects.", 
  "Therefore, AIC was used to compare the models with different fixed effects.", 
  "When  \ncomparing the model with same fixed effects and different random effects, a likelihood ratio test  \nwas used.", 
  "All analyses were performed in R using the lme4 package.", 
  "Descriptive Statistics  \n\nTable 1 shows the summary of mean and standard deviations of the continuous variables,  \nand the percentage of categorical variables involved in the study.", 
  "Table 2 lists the correlations  \n\fMULTILEVEL MODEL OF EARLY READING GROWTH     \namong the four reading assessments.", 
  "The correlations are high, indicating stability in reading  \nscores across time.", 
  "Figure 1 represents the distributions of four times reading assessment.", 
  "--- Insert Table 1 here ---  \n--- Insert Table 2 here ---  \n--- Insert Figure 1 here ---  \nMultilevel Growth Model Estimation   \nOf the seven proposed models, only Model 3, the quadratic growth model, was excluded  \nfrom follow-up analyses due to non-convergence.", 
  "The two-way interaction between race and  \ndisability and the three-way interaction among race, SES, and disability were removed due to  \nnon-significance and poor model fit.", 
  "Estimation of fixed effects.", 
  "Based on the significant test results from previous models  \nand AIC values from all models, Model 6 was modified to have the smallest AIC and included  \nonly significant interaction terms.", 
  "Appendix B shows both the fixed and random effects of the  \nsix final models.", 
  "Estimation of random effects.", 
  "Several model comparisons were conducted to see there  \nwas significant variability existing in reading ability when children are entering kindergarten, or  \nin growth rates.", 
  "Each proposed model with both a random intercept and a random slope was  \ncompared with the corresponding model without a random intercept or a random slope.", 
  "Table 3  \nrepresents the results of each likelihood ratio test, which indicates all random components are  \nneeded.", 
  "There was significant variation in both children\u2019s initial reading ability and growth rate.", 
  "--- Insert Table 3 here ---  \n\fMULTILEVEL MODEL OF EARLY READING GROWTH     \n\nModel 1-5 results  \n\nResults from model 1 to 5 show that reading ability varied among individual children,  \nand a linear growth trajectory curve could be used to describe the growth rate in reading ability  \nfrom kindergarten to first grade.", 
  "Model 6 results  \nDisability status, SES, race, and all interactions between them were included in the final  \nproposed model, but only the interaction between race and SES were retained in the final model  \ndue to model fit and significance2.", 
  "Initial Status.", 
  "Results show SES is positively related to initial reading ability (\ud835\udefe04=0.33),  \nsuggesting that children with the higher SES had higher initial reading ability.", 
  "Moreover,  \nchildren from minority groups had the lower initial reading ability.", 
  "The significant interaction  \nbetween race and SES indicates higher SES can reduce the negative impact on minority groups.", 
  "Growth Rate.", 
  "Results found there are significantly negative relations between growth  \nrate and disability status, race, SES, and interactions between race and SES.", 
  "Therefore, children  \nfrom the majority with lower SES gained reading ability faster than children from the majority  \nwith higher SES.", 
  "Furthermore, race played as a moderator between SES and growth rate.", 
  "The  \nminority would decelerate children grow rate in reading ability, however, when children with  \nlower SES gained faster than children with higher SES, even though children with higher SES  \nhad the higher initial reading ability.", 
  "2 The interaction between CWD*Race was drop off due to the insignificant difference between regression  coefficient and 0 based on the estimation from model 5a.", 
  "MULTILEVEL MODEL OF EARLY READING GROWTH     \nDiscussion  \nHowever, the current study found race and SES played different roles in children\u2019s initial  \nreading ability and reading growth rate.", 
  "As a result, we would like to discuss this relation  \nseparately.", 
  "Relations between Children\u2019s Initial Reading Ability and Children\u2019s Race and SES  \nRace.", 
  "Like many previous studies, this study also found children from minority groups  \nhad the lower initial reading ability when entering the kindergarten, which indicates minority  \nfamilies might need some extra help to improve early childhood cultivation.", 
  "Moreover, it also  \nconfirms family context and parenting cultivation play a significant role in children\u2019s early  \nreading ability (Cheadle, 2008).", 
  "SES.", 
  "SES is commonly regarded as one of the most powerful predictors of early reading  \nability.", 
  "The previous studies demonstrated child with high SES had the higher initial reading  \nability when they entered the kindergarten, and they had larger growth rates (McCoach et al.,  \n2006).", 
  "The current study echoes SES has been positively related to child\u2019s initial reading ability.", 
  "Interactions between race and SES.", 
  "The significantly positive interactions between  \nSES and race suggests higher SES can remedy the negative impact of the minority.", 
  "In other  \nwords, even though minority can disadvantage children\u2019s initial reading ability, higher SES can  \nreduce this negative impact.", 
  "Relations between Children\u2019s Reading Growth Rate and Children\u2019s Race and SES  \nRace.", 
  "The significantly negative relations between race and growth rate also confirm  \nracial gap is existing, which means minority children had a lower growth rate in kindergarten to  \nfirst grade.", 
  "The current study found there is a significantly negative relation between SES and  \n\fMULTILEVEL MODEL OF EARLY READING GROWTH     \ngrowth rate, which suggests children from low SES background can catch up with children from  \nhigher SES when the formal education starts.", 
  "Therefore, the SES gap is narrowing with the help  \nof school education.", 
  "Interactions between race and SES.", 
  "The significantly negative relations between race  \nand SES indicate SES has much stronger negative impacts on reading growth rate for children  \nfrom minority groups.", 
  "So, children from minority groups with lower SES had the lower initial  \nreading ability, but they could gain faster after receiving the formal education.", 
  "--- Insert Figure 2 here ---  \nEducational and research implications  \nThe racial gap in children\u2019s initial reading ability indicates minority family needs more  \nextra help in family cultivation before children entering the kindergarten, which can improve  \ntheir parenting skills so as to increase children\u2019s reading ability when entering the kindergarten.", 
  "This study also found the SES gap is existing in the children\u2019s initial reading ability, but  \nthe SES gap is narrowing after children entering the kindergarten, even though we account for  \nthe interaction between SES and race.", 
  "Therefore, despite improving parenting for children from  \ndisadvantaged families, researchers could also consider how to improve the instruction of formal  \neducation.", 
  "MULTILEVEL MODEL OF EARLY READING GROWTH"
 ]
}