{
 "document_id": "1174387.1", 
 "sentences": [
  "Two Teacher Educators\u2019 Collegial Action Research Study   \nIntroduction   \nThe role of teacher educators is increasingly recognized as an important instrument for the education of future  \nteachers, and with this recognition there is now an emerging, but still limited, body of knowledge about teacher  \neducators (Ben-Peretz, Kleeman, Reichenberg, & Shimoni, 2013; Loughran & Berry, 2005).", 
  "Cochran-Smith  \n(2005)  underlined  that  teacher  educators  need  to  have  expertise  in  conducting  research  about  their  own  \npractices and programs.", 
  "Teacher educators should develop skills, abilities, and attitudes for unpacking teaching  \nby professionally critiquing experiences.", 
  "Similarly, The Association of Teacher Educators (ATE) underlined  \nthe  professional  development  of  teacher  educators  who  should  inquire  systematically  into,  reflect  on,  and  \nimprove their own practices and explicitly share the reasons, processes, and results of improvements in their  \nown knowledge and practices (ATE, 2008).", 
  "In this paper, two teacher educators\u2019 (authors) collaborative action  \nresearch study on their own teaching is reported.", 
  "We tried to unpack particular aspects of our teaching through  \ncollegial lesson planning and reflection that focused on prospective teachers\u2019 thinking.", 
  "We believe that this  \nstudy will contribute to research on professional learning and development of teacher educators.", 
  "Mostofo and Zambo (2015) believed that conducting an action research study to investigate the benefits of  \nimplementing  Lesson  Study  with  prospective  teachers  improved  their  own  practice  as  instructors  and  also  \ngenerated knowledge that would be useful to other teacher educators.", 
  "Similarly, Loughran and Berry (2005)  \nconducted a self-study focused on teacher educators\u2019 explicit modeling of the practices that they expected their  \nstudents  to  do  in  their  practice.", 
  "They  found  that  professional  critiques  of  practice  helped  to  highlight  the  \nproblematic nature of teaching, to offer new ways of seeing into practice, and to value collaboration and co- \nteaching.", 
  "When teacher educators study their own professional work using rigorous research methods,  they  \ncould  contribute  to  improvements  in  their  courses,  programs,  and  other  research  contexts  (Cochran-Smith,  \n2005).", 
  "The related literature has suggested a crucial role for teacher educators in supporting  prospective teachers\u2019  \nlearning to teach, has underlined the need for continuing professional development of teacher educators, and  \nhas documented positive outcomes of collegial work among the teacher educators.", 
  "In this study, we aimed to  \nwork collaboratively to enhance our knowledge and teaching skills for preparing future mathematics teachers.", 
  "Our  research  question  is  \u201cHow  did  collegial  lesson  preparation  and  reflection  that  focused  on  prospective  \nteachers\u2019 thinking support our perspectives on teaching and learning?\u201d   \n\fMethodology  \nThe design of this study is action research falling under the collaborative social research approach to  \nqualitative data analysis (Miles & Huberman, 1994).", 
  "In this vein of research, the researchers engage in  \nsystematic inquiry to act on and improve their teaching practices.", 
  "In Turkey, one route to become a high school mathematics teacher is a post-graduate certification program  \noffered by Faculties of Education (Authors, 2013).", 
  "It usually takes a year to complete.", 
  "However, at some  \nuniversities including our institution, the certification program has been shortened in time to 14 weeks (two  \nseven-week terms).", 
  "Both authors have been teaching mathematics education courses in the second term for 2  \n\nWe both focus on reform-oriented mathematics instruction (National Council of Teachers of Mathematics,  \n2014) in our courses.", 
  "Time is an important factor for prospective teachers to grasp reform ideas in teaching  \nmathematics.", 
  "During the first year of the 14-week certification program, we felt that the quality of education  \nreceived by the prospective teachers in our short program was lower than that received in longer ones.", 
  "At the  \nend of the first year, we decided to conduct an action research in order to better support the prospective  \nteachers\u2019 knowledge and skills needed for teaching reform-oriented mathematics instruction.", 
  "We teach two different courses (Methods of Teaching Mathematics & Instructional Technologies) to the  \nsame group of prospective teachers.", 
  "In our courses, we decided to focus on mathematical modeling since it  \nencompasses a wide range of mathematical processes.", 
  "The modeling framework described by Verschaffel,  \nGreer and De Corte (2002) was used in the study.", 
  "As an intervention, before each lesson, we predicted  \nprospective teachers\u2019 responses to our lesson plans and planned possible teacher reactions accordingly.", 
  "We  \nthought that discussing how prospective teachers might respond to our questions and planning possible  \nteacher reactions would improve our teaching skills such as being a role model of reform-oriented  \ninstruction, giving feedback, and orchestrating class discussion.", 
  "Data Sources  \nThe data sources included weekly planning and reflection meetings, activity worksheets, reflective journals,  \nand audio recordings of lessons.", 
  "Table 1 provides information about each data source.", 
  "Using multiple data  \nsources enhanced data credibility (Patton, 2002) by enabling us to compare information, search for and  \nconfirm patterns across data, and have a comprehensive understanding of the data.", 
  "Data Analysis   \nWe used a thematic inductive approach to analyze the data (Braun & Clarke, 2006).", 
  "We assigned codes to  \nreflective journal entries and weekly meeting conversations.", 
  "We analyzed all reflective journal entries and 4  \nmeeting conversations: the first meeting, two medial meetings, the last meeting.", 
  "Codes in similar dimensions  \ncollapsed into groups and eventually formed the themes (Miles & Huberman, 1994).", 
  "We analyzed activity  \n\fworksheets from two perspectives: integration of mathematical modeling and including questions about how  \nto teach modeling.", 
  "Integration of mathematical modeling involved four criteria: writing a mathematical  \nmodel, interpreting the model, finding mathematical results, and discussing real results.", 
  "We applied open  \ncoding to analyze questions about how to teach modeling.", 
  "Finally, we created a table that aligned the coded four meetings with the lessons taught after these meetings.", 
  "This table included our predictions for student responses, planned teacher reactions, and what actually  \nhappened in the lessons regarding our predictions.", 
  "We calculated percentages about meeting-lesson  \nalignment to interpret how the collegial meetings supported our teaching practices.", 
  "All data analysis was  \nperformed by the authors in collaboration to establish researcher triangulation (Patton, 2002).", 
  "Findings  \n1.", 
  "Collegial Lesson Preparation   \nThematic analysis of the meeting conversations and reflective journal entries revealed the following five  \nthemes: classroom discussion, predicting student responses, teaching dimension, mathematics dimension,  \nand lesson planning (Table 2 in Appendix).", 
  "We conclude this section by presenting findings about activity  \nworksheets.", 
  "Classroom discussion: Figure 1 shows the sub-themes emerged under this theme.", 
  "In our meetings and  \nreflective journals we frequently spoke/wrote about the importance of mathematical ideas being developed in  \nthe classroom discussions and our role in guiding the discussions.", 
  "\u201cMy plan for this part is, if they make  \nnegative comments, I plan to ask if there is anyone thinking differently in order to direct the route of the  \nclassroom discussion.\u201d (Teacher_Educator#2, Journal).", 
  "Predicting student response: Figure 2 shows the sub-themes emerged under this theme.", 
  "Predicting student  \nresponse was a main part of our intervention.", 
  "As part of our intervention, we concentrated on predicting  \nprospective teachers\u2019 mathematical thinking and their thinking as a teacher.", 
  "\u201cI expect that they will have  \ndifficulty in writing mathematical expression of horizontal transformation.\u201d (Teacher_Educator#2, Journal).", 
  "Predicting student response helped us generate ideas for possible teacher actions.", 
  "Teaching dimension:   Figure 3 shows the sub-themes emerged under this theme.", 
  "Among the sub-themes  \ninstructional strategy takes a large part of the conversations and journal entries.", 
  "This sub-theme is about  \nteaching methods, techniques and practices used to maximize our prospective teachers\u2019 learning  \nopportunities.", 
  "\u201cI will change my strategy about teaching questions, in this lesson I plan to ask \u2018assume that  \nyou are a teacher and implement this activity in your classroom, as a group write about what strengths and  \nweaknesses this activity has\u2019.\u201d (Teacher_Educator#1, Meeting).", 
  "Mathematics dimension: Figure 4 shows the sub-themes emerged under this theme.", 
  "Since we are  \nmathematics teacher educators, we frequently talked/wrote about mathematics.", 
  "Talking about mathematics  \nincluded solving mathematics problems, assessing prospective teachers\u2019 mathematical  \ndifficulty/performance, and reflecting on our mathematical competence.", 
  "\u201cWhen I plotted the graph in  \n\fGeoGebra I realized that the parabola passed through the second quadrant, and this was not meaningful in the  \ncontext of the problem.\u201d (Teacher_Educator#1, Journal).", 
  "Lesson planning: Lesson planning is important for being an effective teacher.", 
  "Figure 5 shows the sub-themes  \nemerged under this theme.", 
  "Designing mathematics and teaching questions are at the core of lesson planning  \n\nTeacher_Educator#1: By analyzing the graph they will write a function rule.", 
  "Teacher_Educator#2:  Should we ask them explain the steps?", 
  "Teacher_Educator#1: Yes, otherwise it might be difficult for them to write it.", 
  "Teacher_Educator#2: We can ask \u201cwrite a function rule to represent the relationship and explain how  \nyou found the parameters.\u201d  (Meeting)  \nWe realized that during the study we improved our lesson planning skills.", 
  "\u201cI revised the activity to help them  \nreason.", 
  "In doing so, I observed that my activity designing skills have developed.\u201d (Teacher_Educator#1,  \nJournal).", 
  "Activity worksheets: In our analysis of the worksheets based on integration of mathematical modeling, we  \nfound that out of 12 worksheets, 11 of them contained writing a mathematical model, 10 contained  \ninterpreting the model, and all the worksheets contained finding mathematical result, and discussing real  \n\nAnalysis of the questions about how to teach modeling revealed that the initial worksheets did not include  \nany questions about teaching dimension.", 
  "However, toward the middle of the semester, we started to ask  \nquestions about teaching modeling in the worksheets.", 
  "These questions required the prospective teachers to  \npredict their future students\u2019 mathematical prerequisite knowledge/performances/difficulties, to analyze  \nworksheets based on modeling framework and reform-oriented lesson planning, to assess activity for  \nteaching modeling, and to plan teacher scaffolding.", 
  "We think that including questions about teaching  \ndimension enabled the prospective teachers to systematically analyze their role as a teacher.", 
  "2.", 
  "Collegial Reflection on Teaching   \nTable 3 shows the percentages calculated from the data about meeting-lesson alignment.", 
  "According to the  \ntable, for example, we made 9 predictions about prospective teacher response for Lesson 3 and we planned  \nteacher educator reaction for 7 of these predictions (7/9\u224878%).", 
  "Six of the predictions (67%) occurred in the  \nlesson and 5 of the planned teacher educator reactions (71%) worked effectively.", 
  "To give a specific example,  \nin the weekly meeting for Lesson 3, we adapted a problem about magazine sale (Ayd\u0131n & Erba\u015f, 2008) and  \npredicted that prospective teachers might plot circulation graph (line) instead of the graph (parabola)  \nrepresenting the relationship between sale price and the number of purchasers.", 
  "As teacher reactions, we  \nplanned to return to understanding phase of problem solving and to ask about what information was given in  \nthe problem, what was being asked, and the meanings of circulation and profit.", 
  "Prospective teachers plotted  \n\fthe line representing circulation as we predicted.", 
  "The teacher posed the questions that were planned as  \nteacher reaction and successfully guided prospective teachers to plot and interpret the parabola.", 
  "Discussion and Conclusion   \nDarling-Hammond (2006) stated that there had been more new weak teacher education programs that  \nunderprepare teachers in shorter periods of time under pressure from opponents of teacher education.", 
  "Turkey  \nhas been experiencing a similar teacher education context.", 
  "We designed this action research study to enhance  \nour knowledge and teaching skills for better preparing future mathematics teachers in shorter teacher  \neducation program.", 
  "The collegial lesson preparation and reflection meetings provided us with opportunities  \nto discuss important issues for teacher educators such as planning a lesson for prospective teachers,  \npredicting prospective teacher responses, and planning teacher educator reaction accordingly.", 
  "Collaborative  \nplanning and reflecting enabled us to access possibilities for learning that are not likely when planning and  \nreflecting alone (Loughran & Berry, 2005).", 
  "Data analysis indicated that throughout the study we have  \nimproved our skills in lesson planning and implementing.", 
  "Similar to Stein, Engle, Smith, and Hughes\u2019 (2008)  \nsuggestion for classroom teachers, we realized the importance of orchestrating whole-class discussion and  \nanticipating how students might think for teacher educators as well.", 
  "This action research has several implications for teacher education.", 
  "We believe that conducting collegial  \nreflective study helped us grow professionally.", 
  "Forming a community of learners, teacher educators can  \nenrich the profession of teaching and improve prospective teachers\u2019 learning.", 
  "In this endeavor, predicting  \nprospective teacher response and planning teacher educator reaction is a key component for planning and  \nimplementing more effective teacher education courses.", 
  "In this paper we shared the teacher educator  \nperspective of the action research study.", 
  "Next step will be analyzing the prospective teachers\u2019 learning in this  \ncontext."
 ]
}