{
 "document_id": "1174217.1", 
 "sentences": [
  "Running Head: ADVANCEMENTS IN MOOCS: A META-TREND ANALYSIS                    1  \nAdvancements in MOOCs: A Meta Trend Analysis  \nHeather L. Keahey and Gwendolyn M. Morel  \nUniversity of North Texas  \nCorrespondence concerning this article should be addressed to Heather Keahey,  \nkeahey91@gmail.com.", 
  "ADVANCEMENTS IN MOOCS: A META-TREND ANALYSIS                                             2  \n\nAbstract  \nDespite the proliferation of research focused on Massive Open Online Courses (MOOCs), the  \ndebate continues about whether MOOCs are a viable educational method and what the future  \nholds.", 
  "This study provides a longitudinal view of MOOC research published in the Web of  \nScience database for the period of 2009-2016.", 
  "Using bibliometric measures and text mining to  \nanalyze peer-reviewed journal articles, the authors attempt to ascertain the MOOC publication  \nbibliometric measures to date, recognize taxonomies in MOOC research, and identify research  \ntrends of MOOCs across time.", 
  "This research can contribute to an increase in a shared,  \ncomprehensive understanding of prior research efforts in order to better inform future areas of  \n\nKeywords: MOOCs, Massive Open Online Courses, Text mining   \n\fADVANCEMENTS IN MOOCS: A META-TREND ANALYSIS                                             3  \n\nAdvancements in MOOCs: A Meta-Trend Analysis  \nDescribed as an online learning phenomenon which has gained momentum in recent  \nyears, Massive Open Online Courses (MOOCs) provide an avenue for the dissemination of  \nacademic course content by giving students access to online resources including an expert in an  \narea of study and a connection to other learners (McAuley, Stewart, Siemens, & Cormier, 2010).", 
  "Published research focused on MOOCs has increased considerably during recent years.", 
  "However, deliberation continues about whether MOOCs can offer students a worthwhile  \neducational experience.", 
  "Focused meta-analysis on MOOCs is partial in scope.", 
  "The purpose of  \nthis study is to provide a longitudinal view of literature published from 2009 to 2016 using  \nbibliometric measures and text mining techniques.", 
  "By determining trends in the research, other  \nareas of future research may also be identified.", 
  "The intended audience includes stakeholders in  \nonline education.", 
  "Our research questions are:  \n1.", 
  "What are the bibliometrics of published research in MOOCs?", 
  "2.", 
  "What taxonomies can be derived from MOOC research as indicated by peer-reviewed  \narticle abstracts?", 
  "3.", 
  "What are the current and emerging trends in research on MOOCs?", 
  "ADVANCEMENTS IN MOOCS: A META-TREND ANALYSIS                                             4  \n\nOverview of MOOCs  \nLiterature Review  \nAlthough 2008 marks the year in which the first Massive Open Online Course (MOOC)  \nwas offered (Downes, 2008), it would be three years later when the concept gained increased  \nattention.", 
  "MOOCs tend to be open source online courses with no prerequisites, fees, or  \naccreditation that integrate \u201cthe connectivity of social networking, the facilitation of an  \nacknowledged expert in a field of study, and a collection of freely accessible online resources\u201d  \n(McAuley, Stewart, Siemens, & Cormier, 2010, p. 4) with the potential of drawing enrollment  \nsizes into the thousands.", 
  "Research on MOOCs, while not leaving behind the broad spectrum of  \npotential, began focusing on particular elements of MOOC design.", 
  "For example, design elements  \nrelated to asynchronous communication, self-directed learning, problem solving strategies, time  \non task, video lectures, and peer assessment have been reviewed (Breslow, DeBoer, Stump, Ho,  \n& Seaton, 2013; Johnston, 2015; Lin & Cranton, 2015).", 
  "Previous research utilizing meta-analysis methods have been conducted to analyze  \nMOOC research but most efforts have been narrow in scope focusing on fewer than 50 articles  \n(Ebben & Murphy, 2014; Liyanagunawardena, Adams, & Williams, 2013).", 
  "Similarly, Sangr\u00e0,   \nGonz\u00e1lez-Sanmamed, and Anderson (2015) reviewed 102 articles for the years 2013 and 2014 to  \nalso clarify publication year, type, and categories of interest.", 
  "Veletsianos and Shepherdson  \n(2015) conducted research using bibliometrics to investigate interdisciplinarity in MOOC  \nresearch between 2013 and 2015.", 
  "Missing is a comprehensive analysis of the content text of  \npublished MOOC literature.", 
  "ADVANCEMENTS IN MOOCS: A META-TREND ANALYSIS                                             5  \n\nBibliometrics and Text Mining  \nA bibliometric analysis, a process used to assess published research (Thelwall, 2008),  \nincludes quantitative statistics summarizing the publication information and can provide valuable  \ninformation about trends within a specific field of study.", 
  "Content analysis can supplement and  \naugment bibliometric measures, but evaluating large amounts of data can be difficult for  \nresearchers.", 
  "Computerized exploration is one way to cope with mass amounts of information to  \ndetermine relevance and interest (Feldman & Dagan, 1995).", 
  "Text mining is a process which  \nproduces high quality information for researchers by employing algorithms involving pattern  \nrecognition and statistical pattern learning (Nayak, Prasad, & Senapiti, 2015).", 
  "Text mining has  \nbeen used in prior research with learning technologies in the area of e-learning (Hung J. L.,  \n2012) and mobile learning trends (Hung & Zhang, 2012).", 
  "This study extends the use of text  \nmining techniques to analyze peer-reviewed published research on the subject of MOOCs to  \ndiscover areas of research interest and how these areas have changed over time.", 
  "From this  \nanalysis, future areas of research may be identified.", 
  "Data Collection  \nConsidering the growing number of published articles in print, online, and open access, it  \nis nearly impossible to access and catalog journal articles without specific search criteria.", 
  "This  \nstudy focused on articles published in one of the most widely accessed databases, the Web of  \nScience.", 
  "The Web of Science database contains bibliometric measures that makes a  \ncomprehensive bibliometric analysis feasible.", 
  "The initial search was conducted using the keyword MOOC and the phrase massive open  \nonline courses relative to topics and titles of articles within the database.", 
  "The articles were  \n\fADVANCEMENTS IN MOOCS: A META-TREND ANALYSIS                                             6  \n\nextracted from the database on January 9, 2017.", 
  "A total of 454 articles were identified from the  \ndatabase search.", 
  "Two independent researchers reviewed each article to assess appropriateness  \nfor this study.", 
  "Selection criteria included works published prior to 2017, written in English, and  \nemphasizing the topic of MOOCs.", 
  "A total of 369 articles contained in 149 different journals met  \nthe selection criteria and were used in this study.", 
  "A list of the publication titles can be found in  \nTable A1 located in Appendix A.", 
  "Included in the table is the name of the journal and the number  \nof articles from the respective journal used in this study.", 
  "Data transformation and analysis  \nBibliometrics.", 
  "Within an excel spreadsheet, the data was ordered and arranged based on  \nthe organizational parameters to examine a specific bibliometric measure.", 
  "The articles were  \nsorted based on publication year.", 
  "A basic bibliometric measure of numerical growth annually  \nwas used to provide a broad picture of overall publication trends of MOOC research publication.", 
  "Text mining and clustering analysis.", 
  "The abstracts of the articles were used as data  \nsources for the creation of the categorical taxonomy.", 
  "The abstracts provide a concise yet  \ncomprehensive overview for the full articles and were much shorter in length, thus diminishing  \nthe influence of meaningless data which occurs within any publication.", 
  "For the text mining  \nprocess, Rapid Miner Studio 7.0 (Rapid Miner, 2017), an open source predictive analytics  \nplatform, was used.", 
  "The process for text mining included several steps.", 
  "First, the abstract data was tokenized  \ncreating a collection of words contained in the source documents.", 
  "All characters were then  \ntransformed to lowercase.", 
  "Next, the data was sent through a filter elimination for stop words  \n(e.g.", 
  "the, and, it, etc).", 
  "The data was then adjusted so that no term shorter than two characters in  \nlength were in the output.", 
  "A stem operator was employed to strip the suffixes from words so that  \n\fADVANCEMENTS IN MOOCS: A META-TREND ANALYSIS                                             7  \n\nthe same root with different tenses would be counted as the same word.", 
  "The output for this  \nprocess was word vectors using the term frequency-inverse documents frequency (tf-idf) statistic  \nwhich calculates a value indicating the importance of a word to a document.", 
  "Once this process was complete, the word vectors were run through a clustering  \nalgorithm within Rapid Miner.", 
  "A k-means algorithm was chosen because it is a simple,  \nstraightforward, widely-used process in data mining applications (Arthur & Vassilvitskii, 2007;  \nBerkhin, 2006).", 
  "A k-value of ten representing the number of clusters was determined from a plot  \nof group sum of squares by the number of clusters (Kabacoff, 2017).", 
  "These clusters were  \ninterpreted and labeled by two specialists in the field of learning technologies to confirm inter- \nrater reliability.", 
  "Publication time trends  \n\nA summary of the number of retrieved journal articles per year extracted from the Web of  \nScience database is given in Figure 1.", 
  "Published MOOC Reserach by Year \nPublication Year \nFigure 1: MOOC yearly publication trends 2009-2017 for published works in Web of Science  database retrieved January 9, 2017.", 
  "ADVANCEMENTS IN MOOCS: A META-TREND ANALYSIS                                             8  \n\nThe first four years (2009-2012) of published MOOC research contains a total of six  \narticles.", 
  "One article was published in 2009 and 2011 with the remaining four in 2012.", 
  "The  \nsecond year in the study, 2010, contains no published articles in the Web of Science database.", 
  "In  \n2013, the number of articles published grew to 19, which exceeds all prior years combined.", 
  "In  \n2014, the total number of publications increased to 58.", 
  "This was a substantial growth rate of  \n252% over the prior year.", 
  "The following year in the analysis, 2015, showed a noticeable increase  \nto 162, which signifies a 179% growth over the prior year.", 
  "The final year included in the  \nanalysis, 2016, showed a 23% decline with the number of articles counted at 124.", 
  "Not included  \nin these numbers are any updates to the database after January 9, 2017.", 
  "Taxonomies  \nThe employed k-means algorithm assigned each article to one of ten distinct clusters  \nbased on document similarity within the abstracts.", 
  "The clusters were examined and named  \nindependently by two educational professionals after examining the output of the data mining  \ncomputer program and is shown in Table 1.", 
  "Clusters Labels and Contribution within MOOC Research  \nCluster  Label  \nCritical reflection and future implications  Course design  \nModel and strategies    \nLearning motivation and intention  Opportunities and challenges in higher education  \nOpen education and networked learning  \nTools and systems  Assessment and instructional activities  \nStudent demographics and behaviors  \nHealthcare and professional development   \narticles  \ncontribution  \n\fADVANCEMENTS IN MOOCS: A META-TREND ANALYSIS                                             9  \n\nThe ten clusters were initially identified by the computer generated values from CL0 to CL9.", 
  "This labeling scheme is consistent throughout this document.", 
  "The two clusters with the most  \narticles were Open education and networked learning (73 articles, 19.8%) and Course design (59  \narticles, 16.0%).", 
  "The third ranked cluster is labeled Learning motivation and intention (52  \narticles, 14.1%).", 
  "Assessment and instructional activities is the label for the fourth ordered cluster  \n(40 articles, 10.8%).", 
  "These four clusters contain 224 of the 369 articles representing 60.7% of  \nthe published articles.", 
  "Time trends of article clusters  \nThe results of the time trend analysis of the publication clusters is shown in Figure 2.", 
  "Cluster Time Trends \nFigure 2: MOOC yearly publication trends 2009-2016 within the clusters for published works in  Web of Science database retrieved January 9, 2017.", 
  "Every cluster houses published articles prior to 2014.", 
  "The cluster with the most articles prior to  \n2014 is CL5, Open education and networked learning, which contains six of the 25 articles.", 
  "This  \ncluster is also home to three of the four articles published in 2011.", 
  "ADVANCEMENTS IN MOOCS: A META-TREND ANALYSIS                                             10  \nIn general, the clusters show an increase in quantity of journals throughout the time  \nperiod with a decrease noted in the last year.", 
  "The cluster with the greatest percentage decrease  \nfor 2016 is CL4 (Opportunities and challenges in higher education) with an 87.5% reduction.", 
  "Another cluster with a decrease greater than 50% is Critical reflection and future implications  \n(CL0), with a 57.1% reduction from fourteen articles to six.", 
  "This cluster contains three articles  \nfrom 2009 and seven articles in 2014.", 
  "Two exceptions to this trend are CL2 and CL3, where  \nboth showed an increase from 2015 to 2016.", 
  "Model and strategies (CL2) showed a 100%  \nincrease with the count of articles growing from four to eight.", 
  "Learning motivation and intention  \n(CL3), showed a 10% growth from 20 to 22 articles.", 
  "Discussion  \nPerhaps unsurprising or even expected, the first article published in the Web of Science  \ndatabase in 2009 about MOOCs was an analysis of the impact of open learning on life-long  \nlearning using the first true MOOC (CCK08) as a framework (Fini, 2009).", 
  "New areas of interest  \nbegan appearing in the research between 2011 and 2013.", 
  "Based on articles in the Web of  \nScience database, research interest in MOOCs has increased dramatically since 2013.", 
  "Being that  \nthe New York Times announced 2012 as \u201cThe Year of the MOOC\u201d (Pappano, 2012) a rise in  \npublications in 2013 is a natural extension of the interest MOOCs were gaining.", 
  "It is notable that  \nall clusters were represented in 2013 except for CL3 (Learning motivation and intention).", 
  "Although two articles were published prior to 2013, the remaining 50 articles were published  \nafter 2013 possibly due to a realization that low completion rates were trending as normal in  \nMOOC courses (Allione & Stein, 2016; Freitas, Morgan, & Gibson, 2015; Fidalgo-Blanco,  \n2016; Jordan, 2014).", 
  "In order to establish MOOCs as a viable educational platform, student  \nsuccess would need validation.", 
  "Understanding student motivation and intention could be key to  \n\fADVANCEMENTS IN MOOCS: A META-TREND ANALYSIS                                             11  \n\nbetter understanding the population of students completing MOOC courses and those that were  \nnot finishing.", 
  "Questions and aims in early research suggest an interest in MOOCs as an emerging  \ntechnology that could help inform design and technology use in online learning.", 
  "Although  \nMOOCs have begun to establish a place in educational technology research, only time will  \nreveal how the research will evolve and the implications it will have on the educational  \nlandscape.", 
  "The trends during the last three years of the research suggest a peak in publication of  \nMOOC related articles.", 
  "All clusters had an increase in number of published articles for 2014- \n2015.", 
  "With most of the clusters showing a decrease from 2015 to 2016, CL1 (Course design),  \nCL3 (Learning motivation and intention), and CL5 (Open education and networked learning)  \nrepresent the areas of greatest interest in the most recent years of publication.", 
  "These areas are  \nconsistently represented in previous years and research focused on these phenomena may  \ncontinue to increase as new ways of leveraging MOOCs emerge.", 
  "The area that may gain  \nincreased attention is models and strategies (CL2) as shown by the steady increase in  \npublications in the previous three years.", 
  "Course designers and educational institutions may  \nexplore alternative design and delivery approaches as more knowledge is gained in the field  \nespecially if MOOCs are more widely accepted.", 
  "While all clusters contained at least one  \npublication prior to 2014, it is interesting to note that the cluster regarding open education and  \nnetworked learning (CL5) contain three of the four published works from 2011.", 
  "ADVANCEMENTS IN MOOCS: A META-TREND ANALYSIS                                             12  \n\nLimitations and Further Research Suggestions  \nThe journals in the Web of Science database maintain stringent review standards.", 
  "Given  \nthe high standard of the journals, they may not reflect the most recent trends due to the typical  \ntwo-year publication time for top journals.", 
  "Additionally, the articles were retrieved on January  \n9, 2017, so any updates made to the database after that time are not reflected in this study.", 
  "Also,  \nsince the popularity of MOOCs is a recent phenomenon, much of the discussion could be  \nincluded in conference proceedings, educational journals not included this database, and popular  \n\nFuture research should focus on similar studies that broaden to other databases to  \ndetermine similarities and differences in findings.", 
  "Other research analysis approaches could be  \nutilized, such as a different categorical algorithm, perhaps a hierarchical one, which would  \nproduce clusters and a corresponding hierarchy to the research trends.", 
  "Additionally, examining  \nand comparing the trends with respect to the countries of origin could provide a global  \nperspective of the world-wide progression of MOOC research.", 
  "ADVANCEMENTS IN MOOCS: A META-TREND ANALYSIS                                             13"
 ]
}