{
 "document_id": "1224719400540837648", 
 "sentences": [
  "\nInternational Journal of Applied Linguistics \nInternational Journal of Applied Linguistics 0802-6106 \u00a9 The Author Journal compilation \u00a9 2007 Blackwell Publishing Ltd 171Original Article Teacher practices and perspectives for developing academic language Jeff Zwiers Blackwell Publishing Ltd Oxford, UK \nTeacher practices and perspectives for  developing academic language \nJeff Zwiers \nUniversity of San Francisco, USA \nThis study investigates the ways in which middle school teachers in the USA develop academic language in intermediate-level English learners who attend mainstream  content  classes.", 
  "Analysis  of  field  notes,  transcripts,  and  student work  show  that  (a)  academic  language  and  higher-order  thinking  skills  are closely linked, and (b) classroom discourse patterns and activities both develop and impede language growth.", 
  "The teachers used four principle communication strategies:  questioning,  gestures,  connecting  to  background  knowledge  with examples and analogies, and personifying.", 
  "The results suggest that students, despite  growth  in  certain  dimensions  of  cognition  and  language,  also  learn counter-productive \u201crules of school\u201d.", 
  "This research is intended to benefit the millions  of  \u2018non-mainstream\u2019  students  worldwide  who  struggle  in  schools that have been created and shaped to serve mainstream purposes.", 
  "Keywords: English learners  \n  academic  language,  cognition,  scaffolding,  classroom  discourse, \nEsta investigaci\u00f3n analiza c\u00f3mo los maestros de la escuela secundaria in los Estados Unidos desarrollan el lenguaje acad\u00e9mico de los estudiantes con niveles intermedios  de  ingl\u00e9s.", 
  "El  an\u00e1lisis  rindi\u00f3  los  temas  siguientes:  (a)  el  lenguaje acad\u00e9mico  y  las  destrezas  cognitivas  y  est\u00e1n  vinculados;  (b)  los  patrones discursivos y las actividades desarrollan e impiden el crecimiento del lenguaje acad\u00e9mico.", 
  "Las maestras usaron varias estrategias comunicativas: preguntas, gestos, ejemplos, analog\u00edas, y la personificaci\u00f3n.", 
  "Los alumnos, a pesar de del crecimiento  del  lenguaje  acad\u00e9mico,  aprenden  unas  \u201creglas  escol\u00e1sticas\u201d contraproducentes.", 
  "Esta  investigaci\u00f3n  tiene  la  intenci\u00f3n  de  beneficiar  a  los millones  de  estudiantes  minoritarios  que  tienen  dificultades  en  las  escuelas que  se  formaron  para  servir  a  los  prop\u00f3sitos  de  los  grupos  ling\u00fc\u00edsticos  y socioecon\u00f3micos dominantes.", 
  "Palabras  clave: escolar, aprendices de ingl\u00e9s  \n  lenguaje  acad\u00e9mico,  cognici\u00f3n,  apoyo  pedag\u00f3gico,  discurso \nPurpose of the study \nMany  nations  around  the  world  use  multiple  languages  (local  languages, \u201cofficial\u201d  national  languages,  and  international  languages)  to  conduct  daily affairs.", 
  "National and international languages then branch off into a variety of \n\u00a9 The Author Journal compilation \u00a9 2007 Blackwell Publishing Ltd \nJeff Zwiers \nspecialized registers that serve the participants in business, scientific, political, and  research  fields.", 
  "Academic  language,  whether  it  is  academic  Spanish, Arabic,  or  English,  forms  a  vital  foundation  for  this  eventual  branching  of language  into  workplace  registers.", 
  "Academic  language  is  shaped  by  both home and school factors, and the processes by which it develops are complex, particularly in classroom settings with students of diverse backgrounds.", 
  "This study attempts to shed some light on these complex processes and, although it  investigates  academic  English  in  the  United  States  (referred  to  simply  as \u2018English\u2019  here),  similar  research  could  be  carried  out  in  any  country  where (linguistically)  non-mainstream  students  struggle  to  succeed  academically using  the  mainstream  language  of  schooling.", 
  "Given  the  wide  variety  of language groups in many nations around the world, it is my hope that the findings  will  inspire  further  research  and  discussion  on  the  most  effective ways to educate all students in diverse settings.", 
  "The language of schooling is loosely referred to as academic language, the lack of which is cited as a significant cause of low achievement for diverse learners (Collier 1995).", 
  "Despite its importance, the development of academic language  in  mainstream  content  area  classrooms  is  not  well  understood.", 
  "Several factors contribute to this problem.", 
  "First, research has focused too little attention  on  the  interplay  between  subject  matter  learning  and  language development  in  English  learners  (August  and  Hakuta  1997).", 
  "The  second factor  is  a  limited  conceptualization  of  academic  language  by  teachers  and researchers.", 
  "For example, a commonly held view is that academic language democracy photosynthesis consists mainly of content vocabulary, such as  Vocabulary is one dimension of academic language, but in-depth understanding of concepts in upper grades requires a student to know how to use additional aspects of English to connect these key words in order to construct the meaning of complex and abstract concepts (Dutro and Moran 2003; Scarcella 2003).", 
  "Making the right connections is highly dependent on what I call \u201cacademic capital\u201d, a combination of Bourdieu\u2019s (1977b, 1986) notions of social, cultural, and linguistic capital that a student uses, often unknowingly, to succeed in school.", 
  "Students  who  have  been  raised  in  middle-  and  upper-class  homes where they speak the language of education have acquired a wide range of linguistic,  cognitive,  and  cultural  patterns  that  play  a  vital  role  in  the comprehension and communication of concepts in school (Gee 1996).", 
  "These students  more  easily  acquire  the  conventions  of  academic  discourse  and thinking, which tend to provide them with significant advantages in school and  workplace  settings.", 
  "Many  non-native  speakers  of  the  school  language and  members  of  non-dominant  groups,  on  the  other  hand,  enter  school without  a  sufficient  range  of  communication  patterns  that  drive  the  tasks, texts, and tests in mainstream classrooms.", 
  "In  the  United  States,  millions  of  students  have  a  home  language  other than the national language, English.", 
  "In most of the literature these students are  referred  to  as  \u2018English  learners\u2019.", 
  "Some  of  them  have  strong  academic backgrounds, achieve advanced levels of English, and perform well in school \n\u00a9 The Author Journal compilation \u00a9 2007 Blackwell Publishing Ltd \nTeacher practices and perspectives for developing academic language \nafter only two to three years.", 
  "The focal students in this study, however, were members  of  a  different  subset,  the  very  large  yet  neglected  group  of  \u2018long- term English learners\u2019.", 
  "After being in US schools for more than four or five years, they still hover at intermediate levels of English and struggle to read, write,  and  participate  in  mainstream  classes.", 
  "They  are  often  mixed  in  with native  English  speakers  in  mainstream  content  courses  at  secondary  levels where they are required to interpret and comprehend academic English well enough  to  compete  with  classmates  who  have  been  speaking  English  and \u201cdoing school\u201d from a very early age.", 
  "The purpose of this study was to investigate the ways in which teachers of mainstream content classes develop academic language in non-mainstream students who lack access to mainstream English and school-like communication practices outside of school.", 
  "This involves three dimensions: \n\u2022 clarifying what is meant by the term \u2018academic language\u2019 in the contexts \nof this study \n\u2022 understanding  the  influence  of  underlying  social  and  cultural  factors  in \nthe acquisition of academic language \n\u2022 examining teacher\u2013student classroom interactions that are likely to influence the development of academic language (Cazden 2001; Gee 1996; Mercer 2000).", 
  "Theoretical framework \nThe  following  research  questions  guided  the  formation  of  the  theoretical framework for this study: \n\u2022 What  are  the  linguistic,  cognitive,  and  sociocultural  aspects  of  academic \nlanguage in middle school content classes?", 
  "\u2022 How do teachers explicitly and implicitly develop academic language as \nthey teach their content?", 
  "Pursuing  these  questions  involves  the  following  four  research  domains: academic language, cognitive psychology, second language acquisition (SLA), and sociolinguistics.", 
  "Scholars  tend  to  credit  the  initial  research  on  academic  language  to  Jim Cummins, who coined the terms \u2018basic interpersonal communication skills\u2019 (BICS)  and  \u2018cognitive  academic  language  proficiency\u2019  (CALP).", 
  "Academic language, according to Cummins (1979), is communication that is cognitively demanding  and  context-reduced.", 
  "Diaz-Rico  and  Weed  (2002)  expanded  on this definition and considered academic language to be a \u201ccognitive toolbox\u201d, a set of thinking skills and abilities to encode and decode complex thoughts.", 
  "Dutro and Moran (2003: 230) described academic language proficiency as the ability to interpret and infer meaning from oral and written language, discern precise  meaning  and  information  from  text,  relate  ideas  and  information, \n\u00a9 The Author Journal compilation \u00a9 2007 Blackwell Publishing Ltd \nJeff Zwiers \nrecognize the conventions of various genres, and enlist a variety of linguistic strategies on behalf of a wide range of communicative purposes.", 
  "These  and  other  recent  conceptualizations  of  academic  language  have begun to replace the early dichotomous thinking that language is either social or academic.", 
  "Most researchers who study academic language tend to agree that academic language (a) is an evolving set of words, expressions, and syntax that  describe  abstract  academic  concepts  and  complex  thinking  processes (Chamot and O\u2019Malley 1994); (b) is the linguistic skill of expanding the meanings of familiar words in novel and figurative ways in order to communicate and comprehend  new  concepts  (Dutro  and  Moran  2003);  and  (c)  varies  widely across content areas, classrooms, and materials (Scarcella 2003; Vald\u00e9s 2001).", 
  "Cognitive  psychologist  Lev  Vygotsky  (1962)  pointed  out  the  powerful link between language and thought.", 
  "He argued that our thinking processes require language to articulate them.", 
  "These processes are often called higher- order thinking skills in related literature (Swartz 2001) and include skills such as comparing, identifying cause and effect, persuading, analyzing, evaluating, synthesizing,  empathizing,  and  interpreting  in  some  form  (California Department of Education 1998; Marzano, Pickering and Pollock 2001; Wiggins and McTighe 1998).", 
  "Thus, academic language tends to function as a dialect that describes cognitive processes, complex relationships, and abstract concepts.", 
  "Academic  language  can  also  be  a  tool  used  in  school  and  wider  society for  promoting  social  stratification  (Bourdieu  and  Passeron  1990).", 
  "Bourdieu and  Passeron  asserted  that  classrooms  are  often  reproducers  of  social structures in which some members of the community take advantage (often unwittingly)  of  their  cultural,  social,  and  linguistic  capital.", 
  "Cultural  capital refers  to  the  useful  set  of  experiences  and  knowledge  that  are  shaped  by family and community.", 
  "Social capital refers to social networks that guide and  limit  a  person\u2019s  life  path.", 
  "Linguistic  capital  is  the  store  of  words  and communication patterns that a person uses to communicate and comprehend in  a  given  context.", 
  "Bourdieu  (1977a)  argued  that  the  practices  in  any  field result from the interaction between forms of capital and \u2018habitus\u2019, which is a set of internalized behaviors and attitudes that become accepted, natural, and habitual.", 
  "Habitus  shapes  both  teacher  and  student  decisions,  and  in  most schools it contributes to academic capital and ultimately serves to perpetuate dominant forms of discourse.", 
  "Teachers,  texts,  and  tests  expect  all  students  to  process  and  produce knowledge in certain ways.", 
  "Students who grow up in mainstream English- speaking  environments  share  many  of  the  knowledge  bases,  culturally specific communication cues, and thought patterns typically found in learning situations  and  materials  in  US  schools.", 
  "These  students  have  acquired  more than just linguistic knowledge that gives them marked advantages in school.", 
  "They have, as Gee (1992: 73) points out, acquired knowledge about \u201cways of being in the world, ways of acting, thinking, interacting, valuing, believing, speaking,  and  sometimes  writing  and  reading,  connected  to  particular identities  and  social  roles\u201d.", 
  "When  non-mainstream  students  are  placed  in \n\u00a9 The Author Journal compilation \u00a9 2007 Blackwell Publishing Ltd \nTeacher practices and perspectives for developing academic language \nmainstream classrooms, they may experience the \u201cpedagogy of entrapment\u201d (Macedo 1994), where schools require from learners the academic discourse skills and knowledge that teachers do not explicitly teach.", 
  "Mainstream middle- and  upper-class  English-speaking  students  avoid  this  entrapment  because they tend to have more academic capital that aligns with school ways.", 
  "Research setting \nThe site of this study was a middle school (ages 12\u201314) located in a suburban area  near  San  Jose,  California,  with  an  enrolment  of  1100  students,  290  of whom  were  designated  as  \u2018English  learners\u2019  who  came  from  more  than  20 language backgrounds.", 
  "Approximately 120 students at the school fit into the \u2018long-term English learners\u2019 category.", 
  "They had been in the United States for more  than  four  years,  and  most  used  a  non-English  language  at  home  or used  English  with  relatives  and  community  members  whose  first  language was  not  English.", 
  "These  students  were  near-fluent  in  nonacademic  oral interactions  in  English  yet  struggled  in  academic  tasks.", 
  "Many  scored  at intermediate levels of English proficiency, which corresponds to an average score of 3 on the California English Language Development Test\u2019s (CELDT) oral,  reading,  and  writing  sections.", 
  "Oral  scores  hovered  around  4,  and  the reading and writing scores averaged 2.5.", 
  "Three  of  the  four  focal  students  were  considered  to  be  long-term intermediate English learners: Sara and Armando are Spanish speakers, and Kim  is  a  Vietnamese  speaker.", 
  "The  fourth  student,  Juan,  speaks  Spanish and  had  been  in  the  USA  for  only  three  years.", 
  "I  chose  these  ratios  because Spanish  speakers  not  only  make  up  the  majority  of  bilingual  students  in California but are also the subgroup with the lowest achievement statistics.", 
  "I chose  a  non-Spanish  speaker  for  the  purposes  of  comparing  different linguistic and cultural backgrounds.", 
  "I  observed  the  7th-grade  classes  of  a  science  teacher  (Nina),  a  social studies teacher (Helen), and a language arts teacher (Elisa).", 
  "All three teachers were  female,  European-American,  and  had  over  five  years  of  teaching experience.", 
  "There  were  between  8  and  12  intermediate  English  learners  in each  class,  including  several  of  the  focal  students.", 
  "Observing  the  same students in two different classroom settings allowed me to see how academic language was supported in multiple contexts.", 
  "Methodology \nTo effectively document the products and processes involved in the development of academic language, the research design for this study drew from qualitative approaches found in the research traditions of linguistics, anthropology, and psychology.", 
  "The questions that drove this study required a qualitative design \n\u00a9 The Author Journal compilation \u00a9 2007 Blackwell Publishing Ltd \nJeff Zwiers \nbecause  (a)  language  needed  to  be  observed  and  understood  in  a  natural setting; (b) data needed to be collected in multiple forms, such as classroom observations,  open-ended  interviews,  and  text  analysis,  in  order  to  achieve triangulation; (c) data analysis was emergent, inductive, and highly interpretive; and (d) there was a need to purposefully select participants (Creswell 2002).", 
  "I observed the three teachers\u2019 classes approximately two days per week for  four  months,  focusing  on  teacher  and  student  language  events  that described  academic  thinking  skills.", 
  "I  noted  down  the  explicit  teaching  of academic language, paying special attention to its modeling and scaffolding, along with less explicit uses of academic language by teachers and students.", 
  "Several questions guided my observations: \n\u2022 What tasks are students being asked to do?", 
  "What are they being asked to \n\u2022 What types of thinking skills are being taught, used, and required?", 
  "\u2022 What language do students need to understand and accomplish learning \n\u2022 What are the language teaching practices used by the teacher?", 
  "\u2022 How do students use language with each other?", 
  "During classroom observations and transcriptions, I coded the observation data  onto  a  matrix  which  evolved  during  the  study  into  the  one  shown  in Figure 1.", 
  "For example, if a teacher uttered the phrase \u201cplayed a vital role\u201d, I entered the code 2T and CE in the top left box along with other contextual information  such  as  gestures  or  visual  aids  used  by  the  teacher.", 
  "The involvement of focal students was indicated by a code corresponding to their pseudonyms.", 
  "The  data  on  reading  included  the  name  of  the  text  that  the student  read.", 
  "Speaking  represents  activities  such  as  oral  presentations  and speeches.", 
  "Each  week,  I  gathered  writing  samples,  tests,  and  other  products from the four focal students in order to catalog the written language that they used to express their academic messages.", 
  "Four  forms  of  data  provided  an  acceptable  approximation  of  what  was happening in the three classrooms.", 
  "From the classroom observations I culled the examples of classroom talk that showed: how the teacher made her own language more comprehensible; teacher interventions in student conversations; and  the  types  of  tasks  and  contexts  in  which  students  used  academic language  and  any  changes  in  language  use  over  time.", 
  "From  the  classroom texts and student writing samples I took examples of academic language.", 
  "Coding  the  markers  of  academic  language  allowed  me  to  measure  the level of \u201cacademic language-ness\u201d of particular utterances.", 
  "The markers used here were: academic thinking skills described by the message, nominalization, passive voice, complex sentences, cohesion, and coherence (Bartolom\u00e9 1998; Chamot  and  O\u2019Malley  1994;  Scarcella  2003).", 
  "The  student  writing  samples offered evidence of language used to communicate to more distant audiences, as well as of their abilities to use academic writing conventions.", 
  "I paid particular \n\u00a9 The Author Journal compilation \u00a9 2007 Blackwell Publishing Ltd \nTeacher practices and perspectives for developing academic language \nFigure 1.", 
  "Note-taking matrix for classroom observations of academic language \nattention  to  the  differences  and  similarities  between  the  language  of  the classroom dialogs and that of the student compositions.", 
  "I  examined  the  codes  for  overlap  and  redundancy  and  then  collapsed them  into  a  small  number  of  meaningful  themes,  described  in  the  \u2018Teacher behaviors  and  language\u2019  section  and  the  \u2018Student  language  behaviors\u2019  in Table  6  (Creswell  2002).", 
  "These  themes  and  the  language  used  to  develop them provide insights into the nature of academic language in each particular setting.", 
  "The themes consist of multiple levels and therefore contain multiple codes.", 
  "Each  language  event  involves  linguistic  features,  speaker  behaviors, listener behaviors, motivational factors, and sociolinguistic influences.", 
  "Observation data \nCognitive Skills \nAfter  four  weeks  of  observation,  five  principal  cognitive  skills  emerged: identifying cause and effect, comparing, persuading, interpreting, and taking other perspectives.", 
  "Tables 1, 2, and 3 include samples of the language used \n\u00a9 The Author Journal compilation \u00a9 2007 Blackwell Publishing Ltd \nJeff Zwiers \nTable 1.", 
  "Academic thinking skills, number of times used, and sample teacher language in history classes \nExamples of language used by Helen \nConcept or  skill being  \ncause/effect comparison \nThe repercussions of Luther\u2019s actions were what?", 
  "How is Christianity different from what it was like  \nHow was the Byzantine Empire different from  \nbefore Luther?", 
  "Western Europe?", 
  "Similarly, the saints are a problem for many protestants.", 
  "persuasion \ninterpretation \nperspective \n7 What\u2019s another reason for thinking that?", 
  "Why don\u2019t you think Dante made friends?", 
  "9 Who was Joan of Arc?", 
  "Why was she important?", 
  "Why do we care?", 
  "Why is she in the history books?", 
  "What did the Round Table symbolize?", 
  "Design symbols to describe your achievements, hobbies,  \ngoals, nicknames.", 
  "10 What if you lived in the country at that time?", 
  "How might people feel in each place?", 
  "(Paradiso,  \nPurgatorio, Inferno) \nTable 2.", 
  "Academic thinking skills, number of times used, and sample teacher language in science classes \nConcept or  skill being  \ncause/effect comparison \nExamples of language used by Nina \n\n8 Why do you think squids have sharp beaks?", 
  "How are the cells different and how are they alike?", 
  "You need to list the important characteristics of this  \ntype of cell.", 
  "persuasion \ninterpretation \nperspective \nYou can\u2019t just say what you think and stop there.", 
  "You need to give me good evidence.", 
  "You need to interpret the results of the experiment.", 
  "What does the data tell you?", 
  "Let\u2019s say you are a paramecium.", 
  "How do you get food?", 
  "How do you move?", 
  "by the three teachers to bring out these skills as well as the number of times that the particular cognitive skill was evoked in class by that teacher.", 
  "As Tables 1 through 3 indicate, thinking skills were spread across content area classes, and the academic language varied widely in the ways in which \n\u00a9 The Author Journal compilation \u00a9 2007 Blackwell Publishing Ltd \nTeacher practices and perspectives for developing academic language \nTable 3.", 
  "Academic thinking skills, number of times used, and sample teacher language in language arts classes \nConcept or skill  being taught \n\ntimes used \nExamples of language used by Elisa \ncause/effect \ncomparison \npersuasion \ninterpretation \nperspective \nWhy did Brian begin to feel more confident  \nabout surviving?", 
  "But Petri, what was different about him?", 
  "How is Hatchet like other books you have read?", 
  "Write your opinion about the article and whether  you think someone else should read it or not.", 
  "Tell your opinion about the text and why you  \nthink that way.", 
  "You put \u201cfamilies were torn apart\u201d.", 
  "What does  \nthat mean?", 
  "So if it has very little carbon-14, where would it  \nbe on this timeline?", 
  "I\u2019m a happy flea; I\u2019m sucking blood from the rat,  \nhaving a great time then fall off the rat into  straw and as soon as somebody comes along  with blood, I bite them and I\u2019m happy again.", 
  "Like if you were my sister, I would say, \u201cGet  \naway from me, don\u2019t talk to me.\u201d \nit  described  the  thinking  processes.", 
  "Comparing  was  more  prevalent  in history  and  science  lessons  than  in  language  arts,  while  interpretation  was the  most  frequent  cognitive  skill  observed  in  the  language  arts  class.", 
  "Perspective-taking was more evident in history and science than I expected, while persuasion was less evident in language arts than expected, given the importance of persuasion in the year-end writing assessments.", 
  "The language examples in the right-hand columns were not difficult to interpret, yet many language excerpts either fell into multiple categories or none at all.", 
  "An important factor in this data is the sequence of the excerpts.", 
  "A pattern that  emerged  in  most  discourse  events  was  the  progression  from  facts  and concrete ideas to more abstract and complex ideas.", 
  "More specifically, teachers often asked fact-based questions that had right or wrong short answers at the beginning  of  the  discussion,  then  asked  for  information  that  involved explanation, cause and effect, and comparison, and finally gave prompts for answers  that  involved  persuasion,  interpretation,  and  perspective-taking.", 
  "Many of the more academically complex prompts were used at the end of the discussions.", 
  "This sequence from concrete to abstract and simple to complex was natural (and what teachers are generally taught to do), yet when we look at questioning practices later on, we will see that English learners were asked more  of  the  early  fact-based  questions  while  mainstream  students  were asked (and responded to) more of the cognitively demanding questions.", 
  "\u00a9 The Author Journal compilation \u00a9 2007 Blackwell Publishing Ltd \nJeff Zwiers \nTable 4.", 
  "Behaviors and sample academic language used by teachers \nbehavior or  \nQuestioning \u2013 display \nExamples of academic language \nLanguage Arts \nWhat did Martin  Luther think about  Why do you think this  statue is important?", 
  "What\u2019s a flagella?", 
  "Where did the  \ndisease come from?", 
  "What would you  say if you were  that cell?", 
  "Would you have  liked to be Brian?", 
  "a big split in religious  ideas [separates hands  to describe the split] \ncilia are like hairs  [spreads fingers  out from head  and moves them] \nan arrogant or stuffy  person [lifts nose up  and looks down on a  student in front row] \nConnecting to  background  knowledge  examples,  analogies,  personifying \nThat\u2019s like me writing  a book about Juan and  all the bad things he  has done and letting  everyone read about it,  whether true or not.", 
  "Would you like that?", 
  "For example, you  might eat a  hamburger and  some fries every  \nLinguistic  enabling  (negative) \nOK, that\u2019s fine.", 
  "Good enough.", 
  "Now let\u2019s look  at .", 
  ".", 
  ".", 
  "Think of some  things that would  make a perfect  world for you.", 
  "For  example, my perfect  world wouldn\u2019t  have pollution.", 
  "You are on the right  track.", 
  "Anyone else?", 
  "Teacher behaviors and language \nMany of the behaviors that teachers used to develop academic language are related  to  second  language  teaching  strategies  for  target  vocabulary words.", 
  "I  also  identified  other  behaviors  that  are  not  prevalent  in  the literature,  listed  in  the  left-hand  column  of  Table  4.", 
  "Each  of  these  will  be discussed in turn below.", 
  "Questioning \nQuestioning  was  one  of  the  most  common  discourse  strategies  used  in  all three classrooms.", 
  "Each teacher initiated student responses with a wide variety of  questions,  most  of  which  fell  under  two  main  categories:  display  and open-ended.", 
  "\u00a9 The Author Journal compilation \u00a9 2007 Blackwell Publishing Ltd \nTeacher practices and perspectives for developing academic language \nDisplay  questions  formed  part  of  a  common  discourse  pattern  called initiation\u2013response\u2013evaluation/feedback  (IRE  or  IRF)  (Mehan  1979;  Sinclair and Coulthard 1975).", 
  "Answers to display questions were usually known by the  teacher,  who  used  them  half  the  time  to  get  students  to  connect  to background  information  and  the  other  half  to  recall  recently  covered information.", 
  "Both types (connection and reminder/check) were used by the teacher,  Elisa,  in  the  dialog  below.", 
  "The  connection  questions  are:  \u201cDo  you know what   means?\u201d and \u201cWhat\u2019s a flea?\u201d The others are reminder/check questions related to the current lesson about the cause of the Black Plague.", 
  "Excerpt 1 \n: Look, in 1898, what did they realize the cause was?", 
  "Read that to me.", 
  "In 1898, a French scientist solved mystery.", 
  ": Do you know what  \n\n means?", 
  "(pause) To answer the puzzle.", 
  "What\u2019s a flea?", 
  "4 Kim: This bug on rats.", 
  "6 Kim: The boats?", 
  "I don\u2019t know.", 
  ": OK. Where did the rats came from?", 
  ": Yes.", 
  "But why did people get disease?", 
  ": Because  fleas  would  come  off  the  rats  and  bite  people  because \nthings weren\u2019t very clean.", 
  "They found out that .", 
  ".", 
  ".", 
  "what?", 
  "10 Kim: Where the disease come from.", 
  "Open-ended questions allowed students to craft more personalized responses.", 
  "Such  questions  often  elicited  follow-up  questions.", 
  "The  three  teachers  asked open-ended  questions  that  typically  fell  within  four  categories:  personal (thoughts,  feelings,  opinions,  and  interpretations),  justifying,  clarifying, and elaborating.", 
  "In excerpt 2 the teacher, Helen, uses \u201cWhat (and Why) do you .", 
  ".", 
  ".\u201d  with  focus  on  the  word    to  make  the  student  feel  more  secure about  answering  the  question.", 
  "She  used  several  types  of  questions  here  to help  Armando  prepare  an  oral  presentation  describing  life  as  a  medieval monk in the first person.", 
  "Excerpt 2 2 Armando: 4 Armando: We wake up at 2 am and then at 3 am we go back to sleep for \nWhat do you want to say?", 
  "I\u2019m a monk and my name is Javier.", 
  "What do people want to know about being a monk?", 
  "three hours.", 
  "Why do you do that?", 
  "Why wake up at 2 am?", 
  "It says right here?", 
  "But why?", 
  "You have to tell them.", 
  "Because that\u2019s interesting.", 
  "You want to tell interesting stuff.", 
  "So do you know why you do that?", 
  "6 Armando: \n\n8 Armando: No.", 
  "\u00a9 The Author Journal compilation \u00a9 2007 Blackwell Publishing Ltd \nJeff Zwiers \nWhy do you think you would do that as a monk?", 
  "Why would you have a church service at 2 am?", 
  "Do you have a guess?", 
  "Justification questions often followed personal questions.", 
  "Teachers asked questions such as: \u201cWhy do you think that?", 
  "What evidence do you have?", 
  "Do you  have  a  good  reason  for  thinking  that?\u201d  Such  questions  are  important builders  of  thinking  processes,  especially  those  required  for  the  writing assignments  in  middle  school.", 
  "Unfortunately,  a  problem  that  I  saw  in  this area was the lack of modeling by teachers.", 
  "Teachers asked many questions that called for the students to justify their thoughts and opinions and provide good reasons to back up their statements, but they did not sufficiently model the  typical  language  used  for  this,  nor  did  they  discuss  what  constituted  a good reason or justification.", 
  "Clarification  questions  require  students  to  explain  their  responses.", 
  "The most common of these questions used by the teachers were: \u201cWhat do you mean?\u201d  and  \u201cCan  you  explain?\u201d  I  assumed  that  by  the  end  of  the  second semester that Elisa\u2019s language arts students, who were asked these questions many  times,  would  clarify  their  answers  without  further  prompting  \u2013  but they continued to over-rely on shared background knowledge in their spoken (or in many cases their written) production.", 
  "Elaboration questions were by far the most common form of open-ended questioning used by the three teachers, most often in whole class discussions.", 
  "In many cases such questions prompted students to think more deeply about a  concept  or  to  further  define  their  understanding  of  it.", 
  "Notice  below  how Helen  attempts  to  get  students  to  elaborate  with  responses  that  require cause/effect and interpretative thinking.", 
  ": How did trade affect people after the plague?", 
  "How did it affect \n: OK, they wanted more.", 
  "What else?", 
  "Trade flourished.", 
  "Individualism.", 
  ": What does that mean?", 
  "Setting their own goals and did what they want?", 
  "Excerpt 3 \n\ntheir minds?", 
  "They wanted more!", 
  "6 Juan: Money, wealth!", 
  "This led into the .", 
  ".", 
  ".", 
  "Dark ages, middle ages?", 
  ": No, the Renaissance.", 
  "This means what?", 
  "Renaissance, like renacer.", 
  ": Rebirth of .", 
  ".", 
  ".", 
  "?", 
  "(pause) Of art and culture.", 
  "A lot came as a result \nof more wealth that they got.", 
  "The problem with elaboration questioning is its tendency to put one student on the spot, either placing added pressure on the student or raising the status of that particular \u2013 often vocal and already high-achieving \u2013 student.", 
  "\u00a9 The Author Journal compilation \u00a9 2007 Blackwell Publishing Ltd \nTeacher practices and perspectives for developing academic language \nTable 5.", 
  "Questioning practices by teachers in all three classrooms \nQuestion type \nelaboration \ndirected at  \nmainstream students \ndirected at  \n\u2018English learners\u2019 \nIn  some  cases,  elaboration  may  actually  confuse  students,  sending  both positive and negative feedback in reaction to their responses.", 
  "Teachers often repeated or rephrased a student response, which students considered to be an acceptance of a correct response.", 
  "But when teacher followed up with an elaboration question (\u201cWhat else?\u201d), this suggested that the response may not have been adequate after all.", 
  "My  data  indicate  that  the  teachers  asked  fewer  follow-up  elaboration questions of English learners.", 
  "In fact, in the four-month period of the study, I only observed three instances of the focal students being asked to elaborate on  their  answers,  while  an  above-average  percentage  of  display  questions that did not require significant elaboration were directed to them.", 
  "Roughly  one  third  of  each  class  was  composed  of  intermediate  English learners.", 
  "They  thus  should  have  received  one  third  each  of  display,  open, and  elaboration  questions,  yet  the  data  show  otherwise.", 
  "As  can  be  seen  in Table  5,  mainstream  students  were  called  on  more  for  responses  which would  involve  academic  thinking  and  academic  language,  while  English learners were called on more to answer fact-based, explicit display questions.", 
  "Use of gestures \nGestures, facial expressions, and other nonverbal cues help to augment and clarify verbal discourse.", 
  "Several of the gestures used by these teachers seem to  be  universally  comprehensible.", 
  "For  example,  the  language  arts  teacher Elisa  accompanied  the  term    with  movements  suggesting  she  was painting a picture.", 
  "Helen often emphasized the words  moved her left hand, palm down, to her right and then flipped it over to the left,  palm  up.", 
  "She  also  performed  this  action  when  she  used  similar contrastive terms that contradicted a previous point.", 
  "Excerpt 4 \n\n: Martin  Luther  wanted  to  change  church  practices.", 
  "However, [hand  motion]  the  Catholic  Church  wasn\u2019t  ready  to  change.", 
  "So what did they do?", 
  "2 Juan: They killed him.", 
  "\u00a9 The Author Journal compilation \u00a9 2007 Blackwell Publishing Ltd \nJeff Zwiers \n4 Juan: Because they liked getting money.", 
  "He was an enemy.", 
  ": So they killed him.", 
  "Yet, did it work?", 
  "[hand motion for  \nSome gestures, however, seemed to be culturally bound and thus did not aid the comprehension of English learners.", 
  "For example, Helen accompanied the word   by forming the peace sign (V) with her fingers.", 
  "As I looked around  the  class,  it  was  obvious  that  most  of  the  mainstream  students understood the gesture, while the focal students had quizzical looks on their faces.", 
  "I  asked  them  later  about  the  gesture  and  they  thought  it  meant  the promise when referring number two.", 
  "In another instance, Nina used the word  to a court oath and then traced a cross over her heart with her finger (as in \u201ccross my heart and hope to die\u201d).", 
  "The focal students told me later that this gesture was not universally understood.", 
  "Examples, analogies, and personifying \nTeachers often use examples after introducing a challenging term in order to clarify it or try to connect the concept to a student\u2019s background knowledge or personal experience in some way.", 
  "Helen did this when she explained the concept of religious indulgence by relating it to the practice of \u201cfree homework tickets\u201d that some teachers gave out.", 
  "Like reconciliation?", 
  "Excerpt 5 2 Helen: Kind of.", 
  "That\u2019s a good word.", 
  "Umm, it\u2019s to reduce punishment for sins.", 
  "Like a \u201cfree homework\u201d ticket.", 
  "Like if you do something bad, .", 
  ".", 
  ".", 
  "if you pay me 50 dollars, I\u2019ll give a certificate.", 
  "That means you won\u2019t get as punished for your sin by God.", 
  "That\u2019s not true!", 
  "4 Helen: They made a lot of money off that.", 
  "You sound like Martin Luther, \nthen.", 
  "What you said sounds like him.", 
  "In  this  excerpt,  what  I  call  \u2018personifying\u2019  was  used  to  connect  the  new concept  to  student  background  knowledge,  making  it  more  tangible, dramatic,  humorous,  or  exciting.", 
  "Personifying  involves  stepping  into  the mindset of a person or object and then acting or talking appropriately.", 
  "This seems to be effective for two reasons: (a) it makes the content more relevant and fun to the students, connecting to their lives in some way, often through the use of slang and exaggeration (e.g.", 
  "\u201cI can\u2019t make it to the party tonight \u2013 I\u2019m  going  through  mitosis!\u201d);  and  (b)  it  allows  students  to  feel  safe  when answering,  knowing  that  their  such  responses  cannot  be  seen  as  wrong.", 
  "Personifying also helps students to build up the cognitive skills of perspective and interpretation.", 
  "The following monologue about squid exemplifies this.", 
  "\u00a9 The Author Journal compilation \u00a9 2007 Blackwell Publishing Ltd \n\fTeacher practices and perspectives for developing academic language w 107 \nExcerpt 6 Nina: Yes, catching prey.", 
  "They have evolved, or changed over time, in order to  catch  prey.", 
  "Squid  are  predators  and  they  catch  fish.", 
  "So,  if  I\u2019m  a squid, as I swim through the ocean, I see something I want to eat, I shoot out the tentacles and grab onto the fish and use my eight arms to wrap around them.", 
  "Linguistic enabling \nThese  teachers  also  used  behaviors  that  seemed  to  undermine,  rather  than cultivate,  academic  language  development.", 
  "In  the  desire  to  affirm  student responses and avoid placing undo pressure on students, Helen would accept oral and written responses that were not sufficiently academic in nature.", 
  "In the  following  excerpt,  which  involves  perspective-taking  and  empathy, notice how (in lines 5, 7, 10, 14) she does not challenge students to produce more elaborated and academic responses.", 
  "Excerpt 7 \n2 Armando: No.", 
  "4 Armando: \n9 Armando: 10 Helen: 12 Armando: 14 Helen: \nSo  do  you  think  that  he  [Dante]  was  popular  with  some  of the people in Florence?", 
  "You think he made friends?", 
  "Why  don\u2019t  you  think  he  made  friends?", 
  "What  did  he  write their sins.", 
  "Yes, he wrote about real people and all the bad things they did.", 
  "That\u2019s like me writing a book about Juan and all the bad things  he  has  done  and  letting  everyone  read  about  it, whether true or not.", 
  "Would you like that?", 
  "How might people feel in each place?", 
  "For paradise, it would be better than being in hell.", 
  "Freedom, or free?", 
  "Love?", 
  "OK, keep going.", 
  "In purgatory, scared?", 
  "Maybe that\u2019s for inferno.", 
  "Sorrow?", 
  "Humility?", 
  "What about hope?", 
  "In  line  5  Helen  did  not  ask  Armando  to  connect  Dante\u2019s  writing  about sins to his lack of friends; rather, she did it for him.", 
  "She did not ask him for reasons behind his \u201cno\u201d in line 6.", 
  "Helen only responded \u201cOK, keep going\u201d to  Armando\u2019s  very  thought-provoking  feelings  expressed  in  line  9.", 
  "She seemed primarily focused here on getting the answers as quickly as possible and  appeared  to  want  to  do  most  of  the  thinking  and  talking  herself.", 
  "This \n\u00a9 The Author Journal compilation \u00a9 2007 Blackwell Publishing Ltd \n\f108 w Jeff Zwiers \ndialog brings up the important question of how much teachers should model academic  language,  which  one  might  argue  Helen  was  doing,  versus  how much  they  should  get  students  to  think  more  deeply  and  prompt  more academic language production, even if it is still very rough around the edges.", 
  "Academic idioms \nThe  data  also  contain  a  set  of  metaphors  used  for  academic  purposes  that are not found in more formal writing, which I call \u2018academic idioms\u2019.", 
  "These idioms, which were produced by teachers more often than students, include phrases such as all boils down to, the gory details, that answer doesn\u2019t hold water, a thin argument, a keen insight, crux of the matter, on the right track, and dissect the  article.", 
  "Many  of  these  academic  idioms  serve  to  describe  cognitive processes and school tasks.", 
  "This language seems to fit into Bourdieu\u2019s notion of linguistic capital (Bourdieu and Passeron 1990), the language patterns and terms  that  are  valued  in  school  settings  and  that  give  a  person  access  to increasingly complex ways of knowing.", 
  "Student academic language changes \nTable  6  shows  the  average  change  in  the  use  of  academic  language behaviors  by  the  four  focal  students  in  the  history  class  over  the  semester (7\u20138 observations of each class per month).", 
  "It is important to remember that the increases or decreases in students\u2019 use of academic language may have been  influenced  by  other  teachers,  maturation,  and/or  non-school  factors.", 
  "Despite  these  limitations,  the  data  in  Table  6  are  helpful,  indicating  rough changes over time in these categories.", 
  "Table 6.", 
  "Average number of instances of academic language used by focal students in history classes \nThinking skill/language function \ncause/effect comparison persuasion/stating an opinion supporting with examples/evidence interpretation perspective disagreeing or negating adding to another\u2019s point explaining or defining  (linguistically contextualizing) \n\u00a9 The Author Journal compilation \u00a9 2007 Blackwell Publishing Ltd \n\fTeacher practices and perspectives for developing academic language w 109 \nThe  most  significant  increases  were  in  the  cognitive  skill  categories  of comparing and identifying cause and effect.", 
  "These two skills also appeared most  often  in  the  transcripts  of  teachers\u2019  language  and  in  many  of  the questions and other classroom tasks.", 
  "They also are mentioned frequently in the  literature  and  recommended  methods  and  objectives  for  learning history.", 
  "Unfortunately, the cognitive skills of interpreting, persuading, and perspective-taking  are  not  very  evident  in  this  data  set,  even  though  they are  also  cited  as  being  important  skills  for  learning  about  history  in  most history teaching resources.", 
  "Two  student  behavior  categories,  disagreeing/negating  and  adding  to another\u2019s  point,  decreased  in  use  over  time.", 
  "This  suggests  that  one  of  the outcomes of the classroom practices was that students learned not to express themselves during discussions.", 
  "Results and discussion \nAll four focal students showed slight increases over time in their use of academic language functions and forms in their oral responses in pairs, groups, and whole class discussions, and in their informal and formal written work.", 
  "Despite positive growth in some areas, these students also acquired and adopted several ways of \u201cdoing school\u201d that seem to impede the development of academic discourse.", 
  "I have grouped the results into three categories: features of academic language, classroom discourse patterns, and social and cultural factors.", 
  "Features of academic language \nThe  data  indicate  that  a  significant  feature  of  academic  language  is  that  it describes  and  facilitates  cognitive  processes.", 
  "Such  language  is  subtle  yet pervasive in school contexts, e.g.", 
  "the phrases the difference between, led to, it is similar to when, support your argument, in this way, if .", 
  ".", 
  ".", 
  "were, because of, and yet from  the  point  of  view  of.", 
  "Many  of  the  phrases  linked  to  cognitive  skills  are figurative, embodying abstract meanings that describe complex relationships among ideas that are difficult to see, point to, touch, or act out.", 
  "Teachers and academics use such phrases every day without really thinking about them.", 
  "This group also includes the use of specialized meanings of familiar words in  different  disciplines  and  words  used  to  describe  technical  processes  and complex  relationships  (Short  2002).", 
  "I  have  called  this  subset  of  academic language \u2018academic idioms\u2019.", 
  "A salient feature of academic language is that it needs to be modified to meet the needs of a distant audience who do not share common background knowledge or social settings (Bartolom\u00e9 1998).", 
  "Students thus need to explain and support their points more extensively, using examples and evidence, often for a recipient who is not in a face-to-face conversation in which one can negotiate \n\u00a9 The Author Journal compilation \u00a9 2007 Blackwell Publishing Ltd \n\f110 w Jeff Zwiers \nmeaning when confusion arises.", 
  "Yet, from my discussions with students, this process was somewhat confusing to them, because they were often asked by the teacher to speak as if to a distant audience, while the audience (the class), in fact, was not distant and knew most of the material being presented.", 
  "This is yet another challenging \u201crule of the game of school\u201d, or habitus (Bourdieu 1977a), that students need to learn in order to succeed in the game of academia.", 
  "Classroom discourse patterns \nQuestioning \nTeachers in this study used many more display questions than open-ended questions, particularly with English learners.", 
  "Display questioning, often used early on in the discussion sequence, does serve a purpose: it can quickly show what students know or have learned.", 
  "But such questioning can dominate class time and displace the exploration of deeper issues and higher-order thinking.", 
  "Display questions lead students to believe that learning and schooling largely consist of figuring out what the teacher wants to hear.", 
  "Teachers should think about how questions and other prompts contribute to daily discourse patterns and whether or not they encourage student self-expression, academic responses, and  the  social  construction  of  knowledge.", 
  "Teachers  should  consider  how display questions can be used as a foundation (or raw material) to construct more  complex  understandings.", 
  "Perhaps  most  importantly,  teachers  should analyze their own questioning distribution practices to make sure that English learners are receiving their fair share of open and elaboration questions.", 
  "Elaborations \nOne  teacher  response  pattern  was  asking  students  to  elaborate  on  their answers.", 
  "However, just telling a student to elaborate is not enough; rather, a teacher  should  guide  the  student  on  how  to  elaborate  and  why.", 
  "In  one  of only three examples of a focal student being asked to elaborate, Elisa said to Kim:  \u201cTell  us  more  about  what  it  means  that  everyone  has  free  houses.", 
  "Maybe you mean free housing?", 
  "And your readers might want to know why that  would  make  things  perfect.\u201d  This  type  of  prompting  and  explicit modeling  of  academic  knowledge  structuring  was  rare  in  my  data  but yielded positive results in student writing and discussion.", 
  "Modeling and practice \nWhen  students  did  use  academic  language,  two  conditions  were  present.", 
  "First,  teachers  modeled  and  provided  students  with  the  language  that  they \n\u00a9 The Author Journal compilation \u00a9 2007 Blackwell Publishing Ltd \n\fTeacher practices and perspectives for developing academic language w 111 \nneeded  to  express  their  thinking;  second,  teachers  created  conditions  that allowed  students  to  practice  their  thinking  processes  and  language  as emerging  experts.", 
  "For  example,  a  teacher  might  ask  a  student  to  compare two organisms and point to comparison language on a wall chart.", 
  "Another way of presenting academic language was through using gestures; although this was infrequent in the three classrooms, it was effective when used.", 
  "Gestures  were  mostly  used  to  teach  content  vocabulary,  but  a  small number were used to teach cognitive skills, including gestures for on the other hand, it all boils down to, support your point, and step into their shoes.", 
  "One  interesting  finding  was  that  some  practice  activities  seemed  to  be \u201ctoo active\u201d, \u201ctoo social\u201d, or \u201ctoo hands on\u201d.", 
  "That is, some activities in this study, ironically, provided so much context such that a student could simply point to an object or visual aid rather than attempt to describe it to a distant audience.", 
  "This was evident during several science labs and history simulation activities.", 
  "While labs and simulations are important experiences, the teachers in this study did not take advantage of these experiences as foundations for higher-order thinking and academic communication.", 
  "Despite increases in several categories of language use, the findings also show  that  long-ingrained  classroom  discourse  patterns  played  a  possible role in limiting the encouragement of academic language use and behaviors.", 
  "During the period of the study, the focal students learned that teachers had varied  and  rigid  ideas  of  classroom  communication.", 
  "In  the  science  classes, for  example,  students  learned  that  they  needed  to  \u201ctranslate\u201d  texts  and teacher  talk  into  their  first  languages  and/or  simpler  English  in  order  to understand  the  concepts.", 
  "The  teacher  sometimes  did  this  for  them.", 
  "Then students needed to \u201cretranslate\u201d the concepts into academic forms that were expected  and  rewarded  by  the  teacher  (yet  seldom  modeled).", 
  "This  pattern represents  a  developing  schema,  or  habitus  (Bourdieu  1977a),  of  learning that pervades much education in the United States from primary school to doctoral programs.", 
  "Analogies and personifying \nTowards the end of discussions and conversations, these teachers tended to use analogies to clarify a complex concept by relating it to something in the students\u2019 experience.", 
  "In addition to explaining the concept, analogizing also helped to develop the skills of comparison and interpretation.", 
  "Teachers  also  engaged  in  personifying  to  dramatize  actions,  thoughts, and feelings.", 
  "For example, when Nina portrayed a squid, when Helen acted like a knight, or when Elisa became the main character in a novel, students were more engaged and even contributed to the dialog.", 
  "This engagement, I believe, helped students to understand the ideas and the language involved in the lesson.", 
  "Personifying also helped students build the cognitive skills of interpretation and taking different perspectives.", 
  "\u00a9 The Author Journal compilation \u00a9 2007 Blackwell Publishing Ltd \n\f112 w Jeff Zwiers \nLinguistic enabling \nA  negative  pattern  that  emerged  was  linguistic  enabling,  the  practice  of allowing students to produce non-academic responses.", 
  "Teachers did this for several  possible  reasons:  to  avoid  offending  students  or  discouraging  their participation, to speed the class along and focus on content, or through lack of awareness of the non-academic nature of the responses.", 
  "Though it seems counter-intuitive, the desire to be sensitive to differences may hinder academic language  development.", 
  "For  example,  in  seeking  to  validate  students\u2019  home language and culture, Helen accepted most of their oral and written language without corrective feedback.", 
  "Elisa, by contrast, was overly prescriptive and corrective  at  times,  also  to  the  potential  detriment  of  academic  language development.", 
  "Based  on  these  findings  and  those  of  other  researchers (Bartolom\u00e9  1998),  I  would  suggest  that  teachers  become  more  aware  of possible  behaviors  and  responses  that  do  not  challenge  students  to  give appropriate academic responses.", 
  "Social and cultural factors \nThe  overlapping  areas  of  cultural  and  linguistic  capital  also  appeared  to influence language development.", 
  "For example, students who do not have a strong understanding of the concrete meaning of an idiom or metaphor can not understand its figurative meaning.", 
  "Understanding the phrase you are on the right track requires, first of all, knowledge that a train on the right track is traveling  in  the  correct  direction.", 
  "Once  this  is  known,  the  student  needs  to make the conceptual leap to the figurative meaning of being close to the right answer.", 
  "This widespread use of idiomatic expressions may not be as common or used in the same ways elsewhere as they are used in US school contexts.", 
  "Culturally-ingrained  discourse  patterns  such  as  initiation\u2013response\u2013 evaluation appear to train students to be recipients of knowledge rather than co-constructors  of  their  learning  (Freire  2000).", 
  "In  the  history  classes,  for example,  despite  focal  students\u2019  increases  in  the  use  of  language  signaling cognitive skills, their responses to the comments of other students decreased.", 
  "In addition, teachers prompted English learners more often with fact-based (easier) questions and did not ask for elaboration as much or as often as they did  from  mainstream  students.", 
  "Their  intention  may  have  been  to  not overwhelm students who lacked fluency in English, but this can result in a form of linguistic enabling that stunts academic growth.", 
  "Finally, a possible interpretation for the decrease in focal students\u2019 adding to another\u2019s point (Table 6) was that they learned not to consider themselves to be legitimate class participants in relation to their peers due to their lack of  fluency  in  English.", 
  "It  is  logical  that  as  they  acquired  more  language, particularly  the  academic  language  indicated  by  other  categories,  they should  have  expressed  their  opinions  and  ideas  more  readily.", 
  "Yet  it  seems \n\u00a9 The Author Journal compilation \u00a9 2007 Blackwell Publishing Ltd \n\fTeacher practices and perspectives for developing academic language w 113 \nthat, in Bourdieuan terms, they gradually acquired a habitus of keeping their thoughts to themselves and participating only when they felt that they had guessed what the teacher wanted them to say.", 
  "Implications of the study \nDespite  this  study\u2019s  small  number  of  focal  students,  several  implications emerged that contribute to the discussion of academic language development in secondary school contexts.", 
  "First,  teachers  who  are  aware  of  the  cognitive  skills  required  for  their discipline(s) and the language that supports such skills are likely to be better prepared to teach these as they teach content.", 
  "Staff development discussions and department meetings might consider the language underpinning the five skills  highlighted  in  this  study:  identifying  cause  and  effect,  comparing, interpreting,  taking  multiple  perspectives,  and  persuading  with  evidence.", 
  "Teachers could discuss how such skills are used and are required in different subject areas.", 
  "Second, teachers can be trained to use various strategies to make academic language  comprehensible.", 
  "Learning  more  about  student  backgrounds  and cultures can help the teacher make complex language more comprehensible to English learners by accompanying it with visual aids, gestures, examples, and analogies.", 
  "Additionally, teachers can use the technique of personifying to make the content more relevant to and fun for the students, to allow them to feel safe about sharing their thoughts in class, and to build the cognitive skills of perspective and interpretation.", 
  "Third,  teachers  can  design  classroom  activities  that  require  complex thinking and language patterns valued in academia (and in the professional world).", 
  "Rather  than  fact-based  charts,  fill-in-the-blank  worksheets,  end-of- chapter questions, and formulaic essays, teachers can create scenarios where students  think  deeply  about  the  facts  and  concepts  and  communicate  in academic ways in order to accomplish complex, real-world tasks.", 
  "Educators should  reflect  on  how  to  build  into  activities  the  need  to  talk  richly  and academically about processes and products.", 
  "Fourth,  teachers  and  teacher  educators  should  reflect  on  the  nature  of communication in the classroom and how it cultivates or hinders the growth of  thinking  and  language.", 
  "Armed  with  a  more  solid  understanding  of concepts  of  cultural  and  linguistic  capital,  teachers  and  other  key  players (including legislators and test designers) can make more effective decisions that benefit non-mainstream students rather than marginalize them in subtle yet powerful ways.", 
  "Finally,  teachers  can  continually  reflect  on  the  patterns  that  negatively affect  language  and  cognition.", 
  "Are  students  adapting  and  adopting  certain notions of learning and being a student that lead to stratification within the classroom (Bourdieu and Passeron 1990)?", 
  "Are students learning to \u201cplay the \n\u00a9 The Author Journal compilation \u00a9 2007 Blackwell Publishing Ltd \n\f114 w Jeff Zwiers \ngame\u201d of school at the expense of their cognitive and linguistic development?", 
  "In  this  study,  the  data  suggest  that  students  learned  stagnant  patterns  of simply  receiving  and  memorizing  knowledge  and  not  expressing  their opinions, disagreements, and new ideas that were sparked by other students\u2019 responses.", 
  "Concluding remarks \nMillions  of  students  around  the  world  are  still  learning  to  navigate  the complex  systems  of  language  and  learning  that  exist  in  school  systems.", 
  "Research  has  highlighted  the  powerful  roles  that  home  and  community factors  play  in  building  the  discourse  and  cognitive  skills  that  students bring  with  them  to  school  (Heath  1983).", 
  "While  it  can  be  tempting  to  use students\u2019  backgrounds  as  an  excuse  for  poor  academic  performance,  this study  has  shown  that  certain  practices  in  school  can  benefit  non-native speakers and members of non-dominant groups in mainstream settings.", 
  "At the same time, the study has brought to light certain long-standing classroom practices that might actually hinder language development.", 
  "These practices should be questioned, researched, and perhaps replaced by more effective ones.", 
  "Finally,  this  study  encourages  further  discussion  of  the  relationships between  academic  capital,  cognition,  curricula,  classroom  communication, and  language  development.", 
  "From  southern  Ethiopia  to  northern  California and from central China to Eastern Europe, teachers\u2019 perspectives and practices make a significant difference in the lives of their students \u2013 especially non- mainstream  students.", 
  "Equipped  with  a  greater  knowledge  of  sociocultural factors  and  effective  classroom  discourse  patterns,  teachers  can  facilitate learning  experiences  that  develop  students\u2019  thinking  and  communication skills  that  are  necessary  for  higher  education,  desirable  jobs,  and  positive societal change.", 
  "It is my hope that the insights gained from this study will be helpful in strengthening the communication practices in schools so that the four focal students discussed here \u2013 plus millions of other students like them around the world \u2013 will succeed in school and beyond."
 ]
}