{
 "document_id": "1243047924963557356", 
 "sentences": [
  "American Educational Research \n\nhttp://aerj.aera.net \n\nWhy Students Choose STEM Majors: Motivation, High School Learning, \nand Postsecondary Context of Support \nXueli Wang \nAm Educ Res J \n 2013 50: 1081 originally published online 21 May 2013 \nDOI: 10.3102/0002831213488622 \nThe online version of this article can be found at: \nhttp://aer.sagepub.com/content/50/5/1081 \n\nPublished on behalf of \n\nAmerican Educational Research Association \nhttp://www.sagepublications.com \nAdditional services and information for  \nAmerican Educational Research Journal \n can be found at: \nEmail Alerts:  \n\nhttp://aerj.aera.net/alerts \nSubscriptions:  \n\nhttp://aerj.aera.net/subscriptions \nReprints:  \n\nhttp://www.aera.net/reprints \nPermissions:  \n\nhttp://www.aera.net/permissions \n\nVersion of Record  \n- Sep 24, 2013 \nOnlineFirst Version of Record  \n- Jul 10, 2013 \nOnlineFirst Version of Record  \n- May 21, 2013 \nDownloaded from  Downloaded from  Downloaded from  Downloaded from  Downloaded from  Downloaded from  Downloaded from  Downloaded from  Downloaded from  Downloaded from  Downloaded from  Downloaded from  Downloaded from  Downloaded from  Downloaded from  Downloaded from  Downloaded from  Downloaded from  Downloaded from  Downloaded from  Downloaded from  Downloaded from  Downloaded from  Downloaded from  Downloaded from  Downloaded from  Downloaded from  Downloaded from  Downloaded from  Downloaded from  Downloaded from  Downloaded from  Downloaded from  Downloaded from  Downloaded from  Downloaded from  Downloaded from  Downloaded from  Downloaded from  Downloaded from  Downloaded from  Downloaded from  \nWhat is This?", 
  "http://aerj.aera.net http://aerj.aera.net http://aerj.aera.net http://aerj.aera.net http://aerj.aera.net http://aerj.aera.net http://aerj.aera.net http://aerj.aera.net http://aerj.aera.net http://aerj.aera.net http://aerj.aera.net http://aerj.aera.net http://aerj.aera.net http://aerj.aera.net http://aerj.aera.net http://aerj.aera.net http://aerj.aera.net http://aerj.aera.net http://aerj.aera.net http://aerj.aera.net http://aerj.aera.net http://aerj.aera.net http://aerj.aera.net http://aerj.aera.net http://aerj.aera.net http://aerj.aera.net http://aerj.aera.net http://aerj.aera.net http://aerj.aera.net http://aerj.aera.net http://aerj.aera.net http://aerj.aera.net http://aerj.aera.net http://aerj.aera.net http://aerj.aera.net http://aerj.aera.net http://aerj.aera.net http://aerj.aera.net http://aerj.aera.net http://aerj.aera.net http://aerj.aera.net http://aerj.aera.net \n at AERA on September 30, 2013  at AERA on September 30, 2013  at AERA on September 30, 2013  at AERA on September 30, 2013  at AERA on September 30, 2013  at AERA on September 30, 2013  at AERA on September 30, 2013  at AERA on September 30, 2013  at AERA on September 30, 2013  at AERA on September 30, 2013  at AERA on September 30, 2013  at AERA on September 30, 2013  at AERA on September 30, 2013  at AERA on September 30, 2013  at AERA on September 30, 2013  at AERA on September 30, 2013  at AERA on September 30, 2013  at AERA on September 30, 2013  at AERA on September 30, 2013  at AERA on September 30, 2013  at AERA on September 30, 2013  at AERA on September 30, 2013  at AERA on September 30, 2013  at AERA on September 30, 2013  at AERA on September 30, 2013  at AERA on September 30, 2013  at AERA on September 30, 2013  at AERA on September 30, 2013  at AERA on September 30, 2013  at AERA on September 30, 2013  at AERA on September 30, 2013  at AERA on September 30, 2013  at AERA on September 30, 2013  at AERA on September 30, 2013  at AERA on September 30, 2013  at AERA on September 30, 2013  at AERA on September 30, 2013  at AERA on September 30, 2013  at AERA on September 30, 2013  at AERA on September 30, 2013  at AERA on September 30, 2013  at AERA on September 30, 2013 \n(cid:160) (cid:160) (cid:160) (cid:160) (cid:160) (cid:160) (cid:160) (cid:160) (cid:160) (cid:160) (cid:160) (cid:160) (cid:160) (cid:160) (cid:160) (cid:160) \fAmerican Educational Research Journal October 2013, Vol.", 
  "50, No.", 
  "5, pp.", 
  "1081\u20131121 DOI: 10.3102/0002831213488622 \u00d3 2013 AERA.", 
  "http://aerj.aera.net \nWhy Students Choose STEM Majors: Motivation, High School Learning, and \nPostsecondary Context of Support \nXueli Wang \nUniversity of Wisconsin-Madison \nThis study draws upon social cognitive career theory and higher education literature to test a conceptual framework for understanding the entrance into science, technology, engineering, and mathematics (STEM) majors by recent high school graduates attending 4-year institutions.", 
  "Results suggest that choosing a STEM major is directly influenced by intent to major in STEM, high school math achievement, and initial postsecondary experiences, such as academic interaction and financial aid receipt.", 
  "Exerting the largest impact on STEM entrance, intent to major in STEM is directly affected by 12th-grade math achievement, exposure to math and science courses, and math self-efficacy beliefs\u2014all three subject to the influence of early achieve- ment in and attitudes toward math.", 
  "Multiple-group structural equation modeling analyses indicated heterogeneous effects of math achievement and exposure to math and science across racial groups, with their positive impact on STEM intent accruing most to White students and least to under- represented minority students.", 
  "KEYWORDS: theory, multiple-group SEM \nSTEM participation, college major choice, social cognitive career \nIntroduction \nness within science, \nWithout question, America\u2019s ability to maintain its global competitive- \ntechnology, engineering, and mathematics (STEM) fields is an issue of national importance.", 
  "Often framed in the context of human capital (National Science Board, 2010), discussions of the critical issues facing the nation\u2019s STEM infrastructure center on a recognized need \nXUELI WANG is an assistant professor in the Department of Educational Leadership and Policy Analysis at the University of Wisconsin-Madison, 270-H Education Building, 1000 Bascom Mall, Madison, WI 53706-1326; e-mail: xwang273@wisc.edu.", 
  "Her research interests include participation in STEM fields of study and pathways and suc- cess of students beginning at community colleges.", 
  "for building STEM workforce capacity (National Academies 2005 \u2018\u2018Rising Above the Gathering Storm\u2019\u2019 Committee, 2010).", 
  "Support for this cause has been levied through investments in educational programming, many of which are focused on postsecondary education.", 
  "The demand for graduates in STEM fields continues to grow at a relatively rapid rate.", 
  "According to the National Science Foundation (2010), the employ- ment rate in science and engineering fields rose an average of 3.3% annually between 2004 and 2008 compared to an average 1.3% annual increase in employment in all occupations, and this estimated growth rate is consistent with long-term national trends (U.S. Department of Labor, 2007).", 
  "By 2018, 9 of the 10 fastest growing occupations that require at least a bachelor\u2019s degree will depend on significant math or science training, and many science and engineering occupations are predicted to grow faster than the average rate for all occupations (Lacey & Wright, 2009; National Science Board, 2010).", 
  "These data document the need for greater participation of qualified col- lege graduates in the STEM workforce.", 
  "However, the supply side of the STEM pipeline still reports a serious shortage of students pursuing STEM dis- ciplines (Fox & Hackerman, 2003).", 
  "While the national demand for motivated students to enter postsecondary STEM fields is at its highest, high school seniors\u2019 interest in and readiness for pursuing these majors have been slug- gish (ACT, 2006).", 
  "American postsecondary institutions are therefore facing an unprecedented need to increase the number of students who study in STEM disciplines.", 
  "Of particular concern in the discussion on broadening STEM participation is the underrepresentation of racial minorities, women, and students of low socioeconomic status (SES; e.g., Anderson & Kim, 2006; Herrera & Hurtado, 2011; National Academies 2005 \u2018\u2018Rising Above the Gathering Storm\u2019\u2019 Committee, 2010; National Science Foundation, 2006, 2010; Schultz et al., 2011).", 
  "An overwhelming body of research has also suggested that underrep- resented racial minorities, women, and students of low SES persist at lower rates in STEM fields of study than their White, male, and more socioeconom- ically advantaged counterparts (e.g., Bailyn, 2003; Blickenstaff, 2005; Kulis & Sicotte, 2002).", 
  "It has been established that college majors create differential opportunities for social mobility and that college graduates from STEM fields attain higher occupational earnings and social status positions associated with these professions compared to many other fields (Russell & Atwater, 2005).", 
  "In this sense, the differential participation rates in STEM fields are particularly detrimental because they adversely affect those underrepresented students\u2019 long-term social mobility, thus perpetuating socioeconomic inequality (Carter, 2006).", 
  "Therefore, the shortage of these students successfully pursuing and completing studies in STEM disciplines continues to be a significant con- cern for educators, policymakers, and researchers alike.", 
  "Although these rising calls have generated a fair amount of empirical interest, most research concentrates on persistence and attainment among \n\n\fWhy Students Choose STEM Majors \nstudents who have already entered STEM fields.", 
  "Not enough attention has been paid to factors relevant to interest in and entrance into STEM fields, which are arguably the first critical steps into the STEM pipeline.", 
  "Given the previously discussed pressing concerns facing STEM education nationally, it is pivotal to provide rigorous academic programs and support mechanisms that prepare students, especially members of traditionally underrepresented groups, to enter these challenging and important fields of postsecondary study.", 
  "Needless to say, this educational endeavor will rely on collective, con- certed, and well-informed efforts by the nation\u2019s educational institutions.", 
  "A decision to pursue a STEM major is a longitudinal process that builds during secondary education and carries into postsecondary studies.", 
  "A full picture of this process is best realized through incorporating the effects of these two lev- els of education since they both shape students\u2019 entrance into STEM.", 
  "Treating secondary and postsecondary education effects in isolation would severely limit the ability to fully make sense of this phenomenon.", 
  "As such, theoretically based work from a holistic, K\u201316 perspective is needed to better understand boosters and barriers to students\u2019 entrance into STEM fields of study.", 
  "Toward that end, a theoretical model of STEM participation is proposed and tested in this study focusing on both secondary and postsecondary factors.", 
  "Particular attention is also given to the potentially varying effects of these factors among different student subpopulations by analyzing multiple-group structural equa- tion models based on race, gender, and SES.", 
  "Background Literature and Theoretical Framework \nResearch on STEM Education \nSTEM education has garnered close scholarly attention.", 
  "Numerous studies have revealed the disproportionately high attrition rates of women and minor- ities and the bachelor\u2019s degree completion gap in STEM disciplines at 4-year institutions across the nation (e.g., Anderson & Kim, 2006; Huang, Taddese, & Walter, 2000; Seymour & Hewitt, 1997).", 
  "In addition to the gender and racial disparities in STEM persistence and completion, researchers also have high- lighted theoretical reasons that students persist or leave a STEM field of study, such as early exposure to and proficiency in math and science (Adelman, 1998, 1999, 2006; Anderson & Kim, 2006); high school curriculum (Elliott, Strenta, Adair, Matier, & Scott, 1996); advanced courses in math and science (Ellington, 2006); information early in the career search process (Holland, 1992); the types of opportunities, experiences, and support students receive in college (e.g., M. J. Chang, Sharkness, Newman, & Hurtado, 2010; Seymour & Hewitt, 1997); institutional selectivity (M. J. Chang, Cerna, Han, & Sa\u00b4enz, 2008; Eagan, 2009; Strayhorn, 2010); faculty quality and diversity (Brainard, Metz, & Gillmore, 1993; Leach, 2010); and classroom experiences (Cabrera, Colbeck, & Terenzini, 2001).", 
  "Despite the wealth of research on persistence and completion in STEM fields, less focus has been given to entrance into postsecondary STEM disci- plines.", 
  "Existing research does reveal that the choice to pursue STEM fields is affected by math- and science-related interest and self-assessment (e.g., Seymour & Hewitt, 1997), math and science completed during high school (e.g., Ethington & Wolfle, 1988; Maple & Stage, 1991), social background (Ware & Lee, 1988), and parental education (Gruca, Ethington, & Pascarella, 1988).", 
  "The most comprehensive national study to date on stu- dents who enter STEM was conducted by Chen and Weko (2009).", 
  "Utilizing three Institute of Education Sciences (IES) longitudinal data sets, the authors found that the percentage of students entering STEM fields was higher among male students, younger students, students financially dependent on family, Asian/Pacific Islander students, foreign students, or those who spoke a language other than English as a child, and students with more advantaged family background and stronger academic prepara- tion than their counterparts.", 
  "However, given the descriptive nature of the study, factors influencing STEM entrance beyond demographics were barely examined.", 
  "Another recent study (Crisp, Nora, & Taggart, 2009) found that students\u2019 decisions to declare a STEM major and earn a STEM degree at a Hispanic-serving institution were influenced by their gender, ethnicity, SAT math score, and high school class rank percentile.", 
  "Despite these com- mendable empirical efforts, relatively less is known at the national level about why students enter STEM fields.", 
  "Overall, research on STEM education represents substantial empirical ef- forts to form a better understanding of the underlying factors that influence student success along the STEM pipeline.", 
  "Yet few academic studies using nationally representative samples have dealt with the very first step of STEM participation: why students enter STEM majors.", 
  "The primary focus of existing studies based on national samples revolves around students who have already chosen a STEM major (e.g., M. J. Chang et al., 2008, 2010; Eagan, 2009).", 
  "Furthermore, while abundant data exist to indicate the low enrollment and high attrition rates in STEM fields of racial minorities, women, and students of low SES, little is known in regard to how factors influencing STEM entrance work differently or similarly across these sub- groups of students.", 
  "Aside from the imperative need for adding to the empirical knowledge base on STEM entrance, research in this vein also calls for a new theoretical framework that holistically and longitudinally captures supports and barriers to students choosing STEM majors.", 
  "Indeed, as previously noted, a small body of research has looked at the issue of STEM enrollment, yet these stud- ies either are heavily focused on secondary school and background influen- ces (Maple & Stage, 1991; Tyson, Lee, Borman, & Hanson, 2007) or solely deal with the fit between postsecondary disciplinary environments and stu- dents\u2019 interests (Olitsky, 2012; Toker & Ackerman, 2012), often in isolation of \n\n\fWhy Students Choose STEM Majors \neach other.", 
  "Although these studies are well grounded in prior literature, their theoretical considerations provide limited insight illustrating one or only a few aspects of the issue and do not explicitly account for the developmen- tal and longitudinal nature of a student\u2019s interest in and decision to pursue a particular field of postsecondary study.", 
  "In addition, important postsecond- ary supports and barriers such as financial aid, academic interaction, and remediation that could influence STEM entrance after students enroll in col- lege are seldom addressed in those frameworks.", 
  "Recognizing these research gaps and the lack of a comprehensive framework on STEM entrance in the literature, this study draws on a theoretical model with an intentional emphasis on the secondary-postsecondary nexus of the STEM pathway that accounts for the holistic and longitudinal nature of STEM entrance.", 
  "A detailed discussion of this framework follows.", 
  "Theoretical Framework \nThe theoretical model (Figure 1) integrates the social cognitive career theory (SCCT) and prior literature on factors closely related to college stu- dents\u2019 academic choices and outcomes.", 
  "In this model, students\u2019 intent to major in STEM is affected by their 12th-grade math achievement, exposure to math and science courses, as well as math self-efficacy beliefs, all of which are subject to the influence of prior achievement in and attitudes toward math.", 
  "Students\u2019 STEM intent in turn affects their actual choice of STEM fields of study.", 
  "In addition, entrance into STEM fields also is directly influenced by postsecondary context of supports and barriers.", 
  "To be specific, postsecond- ary supports include academic interaction, financial aid, college readiness in math and science, graduate degree expectations, and enrollment intensity.", 
  "Among postsecondary barriers are remediation (taking remedial courses in math, reading, and writing) and external demands such as having children and the number of work hours.", 
  "A more detailed description of the model\u2019s theoretical grounding and supporting literature follows.", 
  "Based on Bandura\u2019s (1986) general social cognitive theory, SCCT under- scores the interrelationship among individual, environmental, and behav- ioral variables that are assumed to undergird one\u2019s academic and career choice (Lent & Brown, 2006).", 
  "Key factors in SCCT include self-efficacy be- liefs, outcome expectations, interests, environmental supports and barriers, as well as choice actions (Lent, Sheu, Gloster, & Wilkins, 2010).", 
  "SCCT offers an appropriate theoretical lens to study the issue of STEM choice (Lent, Brown, & Hackett, 1994, 2000) and has been applied in a small number of studies on STEM-related academic choice intentions (e.g., Betz & Hackett, 1983; Byars-Winston, Estrada, Howard, Davis, & Zalapa, 2010; Hackett, Betz, Casas, & Rocha-Singh, 1992; Lent, Lopez, & Bieschke, 1993; Lent, Lopez, Lopez, & Sheu, 2008).", 
  "Although this set of studies suggests the valid- ity of SCCT as an explanatory framework for understanding STEM interests \nEarly High \n\nAttitudes \nToward Math 10th Grade  \n\nAchievement 10th Grade \nHigh School Senior Year \n\nSelf-Efficacy \n\nExposure to \n\nAchievement 12th Grade \nPostsecondary Context of Supports \nInteraction \n\nReadiness in \nFinancial \n\nExpecting a \nEnrollment Intensity \nIntent to Major in a STEM Field \nEntrance into a \n\nField of Study \nPostsecondary Context of Barriers Remediation \nExternal Demands \nSecondary \nPostsecondary \nFigure 1.", 
  "Theoretical model for the study.", 
  "and choices, they are largely limited by cross-sectional designs and single- institution data (Lent et al., 2010).", 
  "Based on a national longitudinal database, this study incorporates the key constructs of SCCT to build a conceptual model of STEM participation and capture the nature of the relationships among the theoretical variables over time.", 
  "SCCT posits that determination to produce a particular choice can be ex- plained as a result of interests and goals.", 
  "Therefore, choosing a STEM major is hypothesized to be influenced by students\u2019 intent to pursue these fields upon postsecondary entry.", 
  "Meanwhile, based on SCCT, interest in a choice action is subject to self-reference belief and learning experiences.", 
  "Given the fundamental importance of early math experience in future STEM education (e.g., Adelman, 1999; Bowman, 1998; Marshall, McGee, McLaren, & Veal, 2011; National Science Board, 2004), STEM intent can thus be argued as a product of motivational attributes and learning as related to math at the secondary level.", 
  "More specifically, is related to high school seniors\u2019 math achievement, exposure to math and science courses, and \nthis intent \n\n\fWhy Students Choose STEM Majors \nmath self-efficacy beliefs (i.e., individuals\u2019 confidence in their ability to suc- cessfully perform or accomplish math tasks or problems; Hackett & Betz, 1989; Pajares & Kranzler, 1995).", 
  "Furthermore, these three elements are shaped by early math achievement and attitudes, especially in light of the longitudinal and developmental nature of achievement in and attitudes toward math (Eccles, 1994; Trusty, 2002).", 
  "SCCT also highlights the role of environmental supports and barriers in determining choice actions.", 
  "In a postsecondary setting, students\u2019 pursuit of STEM as an academic goal responds to contextual supports and barriers\u2014 social, academic, or financial.", 
  "Students transitioning into postsecondary edu- cation navigate a series of demands, such as the need for financial resources, academic integration into college, and various external demands.", 
  "The out- comes of this process might present either supports or barriers and thus impact students\u2019 academic choice behavior.", 
  "Therefore, the proposed con- ceptual model also includes a number of supports and barriers in this tran- sition process, discussed in the following paragraphs.", 
  "Postsecondary supports are represented by academic interaction, col- lege readiness in math and science, financial aid receipt, expecting a gradu- ate degree, and enrollment intensity.", 
  "Academic interaction between students and other college socialization sources, such as faculty and academic advi- sors, positively influences numerous student outcomes (Astin, 1993; J. C. Chang, 2005; Terenzini, Pascarella, & Blimling, 1999).", 
  "Such interactions may provide necessary support for students to clarify and confirm their choice of major field of study.", 
  "Also, as K\u201312 assessments are not always in perfect alignment with the academic requirements of postsecondary institu- tions (Goldrick-Rab, Carter, & Winkle-Wagner, 2007), once in college, stu- dents\u2019 perceptions of the extent to which their high school math and science courses have prepared them for college-level work may influence their decision to pursue STEM.", 
  "Students who feel that they are college-ready in the areas of math and science may favorably consider a STEM major.", 
  "In addition, the receipt of financial aid affects students\u2019 academic choices (e.g., DesJardins, Ahlburg, & McCall, 2006; Ishitani & DesJardins, 2002) and in particular may positively influence students\u2019 choice of a STEM major (Kienzl & Trent, 2009).", 
  "The conceptual model also includes enrollment intensity and graduate degree expectations.", 
  "Enrollment intensity\u2014whether students enroll full- time or less than full-time\u2014often indicates the amount of time and psycho- logical energy students devote to their educational experience (Wang, 2009) and is positively linked to a number of postsecondary outcomes (Berkner, Cuccaro-Alamin, & McCormick, 1996).", 
  "Also, degree aspirations are strongly related to educational choices and outcomes (Carter, 2002; Pascarella & Terenzini, 2005; Wang, 2013).", 
  "Although not necessarily providing direct, tan- gible structural support to STEM entrance, these two elements may indicate \nthe level of students\u2019 psychological commitment to their studies and should be accounted for in understanding student entrance into STEM majors.", 
  "In regard to postsecondary barriers to STEM entrance, the proposed the- oretical model includes remediation and external demands.", 
  "For many stu- dents, remediation is a necessary part of the curriculum (Pascarella & Terenzini, 2005).", 
  "However, research on the effect of enrolling in remedial courses has produced mixed results (Adelman, 1999; Bahr, 2008; Bailey & Alfonso, 2005; Long, 2005).", 
  "In examining the relationship between remedi- ation and student choice of STEM, this study will provide targeted, context- based research evidence regarding the effectiveness of remediation in sus- taining students\u2019 academic aspirations.", 
  "In addition, the external demands that students may need to deal with, for example, having dependent chil- dren and working long hours, may redirect them from pursuing challenging fields of study such as STEM.", 
  "Together, these initial college experiences at students\u2019 first postsecondary institution are presumed to directly shape their decisions to pursue STEM fields of study.", 
  "As previously argued, sociodemographic differences are of critical importance in STEM-related research (Crisp et al., 2009), and persistent gen- der and racial gaps in the STEM pipeline remain (Anderson & Kim, 2006; Clewell & Campbell, 2002; Dowd, Malcom, & Bensimon, 2009).", 
  "This war- rants the need for STEM-related research to take such background differen- ces into consideration.", 
  "In this study, the proposed theoretical framework is assessed separately across racial, gender, and SES groups (more details pro- vided in the methods and results sections of the article).", 
  "This approach not only helps evaluate the framework\u2019s applicability across student subpopula- tions, but also illuminates how the proposed relationships in the model may differ based on race, gender, and SES.", 
  "Research Questions \nGuided by the conceptual framework, this study examines the direct and indirect influences of high school exposure to math and science, achievement and motivational attributes as related to math, and initial post- secondary experiences on entrance into STEM fields of study in college.", 
  "Specifically, this research addresses the following interlocking questions: \nResearch Question 1: What are the relationships among high school exposure to math and science, achievement and motivational attributes as related to math, intent to pursue STEM upon entry into postsecondary education, and entrance into STEM fields of study?", 
  "Research Question 2: Taking into account the relationships described in Question 1, how are students\u2019 initial postsecondary education experiences, such as aca- demic interaction, receipt of financial aid, and remediation, related to STEM entrance?", 
  "Research Question 3: How do these relationships vary by race, gender, and SES?", 
  "Why Students Choose STEM Majors \n\nData Source and Sample \nData for this study came from the Education Longitudinal Study of 2002 (ELS:2002), which was designed to study the transition of young people from high school into postsecondary education and the workplace.", 
  "ELS:2002 started with a nationally representative cohort of high school sophomores.", 
  "The sample was then augmented in the first follow-up study in 2004 to rep- resent high school seniors.", 
  "In 2006, roughly 2 years after high school, the second follow-up study collected data on access to postsecondary institu- tions, choices of enrollment and college major, and other aspects of college experience.", 
  "Given its focus on the transition from high school to postsec- ondary education, ELS:2002 was an appropriate data set for this study.", 
  "To fully understand student learning, motivation, interest, and choice as related to STEM majors, it is necessary to follow the same individuals from second- ary to postsecondary education.", 
  "The longitudinal data from ELS:2002 pro- vided a thorough empirical description of student experiences relevant to STEM education in high school and early years of college.", 
  "(For complete information on ELS:2002, see http://nces.ed.gov/surveys/els2002/.)", 
  "This study focused on the spring 2004 high school graduates who had enrolled in a postsecondary institution by 2006.", 
  "Of approximately 14,000 members of the 2004 senior cohort, about 12,500 (89.3%) responded to the second follow-up interview.", 
  "For the purpose of this study, an initial total of 6,300 (out of 12,500 eligible) students who reported postsecondary atten- dance at a 4-year institution by 2006 were retained.", 
  "Among these students, roughly 19.3% intended to major in STEM upon entering college while 80.7% were interested in other fields of study; 15.4% (out of all 6,300 4-year enrollees) declared a major in a STEM field by 2006, compared to 84.6% who chose other disciplines or had not declared a major.", 
  "All analyses were weighted using the appropriate ELS panel weight (F2F1WT).", 
  "This section summarizes variables that were included in the study based on the theoretical model.", 
  "The main outcome, entrance into STEM, was a dichotomously coded variable based on the survey item that asked re- spondents\u2019 field of study during the 2006 ELS second follow-up interview.", 
  "The focal mediating variable was intent to pursue a STEM field, measured by whether the most likely postsecondary field of study students considered upon postsecondary entry was in a STEM discipline.", 
  "Five variables at the secondary school level were included:1 (a) expo- sure to math and science courses, measured by the number of units in math- ematics and science technologies that students took; (b) 12th-grade math achievement, measured by math standardized test scores at the 12th grade;2 \n(c) 12th-grade math self-efficacy beliefs, measured by five items\u2014each on a 4-point Likert scale\u2014that represented students\u2019 self-efficacy beliefs in areas such as taking math tests, mastering math skills, and completing math assign- ments; (d) 10th-grade math achievement, measured by math standardized test scores at the 10th grade (see Note 2); and (e) 10th-grade attitudes toward math, measured by three items\u2014each on a 4-point Likert scale\u2014that repre- sented students\u2019 perceived enjoyment and importance of math.", 
  "Although these variables measured during high school offered some insight into student learning in math and science, they did not indicate fully how well such learning prepared students for college-level work.", 
  "To provide a more comprehensive picture that went beyond course-taking and achieve- ment, a latent variable at the college level was included that measured col- lege readiness in math and science: the extent to which college students believed that their high school math and science courses prepared them for college-level work.", 
  "Also included to represent postsecondary context of supports and barriers were: academic interaction, receipt of financial aid, enrollment intensity, gradu- ate degree expectations, remediation, and external demands.", 
  "Academic interac- tion was measured by the frequency of interacting with faculty about academic matters, meeting with advisors about academic plans, and working on course- work at school libraries.", 
  "Receipt of financial aid was a dichotomous variable based on students\u2019 first-year aid status.", 
  "Enrollment intensity was measured by a dichotomous variable indicating whether students\u2019 college enrollment was full-time or not.", 
  "Similarly, the variable measuring graduate degree expectations was dichotomous: coded 1 if students expected to earn a graduate degree and 0 otherwise.", 
  "Remediation included three dichotomous variables: whether stu- dents took remedial courses to improve reading, writing, and math skills.", 
  "Representing external demands were (a) one dichotomous variable measuring whether students had dependent children and (b) a continuous variable measur- ing the average number of weekly hours students worked for pay.", 
  "Table 1 lists the names, descriptions, and ELS labels of all variables used in the study.", 
  "In the table, each latent construct and its corresponding indicators also are specified.", 
  "Descriptive Analysis \nFirst, descriptive statistics were computed and disaggregated by the sam- ple\u2019s background characteristics.", 
  "These descriptive statistics provided a gen- eral profile of the ELS 2004 high school senior cohort\u2019s participation in STEM fields of study 2 years after high school graduation, and helped identify any variation in STEM intent and entrance across sociodemographic variables.", 
  "Confirmatory Factor Analysis \nFollowing the descriptive analysis, a two-step modeling approach was adopted.", 
  "First, the measurement part of the model was examined.", 
  "If the measurement model was acceptable, then the full structural equation model was analyzed where the measurement and structural parts of the model were simultaneously estimated (Kline, 2011).", 
  "A confirmatory factor analysis (CFA) was performed to analyze the pro- posed measurement model that explicitly specified the latent factors and their corresponding indicator items (Figure S1 in the online version of the journal).", 
  "Five latent constructs were measured: 10th-grade attitudes toward math, 12th-grade math self-efficacy, high school exposure to math and sci- ence, college readiness in math and science, and academic interaction.", 
  "At this step, fit statistics of the measurement model were assessed, and conver- gent validity was checked by examining the standardized factor loa- dings\u2014the estimated correlations between individual factors and their corresponding indicators (Kline, 2011).", 
  "In addition, multiple-group CFA were performed to evaluate whether the measurement model held across subsamples.", 
  "Structural Equation Modeling \nFollowing CFA, the proposed conceptual model was tested using struc- tural equation modeling (SEM).", 
  "Figure 2 is a depiction of the structural part of the SEM diagram based on the theoretical model.", 
  "In mathematical form, the path structure in this study was postulated by five simultaneously estimated regression equations.", 
  "The first three equations examined how 12th-grade math self-efficacy, exposure to math and science, and 12th-grade math achievement were each influenced by 10th-grade math achievement and attitudes toward math.", 
  "The fourth equation investigated how students\u2019 intent to major in STEM was affected by 12th-grade math self-efficacy, exposure to math and science, and 12th-grade math achieve- ment.", 
  "The final regression equation examined how students\u2019 decisions to enter into STEM fields of postsecondary study were affected by their intent to major in STEM fields, college readiness in math and science, and postsec- ondary context of supports and barriers (e.g., academic interaction, receipt of financial aid, expectation of graduate degree, enrollment intensity, reme- diation experience, and external demands).", 
  "Moreover, students\u2019 12th-grade math achievement was included in the final equation because math ability might have a direct effect on students\u2019 eventual entrance into STEM fields.3 In addition, given the strong relationship between math achievement and math self-efficacy (Pajares, 1996; Pajares & Kranzler, 1995; Pajares & Miller, 1994), the SEM model specified that these two 12th-grade variables were cor- related and this relationship was accounted for in the SEM analysis by esti- mating the residual covariance between these two variables.4 \n\n\fWhy Students Choose STEM Majors \nPostsecondary Context of Supports \nFinancial \n\nExpecting a \nEnrollment Intensity \nInteraction \n\nReadiness in \n\nto Major in a STEM Field \nEntrance into a \n\nField of Study \nRemediation \nExternal Demands \nPostsecondary Context of Barriers \n\nAttitudes \n10th Grade \n\nAchievement 10th Grade  \n\nSelf-Efficacy \n\n12th Grade \n\nHigh School Exposure to \nAchievement 12th Grade \nFigure 2.", 
  "Diagram of proposed structural model for the structural equation mod- eling analysis.", 
  "Note.", 
  "To conserve space, the measurement part of latent factors (depicted as circles in Figure \n2) is omitted from the path structural diagram.", 
  "Exogenous variables are shaded; others are \nendogenous variables.", 
  "Note that endogenous variables, 12th-grade math self-efficacy, expo- \nsure to math and science, math achievement, and STEM intent, serve as both a dependent \nand an independent variable.", 
  "D = disturbance term of the corresponding endogenous \nvariable.", 
  "The analyses were conducted using Mplus 6.1, a statistical software package capable of SEM analysis that uses a mixture of different types of var- iables (Kaplan, 2009; Kupek, 2006; Muthe\u00b4n & Muthe\u00b4n, 1998\u20132010).", 
  "In addi- tion, Mplus contains statistical tools that accommodate complex survey design features such as survey weights and the clustering nature of ELS:2002.", 
  "Given the binary nature of the outcome variable in the fourth and fifth equations previously described, probit regression models were conducted for those two regression equations using the weighted least square with adjustment in mean and variance (WLSMV) estimator.", 
  "When using the WLSMV estimator, the difference in chi-square values is not distrib- uted as chi-square, so the DIFFTEST option in Mplus was used to obtain a correct chi-square difference test between the baseline and nested models (Muthe\u00b4n & Muthe\u00b4n, 1998\u20132010, p. 553).", 
  "Following Byrne (1998), the following fit indices were used to assess over- all model fit: chi-square (x2), Comparative Fit Index (CFI), Tucker-Lewis Fit Index (TLI), and root mean square error of approximation (RMSEA).", 
  "Multiple-Group Analysis: Testing for Structural Invariance \nFollowing the full-sample SEM analysis, multiple-group analyses were employed to examine whether the hypothesized model was equivalent across subgroups.", 
  "Specifically, this part of the study drew upon three sets of analyses respectively based on race (Whites, Asians, and underrepre- sented minorities5), gender (females and males), and SES (quartiles) and tested for structural weight invariance across subgroups within each of these three sociodemographic categories.", 
  "Because this study focused on the struc- tural pattern of the model (i.e., the underlying mechanism affecting students\u2019 entrance into STEM fields of study), the model invariance tests concentrated on the equivalence of structural path parameters across different groups.", 
  "To illustrate, in the gender-based multiple-group analysis, a baseline model was first fitted\u2014a multiple-group model with only factorial equality constraints across gender, where the structural weights (i.e., regression coefficients) were freely estimated across the male and female groups.", 
  "Then, another multiple- group model was estimated with cross-group constraints where all structural weights across males and females were constrained to be equal.", 
  "Next, a struc- tural invariance test was conducted based on the corrected chi-square differ- ence (Dx2) test that compared the baseline model with the constrained-equal model.", 
  "Through this test, if the corrected chi-square difference statistic did not reveal a significant difference between the models, then it would be con- cluded that the model had structural weight invariance across gender groups.", 
  "However, if non-invariance was indicated by a significant Dx2 statistic, then structural weights (i.e., regression coefficients) were gradually constrained to be equal across gender groups to determine whether group differences could be attributable to any of the structural weights.", 
  "If any constrained parameters (i.e., structural weights) were found to be gender-invariant as suggested by insignificant Dx2 statistics, then they would be constrained, cumulatively, in sub- sequently more restrictive models.", 
  "On the contrary, a significant Dx2 statistic would suggest that the given parameter was not equivalent across gender groups; therefore, it would be freely estimated in the subsequent models for invariance tests (Byrne, 2010; Kline, 2011).", 
  "Race- and SES-based multiple-group analyses were carried out in the same fashion.", 
  "Indirect Effects \nIn this study, intent to major in STEM served as a mediator variable that transmitted the effects of variables at the secondary level onto entrance into STEM majors.", 
  "In addition, 12th-grade math self-efficacy, exposure to math and science, and math achievement were hypothesized to mediate the \n\n\fWhy Students Choose STEM Majors \ninfluence of 10th-grade math achievement and attitudes toward math on intent to major in STEM.", 
  "These indirect paths from high school variables to STEM intent and to STEM entrance were estimated and the associated indirect effects were calculated and tested for statistical significance using Mplus\u2019s MODEL INDIRECT command.", 
  "Missing Data \nAs is common with survey research, some of the variables included in the study had missing data.", 
  "In this study, Mplus\u2019s full information maximum likelihood (FIML) estimation was applied to handle missing data for the var- iables that were treated as dependent by the software.", 
  "Listwise deletion was used to deal with the missingness in the exogenous observed variables.", 
  "Before performing listwise deletion, the data set that contained cases to be deleted was compared with the data set that included cases not subject to listwise deletion.", 
  "It was observed that the distributions of variables in both were quite similar.", 
  "As a result, about 660 cases were removed from the anal- ysis, resulting in the final analytic sample size of about 5,650.", 
  "Descriptive statistics are presented in Table 2 to provide a comprehen- sive picture of entrance into STEM majors based on student background characteristics.", 
  "The sample\u2019s correlation matrices and means and standard deviations for each measure are provided in Tables S2-S5 in the online ver- sion of the journal.", 
  "A discussion of the CFA and SEM model fit and the results from multiple-group analyses follows.", 
  "This section concludes with a descrip- tion of the substantive results in light of the three research questions.", 
  "Results of Confirmatory Factor Analyses \nThe CFA analyses based on the whole sample as well as on racial, gen- der, and SES subsamples indicated that the measurement model fit the data well.6 RMSEA values in all models were well below the .05 cut-off point and their 90% confidence interval upper bounds were all below .08, indicating a good fit (Hooper, Coughlan, & Mullen, 2008; MacCallum, Browne, & Sugawara, 1996).", 
  "CFI and TLI values were all above .95, again suggesting a good fit (Schreiber, Stage, King, Nora, & Barlow, 2006).", 
  "All of the standard- ized factor loadings were above .4 and significant at p \\ .001, suggesting good convergent validity of the measurement model (Kline, 2011).", 
  "These fit indices and factor loadings are presented in Table S1 in the online journal.", 
  "Results of Multiple-Group SEM Analyses \nPrior to multiple-group analyses, the SEM model was analyzed based on the whole sample, and fit indices suggested excellent model-to-data fit (line \n\fWhy Students Choose STEM Majors \n1 of Table 3).", 
  "Multiple-group SEM analyses were then conducted for racial, gender, and SES groupings.", 
  "Three sets of statistics and model fit indices were derived from this series of analyses and are presented in Table 3.", 
  "For exam- ple, in the race-based multiple-group analysis, the hypothesized model was initially fitted to the White, Asian, and underrepresented minority (URM) samples separately.", 
  "The fit statistics for the White-only model were x2(275) = 1,063.85, relative x2 = 3.87, CFI = 0.980, TLI = 0.977, RMSEA = 0.028 (line 2 of Table 3); Asian fit statistics were x2(275) = 417.67, relative x2 = 1.52, CFI = 0.974, TLI = 0.970, RMSEA = 0.028 (line 3); and URM fit sta- tistics were x2(275) = 528.44, relative x2 = 1.92, CFI = 0.978, TLI = 0.975, RMSEA = 0.026 (line 4).", 
  "The fit indices suggested that the model fit each racial group well.", 
  "Thus, all racial groups were combined together and simul- taneously fitted to the data to become the multiple-group baseline model.", 
  "The racial multiple-group baseline model also fit the data well: x2(881) = 1,987.54, relative x2 = 2.26, CFI = 0.979, TLI = 0.978, RMSEA = 0.026 (line 5).", 
  "In the next step, all of the 21 structural weights (i.e., regression coefficients) were constrained equally across racial groups to examine structural weight invariance across racial groups.", 
  "The result of the corrected chi-square differ- ence test was statistically significant (p \\ .05), which suggested that one or more of the parameters were non-invariant across racial groups (line 6).", 
  "Thus, instead of constraining these 21 parameters all at once, parameters were constrained one by one to identify the source of non-invariance found in the previous step.", 
  "When the regression coefficient for the path from 10th- grade math achievement to 12th-grade math self-efficacy was constrained equal across racial groups, the result of the corrected chi-square difference test was statistically significant, meaning that the regression coefficient of this path was one of the sources of structural non-invariance across racial groups (line 7).", 
  "Similarly, non-invariance was found when the regression coefficient for the following paths was constrained equally across racial groups: from exposure to math and science to intent to major in STEM (line 8) and from 12th-grade math achievement to intent to major in STEM (line 9).", 
  "Furthermore, steps were taken to identify precisely where the non- invariance of these three structural weights existed between specific pairings of racial groups by performing partial constraints (i.e., selecting only two of the three racial groups to be constrained equal at a time).", 
  "Non-invariance was found for all three pairs of comparison: White and Asian, Asian and URM, and URM and White.", 
  "Therefore, all three structural weights were freely estimated across all racial groups in the model.", 
  "Subsequent invariance tests showed that there was no structural non-invariance caused by the remaining 18 structural weights.", 
  "The middle and lower sections of Table 3 display the model fit statistics and multiple-group structural invariance test results for gender and SES groupings, respectively.", 
  "No structural non-invariance was found in the \n\fWhy Students Choose STEM Majors \nmultiple-group analyses based on gender and SES, which indicated that the hypothesized model can be operated equally across different subgroups within gender or SES.", 
  "Final SEM Model \nThrough these detailed analyses, it became clear that a multiple-group model based on race, where the paths from 10th-grade math achievement \u0000!", 
  "12th-grade math self-efficacy, exposure to math and science courses \u0000!", 
  "intent to major in STEM, and 12th-grade math achievement \u0000!", 
  "intent to major in STEM were freely estimated for all racial groups while all other structural weights were constrained equal, was the most reasonable and via- ble model.", 
  "This final model fit the data, x2 (917) = 1,979.15, relative x2 = 2.16, CFI = 0.980, TLI = 0.980, RMSEA = 0.025, and was slightly better in fit than the baseline model.", 
  "As for the parameter estimates, Table 4 displays the direct and indirect effect estimates (both unstandardized and standardized) from this final multiple-group model based on race.", 
  "Changes in predicted probabilities (CP) are also reported for significant coefficients in equations modeling STEM intent and STEM entrance.", 
  "Figure 3 presents the final model with statistically significant paths high- lighted, and the coefficient estimates are also denoted along with the paths.", 
  "The following summarizes specific results from the final model by \naddressing the questions pursued in this study.", 
  "Research Question 1: What are the relationships among high school exposure to math and science, achievement and motivational attributes as related to math, intent to pursue STEM upon entry into postsecondary education, and entrance into STEM fields of study?", 
  "Intent to pursue STEM was significantly and positively influenced by 12th-grade math self-efficacy, the effect of which remained the same among all subgroups.", 
  "The effect of high school exposure to math and science on STEM intent was statistically significant and positive across all racial groups, but was the smallest among underrepresented minority students.", 
  "Math achievement at the 12th grade was positively associated with intent to pur- sue STEM fields among White students and underrepresented minorities, but was null for Asian students.", 
  "Through intent to major in STEM, all three 12th-grade variables also indi- rectly and positively affected actual choice of STEM majors after college entry, except that 12th-grade math achievement did not show any significant indirect effect among Asian students.", 
  "Furthermore, 12th-grade math achieve- ment showed a significant direct effect on STEM entrance.", 
  "Also, it should be noted that all three 12th-grade variables were significantly and positively influenced by 10th-grade math achievement and attitudes, both of which exerted significant indirect effects on STEM intent and STEM entrance.", 
  "Why Students Choose STEM Majors \nPostsecondary Context of Supports \nFinancial \nExpecting a \nInteraction \nEnrollment Intensity \nReadiness in \nW: .737 A: (=) U: (=) Attitudes \n10th Grade \nW: .893 A: (=) U: (=) \n\nSelf-Efficacy \n\n12th Grade \n\nW: .175 A: (=) U: (=) \nHigh School  Exposure to  Math and  \nto Major in a STEM Field \n\nEntrance into a \n\nField of Study \nW: .073 A: .044 U: .066 \n\nAchievement 10th Grade \nW: .810 A: (=) U: (=) \nW: .015 A: (=) U: (=) \nAchievement 12th Grade \nRemediation \nExternal Demands \nPostsecondary Context of Barriers \nFigure 3.", 
  "Results of final multiple-group structural equation modeling (SEM) model based on race.", 
  "Note.", 
  "W = White; A = Asian; U = underrepresented minorities; (=) = estimate was constrained \nequal across groups.", 
  "Insignificant paths are in gray.", 
  "Research Question 2: Taking into account the relationships described in Question 1, how are students\u2019 initial postsecondary education experiences, such as aca- demic interaction, receipt of financial aid, and remediation, related to STEM entrance?", 
  "Intent to pursue STEM and several postsecondary latent and observed variables showed direct effects on STEM entrance.", 
  "Specifically, choosing a STEM major was positively associated with intent to major in STEM, aca- demic interaction, college readiness in math and science, receiving financial aid, and expecting to earn a graduate degree.", 
  "As for external demands, hav- ing dependent children significantly and negatively affected STEM entrance while number of weekly work hours did not have any significant effect.", 
  "Receiving remediation and being enrolled full-time did not show any influ- ence on STEM entrance.", 
  "None of these effects differ significantly across racial, gender, and SES groups.", 
  "Research Question 3: How do the modeled effects vary based on gender, race, and \nThe potentially varying effects of the modeled factors were examined through conducting multiple-group SEM analyses based on race, gender, and SES.", 
  "These analyses indicated that the proposed theoretical model gen- erally held well and was stable across various racial, gender, and SES groups.", 
  "Significant differences in structural weights were found in the multiple- group model based on race.", 
  "Specifically, the effect of 12th-grade math achievement on intent to major in STEM was significant for White and under- represented minority students, but was nonsignificant for Asian students.", 
  "In practical terms, for White students, a 1-point increase from the mean in math achievement scores would result in a .010 increase in the probability of their intending to major in STEM.", 
  "For underrepresented minority students, this change in the probability of STEM intent was .006 and for Asian American students there would be no significant change.", 
  "While significantly affecting STEM intent of all students, exposure to math and science had the largest impact on White students and the smallest effect on underrepresented minority students.", 
  "In practical terms, among White stu- dents, when their exposure to math and science increased by 1 point above the mean of this factor score, the increase in the probability that the students would intend to major in STEM was .515.", 
  "This increase in the probability of STEM intent would be .287 for Asian students and only .124 for underrepre- sented minority students.", 
  "In addition, the overall significant and positive effect of 10th-grade math achievement on 12th-grade math self-efficacy was most substantial for underrepresented minorities, followed by White students and Asian students.", 
  "That is, a 1 standard deviation increase in 10th-grade math achievement score was associated with .281 standard deviation increase in the math self-efficacy factor score among White students, .232 standard devi- ation increase among Asian students, and .319 standard deviation increase among underrepresented minority students.", 
  "Discussion \nAs one of the first studies that applies the social cognitive career theory to study a nationally representative high school cohort\u2019s entrance into college STEM majors, this research takes advantage of a unique, rich national data set to holistically explore supports and barriers to STEM entrance.", 
  "Results point to important secondary and postsecondary factors influencing entrance into STEM disciplines.", 
  "In addition, pivotal racial differences are uncovered by this study in terms of how early math-related attitudes and math and science learning influence STEM choice.", 
  "A closer examination of these results reveals a number of important findings worthy of further discussion.", 
  "Math and Science Learning at the Secondary Level \nHigh school preparation in math and science plays a critical role in in pursuing a STEM field of study and \ndeveloping student \n\fWhy Students Choose STEM Majors \ninfluencing entrance into STEM majors.", 
  "Math and science learning in K\u201312 education has been central to the research and discussion on broadening the STEM pipeline.", 
  "In particular, selection and completion of math and sci- ence courses during high school are essential in developing students\u2019 predis- positions toward choosing a STEM major in college (Blickenstaff, 2005).", 
  "The influence of high school learning as related to math and science, however, is multifaceted.", 
  "Many prior studies focused solely on math achieve- ment when examining the influence of high school experience on student interest and entrance into STEM fields (e.g., Crisp et al., 2009; Porter & Umbach, 2006).", 
  "This study, however, shows that the effect of students\u2019 expo- sure to math and science courses is even stronger than that of math achieve- ment, which was once deemed the single best predictor of students\u2019 future STEM entrance.", 
  "This finding implies that in order to boost high school stu- interest in pursuing STEM fields of study, an earlier introduction and exposure to math- and science-related courses could be an effective method.", 
  "This means that students\u2019 interest in pursuing STEM could be an evoked response to direct exposure to these courses.", 
  "On the other hand, math achievement still indicates a significant, persis- tent effect on STEM intent (with the exception of Asian students whose STEM goals and resulting persistence may originate prior to 12th grade7) and subsequent enrollment in STEM majors.", 
  "This warrants continued policy focus on improving math achievement of students.", 
  "When it comes to struc- turing and engaging students in math and science courses, particular atten- tion should be given to college readiness.", 
  "As clearly indicated in this study, students who perceive their high school math and science courses to have adequately prepared them for college work are likely to choose a STEM major.", 
  "In light of these findings, a stronger alignment between high school offerings and academic expectations at the college level represents a promis- ing step toward promoting greater student interest and entrance into STEM fields of postsecondary study.", 
  "The Importance of Motivational Beliefs \nMotivation clearly matters in STEM-related interest and choices.", 
  "The study\u2019s four motivational attributes, (a) attitudes toward math, (b) math self-efficacy beliefs, (c) intent to pursue STEM fields of study, and (d) aspi- ration to earn a graduate degree, all demonstrate a significant and positive direct or indirect link to STEM entrance.", 
  "From the pre-college perspective, positive attitudes toward math (e.g., being interested in the subject and rec- ognizing its importance) at an early age positively influence later math achievement, math and science course-taking, and math self-efficacy beliefs, all of which are the cornerstone of fostering intent to pursue STEM and even- tually choosing these disciplines.", 
  "While prior research has suggested that positive attitudes toward math are fundamental to students\u2019 persistence \nand success in math learning (Hackett & Betz, 1989; Singh, Granville, & Dika, 2002), this study offers additional empirical evidence linking these at- titudes with college students\u2019 choice of STEM majors.", 
  "The results illuminate how these early attitudes affect STEM intent and entrance through their influ- ence on 12th-grade factors that are critical for future STEM choice and suc- thus highlighting the importance of cultivating students\u2019 positive attitudes toward math from early on.", 
  "In conjunction with prior research (Bairaktarova & Evangelou, 2012; Marshall et al., 2011), this study\u2019s findings present viable approaches such as resorting to learning strategies that make math education enjoyable and educating students about the significance and long-term benefits of good math skills.", 
  "Math self-efficacy beliefs also play a significant and positive role in shap- ing STEM intent, and through intent, math self-efficacy has a strong indirect effect on actual STEM entrance.", 
  "Similar to previous research that examined the link between math self-efficacy and STEM choice (e.g., Scott & Mallinckrodt, 2005), this study demonstrates that students with stronger math self-efficacy beliefs are more likely to intend to major in STEM fields upon college entrance.", 
  "While this finding supports the argument for promot- ing positive math self-efficacy beliefs among all students, it should be noted that math self-efficacy often is discussed in relation to gender (Sadker & Sadker, 1994).", 
  "That is, male students are more self-efficacious in math than female students despite comparable achievement (Eccles, 1994; Pajares, 2005; Watt, 2006).", 
  "Multiple-group analysis in this study shows that there is no gender difference in terms of how math self-efficacy works to influence students\u2019 STEM intent.", 
  "This suggests that improving female stu- dents\u2019 math self-efficacy may also help cultivate stronger interest in pursuing STEM among female students with equivalent achievement in math as their male counterparts.", 
  "To make this happen, it is particularly important to fur- ther address the gender bias in STEM discussion (Clewell & Campbell, 2002), which may adversely affect female students\u2019 math self-efficacy beliefs.", 
  "In addition to self-efficacy, other key motivational factors in SCCT that influence choice actions include outcome expectations and interests (Lent et al., 2010).", 
  "In this study, STEM intent is used as a proxy for outcome ex- pectations and interests and is the biggest positive effect of all on the choice action of interest: choosing a STEM major.", 
  "This result aligns well with SCCT, which stipulates that an individual\u2019s intention to engage in a certain activity (in this case choosing a major in STEM fields) helps organize, guide, and sus- tain the individual\u2019s efforts over a period of time.", 
  "This study also shows that expecting to earn a graduate degree is posi- tively associated with STEM entrance.", 
  "Perhaps those who are graduate school aspirants tend to be a more select and motivated group who are suc- cessful in establishing a stable, long-term academic plan and who are better prepared to take on challenging fields of study such as STEM.", 
  "Why Students Choose STEM Majors \nPostsecondary Supports and Barriers \nPostsecondary Supports \nThe first year of college is critical for students\u2019 STEM choice, especially when contextual supports in the form of interaction with faculty and aca- demic advisors and receipt of financial aid are present.", 
  "For all students, aca- demic interaction seems to encourage entrance into STEM fields of study.", 
  "These interactions may help students better integrate themselves into the college environment and also assist them in better aligning their academic aspirations with actual choices.", 
  "From an advising perspective, helping cur- rent and potential STEM aspirants declare a STEM major early in their college careers is critical to minimizing additional time, funds, and opportunity costs spent in pursuing a degree (Frehill, 1997).", 
  "As previously discussed, the socialization process may help reinforce one\u2019s academic and career choices.", 
  "Also, in the context of SCCT, such interactions serve as the contextual sup- port that helps individuals persist in alignment with their goals.", 
  "Financial aid\u2019s positive link to STEM entrance highlights the importance of financial resources as another form of postsecondary support for students pursuing STEM majors.", 
  "It should be noted that given the correlational nature of the analysis, this association can be interpreted in both directions: that financial aid leads students to choose a STEM major or that students in STEM majors are more likely to receive financial aid.", 
  "Nonetheless, it seems undeniable that financial resources provide the much needed support for students to succeed in STEM fields of study.", 
  "Students pursing STEM disci- plines tend to spend more time studying than students in other fields (Arum & Roksa, 2011; Brint, Cantwell, & Saxena, 2012).", 
  "Therefore, receiving financial aid may help relax financial constraints and allow them to allocate enough time and energy to study and engage in greater interaction with fac- ulty and advisors, thus meeting the academic challenges associated with ma- joring in STEM fields.", 
  "In fact, a recent study by Kienzl and Trent (2009) showed that receiving financial aid helped socioeconomically underrepre- sented students enter high-cost STEM fields at a large public research univer- sity.", 
  "Results from this research based on national data echo Kienzl\u2019s and Trent\u2019s finding and further reveal that the positive effect of financial aid ap- plies across racial, gender, and SES groups.", 
  "Postsecondary Barriers \nIn regard to variables representing postsecondary barriers, only being a parent negatively affects STEM entrance, while remediation and number of weekly work hours do not show any significant impact.", 
  "Given that the study\u2019s sample reached their early 20s in 2006, students who entered parent- hood by that time likely had children of a very young age.", 
  "This presents con- straints such as having demanding child care responsibilities and navigating \na challenging schedule that may prevent them from enrolling in courses in perfect alignment with their academic aspirations.", 
  "These added challenges may prevent students who are parents from choosing a STEM major.", 
  "The null effect of working hours may be due to the possible differential effect of employment on college students\u2019 academic experience and choices, as evidenced in more recent studies on college student employment.", 
  "It is possible that students who work an \u2018\u2018optimal\u2019\u2019 amount of hours and in employment related to their academic interest gain skills (e.g., time manage- ment and work-study balance) that help them make viable academic plans and decisions (Dundes & Marx, 2006; Ehrenberg & Sherman, 1987).", 
  "On the other hand, working excessive hours and in areas isolated from one\u2019s academic work may put students at a disadvantage (Bean & Metzner, 1985).", 
  "These potential varying effects of work hours may thus result in an overall null effect of employment on STEM entrance.", 
  "In a similar way, the nonsignificant effect of remediation is likely due to the differential outcomes of students\u2019 remedial experience\u2014with positive outcomes of taking remedi- ation and negative ones cancelling each other out\u2014that leads to an overall null impact on STEM entrance.", 
  "Racial Differences Underlying STEM Entrance \nFor recent high school graduates, racial backgrounds still largely impact the way in which high school math and science learning is linked to STEM aspirations, with underrepresented minorities experiencing the least gain in their intent to purse a STEM field through coursework exposure in math and science.", 
  "This result suggests that the effect of high school exposure to math and science courses on STEM intent is heterogeneous, accruing more to White students and least to underrepresented minorities.", 
  "The identification of this heterogeneous effect in regard to exposure to math and science courses indicates that the well-documented racial disad- vantage in STEM participation cannot simply be resolved by offering more math and science to underrepresented minority students alone.", 
  "Rather, more research is needed to understand how math and science education can better serve underrepresented minority students and what additional factors contribute to these students\u2019 STEM-related aspirations and choices.", 
  "One of the findings from this study suggests that math self-efficacy, a com- mon positive influence on STEM intent, is influenced by early math achieve- ment to a greater extent among underrepresented minority students than among White and Asian students.", 
  "This result is alarmingly important in that if the current racial disparity in math achievement is not addressed early its adverse impact on future achievement of underrepresented minorities will be compounded by its detrimental effect on math self-efficacy beliefs.", 
  "This will further discourage underrepresented minorities to pursue and succeed in STEM fields.", 
  "On the other hand, this finding also implies \n\n\fWhy Students Choose STEM Majors \nthat interventions addressing math achievement of underrepresented racial minorities should be implemented early on and if effective, may have large impacts on these students\u2019 math self-efficacy beliefs, thus promoting their STEM interest and entrance.", 
  "With these results, the current study pinpoints the importance of paying attention to the potentially heterogeneous impacts of various policies and practices when targeting underrepresented minorities in expanding the STEM pipeline.", 
  "Pathway to STEM Majors: Holistic and Complex \nLast but not least, the process leading to entrance into STEM fields of study is complex; numerous influences\u2014individual, psychological, contextual, and social\u2014act together to shape, develop, and sustain one\u2019s interest and eventually turn it into an actual choice.", 
  "This study sets out to disentangle these influences and their effects on STEM choice by adopting a holistic perspective that draws upon the integration of SCCT and relevant literature on STEM education.", 
  "Although this study does not account for all of the complexities, its findings sug- gest that SCCT is a viable framework for understanding STEM choice behaviors, especially when secondary STEM-related learning experience is added to the model.", 
  "Consistent with SCCT and for all students, choosing a STEM major largely is dependent on their intrinsic motivational attributes, such as math atti- tudes, math self-efficacy beliefs, and interest in entering STEM.", 
  "These observa- tions, along with the finding that aspiring to earn a graduate degree turns out to influence students\u2019 STEM entrance, suggest that students\u2019 pathways to STEM can be substantially explained by their overall educational motivation and aspira- tions.", 
  "Students also respond to postsecondary supports and barriers, such as academic interaction, receiving financial aid, and having dependent children, when making choices in regard to STEM as a major field of study.", 
  "In addition, by utilizing multiple-group SEM analyses to gauge impact heterogeneity, this study illuminates the differential processes leading up to entrance into STEM majors among racial groups.", 
  "An important finding that emerges from this study is that the race-based inequitable participation in STEM fields of study may be partially explained by the disparity in student intent to major in STEM as a direct outcome of their pre-college learning ex- periences in math and science: Although exposure to math and science courses positively increases the likelihood of being interested in STEM ma- jors for all students, this positive impact accrues most to White students and least to underrepresented minority students.", 
  "Limitations of the Study and Directions for Future Research \nThe Study\u2019s Limitations \nThis study\u2019s findings should be considered in conjunction with several important limitations.", 
  "First, although the study relies on rich longitudinal \ndata from a nationally representative sample, the use of an extant data set poses conceptual and analytical constraints.", 
  "One such constraint is the time window covered by ELS:2002, which followed students from 10th grade to 2 years after high school graduation.", 
  "As delineated at various points in this article, motivational beliefs, learning, and achievement in math formed ear- lier in a child\u2019s education have enduring effects on his or her future STEM- related aspirations and choices.", 
  "Although to the extent possible, the study incorporates variables that speak to these early effects, similar variables from the middle school or elementary school years are simply not available given the design of ELS:2002.", 
  "Therefore, relevant pre\u2013high school influences were not addressed in the study.", 
  "Instead, variables from 10th grade were used as proxies of earlier influences.", 
  "Similarly, this study focuses on choos- ing a STEM major roughly within 2 years of college.", 
  "Some students may still be exploring their major fields of interest during this time frame, and others might switch into STEM disciplines later on.", 
  "These dynamics were not explored given the data available for the study.", 
  "Therefore, it is impossible to explore the long-term effects of the secondary and postsecondary varia- bles on students\u2019 entire progress through the STEM pipeline.", 
  "Also, variables of interest in existing data sets are not always measured in ways the researcher would have desired.", 
  "For example, self-efficacy beliefs are central to SCCT, which serves as the guiding theoretical framework for this study.", 
  "While ELS:2002 contains survey items that measure math self- efficacy adequately, multiple measures of STEM-related self-efficacy such as science self-efficacy in addition to math self-efficacy would help disentan- gle the complex nature of STEM learning.", 
  "ELS does not include data for developing such multiple measures, so this study relies on math self-efficacy as a proxy for STEM self-efficacy beliefs, which limits the robustness of the data in support of the theory.", 
  "On a similar note, intent to major in STEM fields of study is measured at one point in time, gauging students\u2019 interest in choosing a STEM major upon entering postsecondary education.", 
  "The one-time snapshot nature of this measure limits the study\u2019s ability to provide insights into how postsecondary institutions may help develop students\u2019 intent to choose a STEM field over time.", 
  "In addition, the lack of earlier measures of students\u2019 intent to major in STEM prohibits the study from assessing the potential impact of these ear- lier aspirations for a STEM college career on high school students\u2019 attitude toward math and math achievement.", 
  "Another limitation relates to the lack of causal inference, given the use of extant survey data and SEM.", 
  "ELS:2002 provides observational data that did not involve any random assignment of students to any of the independent variables, such as financial aid receipt or high school exposure to math and science.", 
  "Although SEM goes beyond the traditional regression analysis in that it accounts for the temporal, complex relationships among latent and observed variables, it is still an exploration of various correlations.", 
  "Why Students Choose STEM Majors \nWhile plausible explanations for the findings are discussed based on theory and prior research, none of the relationships described in this article should be interpreted as causal.", 
  "Directions for Future Research \nThis study points to several directions for future research.", 
  "Although studies on STEM-related issues have proliferated in the past decade, disen- tangling the reasons for STEM participation remains a complex challenge, especially when determining whether the factors are dependent on sociode- mographic backgrounds and/or within the control of the educator.", 
  "Integrating variables at the secondary and postsecondary levels, this study accounts for a longitudinal process of STEM choice and tackles effect hetero- geneity based on race, gender, and SES.", 
  "However, a number of questions remain to be answered in future research.", 
  "First, the finding surrounding math self-efficacy needs further investigation to understand more completely the mechanism through which it works in support of interest in STEM fields and future STEM choice, especially among female students.", 
  "How does math self-efficacy or, better yet, STEM self-efficacy interact with various socializa- tion sources and social perceptions regarding the gender role in career- and major-related choices to affect students\u2019 actual STEM choices?", 
  "Which one of the sources of self-efficacy is the most theoretically and practically viable way to help promote STEM-related self-efficacy: mastery experience, vicari- ous experience, social persuasions, or physiological factors?", 
  "Furthermore, given the persistent, enduring effect of high school expo- sure to math and science courses, as well as math achievement, finding the best possible way to teach those courses, especially accounting for racial dif- ferences in the ways in which these effects are transmitted, will continue to dominate the central stage of STEM discussion.", 
  "Also important to note, rigor- ously designed experimental or quasi-experimental studies may represent the best approach for scaling up promising interventions: An experimental design, by randomly assigning students to an intervention, can establish the true effec- tiveness of a program aimed at promoting STEM participation.", 
  "Alternatively, quasi-experimental research, often by adopting a rigorous approach to creat- ing comparison groups, can also estimate (although not as reliably as true ex- periments can) causal effects of a STEM intervention or practice.", 
  "Equally important, the first year in college can be critical, and as evi- denced in this study, a number of postsecondary variables are related to entrance into STEM fields of study.", 
  "Of particular note are the positive effects of both receiving financial aid and academic interaction on STEM entrance.", 
  "These relationships need to be further studied\u2014ideally through original, tar- geted data collection\u2014to understand how they affect STEM entrance.", 
  "Such nuanced understanding may aid in the development of policy interventions that truly can make a difference.", 
  "Conclusion \nThis study addresses the vital secondary-postsecondary nexus in STEM entrance, an issue often reflected in policy discussions but seldom systemat- ically examined in empirical research, especially from a longitudinal approach.", 
  "Given the rising national attention to promoting seamless move- ment through the STEM pipeline among students of diverse backgrounds, continued policy focus will be given to participation of traditionally under- represented groups.", 
  "To support this policy priority, a comprehensive knowl- edge of the barriers and facilitators to entering these fields of study is of paramount importance.", 
  "Following a holistic view of the issue of inequity in STEM participation, this study uncovers the impact of critical motivational, secondary learning, and postsecondary variables on STEM entrance and establishes the social cognitive career theory as a viable conceptual model for future STEM-related research.", 
  "Furthermore, results from this study illuminate important racial dif- ferences in how pre-college learning and motivation exert their influence on students\u2019 intent to major in STEM.", 
  "In light of these findings, educational pol- icy and interventions aimed at developing STEM-related perceptions, atti- tudes, and aspirations among underrepresented minority students will benefit from a deeper understanding of the potentially heterogeneous effects of variable educational experiences.", 
  "Together, results from this study offer new theoretical and empirical knowledge that informs policy and practice intended to promote equitable participation in STEM fields of postsecondary \n\nThis study is based upon work supported by the Association for Institutional Research, the National Center for Education Statistics, the National Science Foundation, and the National Postsecondary Education Cooperative under Association for Institutional Research Grant Number RG11-07.", 
  "Any opinions, findings, and conclusions or recommendations expressed in this material are those of the author and do not neces- sarily reflect the views of the Association for Institutional Research, the National Center for Education Statistics, the National Science Foundation, or the National Postsecondary Education Cooperative.", 
  "Nik Hawkins, Sarah Hurley, Kelly Wickersham, and several anon- ymous reviewers provided helpful comments on earlier drafts of the article.", 
  "1Following the suggestion made by one of the reviewers, two sets of high school var- iables were also analyzed as additional covariates in the structural equation modeling (SEM) model: (a) family background including first-generation status (1 = first-generation college student; 0 = continuing generation) and language background (1 = English is native language; 0 = English is not native language) and (b) high school context variables including percentage of the school\u2019s students that qualify for free/reduced-price lunch, percentage of minority students in the school, student-teacher ratio of the school, high school type (dummy coded into Catholic, other private, and public as the referent group), and urbanicity of the school (dummy coded into suburban, rural, and urban as the refer- ent group).", 
  "Analysis of these added covariates indicated that none of them had a statisti- cally significant relationship to STEM entrance and the effects of variables already in the model did not change substantially.", 
  "Why Students Choose STEM Majors \n2The mathematics test standardized score was a T-score created by a transformation of the IRT (item response theory) theta (ability) estimate, rescaled to a mean of 50 and standard deviation of 10, from the cognitive assessments in Education Longitudinal Study of 2002 (ELS:2002).", 
  "The standardized T-score provides a norm-referenced estimate of achievement relative to the population (spring 2002 10th graders and spring 2004 12th graders, respectively) as a whole (Source: ELS:2002 Electronic Codebook).", 
  "3After the full analysis, a series of interaction terms were added to this final regression equation.", 
  "These interaction terms were created between intent to major in a STEM field and variables indicating postsecondary context of supports of barriers to assess the poten- interaction effects between intent and postsecondary context variables.", 
  "Results showed that none of the interaction terms was statistically significant.", 
  "5Underrepresented minorities \n4In Mplus, the residual covariance between math achievement and math self-efficacy at 12th grade was estimated by adding the \u2018\u2018WITH\u2019\u2019 statement between these two variables.", 
  "include African Americans, Hispanics, Native Americans, and multiracial students.", 
  "In the literature highlighting inequitable participation in STEM education by race, three key racial and ethnic groups, African Americans, Hispanics, and Native Americans, are often analyzed together in comparison to their White and Asian counterparts.", 
  "STEM-related research and data on students who identify their race/ethnicity as \u2018\u2018multiracial\u2019\u2019 are scarce and in this sense they are also underrepre- sented.", 
  "Also, if each race category were to represent a distinct group, the multiple-group SEM analysis would become challenging to conduct and interpret.", 
  "In addition, the small numbers of Native American and multiracial students make it difficult to analyze them sep- arately.", 
  "Given these theoretical and analytical considerations, these racial/ethnic groups were combined as the underrepresented minorities in STEM.", 
  "6As a regular practice, the chi-square value is almost always presented in studies that involve confirmatory factor analysis (CFA) and SEM (Kline, 2011).", 
  "However, because the chi-square test is sensitive to sample size (Kenny, 2011; Schumacker & Lomax, 2004), it might erroneously suggest a poor fit by rejecting the null hypothesis in studies with large sample sizes like this.", 
  "As a result, other fit indices such as Comparative Fit Index (CFI) and Tucker-Lewis Fit Index (TLI) are more relevant to this study.", 
  "Also reported is the relative chi-square, alternatively referred to as the normed chi-square, which equals the chi-square value divided by the degrees of freedom.", 
  "Some scholars argue that this index might be less sensitive to sample size, but the guidelines about acceptable maximum values vary, rang- ing from less than 2 (e.g., Ullman, 2001) to less than 5 (e.g., Schumacker & Lomax, 2004).", 
  "7For Asian American students, 12th-grade math achievement did not emerge as a sig- nificant factor associated with their STEM intent.", 
  "Asian Americans are well represented in STEM fields (Anderson & Kim, 2006; May & Chubin, 2003), and this high representation may well be a result of Asian students\u2019 stronger aspirations to pursue math- and science-related careers at a very young age, a level unmatched by any other racial groups (National Science Foundation, 1994).", 
  "This early interest, although not accounted for in this study given the limitation of the data, may have largely translated into their STEM intent independent of their 12th-grade math achievement."
 ]
}