{
 "document_id": "12593729250669469533", 
 "sentences": [
  "\nnext page > \n\npublisher: isbn10 | asin: print isbn13: ebook isbn13: language: publication date: \nBasics of Qualitative Research : Techniques and Procedures for Developing Grounded Theory Strauss, Anselm L.; Corbin, Juliet M. Sage Publications, Inc. 0803959397 9780803959392 9780585383323 Social sciences--Statistical methods, Grounded theory.", 
  "HA29.S823 1998eb Social sciences--Statistical methods, Grounded theory.", 
  "next page > \nfile:///C:/DOCUME~1/user/LOCALS~1/Temp/Rar$EX53.187/0803959397/files/cover.html[10/10/2010 6:45:08 \u03bc\u03bc] \n\n< previous page \nSecond Edition Basics of Qualitative \n\nnext page > \n< previous page \n\nnext page > \nfile:///C:/DOCUME~1/user/LOCALS~1/Temp/Rar$EX53.187/0803959397/files/page_i.html[10/10/2010 6:45:10 \u03bc\u03bc] \n\n< previous page \nTo ANSELM December 1916\u2013September 1996 \nScholar and Humanist \nwho touched the minds and lives of all who came into contact with him \n\nnext page > \n< previous page \n\nnext page > \nfile:///C:/DOCUME~1/user/LOCALS~1/Temp/Rar$EX53.187/0803959397/files/page_ii.html[10/10/2010 6:45:11 \u03bc\u03bc] \n\fpage_iii \nnext page > \n\n< previous page \nSecond Edition Basics of Qualitative Techniques and Procedures for Developing Grounded Theory Anselm Strauss Juliet Corbin \n< previous page \n\nnext page > \nfile:///C:/DOCUME~1/user/LOCALS~1/Temp/Rar$EX53.187/0803959397/files/page_iii.html[10/10/2010 6:45:11 \u03bc\u03bc] \n\n< previous page \n\nnext page > \nCopyright \u00a9 1998 by Sage Publications, Inc. All rights reserved.", 
  "No part of this book may be reproduced or utilized in any form or by any means, electronic or mechanical, including photocopying, recording, or by any information storage and retrieval system, without permission in writing from the publisher.", 
  "For information: \nSAGE Publications, Inc. 2455 Teller Road Thousand Oaks, California E-mail: order@sagepub.com SAGE Publications Ltd. 6 Bonhill Street London EC2A 4PU United Kingdom SAGE Publications India Pvt.", 
  "M-32 Market Greater Kailash I New Delhi 110 048 India \nPrinted in the United States of America Library of Congress Cataloging-in-Publication Data Strauss, Anselm L.      Basics of qualitative research: Techniques and procedures for developing grounded theory / by Anselm Strauss, Juliet Corbin.", 
  "\u2014      p. cm.", 
  "Includes bibliographical references and index.", 
  "ISBN 0-8039-5939-7 (acid-free paper)   ISBN 0-8039-5940-0 (pbk.", 
  ": acid-free paper)   1.", 
  "Socal sciences\u2014Statistical methods.", 
  "2.", 
  "Grounded theory.", 
  "I. Corbin, Juliet M., 1942- .", 
  "II.", 
  "Title.", 
  "HA29.S823 1998 300'.7'2\u2014ddc21 This book is printed on acid-free paper.", 
  "99  00  01  02  03  10  9  8  7  6  5  4  3  2 \n\nAcquiring Editor: Editorial Assistant: Production Editor: Editorial Assistant: Designer/Typesetter: Cover Designer: \nPeter Labella Ren\u00e9e Piernot Astrid Virding Patricia Zeman Janelle LeMaster Candice Harman \n< previous page \n\nnext page > \nfile:///C:/DOCUME~1/user/LOCALS~1/Temp/Rar$EX53.187/0803959397/files/page_iv.html[10/10/2010 6:45:12 \u03bc\u03bc] \n\n< previous page \n\nnext page > \nPart I.", 
  "Basic Considerations 1.Introduction 2.Description, Conceptual Ordering, and Theorizing 3.The Interplay Between Qualitative and Quantitative in Theorizing 4.Practical Considerations \nPart II.", 
  "Coding Procedures 5.Analysis Through Microscopic Examination of Data 6.Basic Operations: Asking Questions and Making Comparisons 7.Analytic Tools 8.Open Coding \n< previous page \n\nnext page > \nfile:///C:/DOCUME~1/user/LOCALS~1/Temp/Rar$EX53.187/0803959397/files/page_v.html[10/10/2010 6:45:12 \u03bc\u03bc] \n\n< previous page \n\nnext page > \n\n9.Axial Coding 10.Selective Coding 11.Coding for Process 12.The Conditional/Consequential Matrix 13.Theoretical Sampling 14.Memos and Diagrams \n\nPart III.", 
  "Gaining Closure 15.Writing Theses and Monographs and Giving Talks About Research 16.Criteria for Evaluation 17.Student Questions and Answers to These"
 ]
}