{
 "document_id": "12622989795887221216", 
 "sentences": [
  "U.S. Department of Commerce  Economics and Statistics Administration  \nWomen in STEM:  A Gender Gap to Innovation    \nExecutive Summary  \nO ur  science,  technology,  engineering  and  math  (STEM)  workforce  is  crucial  to  America\u2019s    \ninnovative capacity and global competitiveness.", 
  "Yet women are vastly underrepresented in  STEM jobs and among STEM degree holders despite making up nearly half of the U.S. workforce  and  half  of  the  college-educated  workforce.", 
  "That  leaves  an  untapped  opportunity  to  expand  STEM employment in the United States, even as there is wide agreement that the nation must do  more to improve its competitiveness.", 
  "Although women fill close to half of all jobs in the U.S. economy, they hold less than 25 per- cent  of  STEM  jobs.", 
  "This  has  been  the  case  throughout  the  past  decade,  even  as  college- educated women have increased their share of the overall workforce.", 
  "Women with STEM jobs earned 33 percent more than comparable women in non-STEM jobs \u2013  considerably  higher  than  the  STEM  premium  for  men.", 
  "As  a  result,  the  gender  wage  gap  is  smaller in STEM jobs than in non-STEM jobs.", 
  "Women hold a disproportionately low share of STEM undergraduate degrees, particularly in  engineering.", 
  "Women  with  a  STEM  degree  are  less  likely than  their  male  counterparts  to work  in  a  STEM  occupation; they are more likely to work in education or healthcare.", 
  "There are many possible factors contributing to the discrepancy of women and men in STEM  jobs,  including:  a  lack  of  female  role  models,  gender  stereotyping,  and  less  family-friendly  flexibility in the STEM fields.", 
  "Regardless of the causes, the findings of this report provide evi- dence of a need to encourage and support women in STEM.", 
  "Figure 1.", 
  "Gender Shares of Total and STEM Jobs, 2009  \nDavid Beede,  Tiffany Julian,  David Langdon,  McKittrick,  Beethika Khan,   Mark Doms,  Office of the  Chief Economist  \n\nIssue Brief   \n\nAugust 2011  \nSource:  ESA calculations from American Community Survey public-use microdata.", 
  "Note: Estimates are for employed persons age 16 and over.", 
  "48%24%52%76%0%20%40%60%80%100%All jobsSTEM jobsMenWomen\fWhat is STEM?", 
  "The  acronym  STEM  is  fairly  specific  in  nature\u2014 referring  to  science,  technology,  engineering  and  math\u2014however, there is no standard definition for  what constitutes a STEM job.", 
  "Science, technology,  engineering  and  math  positions  consistently  make  the  lists  of  STEM  occupations,  but  there  is  less  agreement  about  whether  to  include  other  posi- tions  such  as  educators,  managers,  technicians,  healthcare  professionals  and  social  scientists.", 
  "In  this  report,  the  Economics  and  Statistics  Admini- stration (ESA) defines STEM jobs to include profes- sional  and  technical  support  occupations  in  the  fields  of  computer science  and  mathematics, engi- neering, and life and physical sciences.", 
  "Three man- agement  occupations are also included because of  their  clear  ties  to  STEM.1 Education  jobs  are  not  included  because  of  the  nature  of  the  available  data.2  In  addition,  social  scientists  are  not  in- cluded.3   \nESA\u2019s  STEM  list  contains  50  specific  occupation  codes  (see  Appendix  Table  1),  and  in  2009,  there  were  7.4  million  workers  in  these  jobs,  represent- ing  5.3  percent  of  the  workforce.", 
  "To  better  put  these  jobs  into  context,  we  divide  STEM  occupa- tions into four categories: computer and math, en- gineering and surveying, physical and life  sciences,  and  STEM  managerial  occupations.4 Across  all  lev- els of educational attainment, the largest group of  STEM jobs is within the computer and math fields,  which  account  for  close  to  half  (47  percent)  of  all  \nSTEM  employment.", 
  "Second  are  engineering  and  surveying occupations, representing approximately  one-third  of  all  STEM  employment,  while  12  per- cent are in the physical and life sciences, and 8 per- cent in STEM management jobs.5   \nParallel  to  our  list  of  STEM  occupations,  we  also  identify a set of STEM undergraduate degree fields  that span computer science and mathematics, engi- neering, and life and physical sciences (see Appen- dix  Table  2).", 
  "We  define  STEM  degree  holders  as  persons  whose  primary  or  secondary  undergradu- ate major was in a STEM field.", 
  "Consistent with the  occupations  selected  for  this  report,  we  exclude  business, healthcare, and social science majors.6   \nWomen in STEM jobs  \nAccording  to  the  Census  Bureau\u2019s  2009  American  Community Survey (ACS), women comprise 48 per- cent  of  the  U.S.  workforce  but  just  24  percent  of  STEM  workers.", 
  "In  other  words,  half  as  many  women are working in STEM jobs as one might ex- pect  if  gender  representation  in  STEM  professions  mirrored the overall workforce.", 
  "(See Figure 1.)", 
  "This  underrepresentation  has  remained  fairly  con- stant over the past decade, even as women\u2019s share  of  the  college-educated  workforce  has  increased.", 
  "As  shown  in  Table  1,  between  2000  and  2009,  women\u2019s  share  of  the  STEM  workforce  remained  constant at 24 percent, while their share of all col- lege-educated  workers  increased  from  46  to  49  percent.", 
  "Using data from the Census Bureau\u2019s Cur- \nTable 1.", 
  "Total and STEM Employment by Gender and Educational Attainment, 2000 and 2009  \nSource:  ESA calculations from Census 2000 and 2009 American Community Survey public-use microdata.", 
  "Note: Estimates are for employed persons age 16 and over.", 
  "U.S. Department of Commerce, Economics and Statistics Administration  \n (thousands of workers)       Male Female Percent Female 2000     2009 2000 2009 2000 2009 All workers 69,098 73,580 60,619 67,058 47% 48% College-educated 18,995 22,167 16,415 21,433 46% 49% STEM workers 5,321 5,640 1,680 1,790 24% 24% College-educated 3,259 3,738 1,002 1,199 24% 24%  \fTable 2.", 
  "Employment in STEM Occupations in 2009  \nSource:  ESA calculations from Census 2000 and 2009 American Community Survey public-use microdata.", 
  "Note: Estimates are for employed persons age 16 and over.", 
  "rent  Population  Survey  (CPS)  going  back  to  1994,  almost identical trends emerge.", 
  "Among  STEM  jobs,  women\u2019s  representation  has  varied  over  time.", 
  "While  the  female  share  has  de- clined in computer and math jobs, their share has  risen in other occupations.", 
  "In 2009, women com- prised 27 percent of the computer and math work- force (the largest of the four STEM components), a  drop of 3 percentage points since 2000.", 
  "(See Table  2.)", 
  "Engineers are the second largest STEM occupa- tional group, but only about one out of every seven  engineers  is  female.", 
  "Interestingly,  the  number  of  female  engineers  edged  up  by  12,000  over  nine  \nyears, while the number of male engineers declined  by 106,000.", 
  "In physical and life sciences jobs, how- ever,  women  made  up  about  40  percent  of  the  workforce  in  2009,  up  from  36  percent  in  2000.", 
  "STEM  managers  is  another  area  that  has  shown  growth,  with  women\u2019s  share  of  the  workforce  in- creasing to 25 percent.", 
  "Men  are  much  more  likely  than  women  to  have  a  STEM  job  regardless  of  educational  attainment.", 
  "Figure 2 demonstrates that higher education levels  generally  correspond  to  an  increased  likelihood  of  having  a  STEM  job  for  both  men  and  women.", 
  "The  gap  lessens  somewhat  at  the  doctoral  level,  but  \nFigure 2.", 
  "Share of Workers in STEM Jobs  \nby Gender and Educational Attainment, 2009  \nSource:  ESA calculations from American Community Survey public-use microdata.", 
  "Note: Professional degrees include medical, dental, veterinary, and law degrees.", 
  "Estimates are for employed  persons age 16 and over.", 
  "U.S. Department of Commerce, Economics and Statistics Administration  \nNo CollegeSome collegeAssociate degree Bachelor's degreeMaster's degreeDoctorateProfessional degree0%5%10%15%20%25%MenWomen(thousands of workers)       Male Female Percent Female 2000 2009 2000 2009 2000 2009 STEM total 5,321 5,640 1,680 1,790 24% 24% Computer science and math 2,202 2,534 940 929 30% 27% Engineering 2,185 2,079 318 330 13% 14% Physical and life sciences 551 553 310 374 36% 40% STEM managers 382 474 111 157 23% 25%  \f  \nwomen  still  lag  far  behind  men  in  STEM  employ- \n\nSTEM worker earnings and gender  \n\nThere  are  two  notable  findings  in  examining  the  relationship  between  STEM,  gender  and  earnings.", 
  "First,  as  is  clearly  documented  in  our  previous  re- port  \u201cSTEM:  Good  Jobs  Now  and  for  the  Future,\u201d  STEM  workers  earn  considerably  more  than  their  non-STEM counterparts (what we call in this report  the \u201cSTEM earnings premium\u201d).", 
  "Second is the gen- der  wage  gap  \u2013  a  robust  finding  that  women  earn  considerably  less  than  men,  even  after  controlling  for  a  wide  set  of  characteristics  such  as  education  and age.", 
  "Figure 3 highlights how these two findings  intersect by showing the average hourly earnings of  full-time,  year-round  workers  in  private  sector  STEM  and  non-STEM  jobs.", 
  "On  average,  men  and  women  earn  $36.34  and  $31.11  per  hour,  respec- tively,  in  STEM  jobs  \u2013  higher  than  the  $24.47  that  men  earn  and  $19.26  that  women  earn,  on  aver- age, in other occupations.", 
  "For every dollar earned  by a man in STEM, a woman earns 14 cents (or 14  \npercent)  less,  smaller  than  the  21  percent  gender  wage  gap  in  non-STEM  occupations,  but  a  clear  gender disparity nonetheless.", 
  "While illustrative, these simple comparisons do not  take  into  account  the  many  factors  that  can  help  explain why STEM workers tend to earn more than  non-STEM  workers,  or  why  women  earn  less  than  men.", 
  "Following  the  methodology  of  our  earlier  STEM report, we use regression analyses to control  for  many  of  these  factors,  including  workers\u2019  age,  educational  attainment,  and  region  of  residence.", 
  "The  results  of  these  analyses  underscore  both  the  STEM  earnings  premium  and  the  gender  earnings  \nIn our previous report on this issue, we found that  STEM  workers  earn  significantly  more  than  their  non-STEM  counterparts  in  the  private  sector.", 
  "So,  one way to compare men and women in STEM is to  see  to  what  extent  their  STEM  earnings  premium  varies.", 
  "Our analysis shows that, all else being equal,  women  in  STEM  jobs  earn  33  percent  more  than  their  female  peers  in  other  jobs,  while  the  STEM  premium for men is 25 percent.", 
  "Figure 3.", 
  "Average Hourly Earnings by Gender and Occupation, 2009  \nSource:  ESA calculations from American Community Survey public-use microdata.", 
  "Note: Estimates are for full-time year-round private wage and salary workers age 16 and over.", 
  "U.S. Department of Commerce, Economics and Statistics Administration  \n$36.34$24.47$31.11$19.26$0$10$20$30$40STEM jobsNon-STEM jobsMenWomen14%gender wage gap:For every dollar earned by a man, women in STEM earn $0.86.21%\f  \nFigure 4.", 
  "Regression-adjusted Gender Wage Gap of   College-educated STEM Workers by Occupation, 2009  \nSource:  ESA calculations from American Community Survey public-use microdata.", 
  "Note: Estimates are for full-time year-round private wage and salary workers age 25 and over.", 
  "Given that the STEM premium for women is higher  than for men, we would expect women in STEM to  face a smaller gender earnings gap than women in  other  occupations.", 
  "Not  surprisingly,  we  find  that  the gap shrinks but does not disappear for women  in STEM.", 
  "Furthermore, as we look at more specific  groups of STEM workers (which allows  us to make  better \u201capples-to-apples\u201d comparisons of male and  female  wages),  we  find  an  even  smaller  gender  wage  difference.", 
  "Figure  4  shows  the  regression- adjusted  gender  wage  gap  for  college-educated  STEM  workers  in  each  of  the  four  major  occupa- tional  groups.", 
  "the  most  male- dominated STEM occupational group\u2014engineers\u2014 is  also  the  one  with  the  smallest  regression- adjusted wage gap; female engineers earned 7 per- cent less per hour than male counterparts.", 
  "Physical  and  life  sciences  occupations,  the  most  gender- balanced STEM group, have an 8 percent wage gap,  and  STEM  managers  a  9  percent  gap.", 
  "Notably  higher was the 12 percent gender wage gap in com- puter and math occupations.", 
  "Interestingly,  \nSTEM degrees and fields of study  \nby gender  \nSince  the  gateway  to  many  high-paying  STEM  jobs  is a STEM degree, it is useful to examine the extent  to  which  college-educated  workers  had  STEM  de- grees.", 
  "The  2009  ACS  provides  a  rich  new  data  source for analyzing the link  between undergradu- ate studies and subsequent employment.", 
  "The ACS  data  on  undergraduate  fields  of  study  show  that  women account for nearly half of employed college  graduates age 25 and over, but only about 25 per- cent  of  employed  STEM  degree  holders  and  an  even  smaller  share  \u2013  just  about  20  percent  \u2013  of  STEM degree holders working in STEM jobs.", 
  "There  were  2.5  million  college-educated  working  women with STEM degrees in 2009 compared with  6.7  million  men.", 
  "What  makes  this  disparity  even  more  alarming  is  that,  in  the  overall  labor  force,  there  are  21.4  million  women  (49  percent  of  the  total) and 22.2 million men who are employed and  have bachelor\u2019s degrees.", 
  "Among  STEM  majors,  the  distribution  of  men  and  \nU.S. Department of Commerce, Economics and Statistics Administration  \n12%12%7%8%9%4%6%8%10%12%14%STEM totalComputer and mathEngineeringPhysical and life sciencesSTEMmanagerial\f  \nFigure 5.", 
  "College-educated Workers with a STEM Degree   \nby Gender and STEM Degree Field, 2009  \nSource:  ESA calculations from American Community Survey public-use microdata.", 
  "Note: Estimates are for employed persons age 25 and over.", 
  "The shares for men and women do not add up  to 100% due to rounding.", 
  "women  differs  significantly.", 
  "As  shown  in  Figure  5,  well over half (57 percent) of female STEM majors  study  physical  and  life  sciences,  while  fewer  than  one-third (31  percent) of men  choose  these  fields.", 
  "The  share of  women  choosing  math majors  is  also  higher than men:  10 versus 6 percent.", 
  "The bulk of  men  with  STEM  majors  (48  percent)  choose  engi- neering degrees, two-and-a-half times the share of  women  who  choose  engineering.", 
  "Equal  shares  of  male and female STEM majors enter computer sci- ence.", 
  "In  terms  of  raw  numbers,  however,  men  in  the  workforce  with  STEM  degrees  outnumber  women across all four fields of study.8   \nSTEM degrees and careers   \nby gender  \nAs  noted  in  the  previous  section,  college-educated  women  are  much  less  likely  than  men  to  major  in  STEM fields.", 
  "But even when women choose STEM  degrees, their typical career paths diverge substan- tially from their male  counterparts.", 
  "About 40 per- cent (2.7 million) of men with STEM college degrees  work  in  STEM  jobs,  whereas  only  26  percent  (0.6  million)  of  women  with  STEM  degrees  work  in  \nSTEM jobs.", 
  "(See Figure 6.)", 
  "Men  are  more  likely  to  have  non-STEM  manage- ment jobs than women, 16 percent and 11 percent,  respectively.", 
  "In  contrast,  female  STEM  majors  are  twice  as  likely  as  men  to  work  in  education  or  healthcare.", 
  "Nearly  one  in  five  STEM  college- educated women works in healthcare occupations,  compared  with  about  one  in  ten  men.", 
  "Likewise,  approximately  14  percent  of  female  STEM  majors  end  up  in  education  occupations,  compared  with  approximately 6 percent of men.", 
  "Similar shares of  men  and  women  with  STEM  degrees  worked  in  business and financial occupations or other fields.", 
  "STEM premiums and gender  \nAs highlighted in our earlier STEM report, receiving  a  STEM  degree  tends  to  result  in  higher  earnings  later  in  life.", 
  "Figure  7  illustrates  the  considerable  extent to which the earnings premium from having  a  STEM  job  or  STEM  degree  varies  by  gender.", 
  "Women  enjoy  a  much  bigger  STEM  job  premium  than men, but a slightly smaller premium for having  earned  a  STEM  bachelor\u2019s  degree.", 
  "Specifically,  when  we  control  for  whether  or  not  women  have  \nU.S. Department of Commerce, Economics and Statistics Administration  \n31%57%48%18%15%14%6%10%0%25%50%75%100%MenWomen2.5 million workers6.7 million workersMath degreeComputer degreeEngineering degreePhysicaland life sciences degree\f  \nFigure 6.", 
  "College-educated Workers with a STEM Degree   \nby Gender and STEM Occupation, 2009  \nSource:  ESA calculations from American Community Survey public-use microdata.", 
  "Note: Estimates are for employed persons age 25 and over.", 
  "The shares for men and women do not add up  to 100% due to rounding.", 
  "STEM  degrees,  we  find  that  college-educated  women (regardless of choice of undergraduate ma- jor) earn  20  percent  more  in  STEM  jobs  than  else- where.", 
  "This  is  nearly  double  the  11  percent  pre- mium that college-educated men realize working in  STEM.", 
  "On  the  other  hand,  female  STEM  degree  holders  earn  9  percent  more  than  women  with  other  degrees,  regardless  of  their  job.", 
  "The  STEM  degree  premium  for  men  is  somewhat  higher  at  \nnearly 12 percent.", 
  "The biggest STEM-related wage  premiums  go  to  men  and women who  both major  in a STEM field and choose a STEM job.", 
  "This career  path  nets  women  29  percent  higher  hourly  earn- ings, on average, than their peers who have neither  a STEM degree nor a STEM job.", 
  "The corresponding  premium for men is smaller, but also sizeable, at 23  percent.", 
  "Figure 7.", 
  "Wage Premium from Having a STEM Job and/or Degree  \nSource:  ESA calculations from American Community Survey public-use microdata.", 
  "Note: Estimates are for full-time year-round private wage and salary workers who have at least a  bachelor\u2019s degree and are age 25 and over.", 
  "U.S. Department of Commerce, Economics and Statistics Administration  \n40%26%6%14%10%19%16%11%5%6%23%23%0%25%50%75%100%MenWomen6.7 million workers2.5 million workersSTEM occupationsEducation occupationsHealthcare occupationsNon-STEMmanagersBusiness & financial occupationsOther occupations11%20%12%9%0%5%10%15%20%25%30%MenWomen23%29%STEM degreeSTEM jobSTEM degree and job\f  \nConclusion  \nThis report finds that women are underrepresented  both  in  STEM  jobs  and  STEM  undergraduate  de- grees and have been consistently over the last dec- ade.", 
  "The relatively few women who receive STEM  degrees  are  concentrated  in  physical  and  life  sci- ences,  in  contrast  to  men,  who  are  concentrated  primarily  in  engineering.", 
  "Women  who  do  receive  STEM  degrees  are  less  likely  to work  in  STEM  jobs  than  their  male  counterparts.", 
  "And  while  women  working  in  STEM  jobs  earn  less  than  their  male  counterparts,  they  experience  a  smaller  gender  wage gap compared to others in non-STEM occupa- tions.", 
  "The  underrepresentation  of  women  in  STEM  ma- jors  and  jobs  may  be  attributable  to  a  variety  of  factors.", 
  "These  may  include  different  choices  men  and  women  typically  make  in  response  to  incen- tives  in  STEM  education  and  STEM  employment  \u2013  for example, STEM career paths may be less accom- modating to people cycling in and out of the work- force to raise a family \u2013 or it may be because there  are  relatively  few  female  STEM  role  models.", 
  "Per- haps strong gender stereotypes discourage women  from pursuing STEM education and STEM jobs.", 
  "While  this  report  does  not  \u2013  and  cannot  \u2013  explain  why  gender  differences  in  STEM  exist,  it  does  aim  to  provide  data  and  insight  that  will  enable  more  informed  policymaking.", 
  "The  findings  provide  de- finitive  evidence  of  a  need  to  encourage  and  sup- port women in STEM with a goal of gender  parity.", 
  "Given the high-quality, well-paying jobs in the fields  of  science,  technology,  engineering  and  math,  there  is  great  opportunity  for  growth  in  STEM  in  support  of  American  competitiveness,  innovation  and jobs of the future.", 
  "U.S. Department of Commerce, Economics and Statistics Administration  \nAppendix Table 1.", 
  "Detailed STEM occupations and Standard Occupational Classification (SOC)  \nOccupation  \nComputer and math occupations  \nOccupation  \nSOC code  \nComputer scientists and systems analysts  \nComputer programmers  Computer software engineers  Computer support specialists  \nDatabase administrators  \nNetwork and computer systems administrators  \nNetwork systems and data communications  \nanalysts  \nMathematicians  Operations research analysts  Statisticians  Miscellaneous mathematical science occupa- \nEngineering and surveying occupations  \nSurveyors, cartographers, and photogrammet- Aerospace engineers  \n\nAgricultural engineers  Biomedical engineers  Chemical engineers  Civil engineers  Computer hardware engineers  Electrical and electronic engineers  Environmental engineers  \n\nMaterials engineers  Mechanical engineers  Mining and geological engineers, including  \nmining safety engineers  \nNuclear engineers  Petroleum engineers  Engineers, all other  Drafters  Engineering technicians, except drafters  Surveying and mapping technicians  \nIndustrial engineers, including health and safety  Marine engineers and naval architects  \nSales engineers  \nPhysical and life sciences occupations  \nAgricultural and food scientists  Biological scientists  Conservation scientists and foresters  Medical scientists  Astronomers and physicists  Atmospheric and space scientists  \nChemists and materials scientists  Environmental scientists and geoscientists  \n\nPhysical scientists, all other  Agricultural and food science technicians  Biological technicians  Chemical technicians  Geological and petroleum technicians  Nuclear technicians  Other life, physical, and social science techni- \nSTEM managerial occupations  \nComputer and information systems managers  Engineering managers  \nNatural sciences managers  \nU.S. Department of Commerce, Economics and Statistics Administration  \n\fAppendix Table 2.", 
  "Detailed STEM undergraduate majors  \nU.S. Department of Commerce, Economics and Statistics Administration  \nComputer majors  Computer and information systems  Computer science  Computer administration management and security  Computer programming and data processing  Information sciences  Computer networking and telecommunications  Math majors  Mathematics  Statistics and decision science  Mathematics and computer science  Applied mathematics    Engineering majors  General engineering  Environmental engineering  Petroleum engineering  Aerospace engineering  Geological and geophysical engineering  Miscellaneous engineering  Biological engineering  Industrial and manufacturing engineering  Engineering technologies  Architectural engineering  Materials engineering and materials science  Engineering and industrial management  Biomedical engineering  Mechanical engineering  Electrical engineering technology  Chemical engineering  Metallurgical engineering  Industrial production technologies  Civil engineering  Mining and mineral engineering  Mechanical engineering related technologies  Computer engineering  Naval architecture and marine engineering  Miscellaneous engineering technologies  Electrical engineering  Nuclear engineering  Military technologies  Engineering mechanics physics and science    Physical and life sciences majors  Animal sciences  Genetics  Physical sciences  Food science  Microbiology  Astronomy and astrophysics  Plant science and agronomy  Pharmacology  Atmospheric sciences and meteorology  Soil science  Physiology  Chemistry  Environmental science  Zoology  Geology and earth science  Biology  Miscellaneous biology  Geosciences  Biochemical sciences  Nutrition sciences  Oceanography  Botany  Neuroscience  Physics  Molecular biology  Cognitive science and biopsychology  Nuclear, industrial radiology, and biological technologies  Ecology    \fThe Commerce Department\u2019s Economics and  Statistics Administration has released two  other reports detailing the roles of women in  American society.", 
  "The first, Women-Owned  Businesses in the 21st Century, was released in  October 2010.", 
  "The second, Women in America:  Indicators of Social and Economic Well-Being,  was released in March 2011.", 
  "Both reports can  be found at http://www.esa.doc.gov/reports  \nEndnotes  1 These  occupations  are  computer  and  information  systems  managers,  engineering  managers,  and  natu- ral sciences managers.", 
  "2 Although our principal data source, the 2009 Ameri- can  Community  Survey  (ACS),  collects  detailed  infor- mation  on  workers\u2019  occupations,  it  does  not  break  out educators by their specific field.", 
  "As a result, it is  not  possible  to  distinguish  math  and  science  profes- sors from other professors.", 
  "Data from the Bureau of  Labor  Statistics\u2019  Occupational  Employment  Statistics  program  show  that  there  are  roughly  200,000  post- secondary teachers in STEM fields, and so their exclu- sion is unlikely to materially affect our results.", 
  "3  The  National  Science  Foundation  does  count  social  scientists  among  \u201cscience  and  engineering  jobs\u201d  in  keeping  with  the  agency\u2019s  mission  supporting  \u201call  fields of fundamental science and engineering, except  for medical sciences.\u201d This report, however, follows a  different approach.", 
  "4  Note  that  persons  in  science  occupations  include  not  just  scientists but  also science technicians.", 
  "Like- wise,  engineering  and  surveying  occupations  include  engineering  technicians  and  drafters,  and  computer  occupations range from computer support specialists  to computer software engineers.", 
  "5 The estimates reported in this paragraph are based  on  2009  data  from  the  American  Community  Survey  (ACS).", 
  "The estimates are very similar to those cited in  STEM:    Good  Jobs  Now  and  For  the  Future  (http:// www.esa.doc.gov/Reports/stem-good-jobs-now-and- future),  p.  2,  which  were  based  on  2010  data  from  the  Current  Population  Survey.", 
  "The  estimates  are  very  similar  but  not  exactly  the  same  because  they  were drawn from different samples of workers in two  different years.", 
  "6 In the few cases where both the primary and secon- dary  undergraduate  majors  were  in  STEM  fields,  we  used the primary major as the STEM major.", 
  "7 Few  persons  with  professional degrees (e.g., MBA\u2019s,  law,  and  medicine)  work  in  STEM  jobs  because  such  \npersons typically have jobs that we do not character- ize as STEM.", 
  "8  Using  data  from  a  different  source,  the  number  of  bachelor\u2019s degrees conferred annually in STEM fields  in  the  United  States  increased  about  20  percent  be- tween 1998 and 2008 (from 200,000 to 240,000).", 
  "But  women\u2019s  share  has  not  risen  and  remains  far  below  parity  with  men  (35  percent  in  both  years),  despite  the  fact  that  a  majority  of  all  bachelor  degrees  are  conferred on women (56 percent in 1998 and 57 per- cent  in  2008).", 
  "About  one-quarter  of  bachelor\u2019s  de- grees awarded to men are in STEM fields, compared  with  one-tenth  conferred  on  women;  these  shares  have  remained  about  the  same  between  1998  and  2008.", 
  "About two-thirds of STEM degrees awarded to  men were in engineering and computer science, com- pared  with  one-quarter  awarded  to  women.", 
  "Over  half  of  STEM  degrees  awarded  to  women  were  in  biological  sciences  compared  with  20  percent  for  men.", 
  "See U.S. Department of Commerce, Economics  and  Statistics  Administration  and  Executive  Office  of  the  President,  Office  of  Management  and  Budget  (2011)  Women  in  America:  Indicators  of  Social  and  Economic  Well-Being  (http://www.esa.doc.gov/sites/ d e f a u l t / f i l e s / r e p o r t s / d o c u m e n t s / womeninamerica.pdf), p. 23.", 
  "The authors are economists in the Office of the Chief  Economist  of  the  U.S.  Department  of  Commerce\u2019s  Economics and Statistics Administration.", 
  "Technical inquiries:  \nOffice of the Chief Economist  \n(202) 482-3523  \nMedia inquiries:   \nOffice of Communications  \n(202) 482-3331  \nU.S. Department of Commerce  \nEconomics and Statistics Administration  \n1401 Constitution Ave., NW  \nWashington, DC 20230  \nwww.esa.doc.gov  \nU.S. Department of Commerce, Economics and Statistics Administration"
 ]
}