{
 "document_id": "12925549166351467450", 
 "sentences": [
  "betterhighschools.org \nLinking Research and Resources for Better High Schools \nApproaches to Dropout Prevention: Heeding Early Warning Signs With Appropriate Interventions \n\fbetterhighschools.org \nThis report is offered by the National High School Center, a central source of information and expertise on high school improvement issues that does not endorse any interventions or conduct field studies.", 
  "Funded by the  U.S. Department of Education, the National High School Center serves the Regional Comprehensive Centers in their work to build the capacity  of states across the nation to effectively implement the goals of No Child Left Behind relating to high schools.", 
  "The National High School Center is housed at the American Institutes for Research and partners with other leading education research organizations such as Learning Point Associates, MDRC, WestEd, and the National Center for Educational Accountability (NCEA).", 
  "The contents of this report were developed under a grant from the  U.S. Department of Education.", 
  "However, those contents do not necessarily represent the policy of the U.S. Department of Education.", 
  "It is important to note that the National High School Center does not endorse particular  practices, programs, or interventions.", 
  "betterhighschools.org \nApproaches to Dropout Prevention: Heeding Early Warning Signs With Appropriate Interventions \nR E P O R T   A U T H O R S \nLouise Kennelly Maggie Monrad National High School Center at the American Institutes for Research \nOctober 2007 \n\f\fbetterhighschools.org \nT A B L E   O F   C O N T E N T S \nExecutive Summary .", 
  ".", 
  ".", 
  ".", 
  ".", 
  ".", 
  ".", 
  ".", 
  ".", 
  ".", 
  ".", 
  ".", 
  ".", 
  ".", 
  ".", 
  ".", 
  ".", 
  ".", 
  ".", 
  ".", 
  ".", 
  ".", 
  ".", 
  ".", 
  ".", 
  ".", 
  ".", 
  ".", 
  ".", 
  ".", 
  ".", 
  ".", 
  ".", 
  ".", 
  ".", 
  ".", 
  ".", 
  ".", 
  ".", 
  ".", 
  ".", 
  ".", 
  ".", 
  ".", 
  ".", 
  ".", 
  ".", 
  ".", 
  ".", 
  ".", 
  ".", 
  ".", 
  ".", 
  ".", 
  ".", 
  ".", 
  ".", 
  ".", 
  ".", 
  ".", 
  ".", 
  ".", 
  ".", 
  ".", 
  ".", 
  ".", 
  ".", 
  ".", 
  ".", 
  ".", 
  ".", 
  ".", 
  ".1 \nIntroduction  .", 
  ".", 
  ".", 
  ".", 
  ".", 
  ".", 
  ".", 
  ".", 
  ".", 
  ".", 
  ".", 
  ".", 
  ".", 
  ".", 
  ".", 
  ".", 
  ".", 
  ".", 
  ".", 
  ".", 
  ".", 
  ".", 
  ".", 
  ".", 
  ".", 
  ".", 
  ".", 
  ".", 
  ".", 
  ".", 
  ".", 
  ".", 
  ".", 
  ".", 
  ".", 
  ".", 
  ".", 
  ".", 
  ".", 
  ".", 
  ".", 
  ".", 
  ".", 
  ".", 
  ".", 
  ".", 
  ".", 
  ".", 
  ".", 
  ".", 
  ".", 
  ".", 
  ".", 
  ".", 
  ".", 
  ".", 
  ".", 
  ".", 
  ".", 
  ".", 
  ".", 
  ".", 
  ".", 
  ".", 
  ".", 
  ".", 
  ".", 
  ".", 
  ".", 
  ".", 
  ".", 
  ".", 
  ".", 
  ".", 
  ".", 
  ".", 
  ".", 
  ".4 \nWho Drops Out When  .", 
  ".", 
  ".", 
  ".", 
  ".", 
  ".", 
  ".", 
  ".", 
  ".", 
  ".", 
  ".", 
  ".", 
  ".", 
  ".", 
  ".", 
  ".", 
  ".", 
  ".", 
  ".", 
  ".", 
  ".", 
  ".", 
  ".", 
  ".", 
  ".", 
  ".", 
  ".", 
  ".", 
  ".", 
  ".", 
  ".", 
  ".", 
  ".", 
  ".", 
  ".", 
  ".", 
  ".", 
  ".", 
  ".", 
  ".", 
  ".", 
  ".", 
  ".", 
  ".", 
  ".", 
  ".", 
  ".", 
  ".", 
  ".", 
  ".", 
  ".", 
  ".", 
  ".", 
  ".", 
  ".", 
  ".", 
  ".", 
  ".", 
  ".", 
  ".", 
  ".", 
  ".", 
  ".", 
  ".", 
  ".", 
  ".", 
  ".", 
  ".", 
  ".", 
  ".4 \nA Focus on Ninth Grade  .", 
  ".", 
  ".", 
  ".", 
  ".", 
  ".", 
  ".", 
  ".", 
  ".", 
  ".", 
  ".", 
  ".", 
  ".", 
  ".", 
  ".", 
  ".", 
  ".", 
  ".", 
  ".", 
  ".", 
  ".", 
  ".", 
  ".", 
  ".", 
  ".", 
  ".", 
  ".", 
  ".", 
  ".", 
  ".", 
  ".", 
  ".", 
  ".", 
  ".", 
  ".", 
  ".", 
  ".", 
  ".", 
  ".", 
  ".", 
  ".", 
  ".", 
  ".", 
  ".", 
  ".", 
  ".", 
  ".", 
  ".", 
  ".", 
  ".", 
  ".", 
  ".", 
  ".", 
  ".", 
  ".", 
  ".", 
  ".", 
  ".", 
  ".", 
  ".", 
  ".", 
  ".", 
  ".", 
  ".", 
  ".", 
  ".", 
  ".5 \nThe Dropout Gap  .", 
  ".", 
  ".", 
  ".", 
  ".", 
  ".", 
  ".", 
  ".", 
  ".", 
  ".", 
  ".", 
  ".", 
  ".", 
  ".", 
  ".", 
  ".", 
  ".", 
  ".", 
  ".", 
  ".", 
  ".", 
  ".", 
  ".", 
  ".", 
  ".", 
  ".", 
  ".", 
  ".", 
  ".", 
  ".", 
  ".", 
  ".", 
  ".", 
  ".", 
  ".", 
  ".", 
  ".", 
  ".", 
  ".", 
  ".", 
  ".", 
  ".", 
  ".", 
  ".", 
  ".", 
  ".", 
  ".", 
  ".", 
  ".", 
  ".", 
  ".", 
  ".", 
  ".", 
  ".", 
  ".", 
  ".", 
  ".", 
  ".", 
  ".", 
  ".", 
  ".", 
  ".", 
  ".", 
  ".", 
  ".", 
  ".", 
  ".", 
  ".", 
  ".", 
  ".", 
  ".", 
  ".5 \nPredicting Dropout  .", 
  ".", 
  ".", 
  ".", 
  ".", 
  ".", 
  ".", 
  ".", 
  ".", 
  ".", 
  ".", 
  ".", 
  ".", 
  ".", 
  ".", 
  ".", 
  ".", 
  ".", 
  ".", 
  ".", 
  ".", 
  ".", 
  ".", 
  ".", 
  ".", 
  ".", 
  ".", 
  ".", 
  ".", 
  ".", 
  ".", 
  ".", 
  ".", 
  ".", 
  ".", 
  ".", 
  ".", 
  ".", 
  ".", 
  ".", 
  ".", 
  ".", 
  ".", 
  ".", 
  ".", 
  ".", 
  ".", 
  ".", 
  ".", 
  ".", 
  ".", 
  ".", 
  ".", 
  ".", 
  ".", 
  ".", 
  ".", 
  ".", 
  ".", 
  ".", 
  ".", 
  ".", 
  ".", 
  ".", 
  ".", 
  ".", 
  ".", 
  ".", 
  ".", 
  ".", 
  ".", 
  ".", 
  ".5 \nFailure to be Promoted to the Next Grade Level  .", 
  ".", 
  ".", 
  ".", 
  ".", 
  ".", 
  ".", 
  ".", 
  ".", 
  ".", 
  ".", 
  ".", 
  ".", 
  ".", 
  ".", 
  ".", 
  ".", 
  ".", 
  ".", 
  ".", 
  ".", 
  ".", 
  ".", 
  ".", 
  ".", 
  ".", 
  ".", 
  ".", 
  ".", 
  ".", 
  ".", 
  ".", 
  ".", 
  ".", 
  ".", 
  ".", 
  ".", 
  ".", 
  ".", 
  ".", 
  ".", 
  ".", 
  ".", 
  ".", 
  ".", 
  ".", 
  ".", 
  ".", 
  ".6 \nFailure of Core Academic Courses in Secondary School  .", 
  ".", 
  ".", 
  ".", 
  ".", 
  ".", 
  ".", 
  ".", 
  ".", 
  ".", 
  ".", 
  ".", 
  ".", 
  ".", 
  ".", 
  ".", 
  ".", 
  ".", 
  ".", 
  ".", 
  ".", 
  ".", 
  ".", 
  ".", 
  ".", 
  ".", 
  ".", 
  ".", 
  ".", 
  ".", 
  ".", 
  ".", 
  ".", 
  ".", 
  ".", 
  ".", 
  ".", 
  ".", 
  ".", 
  ".", 
  ".", 
  ".", 
  ".6 \nExcessive Absenteeism  .", 
  ".", 
  ".", 
  ".", 
  ".", 
  ".", 
  ".", 
  ".", 
  ".", 
  ".", 
  ".", 
  ".", 
  ".", 
  ".", 
  ".", 
  ".", 
  ".", 
  ".", 
  ".", 
  ".", 
  ".", 
  ".", 
  ".", 
  ".", 
  ".", 
  ".", 
  ".", 
  ".", 
  ".", 
  ".", 
  ".", 
  ".", 
  ".", 
  ".", 
  ".", 
  ".", 
  ".", 
  ".", 
  ".", 
  ".", 
  ".", 
  ".", 
  ".", 
  ".", 
  ".", 
  ".", 
  ".", 
  ".", 
  ".", 
  ".", 
  ".", 
  ".", 
  ".", 
  ".", 
  ".", 
  ".", 
  ".", 
  ".", 
  ".", 
  ".", 
  ".", 
  ".", 
  ".", 
  ".", 
  ".", 
  ".", 
  ".", 
  ".", 
  ".6 \nOther Signs of Disengagement  .", 
  ".", 
  ".", 
  ".", 
  ".", 
  ".", 
  ".", 
  ".", 
  ".", 
  ".", 
  ".", 
  ".", 
  ".", 
  ".", 
  ".", 
  ".", 
  ".", 
  ".", 
  ".", 
  ".", 
  ".", 
  ".", 
  ".", 
  ".", 
  ".", 
  ".", 
  ".", 
  ".", 
  ".", 
  ".", 
  ".", 
  ".", 
  ".", 
  ".", 
  ".", 
  ".", 
  ".", 
  ".", 
  ".", 
  ".", 
  ".", 
  ".", 
  ".", 
  ".", 
  ".", 
  ".", 
  ".", 
  ".", 
  ".", 
  ".", 
  ".", 
  ".", 
  ".", 
  ".", 
  ".", 
  ".", 
  ".", 
  ".", 
  ".", 
  ".", 
  ".", 
  ".6 \nCombined Factors by Grade With an Emphasis on Low Academic Achievement  .", 
  ".", 
  ".", 
  ".", 
  ".", 
  ".", 
  ".", 
  ".", 
  ".", 
  ".", 
  ".", 
  ".", 
  ".", 
  ".", 
  ".", 
  ".", 
  ".", 
  ".", 
  ".", 
  ".", 
  ".", 
  ".", 
  ".", 
  ".", 
  ".", 
  ".7 \nAt-Risk Sixth Graders  .", 
  ".", 
  ".", 
  ".", 
  ".", 
  ".", 
  ".", 
  ".", 
  ".", 
  ".", 
  ".", 
  ".", 
  ".", 
  ".", 
  ".", 
  ".", 
  ".", 
  ".", 
  ".", 
  ".", 
  ".", 
  ".", 
  ".", 
  ".", 
  ".", 
  ".", 
  ".", 
  ".", 
  ".", 
  ".", 
  ".", 
  ".", 
  ".", 
  ".", 
  ".", 
  ".", 
  ".", 
  ".", 
  ".", 
  ".", 
  ".", 
  ".", 
  ".", 
  ".", 
  ".", 
  ".", 
  ".", 
  ".", 
  ".", 
  ".", 
  ".", 
  ".", 
  ".", 
  ".", 
  ".", 
  ".", 
  ".", 
  ".", 
  ".", 
  ".", 
  ".", 
  ".", 
  ".", 
  ".", 
  ".", 
  ".", 
  ".", 
  ".", 
  ".7 \nAt-Risk Eighth Graders  .", 
  ".", 
  ".", 
  ".", 
  ".", 
  ".", 
  ".", 
  ".", 
  ".", 
  ".", 
  ".", 
  ".", 
  ".", 
  ".", 
  ".", 
  ".", 
  ".", 
  ".", 
  ".", 
  ".", 
  ".", 
  ".", 
  ".", 
  ".", 
  ".", 
  ".", 
  ".", 
  ".", 
  ".", 
  ".", 
  ".", 
  ".", 
  ".", 
  ".", 
  ".", 
  ".", 
  ".", 
  ".", 
  ".", 
  ".", 
  ".", 
  ".", 
  ".", 
  ".", 
  ".", 
  ".", 
  ".", 
  ".", 
  ".", 
  ".", 
  ".", 
  ".", 
  ".", 
  ".", 
  ".", 
  ".", 
  ".", 
  ".", 
  ".", 
  ".", 
  ".", 
  ".", 
  ".", 
  ".", 
  ".", 
  ".", 
  ".", 
  ".7 \nAt-Risk Ninth Graders .", 
  ".", 
  ".", 
  ".", 
  ".", 
  ".", 
  ".", 
  ".", 
  ".", 
  ".", 
  ".", 
  ".", 
  ".", 
  ".", 
  ".", 
  ".", 
  ".", 
  ".", 
  ".", 
  ".", 
  ".", 
  ".", 
  ".", 
  ".", 
  ".", 
  ".", 
  ".", 
  ".", 
  ".", 
  ".", 
  ".", 
  ".", 
  ".", 
  ".", 
  ".", 
  ".", 
  ".", 
  ".", 
  ".", 
  ".", 
  ".", 
  ".", 
  ".", 
  ".", 
  ".", 
  ".", 
  ".", 
  ".", 
  ".", 
  ".", 
  ".", 
  ".", 
  ".", 
  ".", 
  ".", 
  ".", 
  ".", 
  ".", 
  ".", 
  ".", 
  ".", 
  ".", 
  ".", 
  ".", 
  ".", 
  ".", 
  ".", 
  ".", 
  ".7 \nLater Years in High School  .", 
  ".", 
  ".", 
  ".", 
  ".", 
  ".", 
  ".", 
  ".", 
  ".", 
  ".", 
  ".", 
  ".", 
  ".", 
  ".", 
  ".", 
  ".", 
  ".", 
  ".", 
  ".", 
  ".", 
  ".", 
  ".", 
  ".", 
  ".", 
  ".", 
  ".", 
  ".", 
  ".", 
  ".", 
  ".", 
  ".", 
  ".", 
  ".", 
  ".", 
  ".", 
  ".", 
  ".", 
  ".", 
  ".", 
  ".", 
  ".", 
  ".", 
  ".", 
  ".", 
  ".", 
  ".", 
  ".", 
  ".", 
  ".", 
  ".", 
  ".", 
  ".", 
  ".", 
  ".", 
  ".", 
  ".", 
  ".", 
  ".", 
  ".", 
  ".", 
  ".", 
  ".", 
  ".", 
  ".", 
  ".9 \nLow Performers Across Grades 8\u201312  .", 
  ".", 
  ".", 
  ".", 
  ".", 
  ".", 
  ".", 
  ".", 
  ".", 
  ".", 
  ".", 
  ".", 
  ".", 
  ".", 
  ".", 
  ".", 
  ".", 
  ".", 
  ".", 
  ".", 
  ".", 
  ".", 
  ".", 
  ".", 
  ".", 
  ".", 
  ".", 
  ".", 
  ".", 
  ".", 
  ".", 
  ".", 
  ".", 
  ".", 
  ".", 
  ".", 
  ".", 
  ".", 
  ".", 
  ".", 
  ".", 
  ".", 
  ".", 
  ".", 
  ".", 
  ".", 
  ".", 
  ".", 
  ".", 
  ".", 
  ".", 
  ".", 
  ".", 
  ".", 
  ".", 
  ".", 
  ".", 
  ".9 \nSocial Indicators of Dropout .", 
  ".", 
  ".", 
  ".", 
  ".", 
  ".", 
  ".", 
  ".", 
  ".", 
  ".", 
  ".", 
  ".", 
  ".", 
  ".", 
  ".", 
  ".", 
  ".", 
  ".", 
  ".", 
  ".", 
  ".", 
  ".", 
  ".", 
  ".", 
  ".", 
  ".", 
  ".", 
  ".", 
  ".", 
  ".", 
  ".", 
  ".", 
  ".", 
  ".", 
  ".", 
  ".", 
  ".", 
  ".", 
  ".", 
  ".", 
  ".", 
  ".", 
  ".", 
  ".", 
  ".", 
  ".", 
  ".", 
  ".", 
  ".", 
  ".", 
  ".", 
  ".", 
  ".", 
  ".", 
  ".", 
  ".", 
  ".", 
  ".", 
  ".", 
  ".", 
  ".", 
  ".", 
  ".", 
  ".", 
  ".", 
  ".9 \nAbused and Neglected Students .", 
  ".", 
  ".", 
  ".", 
  ".", 
  ".", 
  ".", 
  ".", 
  ".", 
  ".", 
  ".", 
  ".", 
  ".", 
  ".", 
  ".", 
  ".", 
  ".", 
  ".", 
  ".", 
  ".", 
  ".", 
  ".", 
  ".", 
  ".", 
  ".", 
  ".", 
  ".", 
  ".", 
  ".", 
  ".", 
  ".", 
  ".", 
  ".", 
  ".", 
  ".", 
  ".", 
  ".", 
  ".", 
  ".", 
  ".", 
  ".", 
  ".", 
  ".", 
  ".", 
  ".", 
  ".", 
  ".", 
  ".", 
  ".", 
  ".", 
  ".", 
  ".", 
  ".", 
  ".", 
  ".", 
  ".", 
  ".", 
  ".", 
  ".", 
  ".", 
  ".", 
  ".9 \nBehavior  .", 
  ".", 
  ".", 
  ".", 
  ".", 
  ".", 
  ".", 
  ".", 
  ".", 
  ".", 
  ".", 
  ".", 
  ".", 
  ".", 
  ".", 
  ".", 
  ".", 
  ".", 
  ".", 
  ".", 
  ".", 
  ".", 
  ".", 
  ".", 
  ".", 
  ".", 
  ".", 
  ".", 
  ".", 
  ".", 
  ".", 
  ".", 
  ".", 
  ".", 
  ".", 
  ".", 
  ".", 
  ".", 
  ".", 
  ".", 
  ".", 
  ".", 
  ".", 
  ".", 
  ".", 
  ".", 
  ".", 
  ".", 
  ".", 
  ".", 
  ".", 
  ".", 
  ".", 
  ".", 
  ".", 
  ".", 
  ".", 
  ".", 
  ".", 
  ".", 
  ".", 
  ".", 
  ".", 
  ".", 
  ".", 
  ".", 
  ".", 
  ".", 
  ".", 
  ".", 
  ".", 
  ".", 
  ".", 
  ".", 
  ".", 
  ".", 
  ".", 
  ".", 
  ".9 \nMobility .", 
  ".", 
  ".", 
  ".", 
  ".", 
  ".", 
  ".", 
  ".", 
  ".", 
  ".", 
  ".", 
  ".", 
  ".", 
  ".", 
  ".", 
  ".", 
  ".", 
  ".", 
  ".", 
  ".", 
  ".", 
  ".", 
  ".", 
  ".", 
  ".", 
  ".", 
  ".", 
  ".", 
  ".", 
  ".", 
  ".", 
  ".", 
  ".", 
  ".", 
  ".", 
  ".", 
  ".", 
  ".", 
  ".", 
  ".", 
  ".", 
  ".", 
  ".", 
  ".", 
  ".", 
  ".", 
  ".", 
  ".", 
  ".", 
  ".", 
  ".", 
  ".", 
  ".", 
  ".", 
  ".", 
  ".", 
  ".", 
  ".", 
  ".", 
  ".", 
  ".", 
  ".", 
  ".", 
  ".", 
  ".", 
  ".", 
  ".", 
  ".", 
  ".", 
  ".", 
  ".", 
  ".", 
  ".", 
  ".", 
  ".", 
  ".", 
  ".", 
  ".", 
  ".10 \nCurrent State of Dropout Data  .", 
  ".", 
  ".", 
  ".", 
  ".", 
  ".", 
  ".", 
  ".", 
  ".", 
  ".", 
  ".", 
  ".", 
  ".", 
  ".", 
  ".", 
  ".", 
  ".", 
  ".", 
  ".", 
  ".", 
  ".", 
  ".", 
  ".", 
  ".", 
  ".", 
  ".", 
  ".", 
  ".", 
  ".", 
  ".", 
  ".", 
  ".", 
  ".", 
  ".", 
  ".", 
  ".", 
  ".", 
  ".", 
  ".", 
  ".", 
  ".", 
  ".", 
  ".", 
  ".", 
  ".", 
  ".", 
  ".", 
  ".", 
  ".", 
  ".", 
  ".", 
  ".", 
  ".", 
  ".", 
  ".", 
  ".", 
  ".", 
  ".", 
  ".", 
  ".", 
  ".", 
  ".", 
  ".10 \nEarly Warning Data Systems .", 
  ".", 
  ".", 
  ".", 
  ".", 
  ".", 
  ".", 
  ".", 
  ".", 
  ".", 
  ".", 
  ".", 
  ".", 
  ".", 
  ".", 
  ".", 
  ".", 
  ".", 
  ".", 
  ".", 
  ".", 
  ".", 
  ".", 
  ".", 
  ".", 
  ".", 
  ".", 
  ".", 
  ".", 
  ".", 
  ".", 
  ".", 
  ".", 
  ".", 
  ".", 
  ".", 
  ".", 
  ".", 
  ".", 
  ".", 
  ".", 
  ".", 
  ".", 
  ".", 
  ".", 
  ".", 
  ".", 
  ".", 
  ".", 
  ".", 
  ".", 
  ".", 
  ".", 
  ".", 
  ".", 
  ".", 
  ".", 
  ".", 
  ".", 
  ".", 
  ".", 
  ".", 
  ".", 
  ".", 
  ".10 \nBuilding Early Warning Systems  .", 
  ".", 
  ".", 
  ".", 
  ".", 
  ".", 
  ".", 
  ".", 
  ".", 
  ".", 
  ".", 
  ".", 
  ".", 
  ".", 
  ".", 
  ".", 
  ".", 
  ".", 
  ".", 
  ".", 
  ".", 
  ".", 
  ".", 
  ".", 
  ".", 
  ".", 
  ".", 
  ".", 
  ".", 
  ".", 
  ".", 
  ".", 
  ".", 
  ".", 
  ".", 
  ".", 
  ".", 
  ".", 
  ".", 
  ".", 
  ".", 
  ".", 
  ".", 
  ".", 
  ".", 
  ".", 
  ".", 
  ".", 
  ".", 
  ".", 
  ".", 
  ".", 
  ".", 
  ".", 
  ".", 
  ".", 
  ".", 
  ".", 
  ".", 
  ".10 \nBest Practices  .", 
  ".", 
  ".", 
  ".", 
  ".", 
  ".", 
  ".", 
  ".", 
  ".", 
  ".", 
  ".", 
  ".", 
  ".", 
  ".", 
  ".", 
  ".", 
  ".", 
  ".", 
  ".", 
  ".", 
  ".", 
  ".", 
  ".", 
  ".", 
  ".", 
  ".", 
  ".", 
  ".", 
  ".", 
  ".", 
  ".", 
  ".", 
  ".", 
  ".", 
  ".", 
  ".", 
  ".", 
  ".", 
  ".", 
  ".", 
  ".", 
  ".", 
  ".", 
  ".", 
  ".", 
  ".", 
  ".", 
  ".", 
  ".", 
  ".", 
  ".", 
  ".", 
  ".", 
  ".", 
  ".", 
  ".", 
  ".", 
  ".", 
  ".", 
  ".", 
  ".", 
  ".", 
  ".", 
  ".", 
  ".", 
  ".", 
  ".", 
  ".", 
  ".", 
  ".", 
  ".", 
  ".", 
  ".", 
  ".", 
  ".", 
  ".11 \nSchool Climate  .", 
  ".", 
  ".", 
  ".", 
  ".", 
  ".", 
  ".", 
  ".", 
  ".", 
  ".", 
  ".", 
  ".", 
  ".", 
  ".", 
  ".", 
  ".", 
  ".", 
  ".", 
  ".", 
  ".", 
  ".", 
  ".", 
  ".", 
  ".", 
  ".", 
  ".", 
  ".", 
  ".", 
  ".", 
  ".", 
  ".", 
  ".", 
  ".", 
  ".", 
  ".", 
  ".", 
  ".", 
  ".", 
  ".", 
  ".", 
  ".", 
  ".", 
  ".", 
  ".", 
  ".", 
  ".", 
  ".", 
  ".", 
  ".", 
  ".", 
  ".", 
  ".", 
  ".", 
  ".", 
  ".", 
  ".", 
  ".", 
  ".", 
  ".", 
  ".", 
  ".", 
  ".", 
  ".", 
  ".", 
  ".", 
  ".", 
  ".", 
  ".", 
  ".", 
  ".", 
  ".", 
  ".", 
  ".11 \nRigor  .", 
  ".", 
  ".", 
  ".", 
  ".", 
  ".", 
  ".", 
  ".", 
  ".", 
  ".", 
  ".", 
  ".", 
  ".", 
  ".", 
  ".", 
  ".", 
  ".", 
  ".", 
  ".", 
  ".", 
  ".", 
  ".", 
  ".", 
  ".", 
  ".", 
  ".", 
  ".", 
  ".", 
  ".", 
  ".", 
  ".", 
  ".", 
  ".", 
  ".", 
  ".", 
  ".", 
  ".", 
  ".", 
  ".", 
  ".", 
  ".", 
  ".", 
  ".", 
  ".", 
  ".", 
  ".", 
  ".", 
  ".", 
  ".", 
  ".", 
  ".", 
  ".", 
  ".", 
  ".", 
  ".", 
  ".", 
  ".", 
  ".", 
  ".", 
  ".", 
  ".", 
  ".", 
  ".", 
  ".", 
  ".", 
  ".", 
  ".", 
  ".", 
  ".", 
  ".", 
  ".", 
  ".", 
  ".", 
  ".", 
  ".", 
  ".", 
  ".", 
  ".", 
  ".", 
  ".", 
  ".11 \nEffective Teachers .", 
  ".", 
  ".", 
  ".", 
  ".", 
  ".", 
  ".", 
  ".", 
  ".", 
  ".", 
  ".", 
  ".", 
  ".", 
  ".", 
  ".", 
  ".", 
  ".", 
  ".", 
  ".", 
  ".", 
  ".", 
  ".", 
  ".", 
  ".", 
  ".", 
  ".", 
  ".", 
  ".", 
  ".", 
  ".", 
  ".", 
  ".", 
  ".", 
  ".", 
  ".", 
  ".", 
  ".", 
  ".", 
  ".", 
  ".", 
  ".", 
  ".", 
  ".", 
  ".", 
  ".", 
  ".", 
  ".", 
  ".", 
  ".", 
  ".", 
  ".", 
  ".", 
  ".", 
  ".", 
  ".", 
  ".", 
  ".", 
  ".", 
  ".", 
  ".", 
  ".", 
  ".", 
  ".", 
  ".", 
  ".", 
  ".", 
  ".", 
  ".", 
  ".", 
  ".", 
  ".", 
  ".12 \nExtended Learning Time  .", 
  ".", 
  ".", 
  ".", 
  ".", 
  ".", 
  ".", 
  ".", 
  ".", 
  ".", 
  ".", 
  ".", 
  ".", 
  ".", 
  ".", 
  ".", 
  ".", 
  ".", 
  ".", 
  ".", 
  ".", 
  ".", 
  ".", 
  ".", 
  ".", 
  ".", 
  ".", 
  ".", 
  ".", 
  ".", 
  ".", 
  ".", 
  ".", 
  ".", 
  ".", 
  ".", 
  ".", 
  ".", 
  ".", 
  ".", 
  ".", 
  ".", 
  ".", 
  ".", 
  ".", 
  ".", 
  ".", 
  ".", 
  ".", 
  ".", 
  ".", 
  ".", 
  ".", 
  ".", 
  ".", 
  ".", 
  ".", 
  ".", 
  ".", 
  ".", 
  ".", 
  ".", 
  ".", 
  ".", 
  ".", 
  ".12 \n\n\fbetterhighschools.org \nDropout Prevention Programs  .", 
  ".", 
  ".", 
  ".", 
  ".", 
  ".", 
  ".", 
  ".", 
  ".", 
  ".", 
  ".", 
  ".", 
  ".", 
  ".", 
  ".", 
  ".", 
  ".", 
  ".", 
  ".", 
  ".", 
  ".", 
  ".", 
  ".", 
  ".", 
  ".", 
  ".", 
  ".", 
  ".", 
  ".", 
  ".", 
  ".", 
  ".", 
  ".", 
  ".", 
  ".", 
  ".", 
  ".", 
  ".", 
  ".", 
  ".", 
  ".", 
  ".", 
  ".", 
  ".", 
  ".", 
  ".", 
  ".", 
  ".", 
  ".", 
  ".", 
  ".", 
  ".", 
  ".", 
  ".", 
  ".", 
  ".", 
  ".", 
  ".", 
  ".", 
  ".", 
  ".", 
  ".", 
  ".12 \nSome Highlighted Features of Research-based Dropout-Prevention Programs  .", 
  ".", 
  ".", 
  ".", 
  ".", 
  ".", 
  ".", 
  ".", 
  ".", 
  ".", 
  ".", 
  ".", 
  ".", 
  ".", 
  ".", 
  ".", 
  ".", 
  ".", 
  ".", 
  ".", 
  ".", 
  ".", 
  ".", 
  ".", 
  ".", 
  ".12 \nAdditional Supports: Wrap-around Services .", 
  ".", 
  ".", 
  ".", 
  ".", 
  ".", 
  ".", 
  ".", 
  ".", 
  ".", 
  ".", 
  ".", 
  ".", 
  ".", 
  ".", 
  ".", 
  ".", 
  ".", 
  ".", 
  ".", 
  ".", 
  ".", 
  ".", 
  ".", 
  ".", 
  ".", 
  ".", 
  ".", 
  ".", 
  ".", 
  ".", 
  ".", 
  ".", 
  ".", 
  ".", 
  ".", 
  ".", 
  ".", 
  ".", 
  ".", 
  ".", 
  ".", 
  ".", 
  ".", 
  ".", 
  ".", 
  ".", 
  ".", 
  ".", 
  ".", 
  ".", 
  ".15 \nConclusion  .", 
  ".", 
  ".", 
  ".", 
  ".", 
  ".", 
  ".", 
  ".", 
  ".", 
  ".", 
  ".", 
  ".", 
  ".", 
  ".", 
  ".", 
  ".", 
  ".", 
  ".", 
  ".", 
  ".", 
  ".", 
  ".", 
  ".", 
  ".", 
  ".", 
  ".", 
  ".", 
  ".", 
  ".", 
  ".", 
  ".", 
  ".", 
  ".", 
  ".", 
  ".", 
  ".", 
  ".", 
  ".", 
  ".", 
  ".", 
  ".", 
  ".", 
  ".", 
  ".", 
  ".", 
  ".", 
  ".", 
  ".", 
  ".", 
  ".", 
  ".", 
  ".", 
  ".", 
  ".", 
  ".", 
  ".", 
  ".", 
  ".", 
  ".", 
  ".", 
  ".", 
  ".", 
  ".", 
  ".", 
  ".", 
  ".", 
  ".", 
  ".", 
  ".", 
  ".", 
  ".", 
  ".", 
  ".", 
  ".", 
  ".", 
  ".", 
  ".", 
  ".15 \n\nTable 3 \u2013 Key Characteristics of Research-based High School Improvement Programs  .", 
  ".", 
  ".", 
  ".", 
  ".", 
  ".", 
  ".", 
  ".", 
  ".", 
  ".", 
  ".", 
  ".", 
  ".", 
  ".", 
  ".", 
  ".", 
  ".", 
  ".", 
  ".16 \nTable 4 \u2013 Academic Indicators of High School Dropouts  .", 
  ".", 
  ".", 
  ".", 
  ".", 
  ".", 
  ".", 
  ".", 
  ".", 
  ".", 
  ".", 
  ".", 
  ".", 
  ".", 
  ".", 
  ".", 
  ".", 
  ".", 
  ".", 
  ".", 
  ".", 
  ".", 
  ".", 
  ".", 
  ".", 
  ".", 
  ".", 
  ".", 
  ".", 
  ".", 
  ".", 
  ".", 
  ".", 
  ".", 
  ".", 
  ".", 
  ".", 
  ".", 
  ".", 
  ".", 
  ".18 \nTable 5 \u2013 Social Indicators of High School Dropouts  .", 
  ".", 
  ".", 
  ".", 
  ".", 
  ".", 
  ".", 
  ".", 
  ".", 
  ".", 
  ".", 
  ".", 
  ".", 
  ".", 
  ".", 
  ".", 
  ".", 
  ".", 
  ".", 
  ".", 
  ".", 
  ".", 
  ".", 
  ".", 
  ".", 
  ".", 
  ".", 
  ".", 
  ".", 
  ".", 
  ".", 
  ".", 
  ".", 
  ".", 
  ".", 
  ".", 
  ".", 
  ".", 
  ".", 
  ".", 
  ".", 
  ".", 
  ".", 
  ".22 \nDropout Indicator"
 ]
}