{
 "document_id": "13390214450776085999", 
 "sentences": [
  "Journal of Educational PsychologyExploring a Three-Level Model of Calibration AccuracyGregory Schraw, Fred Kuch, Antonio P. Gutierrez, and Aaron S. RichmondOnline First Publication, April 21, 2014. http://dx.doi.org/10.1037/a0036653CITATIONSchraw, G., Kuch, F., Gutierrez, A. P., & Richmond, A. S. (2014, April 21).", 
  "Exploring aThree-Level Model of Calibration Accuracy.", 
  "Journal of Educational Psychology.", 
  "Advanceonline publication.", 
  "http://dx.doi.org/10.1037/a0036653\fExploringaThree-LevelModelofCalibrationAccuracyGregorySchraw,FredKuch,andAntonioP.GutierrezUniversityofNevada,LasVegasAaronS.RichmondMetropolitanStateUniversityofDenverWecompared5differentstatistics(i.e.,Gindex,gamma,d=,sensitivity,specificity)usedinthesocialsciencesandmedicaldiagnosisliteraturestoassesscalibrationaccuracyinordertoexaminetherelationshipamongthemandtoexplorewhetheronestatisticprovidedabestfittinggeneralmeasureofaccuracy.Collegeundergraduatescompletedseparate15-itemvocabulary,probability,andpaperfoldingtestsbyansweringatestitemandindicatingwhetherornottheitemwasansweredcorrectly.Wecomputedscoresforeachofthe5calibrationstatisticsusingthesamerawscoresforeachtestandcompared3theoreticalmodels,including1-,2-,and3-factorconfirmatoryfactoranalysissolutions.Resultssupportedthe3-factormodeloverthe1-factorand2-factormodelswithrespecttogoodness-of-fitindicesandleastnumberofestimatedparameters.The3-factorsolutionwasconsistentwiththehypothesisthatthe5individualcalibrationscoresarerelatedto2differenttypesof2nd-orderprocesses(i.e.,accuracyofjudgmentsaboutcorrectandincorrectperformance),asmeasuredbysensitivityandspecificitythataresubsumedunderageneral3rd-orderdiscriminationprocessasmeasuredbyd=.Implicationsforatheoryofcalibrationaccuracyandmeasurementpracticewerediscussed.Keywords:metacognition,measurement,calibrationaccuracyCalibrationisatermusedinthestudyofmetacognitivemon-itoringthatdescribestherelationshipbetweentaskperformanceandajudgmentaboutthatperformance(Boekaerts&Rozendaal,2010;Keren,1991).Theprototypicalformatincalibrationstudiesistoansweratestitemandjudgewhetherone\u2019sansweriscorrectornot(seeTable1).Outcomescoresarecomputedonthebasisofdifferentcomputationalformulasthatusefrequenciesfromtwoormoreofthefourmutuallyexclusivecellsina2\u2afb2datamatrixinTable1.Cellacorrespondstocorrectperformanceandjudgments,cellbcorrespondstoincorrectperformancethatisjudgedtobecorrect,cellccorrespondstocorrectperformancethatisjudgedtobeincorrect,andcelldcorrespondstoincorrectperformancethatisjudgedtobeincorrect.Concordantdecisionsinwhichcorrectperformanceisjudgedascorrectandincorrectperformanceisjudgedasincorrectleadtohigh-calibrationaccuracy,whereasdiscordantdecisionsinwhichcorrectperformanceisjudgedasincorrectandincorrectperformanceisjudgedascorrectleadtolow-calibrationaccuracy(Agresti&Franklin,2007;Mayer,2010).ManydisciplinesusethesamegeneralframeworktoassesscalibrationaccuracybasedondatainTable1,wherecellacorre-spondstoatruepositive,cellbcorrespondstoafalsepositive,cellccorrespondstoafalsenegative,andcelldcorrespondstoatruenegative(Agresti&Franklin,2007;Schwartz&Bergus,2008).Differentstatisticalmeasurescombinethefourtypesofinforma-tionincellsathroughdindifferentwaystoobtainanestimateofcalibrationaccuracyacrossasetoftestitems.However,itisunclearcurrentlywhetherthedifferentstatisticsusedtoassesscalibrationaccuracyhavethesamepsychologicalinterpretationeventhoughtheyarecomputedfromsomecombinationofthesamerawdata.Thisisbecausethepsychologicalinterpretationisassignedtotheformularatherthanthescorestheformulauses.ItalsoisunclearwhetheronescoreormultiplescoresareneededtoexplainallofthevariationincalibrationperformanceinTable1.Inthecurrentstudy,wetesttheassumptionsthatdifferentstatisticstapdifferentfacetsofacomplexcalibrationprocess,butarerelatedthroughamultilevelmodelofcalibrationaccuracy.Wecomparedfivestatisticalmeasuresusedwidelyinpsycho-logicalanddiagnosticsettingsthatareappropriatefordiscretefrequencydatainTable1,includingtheGindex,gamma,andd=,sensitivityandspecificity.FormulasshowninTable2aredis-cussedindetailinAgrestiandFranklin(2007);CheethamandHazel(1969);MacmillanandCreelman(2005);PaganoandGau-vreau(2000);Romesburg(1984);Schraw(2009);Warnick,Bracken,andKasl(2008);andWarrens(2008).Weusedthesemeasuresfortworeasons\u2014onewaseachmeasure\u2019stheoreticalprominencewithinitsrespectivecalibrationliteratureandasecondwasempiricalfindingsdiscussedbelowthatreportacorrelationgreaterthan.99betweenstatisticsusedinthisstudyandotherpossiblenonparametricstatisticssuchasbetweenkappa,phi,andtheoddsratio(Schraw,Kuch,&Gutierrez,2013).ThesefivemeasuresinTable2mayassessdifferentconstructs(i.e.,dimensionsofthecalibrationprocess)referredtoasabsolute,relative,anddiagnosticaccuracy.Absoluteaccuracy(e.g.,Gin-dex)assessesthedifferencebetweenjudgmentsandperformanceGregorySchraw,FredKuch,andAntonioP.Gutierrez,DepartmentofEducationalPsychology,UniversityofNevada,LasVegas;AaronS.Richmond,DepartmentofPsychology,MetropolitanStateUniversityofDenver.CorrespondenceconcerningthisarticleshouldbeaddressedtoGregorySchraw,DepartmentofEducationalPsychology,UniversityofNevada,LasVegas,Box453003,4505MarylandParkway,LasVegas,NV89154-3003.E-mail:gschraw@unlv.nevada.eduThisdocumentiscopyrightedbytheAmericanPsychologicalAssociationoroneofitsalliedpublishers.Thisarticleisintendedsolelyforthepersonaluseoftheindividualuserandisnottobedisseminatedbroadly.JournalofEducationalPsychology\u00a92014AmericanPsychologicalAssociation2014,Vol.106,No.3,0000022-0663/14/$12.00DOI:10.1037/a00366531\fandjudgments,whereasrelativeaccuracy(e.g.,gammaord=)assessesthedegreetowhichjudgmentsdifferentiateperformance(Serra&Metcalfe,2009).Inthecontextofhumancalibration,diagnosticaccuracy(e.g.,sensitivityorspecificity)assessestheamountofagreementbetweenjudgmentsandperformance(vanStralenetal.,2009).Acomparisonofthesemeasuresenablesustodeterminehowmanylatentdimensionsofcalibrationtheyassess,whethersomemeasuresexplainmoreuniquevariationinthedatathanothers,andwhethertheuseofmultiplemeasuresprovidesamorecompleteinterpretationofthedataassuggestedbyavarietyofauthors(e.g.,Boekaerts&Rozendaal,2010;Keren,1991;Spellman,Bloomfield,&Bjork,2008).Althoughextensionsofthe2\u2afb2formatshowninTable1areusedforgammaandd=,wefocusedonthe2\u2afb2caseinthisstudytocomparegammaandd=withtheGindex,sensitivity,andspecificity,whichdonothave2\u2afbnextensions.Thecurrentresearchextendspreviouspsychologicalstudiesthatcomparedhowdifferenttypesofinterventionsorpersonvariablessuchastypeoftext(Maki,Shields,Wheeler,&Zacchilli,2005),testdifficulty(Nietfeldetal.,2006),anxiety(Meisner&Maki,2007),delayedjudgments(VanOverschelde&Nelson,2005),age(Connor,Dunlosky,&Hertzog,1997),globalversusitem-leveljudgments(Connoretal.,1997),traumaticbraininjury(Kennedy,2001),andjudgmentsofaffectivecalibration(Mathieu&Gosling,2012)affectmeasuresofabsoluteversusrelativeaccuracy.Inaddition,avarietyofstudiesinotherdisciplinescomparedthatuseofabsoluteversusrelativeaccuracymeasuresinurinaryandcor-onarytests,photonabsorption,biomechanicalinertia,andthelike.Thesestudiesgenerallysuggestthatinterventionshavedifferenteffectsonabsoluteandrelativemeasures.TheoreticalFrameworkInpreviousresearch,muchhasbeendebatedabouttheadvan-tagesanddisadvantagesofthestatisticsinTable2assuitable,orevenoptimal,measuresofcalibration.Differentmeasureshaveuniquecomputationalstrengthsandweaknesses,aswellasdiffer-entinterpretationsoftheunderlyingconstructthatisassessedbyeachmeasure(Benjamin&Diaz,2008;Masson&Rotello,2009;Mayer,2010;Nietfeld,Enders,&Schraw,2006;Romesburg,1984;Spellmanetal.,2008;Warrens,2008).Thechoiceofwhichmeasuretouseasthegoldstandardincalibrationresearchhasbeenguidedinpartbyassumptionsaboutthenatureofthecalibrationprocessratherthanbyanempiricalcomparisonofthemeasures.Historically,researchinpsychologyhasbeeninfluencedstronglybytheNelsonandNarens(1990)modelofmetacognition,whichassumesthatmonitoringlinksinformationattheobjectleveltoinformationatahigher,meta-level.Informationgainedbyaccuratemonitoringcanbeusedatthemetaleveltocontrolsubsequentperformance.Nelsonandcolleagues(Leonesio&Nelson,1990;Nelson,1984;Nelson&Narens,1990)arguedthatthegammastatisticdevelopedbyGood-manandKruskal(1954)providedthesinglebestmeasureofaccuracybecauseitwastheonlystatisticthatsatisfiedsixevalu-ativecriteriaproposedbyNelson(1984).Henceforth,werefertothisframeworkastheone-factormodelbecauseitassumesthatthegammastatisticisfreeofcomputationalshortcomingsandthere-foreexplainsmorevarianceinthecalibrationprocessthanotherstatisticsinTable2.Analternativeframeworkisusedroutinelyinmedicalandclinicaldiagnosisinwhichtwostatisticsareofinterest(Feuerman&Miller,2008;Mayer,2010;Warnicketal.,2008).Inthisscenario,sensitivityassessesthedegreetowhichatestaccuratelydetectsthepresenceofdisease,whereasspecificityassessesthedegreetowhichatestaccuratelydetectstheabsenceofdisease.Incalibrationresearch,sensitivitycorrespondstotheaccuracyofjudgmentsaboutcorrectperformance,whereasspecificitycorre-spondstotheaccuracyofjudgmentsaboutincorrectperformance.Thediagnosticaccuracymodelsuggeststhatjudgmentsaboutcorrectversusincorrectperformanceconstitutetwoseparateas-pectsofthecalibrationprocessthatmaybeindependentofoneanotherstatistically.Henceforth,werefertothisasthetwo-factormodelinwhichtheaccuracyofjudgmentsaboutperformancemaydifferduetotheuseofdifferenttypesofheuristicsusedtomakethejudgment.Specifically,judgmentsofcorrectperformancemaybebasedonfeelingofknowingfrommemory,whereasjudgmentsTable2SummaryofCalibrationStatisticsfora2\u2afb2ContingencyTableStatisticFormulaInterpretationofformulaSensitivitya/(a\u2af9c)ProportionofyesjudgmentswhenitemisansweredcorrectlySpecificityd/(b\u2af9d)ProportionofnojudgmentswhenitemisansweredincorrectlyGindex(a\u2af9d)\u2afa(b\u2af9c)/(a\u2af9b\u2af9c\u2af9d)Differencebetweentheproportionofconcordant(cellsaandd)anddiscordant(cellsbandc)judgmentsGamma(ad\u2afabc)/(ad\u2af9bc)Differencebetweenproductofconcordantanddiscordantjudgmentsdividedbytheirsumd=z(a/(a\u2af9c))\u2afaz(b/(b\u2af9d))Differencebetweenstandardizedhitrate(a/(a\u2af9c))andfalsealarm(b/(b\u2af9d))rateTable1A2\u2afb2Performance-JudgmentDataArrayforMonitoringAccuracyPerformance    RowCorrect                         IncorrectMarginalsMonitoring Judgment Correct                                                 a + b Incorrect                                                c + d Column Marginals              a+cb + d            a + b + c + d              a     true positive                b       false positive                c    false negative                d      true negative  ThisdocumentiscopyrightedbytheAmericanPsychologicalAssociationoroneofitsalliedpublishers.Thisarticleisintendedsolelyforthepersonaluseoftheindividualuserandisnottobedisseminatedbroadly.2SCHRAW,KUCH,GUTIERREZ,ANDRICHMOND\fofincorrectperformancemaybebasedontheillusionofknowing,includingfailuretomonitormemoryormistakingtheaccuracyofcontentinmemory(Serra&Metcalfe,2009).SerraandMetcalfe(2009,pp.281\u2013289)describeavarietyofjudgmentheuristicsthatmayleadtodifferenttypesoferrorsandcalibrationprocesses.Ofspecialimportancetothecurrentstudyistheobservationthatresearchershavetendedtoviewdifferentstatisticalmeasuresofcalibrationasmutuallyexclusive.Forexample,Nelson(1984)arguedthatgammawassuperiortoothermeasuresbasedoninherentmeasurementproperties.BenjaminandDiaz(2008)andMacmillanandCreelman(2005)madeacomparableargumentforthesuperiorityofd=,whereasSchraw(1995)arguedforthesupe-riorityoftheGindex.Itiscrucialtonotethatnoneoftheseresearchersconsideredamultilevelmodelinwhichsomecalibra-tionmeasures(andassociatedlatentcalibrationprocesses)maybesubsumedbyotherhigherlevelcalibrationmeasures.Incontrast,wearguethatcalibrationcanbemodeledusingthethree-levelmodelshowninFigure1inwhichspecificcognitivetestssuchasvocabularyknowledge,probabilitycalculation,andpaperfoldingaresubsumedunderseparateprocessesrelatedtodiagnosticaccu-racyofcorrectandincorrectperformance(e.g.,sensitivityandspecificity),whicharesubsumedunderageneralcalibrationpro-cess(e.g.,gammaord=).RelationshipsAmongtheFiveStatisticsPreviousresearchhasexaminedtherelationsamongsubsetsofthefivemeasuresinTable2todeterminetheircomputationalinterrelations.Forexample,Warrens(2008)compared10mea-sureshereferredtoasa\u201cfamilyofsimilaritycoefficients.\u201dEachofthesemeasureswasrelatedtoothermeasuresinthefamilythroughalineartransformation.Otherstudieshaveprovidedextensivereviewsofdifferentmeasuresandattemptedtodeveloptypologiesonthebasisofeitherformulaicorinterpretativesimilarities(Cheetham&Hazel,1969;Feuerman&Miller,2008;Romesburg,1984;Simon,1978).However,innoneofthesestudieswasastatisticalcomparisonamongthesemeasuresconductedonthebasisofacommonsetofdata;therefore,itisunknownhowscoresarerelatedtooneanotherorhowmuchuniquevarianceisex-plainedbyeachscore.OnewouldexpectthefivemeasuresinTable2tobecorrelatedwitheachotherbecauseallofthemarebasedontheinformationincellsathroughd.Overandabovebeingcomputedfromthesamefourscores,sensitivityandspecificitybearanespeciallycloserelationshipwithd=,whichcanbethoughtofasthezscoreofsensitivityminusthezscoreofthecomplementofspecificity(i.e.,b/(b\u2af9d)\u2afd1\u2013specificity).Sensitivityisequivalenttothehitrateinsignaldetectiontheory,whereasspecificityisthecom-plementofthefalse-alarmrate(Benjamin&Diaz2008;Kadlec,1999;Macmillan&Creelman,2005).Wealsoexpectedd=tobestronglycorrelatedtogammaandtheGindexbasedonpreviousresearch(Schraw,Kuch,&Gutierrez,2013).ThefactthatsomeofthescoresinTable2maybecorrelateddoesnotmeantheymeasurethesamepsychologicalconstruct.Consistentwiththediagnosticaccuracyliterature(Schwartz&Bergus,2008;Warnicketal.,2008),wearguethatsensitivityandspecificitymeasureconstructsthatcorrespondtotwodifferentfacetsofthecalibrationprocesscanbeinterpretedascalibrationofjudgmentsofcorrectandincorrectperformance,respectively.Inturn,d=measuresathirdconstructthatisbasedonthedifferencebetweenthecalibrationprocessesmeasuredbysensitivityandthecomplementofspecificitythatcanbeinterpretedasthestandard-izeddifferencebetweentheaccuracyofthesetwoprocesses.Inaddition,theGindexprovidesameasureofabsoluteaccuracy,whereasgammaprovidesameasureofrelativeaccuracy,althoughitalsoisunclearhowtheyarerelatedtoothermeasureswithrespecttoexplainingcommonanduniquevariance.PreviousResearchThecurrentstudyextendedastudyreportedbySchrawetal.,(2013),inwhichtheauthorscomparedscoresonthefivemeasuresinTable2basedon10,000computer-generatedcasesusingMonteCarlomethodsthatsimulatedmoderatelyeasy(i.e.,62.5%ofcorrectjudgmentsofcorrectperformance)anddifficult(i.e.,25%ofcorrectjudgmentsofcorrectperformance)testconditions.AsinglesetofrawscoreswasusedtocomputethefivestatisticaloutcomescoresinTable2.Schrawetal.(2013)usedfiveadditionalstatisticsthatarenotincludedherebecausetheywerecorrelated.99orhigherwithoneormoreofthestatisticsinTable2.Theseincludedameasureofabsoluteaccuracy(i.e.,thesimple-matchingcoefficient)andfourmeasuresofrelativeaccuracy(i.e.,Cohen\u2019skappa,oddsratio,phi,andSokaldistance).Confirmatoryfactoranalyses(CFAs)sup-portedatwo-factormodelinboththemoderateanddifficultconditionsbasedonsensitivityandspecificityscores,whichac-countedfor99%ofsamplevariance.Thesensitivityfactorex-plained70%ofsamplevariation,whereastheindependentspeci-ficityfactorexplainedanadditional29%ofvariation.ThecurrentstudydiffersfromSchrawetal.", 
  "(2013)inthreeimportantways.Onedifferenceistheuseofhumanratherthancomputer-generateddata.Humandataincludesjudgmenterrorsandbiasthatcomputer-simulateddatadonotinclude;therefore,therelationshipamongthefivemeasuresmaydifferinthissetting.Aseconddifferenceistheuseofthreedifferenttestsofcognitiveskillsratherthanscoresthatwerecomputergeneratedandnotlinkedtoaspecificcontentareaorcognitiveskill.Inthecurrentstudy,weusedseparatetestsofvocabularyknowledge,computa-tionofprobabilities,andpaperfolding.ThesetaskswereselectedtoincludethreecognitivetasksbasedontheRadexmodel(Mar-shalek,Lohman,&Snow,1983)thatshouldbeindependentandcorrelatednohigherthan.30.Identifyingacommonfactorstruc-Figure1.Athree-levelmodelofcalibrationaccuracy.ThisdocumentiscopyrightedbytheAmericanPsychologicalAssociationoroneofitsalliedpublishers.Thisarticleisintendedsolelyforthepersonaluseoftheindividualuserandisnottobedisseminatedbroadly.3CALIBRATIONMEASURES\ftureacrossthesethreeteststhatrelyondifferentcognitiveskillswouldprovidearobustevaluationofthemodelsdescribedbelow.AthirddifferenceisthatSchrawetal.(2013)testedasecond-orderfactorsolutionbasedonsensitivityandspecificitybutdidnotconsiderthepossibilityofthree-levelmodelsthathypothesizedathird-orderfactorthatsubsumedfirst-andsecond-orderfactors.Athree-levelmodelmaylinksensitivityandspecificitytoothermeasurestoprovideabetterunderstandingofhigherordercali-brationprocesses.ResearchQuestions,Hypotheses,andPredictionsInthecurrentstudy,weaddressedtwoquestionsaboutthefivemeasuresinTable2:1.Isthereevidenceforabestfittingthree-levelmodelacrossthethreetestsinwhichsomelatentconstructssubsumeotherlatentconstructs?2.Isthereapreferredmeasureorsetofmeasurestouseasindicesofcalibrationaccuracyateachofthehypothesizedlevelswithinthethree-levelmodel?Thesequestionsareimportantbecausetheyprovideadata-drivenbasisforselectingoneormorestatisticalmeasuresthatbestexplaintheresultsofcalibrationaccuracyusingTable1.Inaddi-tion,resultsbearontheassumptionsonemakesaboutthenumberoflatentprocessesusedincalibrationactivitiesaswellastherelationshipsbetweenprocesses.WeusedCFAtoassesstheunderlyingdimensionalityofthefivemeasures.TheNelsonandNarens(1990)modelofmetacog-nitionhasarguedthatgammaprovidesthesinglebestcalibrationscore;thus,thismodelhypothesizes(Hypothesis1)aone-factorsolutioninwhichgammahasthehighestloadingamongthefivemeasures(seeTable3).Inahierarchicalmodelingcontext,thevarianceexplainedbygammashouldsubsumethevarianceex-plainedbytheotherfourstatistics.Thediagnosticaccuracymodelhypothesizes(Hypothesis2)atwo-factorsolutioninwhichsensitivityandspecificityhavethehighestfactorloadings.SensitivityandspecificityarepredictedtobeuncorrelatedbecausetheyarecalculatedfromdifferentcellsinTable1andthereforecanbeshowntobecomputationallyinde-pendent.Specifically,sensitivityusesinformationfromcellsaandc,whereasspecificityusesinformationfromcellsbandd(Mayer,2010).Thismodelsuggeststhatsensitivityandspecificitycollec-tivelyexplain100%ofthesamplevarianceintheCFAsolutionandthattheremainingthreemeasurescanbeexplainedbythecombinationofsensitivityandspecificity.Thismodelalsotacitlyassumesthatthemonitoringprocessassociatedwithjudgingcor-rectperformanceisindependentofthemonitoringprocessasso-ciatedwithjudgingincorrectperformance.Wehypothesized(Hypothesis3)thatthethree-levelmodelinFigure1wouldprovidethebestfittingsolutionacrossthevocab-ulary,probabilities,andpaperfoldingtests.ConsistentwithSchrawetal.", 
  "(2013),thismodelsuggeststhatcalibrationaccuracycanbeexplainedbysensitivityandspecificityforeachofthethreetests.Sensitivityexplainsvariancerelatedtotheaccuracyofjudg-mentsofcorrectperformance,whereasspecificityexplainsvari-ancerelatedtotheaccuracyofjudgmentsofincorrectperfor-mance.Thesetwocalibrationprocessesmayreflectseparatemetacognitiveactivities.However,themodelalsopredictsalevel-threegeneralcalibrationfactorthatsubsumesboththesensitivityandspecificityfactorsatLevel2.Giventhatd=correspondstothedifferencebetweenzscoresforsensitivityandthecomplementofspecificity,weexpectedd=toprovidethebestfittinggeneralfactorscorebecauseittakesbothintoconsideration.Thismeasurecouldbeinterpretedasmeasuringageneralcalibrationskillbasedondiscriminationbetweenjudgmentsofcorrectandincorrectperfor-mance.Weviewthismodelasanalogoustofactor-analyticstudiesofhumanintelligencethatproposethattestsofcognitiveabilitysuchasvocabulary,mathematical,andspatialreasoningcanbesubsumedundercrystalizedandfluidabilities,whichinturncanbesubsumedunderageneralgfactor(Brody,1992;Carroll,1993;Cattell,1987).MethodParticipantsParticipantsincluded248collegeundergraduatesfromintroduc-torypsychology(n\u2afd158;92women,66men)andeducationalpsychology(n\u2afd90;65women,25men)classesattwourbanuniversities.Participantsreceived1-hrresearchcreditfortheirparticipationandwere18yearsofageorolder.Acomparisonofdifferencesbetweenthetwouniversitiesforeachofthe15derivedscores(i.e.,threetypesoftests\u2afbfivederivedscores)usingttestswithaBonferronicorrectionforerror(adjustedp\u2afd.01)revealednosignificantdifferencesbetweenthetwosamples(allps\u2c56.07).Ofthe248individualswhocompletedtheexperiment,67caseswerelostbyvirtueofhavingatleastonescorethatwasundefined,leaving181completecases(118women;63men).1Inthecurrentstudy,amissingvaluesanalysisinthe181-personsampleusingLittle\u2019smissingcompletelyatrandomchi-squaretest\u2014usedtoevaluatewhethermissingnesspatternsindataarebiasedduetosystematicdifferencesinmissingdatapatterns\u2014yieldednonsig-nificantresults(p\u2afd.26).Thissuggeststhatthelossof67casesdidnotbiasthecurrentresultsduetosystematicdifferencesinmissingdatapatterns.Nevertheless,wealsoreplicatedourmainconfirmatoryanalysisafteromittinggammascores,whichrecov-ered53ofthe67caseslostintheinitialanalysisforatotalof234cases.MaterialsThematerialsincludedthree15-itemteststhatassessedvocab-ularyknowledge,computationofsimpleprobabilities,andamen-talpaper-foldingtask.ThesetaskswereselectedonthebasisoftheRadexmodel(Marshaleketal.,1983),whichsuggeststhatvocab-ularyknowledgeandbasicmathematicalcomputationsassessun-correlatedcrystalizedabilities,whereaspaperfoldingassessesaseparatefluidability.Weexpectedthethreetestscorestobecorrelatednohigherthan.30,suggestingthatthetestsmeasured1Therewere744testsadministered(248participantscompletedthreetestseach).Ofthese,scorescouldnotbecalculatedfor102testsbecauseofazerointhedenominator,whichresultsfromcertaincombinationsofemptycellsinTable1.Gammaproducedanundefinedscore83times,sensitivityandtheGindexthreetimeseach,specificity13times,andtheGindexnone.Itshouldbenotedthatlossofdataduetoundefinedscoresiscommonforgammaintheresearchliterature(Agresti&Franklin,2007;Nietfeld,Enders,&Schraw,2006).ThisdocumentiscopyrightedbytheAmericanPsychologicalAssociationoroneofitsalliedpublishers.Thisarticleisintendedsolelyforthepersonaluseoftheindividualuserandisnottobedisseminatedbroadly.4SCHRAW,KUCH,GUTIERREZ,ANDRICHMOND\fthreemoreorlessseparatecognitiveabilities.WithrespecttotheCFAdescribedbelow,weassumedthataone-factorortwo-factorsolutionwouldfitthethreetestsonlyifthelatentcalibrationprocessesmeasuredbytheCFAwereapplicabletoavarietyofdisparatecognitiveabilities.AnexampleofeachtypeofquestionisshownintheAppendix.Thevocabularyandprobabilitiestestitemseachincludedfourplausibleoptions,onlyoneofwhichwascorrect.Thepaperfoldingtestitemsincludedfiveplausibleoptions,onlyoneofwhichwascorrect.Theauthorsdevelopedthevocabularyandprobabilitiestests,whereasthepaperfoldingitemsweretakenfromEkstrom,French,andHarman(1976).Apilotstudywasconductedwith25itemsforthevocabularyandprobabilitiestestsand20itemsfromthepaperfoldingtestusing25participantsfromthesamesubjectpool.Fifteenitemswereselectedfromeachtesttodevelopthreeexperimentaltests.Themeansandstandarddeviationsforthevocabulary,probabilities,andpaperfoldingtestswere9.10and3.01,9.64and3.21,and9.62and3.31,respectively,whichcorrespondedto60%,64%,and64%correctresponsesforthethreetests.Coefficientalphaforeachtestwas.73,.79,and.81,respec-tively.ProcedureThethree15-itemmultiple-choicetestswereadministeredonlineinadesignatedcomputerlabinwhicharesearcherwaspresentatalltimes.Participantsworkedaloneonthecomputerandwerenotallowedtousescratchpaperorcalculators.Generalinstructionswerepresentedfirst,followedbybriefinstructionsforeachofthethreetestsimmediatelybeforethetestbegan.Withinthe15-itemtestblockforeachtest,onlyoneitemanditspossiblesolutionsappearedonthescreenpereachbarpress.Afterchoosingaresponsetoanitem,theparticipantindicatedwhethertheirresponsewascorrect(i.e.,yesorno).Individualswereinformedtheywouldhavenomorethan70stoselecttheirresponseforeachitem.Thisconstraintwasimposedtomakesureparticipantsdidnotspendunduetimeanalyzingresponsesandtoprovideeachexamineewithapprox-imatelythesameamountoftimetoanswertestitems.Fewerthan10itemresponseswerelostasaresultofthetimecon-straint.Inthesecases,scoreswerecomputedon14ratherthan15items.Responsestotestitemsandconfidencepredictionswerestoredautomatically.ResultsOverviewofDataAnalysisWeconductedseveralanalysesofthedata,includingmeansandstandarddeviationsforeachvariable,correlationsbetweenvari-ables,andaseriesofstandardCFAusingEQS6.1(Bentler,2005).IntheCFAanalyses,webeganwiththemostparsimoniousmodel(i.e.,fewestestimatedparameters)andaddedparameterstospecifyincreasinglymorecomplexmodels.Wethencomparedthethreenestedmodelsusingthe\u232c\u24392testtoascertainwhichmodelpro-videdthebestfittothedata.Thistestusesthedifferencein\u24392anddegreesoffreedom(i.e.,numberofestimatedparameters)betweenmoreparsimoniousmodelsandincreasinglymorecomplexmod-els,alwayspreferringmodelsthataremoreparsimonious.How-ever,ifmorecomplexmodelsimprovefitbyloweringresidualvariance,thesemodelsshouldberetainedinsteadofmoreparsi-moniousmodels(Kline,2005).Weusedthemaximumlikelihoodnormaldistributionnonnormedfitindex(NNFI),theincrementalfitindex(IFI),andthecomparativefitindex(CFI)asthegoodness-of-fitindicesandthestandardizedroot-mean-squareresidual(SRMR)andtheroot-mean-squareerrorofapproximation(RMSEA)andits90%confidenceinterval(CI90%)asourmetricsforassessinghowwellthemodelsapproximatedpopula-tionparameters.Regardingthegoodness-of-fitindices,values\u2b0e.90indicatethatthemodelunderinvestigationfitsthedatawell,withvalues\u2c56.95suggestingexcellentfit.Withrespecttotheresidualstatistics,values\u2b0d.11fortheSRMRand\u2b0d.08fortheRMSEAsuggestthatthemodelestimatespopulationparametersreasonablywell(Byrne,2006;Kline,2005).Priortodataanalysis,dataweresubmittedtoscreeningandas-sumptiontestingprocedures.Datawereevaluatedforunivariatenor-malityusingskewnessandkurtosisvaluesandhistogramswithnor-malcurveoverlay(Tabachnick&Fidell,2011)aswellasmultivariatenormalityusingMardia\u2019snormalizedestimate(Bentler,2005).Allofthevariablesunderstudyapproximatedanormaldistribution.Datawerefurtherscreenedforunivariateoutliersusingbox-and-whiskerplotsandmultivariateoutliersusingMahalanobisdistance(Tabach-nick&Fidell,2011).Nooutliersthatwouldotherwiseunderminethetrustworthinessofthedataweredetected.Moreover,nomulticol-linearitywasfoundinthedatausingmulticollinearityandsingularitytestingprocedures.Kline(2005)positedthat,\u201cAspecialstrengthofSEMisthatitoffersmuchflexibilityformodelingerrorvariancesandcovariancesinrepeatedmeasuresdesigns\u201d(p.23),andhence,treatingauto-correlationindependentdatastructures.Thus,weaccountedforautocorrelationinthedatabycorrelatingtheresidualsofthemanifestTable3SummaryoftheThreeModelsandPredictionsModelPredictedfactorsRelationshipamongfactorsExplanationModel1:NelsonandNarens(1990)1UnitaryfactorPredictsonefactorinwhichgammahashighestloading.Model2:Diagnosticaccuracy2UncorrelatedfactorsPredictstwofactorsinwhichsensitivityandspecificityarestatisticallyuncorrelatedandhavehighestloadings.Model3:Three-level3IntercorrelatedfactorsPredictstwosecond-orderfactorsbasedonsensitivityandspecificity,whichareexplainedbyasinglethird-ordergeneralcalibrationfactorbasedondiscrimination.ThisdocumentiscopyrightedbytheAmericanPsychologicalAssociationoroneofitsalliedpublishers.Thisarticleisintendedsolelyforthepersonaluseoftheindividualuserandisnottobedisseminatedbroadly.5CALIBRATIONMEASURES\fandlatentvariables,asrecommendedbyKlinefordatathataredependent.DescriptiveDataTable4showsmeansandstandarddeviationsforeachofthefivecalibrationscoresforeachofthethreetypesoftests.Wedidnotcomparemeansusingstatisticaltestsbecausethespecificityandsensitivityscoreswereona0to1scale,theGindexandgammascoreswereona\u2afa1to1scale,andthed=scoreswereonascalefromminustoplusinfinity.CorrelationsWeconductedseparatecorrelationanalysesforeachofthethreetestsofthefrequenciesineachofthefourcellsofthe2\u2afb2calibrationmatrixwiththefiveoutcomescores.Wealsocon-ductedacorrelationanalysisbetweentherawscoresinthefourcellsinthe2\u2afb2matrixforallthreetests.Tables5,6,and7showthecorrelationsbetweenthefivecalibrationscoresandtherawscoresforcellsathroughdforthevocabulary,probabilities,andpaperfoldingtests,respec-tively.Fourpatternsamongthesecorrelationswereofspecialinterest.Onewasthatsensitivityandspecificitytendedtobeuncorrelatedwithnonsignificantvaluesinthevocabularyandpaperfoldingtestsandavalueof\u2afa.27intheprobabilitiestest.Thisfindingwasconsistentwiththeassumptionthatspecificityandspecificitymeasuretwoindependentcalibrationphenom-ena(Feuerman&Miller,2008;Warnicketal.,2008).Asecondpatternwasthatsensitivitywascorrelatedsignificantlywithcellafrequencies,whereasspecificitywascorrelatedwithcelldfrequenciesinthe.70\u2013.80range.Thissuggestedthatsensi-tivitycorrespondedcloselytocorrectjudgmentsofcorrectperformance,whereasspecificitycorrespondedtocorrectjudg-mentsofincorrectperformance.Athirdpatternwasthatsen-sitivityandspecificitywerecorrelatedwiththeGindex,gamma,andd=inthe.45\u2013.65range,indicatingsomedegreeofindependenceamongmeasures.Incontrast,afourthpatternwasthattheGindex,gamma,andd=wereintercorrelated.90orhigher,suggestingthateachofthesemeasuresmayassessthesamelatentconstruct.Table8showsthecorrelationsbetweenrawscoresforcellsathroughdforthethreetests.Wepredictedthatcorrectperformancewouldbeuncorrelatedacrossthethreetests.ThecorrelationsinTable8revealedthatcellafrequencies(i.e.,correctjudgmentsofcorrectperformance)forvocabularyperformancewerenotcorre-latedsignificantlywiththeprobability(r\u2afd.21)orpaperfolding(r\u2afd.21)cellafrequencies,suggestingthesetestsassessindepen-dentcognitiveabilities,consistentwiththeRadexmodel(Mar-shaleketal.,1983).Incontrast,theprobabilitycellafrequencieswerecorrelatednegatively(r\u2afd\u2afa.47)withthepaperfoldingcellafrequencies,suggestingasignificantnegativerelationship.ModelFittingComparisonsOurmaingoalinthisstudywastoexaminethelatentfactorstructureofthefivestatisticsinTable2.WetestedthethreemodelssummarizedinTable3.Table9containsthegoodness-of-fitindicesandresidualstatisticsforthethreemodelsofinteresttothecurrentstudy.Asexpected,thethree-levelhierarchicalmodeldemonstratedthebestfittothedata,exhibitingthehighestgoodness-of-fitvaluesandthelowestresiduals.Thetwo-factormodelwasthenextbestfittingmodel,followedbytheone-factormodel.Betweenthesethreenestedmodels,\u232c\u24392testsindicatedthatthethree-levelhierarchicalmodelwasasignificantlybetterfittothedatathanthetwo-factor,\u232c\u24392(4,N\u2afd181)\u2afd17.77,p\u2b0d.01,andone-factormodels,\u232c\u24392(9,N\u2afd181)\u2afd30.93,p\u2b0d.01.Moreover,thetwo-factormodelwasasignificantlybetterfittothedatathantheone-factormodel,\u232c\u24392(5,N\u2afd181)\u2afd13.16,p\u2b0d.05.Ofspecialimportance,acrossallnestedmodels,d=providedthebestindexofcalibrationforallthreetests,consistentlyyieldingthehighestR2value(rangingfrom.98to.99)whencomparedwiththeotherindices(rangingfrom.43to.86)inTable9.Giventhelossofdataduetoundefinedgammascores,wesubsequentlyreanalyzedallthreemodelsinTable9,omittinggammascoresfromthedata,whileretainingsensitivity,specific-ity,Gindex,andd=scores.Thisanalysisallowedustorecover53ofthe67caseslostintheinitialanalysisforatotalof234cases,whichincreasedthepoweroftheCFAandgreatlyreducedtheriskofsamplingbias.Allthreemodelswerebetterfittingtothedatausingfouroutcomescoresratherthanusingfiveoutcomescores,exhibitinglowerresidualsandhigherfitindices.Thethree-levelmodelwasstillthebestfittingoverall(allps\u2b0d.01),NNFI\u2afd.99,CFI\u2afd.99,IFI\u2afd.99,SRMR\u2afd.03,RMSEA\u2afd.03(CI90%[.02,.04]).Resultsforthetwo-factorandone-factormodelswereasfollows:two-factormodel,NNFI\u2afd.98,CFI\u2afd.98,IFI\u2afd.98,SRMR\u2afd.04,RMSEA\u2afd.05(CI90%[.03,.07]);one-factormodel,NNFI\u2afd.94,CFI\u2afd.95,IFI\u2afd.95,SRMR\u2afd.07,RMSEA\u2afd.10(CI90%[.07,.13]).Aswiththepreviousresults,thetwo-factormodelwasbetterfittingtothedatathantheone-factormodel(p\u2b0d.05).Theseresultssupportedourpredictionthatthethree-levelmodelshowninFigure1providedthebestfittothedata.Theone-factormodelprovidedthepoorestfit,suggestingthataone-factorviewofcalibrationaccuracy,assessedbyanyofthefiveindividualstatis-ticsinTable2,doesnotadequatelyexplainlatentcalibrationTable4MeansandStandardDeviationsfortheFiveStatistics\u2afbThreeTestsVariableSpecificitySensitivityGindexGammad=MSDMSDMSDMSDMSDVocabulary.68.22.50.25.22.28.25.59.42.28Probabilities.52.28.70.52.26.26.41.58.53.42Paperfolding.52.28.73.26.35.37.43.67.42.21Note.N\u2afd181.ThisdocumentiscopyrightedbytheAmericanPsychologicalAssociationoroneofitsalliedpublishers.Thisarticleisintendedsolelyforthepersonaluseoftheindividualuserandisnottobedisseminatedbroadly.6SCHRAW,KUCH,GUTIERREZ,ANDRICHMOND\fprocesses.Thetwo-factormodelprovidedasuperiorfitthantheone-factormodel,butaninferiorfitcomparedwiththethree-levelmodel.Thissuggestedthatsensitivityandspecificitycapturedtwolatentcalibrationprocesses,butfailedtocapturevarianceex-plainedbyageneraldiscriminationprocessasassessedbyd=.Inaddition,thereanalysisusingfourscoresimprovedthefitofallmodelseventhoughthethree-factormodelprovidedthebestfitoverall.Thisoutcomeshowedthatincludinggammaintheanal-ysisintroducedmoreunexplainedvariationinresults,whichcouldbeattributedtolossofdataduetocomputationalproblemsasso-ciatedspecificallywithgamma.DiscussionInthisstudy,wecomparedfivedifferentstatisticsusedinthesocialsciencesandmedicaldiagnosisliteraturestoassesslatentcognitiveprocessesusedincalibrationjudgments.WeexaminedthefactorialstructureofthefivemeasuresinTable2inordertotestathree-levelmodelandtoassesswhetheroneormoreofthefivestatisticsprovidedabestfittinggeneralmeasureofaccuracy.ThemodelinFigure1proposedthatsensitivityandspecificityexplainedcalibrationaccuracyinthevocabulary,probabilities,andpaperfoldingtestsviajudgmentsofcorrectandincorrectperfor-mance,whereasd=explainedadditionalvarianceinthetwocali-brationprocessesmeasuredbysensitivityandspecificitybycom-paringthedegreetowhichindividualsdiscriminatedbetweensensitivityandthecomplementofspecificity.Weposedtworesearchquestions,includingwhetherthethree-levelmodelprovidedthebestfitwiththedataandwhethertherewasapreferredmeasureorsetofmeasurestouseasindicesofcalibrationaccuracyateachofthehypothesizedlevelswithinthethree-levelmodel.OurfirstquestioncomparedthethreemodelsinTable3.Theone-factormodelpredictedthatthevarianceincalibrationaccuracycanbeexplainedbyasinglefactorthatisalignedtothegammastatistic(Nelson,1984;Nelson&Narens,1990).Ourfindingssuggestedthatnoneofthefivestatisticalmeasuresexaminedinthisstudyprovidedanoptimalsingle-factormeasureofcalibrationaccuracycomparedwithmultifactormod-els.Thetwo-factormodelprovidedabetterfittothedatathantheone-factormodel.Table4showedthatthetwo-factormodelpro-videdabetteroverallfitusingthechi-squarestatisticasabench-mark.Thissuggestedthatsensitivityandspecificitycollectivelyexplainedmorevarianceincalibrationaccuracythananyofthefivestatisticalmeasuresconsideredindividually.ThisresultalsoechoedthefindingsofSchrawetal.", 
  "(2013),whocomparedthesamefivemeasuresusingcomputer-simulateddatabutdidnottestathree-levelmodelintheirstudy.Thetwo-factorexplanationalsowasconsistentwiththediagnosticaccuracyliteraturethatdistin-guishesbetweenmeasuresthatassesstheaccuracyofthepresenceorabsenceofdisease(Feuerman&Miller,2008;Mayer,2010;Warnicketal.,2008).Intermsofperformancemonitoring,sensi-tivityandspecificitycorrespondtoseparatemonitoringprocessesTable5Zero-OrderCorrelationsoftheFiveCalibrationScoresandVocabularyTestFrequenciesinCellsa\u2013dinTable1Variable1234567891.Sensitivity\u2014\u2afa.08.55\u2d31\u2d31.63\u2d31\u2d31.65\u2d31\u2d31.80\u2d31\u2d31\u2afa.05\u2afa.69\u2d31\u2d31\u2afa.35\u2d312.Specificity\u2014.66\u2d31\u2d31.63\u2d31\u2d31.63\u2d31\u2d31\u2afa.09\u2afa.84\u2d31\u2d31.19.71\u2d31\u2d313.Gindex\u2014.93\u2d31\u2d31.95\u2d31\u2d31.52\u2d31\u2d31\u2afa.72\u2d31\u2d31\u2afa.43\u2d31\u2d31.37\u2d314.Gamma\u2014.98\u2d31\u2d31.54\u2d31\u2d31\u2afa.69\u2d31\u2d31\u2afa.38\u2d31.28\u2d315.d=\u2014.56\u2d31\u2d31\u2afa.68\u2d31\u2d31\u2afa.41\u2d31.27\u2d316.cella\u2014\u2afa.35\u2d31\u2afa.25\u2afa.60\u2d31\u2d317.cellb\u2014\u2afa.32\u2d31\u2afa.29\u2d318.cellc\u2014\u2afa.139.celld\u2014Note.N\u2afd181.\u2d31p\u2b0d.05.\u2d31\u2d31p\u2b0d.01(one-tailed).Table6Zero-OrderCorrelationsoftheFiveCalibrationScoresandProbabilityTestFrequenciesinCellsa\u2013dinTable1Variable1234567891.Sensitivity\u2014\u2afa.27\u2d31.52\u2d31\u2d31.45\u2d31\u2d31.46\u2d31\u2d31.79\u2d31\u2d31.23\u2afa.81\u2d31\u2d31\u2afa.49\u2d31\u2d312.Specificity\u2014.40\u2d31\u2d31.55\u2d31\u2d31.56\u2d31\u2d31\u2afa.31\u2d31\u2afa.74\u2d31\u2d31.38\u2d31.74\u2d31\u2d313.Gindex\u2014.90\u2d31\u2d31.91\u2d31\u2d31.59\u2d31\u2d31\u2afa.58\u2d31\u2d31\u2afa.45\u2d31\u2d31.174.Gamma\u2014.98\u2d31\u2d31.41\u2d31\u2d31\u2afa.54\u2d31\u2d31\u2afa.38\u2d31.31\u2d315.d=\u2014.43\u2d31\u2d31\u2afa.55\u2d31\u2d31\u2afa.38\u2d31.29\u2d316.cella\u2014\u2afa.23\u2afa.38\u2d31\u2afa.69\u2d31\u2d317.cellb\u2014\u2afa.47\u2d31\u2d31\u2afa.238.cellc\u2014.069.celld\u2014Note.N\u2afd181.\u2d31p\u2b0d.05.\u2d31\u2d31p\u2b0d.01(one-tailed).ThisdocumentiscopyrightedbytheAmericanPsychologicalAssociationoroneofitsalliedpublishers.Thisarticleisintendedsolelyforthepersonaluseoftheindividualuserandisnottobedisseminatedbroadly.7CALIBRATIONMEASURES\fthatassessjudgmentsoftheaccuracyofcorrectandincorrectperformance.Sensitivitymaymeasureconstructssuchasfeelingofknowing,judgmentsoflearning,performanceaccuracy,oreaseofprocessing,whereasspecificitymaymeasureinverseprocessessuchasfeelingsofnotknowing,performanceuncertainty,ordifficultyofprocessing(vanStralenetal.,2009;Warnicketal.,2008).Takingasimilarperspective,Hart(1965,1967)separatedfeeling-of-knowingjudgmentsandfeeling-of-notknowingjudg-ments.Futureresearchmaywishtocorrelatesensitivity,specific-ity,orthecomplementofspecificitywithotherindicatorssuchasconfidence,feelingofknowing,judgmentsofeffort,orcalibrationaccuracy.Thethree-levelmodelwasincludedinthecurrentstudytoexaminewhetheritfitthedatabetterthananyofthetwo-levelsolutions.Wefoundthatthethree-levelmodelprovidedthebestoverallfitwhenoneconsidersthegoodness-of-fitandconfidenceintervalindicesinTable9,aswellasthefactthatthethree-levelmodelestimatedfewerparametersthantheone-ortwo-factormodels,andthereforeismoreparsimonious.Thethree-levelmodelsuggestedthatsensitivityandspecificityprovidedthebestfittocalibrationaccuracyscoresforthevocabulary,probabilities,andpaperfoldingtests,whereasd=providedanear-perfectfittosensitivityandspecificityscores.Webelievetheresultsfromthethree-levelmodeladdressedoursecondresearchquestionunam-biguouslyintermsofhowmanyscorestouseandhowtointerpretthem.Sensitivityandspecificityscoresprovidethebestfittotestscoredata,consistentwithSchrawetal.", 
  "(2013)andpreviousfindingsinthediagnosticaccuracyliterature(Feuerman&Miller,2008;Mayer,2010;Warnicketal.,2008).However,ageneraldiscriminationprocessalsoprovidedanexcellentfittosensitivityandspecificityscores.Areanalysisofdatausingfourratherthanfiveoutcomescoresyieldedthesamepatternofresults,butwithlessresidualerrorduetotheomissionofdatapointslostduringthecomputationofgammascores,whichincreasedthesamplesizeandcorrespondingpoweroftheanalysis.Ourresultssupportedtheconjecturethatcalibrationaccuracyisamorecomplexconstructthantheone-factormodelsuggests.ThemodeldepictedinFigure1hypothesizedthattwoormorecali-brationaccuracyprocessesareused.Oneexplanationofthiscon-jectureisthatindividualsdeploydifferentcognitivestrategiesorheuristicswhenmakingcalibrationjudgmentsdependingonwhethertheiranswerisdeemedtobecorrectornot(Koriat,2012;Serra&Metcalfe,2009).Correctperformancemaybeevaluatedwithrespecttoinformationavailableinmemory,whereasincorrectperformancemaybeevaluatedusingdifferentormorefalliblecognitivecriterionthaninformationinmemory(Warnicketal.,2008).Inturn,athird-levelprocessbasedonageneraldiscrimi-nationfactormayenableindividualstoassessthedegreetowhichthesensitivityandspecificitystrategieswereaccuratebycompar-ingthedisparitybetweenthem.Table7Zero-OrderCorrelationsoftheFiveCalibrationScoresandPaperFoldingTestFrequenciesinCellsa\u2013dinTable1Variable1234567891.Sensitivity\u2014\u2afa.09.71\u2d31\u2d31.72\u2d31\u2d31.71\u2d31\u2d31.84\u2d31\u2d31\u2afa.31\u2d31\u2afa.75\u2d31\u2d31\u2afa.43\u2d31\u2d312.Specificity\u2014.55\u2d31\u2d31.60\u2d31\u2d31.63\u2d31\u2d31\u2afa.04\u2afa.70\u2d31\u2d31.13.69\u2d31\u2d313.Gindex\u2014.93\u2d31\u2d31.95\u2d31\u2d31.75\u2d31\u2d31\u2afa.81\u2d31\u2d31\u2afa.49\u2d31\u2d31.054.Gamma\u2014.98\u2d31\u2d31.63\u2d31\u2d31\u2afa.71\u2d31\u2d31\u2afa.52\u2d31\u2d31.155.d=\u2014.64\u2d31\u2d31\u2afa.74\u2d31\u2d31\u2afa.50\u2d31\u2d31.156.cella\u2014\u2afa.57\u2d31\u2d31\u2afa.42\u2d31\u2d31\u2afa.63\u2d31\u2d317.cellb\u2014\u2afa.11\u2afa.098.cellc\u2014.069.celld\u2014Note.N\u2afd181.\u2d31p\u2b0d.05.\u2d31\u2d31p\u2b0d.01(one-tailed).Table8Zero-OrderCorrelationsoftheFourCellsinthe2\u2afb2MatrixfortheVocabulary,Probability,andPaperFoldingTestsVariable1234567891011121.Vocaba\u2014\u2afa.23\u2afa.34\u2d31\u2afa.71\u2d31\u2d31.21\u2afa.20.06\u2afa.17.21\u2afa.18\u2afa.10\u2afa.102.Vocabb\u2014\u2afa.40\u2d31\u2d31\u2afa.35\u2d31.02.47\u2d31\u2d31\u2afa.37\u2d31\u2afa.16\u2afa.11.38\u2d31\u2afa.17\u2afa.043.Vocabc\u2014.11\u2afa.06\u2afa.19.14.15.03\u2afa.20.10.064.Vocabd\u2014\u2afa.21\u2afa.06.15.23\u2afa.15.00.19.095.Proba\u2014\u2afa.22\u2afa.49\u2d31\u2d31\u2afa.72\u2d31\u2d31\u2afa.47\u2d31\u2d31\u2afa.17\u2afa.28\u2d31\u2afa.39\u2d316.Probb\u2014\u2afa.50\u2d31\u2d31\u2afa.24\u2afa.15.50\u2d31\u2d31\u2afa.21\u2afa.087.Probc\u2014.28\u2d31\u2afa.19\u2afa.25.37\u2d31.28\u2d318.Probd\u2014\u2afa.33\u2d31\u2afa.02.25.38\u2d319.Folda\u2014\u2afa.43\u2d31\u2d31\u2afa.61\u2d31\u2d31\u2afa.74\u2d31\u2d3110.Foldb\u2014\u2afa.23\u2afa.1111.Foldc\u2014.44\u2d31\u2d3112.Foldd\u2014Note.N\u2afd181.Vocab\u2afdvocabularytest;Prob\u2afdprobabilitytest;Fold\u2afdpaperfoldingtest.\u2d31p\u2b0d.05.\u2d31\u2d31p\u2b0d.01(one-tailed).ThisdocumentiscopyrightedbytheAmericanPsychologicalAssociationoroneofitsalliedpublishers.Thisarticleisintendedsolelyforthepersonaluseoftheindividualuserandisnottobedisseminatedbroadly.8SCHRAW,KUCH,GUTIERREZ,ANDRICHMOND\fWebelievethethree-levelmodelinFigure1supportsandadvancesthetwo-levelmodelproposedbySchrawetal.", 
  "(2013)intwoways.Oneisthatwecollecteddatafromhumansubjectsratherthancomputer-simulateddata.Webelievethisisimportantformodeltestingbecausehumandataincludesjudgmentnoiseintheformoferrorandbiasduetolackofknowledge,overconfi-dence,interestandmotivation,andanxiety.Asecondreasonisthatweusedthreeteststobetterassessthegeneralityofthemodelacrossdifferenttypesofcognitiveabilities.Table8indictedthatperformancescoresfromcellawerenotsignificantlycorrelatedbetweentests.Thesefindingsaddedtotheexistingcalibrationandmeta-cognitivemonitoringliteraturesbyinvestigatingtherelation-shipamongfivecommonlyusedmeasuresofcalibrationaccu-racy.Previousresearchhasrecommendedtheuseofgamma(Nelson,1984),d=(Kadlec,1999;Macmillan&Creelman,2005;Masson&Rotello,2009),Gindex(Schraw,2009),andsensitivityandspecificity(Warnicketal.,2008)onboththeo-reticalandmeasurementgrounds.However,fewofthesestud-ieshavecomparedcompetingmeasuresandnonehavecon-ductedasystematicanalysisofallfivestatisticsusingacommondataset.Oneimportantoutcomeofthecurrentstudywasthatnosinglemeasureprovidedacomprehensivestatisticalindexofcalibrationaccuracywhenusedseparately.Rather,differentmeasuresprovideddifferentexplanatoryutilityatdif-ferentlevelsoftheoreticallyrelevantinterpretation.Forexam-ple,d=wasthebestgeneralindexofcalibrationaccuracybecauseitexplained100%ofvarianceinsensitivityandspec-ificitymeasures,whichinturnprovidedindicesoftwoseparatejudgmentsbasedoncorrectandincorrectperformanceatthetest-itemlevel.OurresultssupportedtheclaimthatcalibrationmayhaveahierarchicalstructureanalogoustoCattell\u2019shierarchicalmodelofhumanintelligence(Cattell,1987;Horn&Cattell,1967).Cattellproposedthatasinglehigherlevelgeneralintelligencefactor(e.g.,g)includestwolowerleveltypesofintelligence,referredtoasfluidandcrystalizedabilities.Fluidabilitiesareassumedtomea-surebiologicalcapacitytoconstructknowledgeandsolveabstractproblems,whereascrystalizedabilitiesmeasureknowledgeac-quiredthroughschoolingandacculturation(Brody,1992;Carroll,1993).WeenvisionthemodelinFigure1toincludeageneraldiscriminationfactorthatregulatescalibrationstrategiesrelatedtosensitivityandspecificity,whichinturnregulatejudgmentsaboutindividualtestitems.MeasuringCalibrationAccuracyOursecondresearchquestionaddressedwhethertherewasapreferredmeasureorsetofmeasurestouseasindicesofcalibra-tionaccuracyateachofthehypothesizedlevelswithinthethree-levelmodel.AlthougheachofthefivemeasuresshowninTable2canbeusedtoassesscalibrationaccuracy,ourfindingssuggestedthatnotallofthemareequallyeffectivepredictorsoflatentcalibrationconstructs.Sensitivityandspecificitywereexcellentpredictorsofcalibrationaccuracywhenassessingtheaccuracyofjudgmentsofcorrectandincorrectperformance.Thed=statisticwasanexcellentpredictorofdiscriminationbetweentheaccuracyofjudgmentsofcorrectandincorrectperformance.Overall,wesuggestthatresearchersreportmultiplemeasuresforstatisticalandinterpretativereasons.Fromastatisticalstand-point,noneoftheindividualmeasuresinTable2explains100%ofthevariationincalibrationscores.Usingsensitivityandspecificitymeasures,forexample,willaccountformorevariationinthescoresinTable1thaneithermeasurealone.Fromaninterpretativeperspective,differentmeasuresappeartoassessdifferentcognitiveconstructs.Wehavearguedabovethatsensitivityandspecificityassesscalibrationorcorrectandincorrectperformancerespec-tively,whereasd=assessesthediscriminationbetweenthem.Re-portingmultiplemeasuresalsowouldhelpresearchersunderstandtheextenttowhichacalibrationinterventionaffectsdifferentoutcomes,andlatentcalibrationprocesses,indifferentways.Fromameasurementperspective,ourfindingsalsosuggestedthattwodifferentindividualscouldpossesssimilarproficiencywhenmakingjudgmentsbasedonsensitivityandspecificity,butdifferwithrespecttouseofageneraldiscriminationstrategythatappearstooverseethecalibrationprocess.Thus,individualsmaydifferintheirproficiencywhenmakingdifferenttypesofcalibra-tionjudgmentsandintheiruseofoverallcalibrationstrategies.ImplicationsandRecommendationsforPracticeOurresultssuggestpracticalandtheoreticalimplications.Fromapracticalperspective,researchersshouldselectthestatisticalmeasuresthataremostcloselyassociatedwiththeconstructofinterestinthestudy.Forexample,thoseinterestedinthegeneralabilitytopredictbothcorrectandincorrectjudgmentsmightused=comparedwithotheroutcomes,whereasthoseinterestedintheagreementofjudgmentswithcorrectversusincorrectperformancemaywishtousesensitivityandspecificity.Second,researchersshouldusemorethanoneoutcomemeasuretoassesscalibrationaccuracybecausenoneofthefivemeasuresaccountedforallofthesamplevariationwhenusedseparately.Twomeasuresprovideabetteraccountofthedata,andsensitivityandspecificityinparticularexplainmorevarianceincalibrationperformancethananyofthefivemeasuresusedseparately.Thisfindingisimportantbecausemostdisciplinesrelyonasinglemeasureofcalibration.Likeothers,werecommendreportingmultiple-outcomemeasuresandtheirintercorrelations(Allwood,Table9ModelFitIndicesModel\u24392dfNNFICFIIFISRMRRMSEA[CI90%]Onefactor142.2683.93.94.93.09.11[.08,.14]Twofactor129.1078.96.97.97.06.07[.04,.10]Threelevel111.3374.97.98.98.05.06[.03,.09]Note.N\u2afd181.NNFI\u2afdBentler-Bonettnonnormedfitindex;CFI\u2afdcomparativefitindex;IFI\u2afdBollen\u2019sincrementalfitindex;SRMR\u2afdstandardizedroot-mean-squareresidual;RMSEA\u2afdroot-mean-squareerrorofapproximation;CI90%\u2afdRMSEA90%confidenceinterval.ThisdocumentiscopyrightedbytheAmericanPsychologicalAssociationoroneofitsalliedpublishers.Thisarticleisintendedsolelyforthepersonaluseoftheindividualuserandisnottobedisseminatedbroadly.9CALIBRATIONMEASURES\fJonsson,&Granhag,2005;Boekaerts&Rozendaal,2010;Keren,1991;Schraw,2009)inordertotriangulateandbetterunderstandthemonitoringprocess.Usingmultiplemeasuresalsoaffordsanopportunitytoevaluatetheeffectofaninterventionondifferentcalibrationprocesses.Fromatheoreticalperspective,ourfindingshighlighttheneedtoinvestigatewhetherjudgmentsofcorrectandincorrectjudg-mentsconstituteseparatecalibrationprocessesthatcouldbeaf-fecteddifferentlybyothermechanismssuchasmotivationandfeedback.Mostmodelsappeartofocusonasinglemonitoringmechanism(Nelson&Narens,1990)eventhoughself-regulation-basedmodels(Boekaerts&Rozendaal,2010;Serra&Metcalfe,2009;Winne&Hadwin,2008)alsoincludemotivationalmecha-nismsthatpresumablyinteractwiththemonitoringfunction.Theideathatthemonitoringprocessismultidimensionalshouldbetestedinmuchfurtherdetail,asshouldthepossibilitythatmoti-vationandexternalfeedbackarerelatedtoeitherasingleormultidimensionalcalibrationprocess.Themultidimensionalmodelisconsistentwiththedistinctionbetweenfeelingofknow-ingandtheillusionofknowing(Serra&Metcalfe,2009),aswellastheassertionthatdifferenttypesofjudgmentsusedifferentcognitiveheuristics(Koriat,2012).Asacaveattothecurrentfindings,researchersshouldbearinmindthatgammamaybevulnerabletoaseriouslossofdataduetocomputationalidiosyncrasiesarisingfromtheuseofcrossproductsinthedenominator(Schrawetal.,2013).Allofthefivemeasuresmayyieldascoreof0whenatestisveryeasyordifficultandsomeofthefourcellsinTable2areempty.AgeneraldiscussionofcomputationalproblemsandstrategiesforcopingwiththemappearsinMacmillanandCreelman(2005,pp.8\u20139).LimitationsandFutureDirectionsWestresstheexploratorynatureofthisresearchandtheneedtoreplicateandextendourfindingsusingothertestsofcognitiveability.ThecurrentfindingsreplicatedtheSchrawetal.(2013)study,inwhichsimulateddatawereused;however,resultsmaybedifferentwhencomparingdifferenttypesofjudgmentswithinasingle-abilitydomain(e.g.,vocabularyandverbalanalogies)ver-susacross-abilitydomains(e.g.,abstractreasoningandmathemat-icalcomputations).Wenotethatbasedonthefewstudiescon-ductedthusfar,thereisnoreasontobelievethatadifferentfactorstructurewouldoccur.WebelievethatSchrawetal.", 
  "(2013)andthecurrentstudyexaminedanexhaustivesetofstatisticsforthe2\u2afb2caseshowninTable1.However,somestatisticssuchasgammacanbegeneralizedtoa2\u2afbnframework,whereasotherstatisticssuchassensitivityandspecificitycannot.Itisunclearwhetherthecurrentfindingsgeneralizetolargerdatamatrices.Inaddition,itispos-sibletousecontinuousjudgmentsofabsoluteandrelativeaccu-racythataremadeona100-pointscale.Correspondingstatistics(seeSchraw,2009)mayrevealadifferentfactorstructurethantheonereportedhere."
 ]
}