{
 "document_id": "13943745393735640970", 
 "sentences": [
  "Journal of Educational Psychology1970, Vol.", 
  "61, No.", 
  "8, 385-374TEACHERS' COMMUNICATION OF DIFFERENTIALEXPECTATIONS FOR CHILDREN'S CLASSROOMPERFORMANCE:SOME BEHAVIORAL DATAJERE E. BROPHY1 AND THOMAS L. GOOD3University o] Texas, AustinThe processes by which teachers communicate differential perform-ance expectations to different children were investigated through ob-servational study of dyadic contacts between teachers and individualstudents in four first-grade classrooms.", 
  "Differential teacher expecta-tions for different children were associated with a variety of inter-action measures, although many of these relationships are attributableto objective differences in the behavior of the children.", 
  "However, otherdifferential teacher behavior was observed which is not attributableto objective differences among the children and which is consistentwith the hypothesis that differential teacher expectations function asself-fulfilling prophecies.", 
  "The teachers demanded better performancefrom those children for whom they had higher expectations and weremore likely to praise such performance when it was elicited.", 
  "In con-trast, they were more likely to accept poor performance fromstudents for whom they held low expectations and were less likely topraise good performance from these students when it occurred, eventhough it occurred less frequently.", 
  "The findings are interpreted assupportive of the hypotheses of Rosenthal and Jacobson concerningteacher-expectation effects and as indicative of the behavioral mecha-nisms, involved when teacher expectations function as self-fulfillingprophecies.Rosenthal and Jacobson (1968) asserton the basis of controversial research pre-sented in Pygmalion in the Classroom thatteachers' expectations for student perform-ance function as self-fulfilling prophecies.The \"expectancy effects\" in the Oak Schoolexperiment described in Pygmalion are notas consistent a& the authors' interpretationsof them.!", 
  "would suggest, .however, and eventhe support that they do provide is ques-tionable on methodological grounds (Barber& Silver, 1968; Snow, 1969; Thorndike,1968), Even if the data and their inter-pretation are accepted, the Rosenthal andJacobson work remains only a demonstra-tion of the existence of expectancy effects;their study did not address itself to anyof the events intervening between theinducement of teacher expectations and the1 Requests for reprints should be sent to Jere E.Brophy, Department of Educational Psychology,The University of Texas, Austin, Texas 78712.'", 
  "The authors wish to thank Vern Jones for hisassistance in collection of data and Jean Romighand Betty Johnson for their help in manuscriptpreparation.administration of the criterion achievementtest.", 
  "The present study focuses on theseintervening processes, applying the methodof classroom interaction analysis to identifyand document differential teacher behaviorcommunicating different teacher expecta-tions to individual children.The lack of data concerning the causalmechanisms at work in the Rosenthal andJacobson study, combined with the tend-ency .in most secondary sources to over-simplify or exaggerate their findings hascast an aura of magic or mystery aroundexpectation effects.", 
  "Consequently, it isimportant to conceptualize such phenomenaas outcomes of observable sequences ofbehavior.", 
  "The explicit model assumed inthe present research may be described asfollows: (a) The teacher forms differentialexpectations for student performance; (b)He then begins to treat children differentlyin accordance with his differential expec-tations; (c) The children respond differ-entially to the teacher because they arebeing treated differently by him; (d) Inresponding to the teacher, each child tends365\f366JBEE E. BBOPHY AND THOMAS L. GOODto exhibit behavior which complements andreinforces the teacher's particular expecta-tions for him; (e) As a result, the generalacademic performance of some childrenwill be enhanced while that of others willbe depressed, with changes being in thedirection of teacher expectations; (/) Theseeffects will show up in the achievementtests given at the end of the year, pro-viding support for the \"self-fulfillingprophecy\" notion.A series of interrelated studies will berequired to investigate systematically thefull model from beginning (how do teachersform differential expectations in the firstplace?)", 
  "to end (how do children change soas to begin to conform more closely toteacher expectations?).", 
  "The present studydeals with the second step: given differ-ential teacher expectations, how are theycommunicated to the children in ways thatwould tend to cause the children to pro-duce reciprocal behavior?", 
  "To begin toanswer this question, the present studyapproached the problem through classroominteraction analysis.", 
  "In contrast to theusual classroom interaction study, how-ever, the present research focused ondyadic interaction between the teacherand individual children.8METHODSubjectsThe research was carried out in four first-gradeclassrooms in a small Texas school district whichserves a generally rural and lower-class population.However, a large military base located within thedistrict contributes about 45% of the students inthe school in which observations were taken.", 
  "Chil-dren from the base tend to be from more urbanbackgrounds and of a somewhat higher socio-economic status than the local children.", 
  "The ethniccomposition of the school is about 75% Anglo-American, 15% Mexican-American, and 10% Afro-American, which is representative of the generalpopulation of the area.", 
  "* In the study of dyadic interaction the individ-ual child (or teacher-child dyad) becomes the unitof analysis, rather than the class as a group.", 
  "For adiscussion of the advantages of this method forstudying traditional teacher-effectiveness variablesand of applications of the method to problems thatcannot be approached through ordinary interactionanalysis methods, see Good and Brophy (1971).Research was carried out in four of the ninefirst-grade classrooms in the school, chosen becausethere were no assistant teachers present to com-plicate the picture (the other five classrooms hadpreservice teacher interns assisting the headteacher).", 
  "The four teachers involved were askedto rank the children in their class in the order oftheir achievement.", 
  "These instructions were delib-erately kept vague to encourage the teachers touse complex, subjective criteria in making theirjudgments.", 
  "The rankings were then used as themeasure of the teachers' expectations for classroomperformance for the children in their classes.", 
  "Ineach class, three boys and three girls high on theteacher's list (highs) and three boys and threegirls low on the teacher's list (lows) were selectedfor observational study.", 
  "The highs were simply thefirst six eligible children on the list.", 
  "This wasgenerally true also for the lows, although a fewchildren low on the lists were excluded from thestudy because they could not speak Englishfluently or because of suspected emotional orbiological disturbance.", 
  "Substitutes for each typeof child (high boys, high girls, low boys, low girls)were also identified and these were individuallyobserved on days when children in the designatedsample were absent.The teachers had been told that the study wasconcerned with the classroom behavior of childrenof various levels of achievement.", 
  "They were notinformed that their own behavior as well as thatof the children was being specifically observed.Furthermore, the teachers thought that observa-tions were being taken on everyone in the class anddid not know that specific subgroups had beenselected for study.", 
  "By selecting subjects from theextremes of the distributions of teachers' rankings,the chances of discovering differential teachertreatment of the students were maximized.", 
  "How-ever, the school practiced tracking, achievinghomogeneity within the nine classrooms by group-ing the children according to readiness and achieve-ment scores.", 
  "Thus, at least in terms of test scores,objective differences among the children (and,therefore, objective support for the validity ofteacher expectations) was minimized.Observation SystemSince the object of the research was to focus ondifferential treatment of different children, theobservation system developed was addressed onlyto dyadic contacts between the teacher and anindividual child, with lecture-demonstration andother teacher behavior directed to the class as agroup being ignored.", 
  "Although the types of in-teractions coded were partly dictated by the rangeof situations seen in pilot studies, certain featuresof the coding system were built in for their specificrelevance to the study of communication of dif-ferential teacher expectations.", 
  "One major and con-sistent feature was that the source of the inter-action was always coded, so that it could bedetermined later whether the interaction wasinitiated by the teacher or by the child.", 
  "The types\fTBACHEES' COMMUNICATION OP DIFFERENTIAL EXPECTATIONS367of dyadic interactions coded included teacher-afforded response opportunities and other types ofinteractions initiated by the children.", 
  "The teacher-afforded response opportunities included recitationsand reading turns in the reading groups andanswers to teacher questions (coded separately asto whether they were open questions directed tothe class as a whole or direct questions aimed at aparticular child).", 
  "Response opportunities were im-portant events for studying teacher expectations,since at these times the children were attemptingto deal with problems relevant to academic sub-ject matter.", 
  "Consequently, the sequential natureof the initiation and reaction cycles involved inthem was retained in the coding system.", 
  "In addi-tion to coding response opportunities separatelyby type (as listed above), coders also noted thequality of the child's response (correct, incom-plete or partially correct, incorrect or no response)and the type of feedback given by the teacher(praise, criticism, supplying the answer, repeatingthe question, rephrasing the question or giving aclue, or giving no feedback at all).", 
  "This retentionof sequential relationships allowed later analysis ofthe relative as well as the absolute differences be-tween the groups.All dyadic contacts other than response op-portunities as defined above were coded as eitherteacher-afforded communications (individual feed-back regarding seat work or homework, requeststhat the child perform procedural or caretakingfunctions, and disciplinary action or evaluativecomment about the child's behavior) or inter-actions initiated by the child (calling out answers,showing work to the teacher or asking questionsabout it, and seeking permission or other proce-dural contact).", 
  "Sequential data were also built intothe coding of these interactions.", 
  "In addition tocoding the type (academic, procedural, or discipli-nary) and initiator (teacher or child) of the inter-action, coders also kept track of the evaluativenature of the teacher's feedback (praise, criticism,or impersonal feedback).", 
  "The terms \"praise\" and\"criticism\" referred to teacher reactions whichwent beyond the level of simple affirmation ornegation or corrective feedback by complimentingor criticizing the child personally.", 
  "Simple affirma-tion (\"yes,\" \"OK,\" \"that's right\") was not con-sidered \"praise\" unless accompanied by obviousexpression or gesture connoting excitement orwarmth.", 
  "The latter reactions were considered\"praise,\" as were the words \"good\" and \"fine,\" aswell as other, more obvious forms of verbal praise.Similarly, simple negation (\"no,\" \"that's not it\")was not considered \"criticism,\" unless accompaniedby expressions or gestures communicating anger ordisgust.", 
  "In addition to the latter responses, verbalstatements such as \"that's a stupid answer,\" or\"what's the matter with you?\"", 
  "were coded as\"criticism.\"", 
  "Most teacher feedback involved simpleaffirmation or negation and/or communicationof information and was coded as \"impersonal feed-back\" to distinguish it from praise and criticism.The fourth category, \"no feedback,\" was codedif the teacher did not react in any way to thechild's response and simply moved on to somethingelse.In addition to the coding of dyadic interactionsas described above, the hand-raising behavior ofthe children was tallied as a measure of theirtendency to seek response opportunities.", 
  "This wascoded after open questions, when the childrenraised their hands seeking to be called on toanswer the question, and after some direct ques-tions, when children raised their hands if the childcalled upon to answer the question gave a wronganswer or was unable to respond.After several pilot applications in which the sys-tem was perfected and satisfactory intercoderreliability was established, observations were madeon 4 separate days in each of the four classes.", 
  "Toequalize the time spent in each classroom andinsure that the full range of classroom activitieswas included, the observation period extended foran entire morning or an entire afternoon (two ofeach for each class).", 
  "Data were recorded for allperiods of academic activity during the observa-tion period, using one data sheet for the readinggroup and another for all other situations.", 
  "No datawere recorded when the class was out of the roomfor recess or washroom breaks.", 
  "During nonaca-demic procedural activities (clean-up, getting inline, pledge to the flag, etc.", 
  "), only disciplinaryactions and behavioral evaluations were coded.Data were recorded by two observers seated atthe rear of the classroom.", 
  "The observers were thusin front of the teacher but behind or to the sideof the majority of the children, who were seatedat small tables of six or eight.", 
  "During each obser-vation, one observer coded the interactions in-volving the six highs and the other coded the sixlows.", 
  "It had originally been intended that assign-ment of children to observers would be determinedby seating location, since coding could be donemore conveniently when the target children areseated close together.", 
  "However, in three of the fourclassrooms the children were seated in order ofachievement level (a fact which is itself a correlateof expectancy effects, as will be pointed out below),so that observations were made on intact high orlow groups.", 
  "Each observer's assignments werebalanced between the high and low groups toeliminate the possibility that any obtained differ-ences between expectancy groups could be attri-buted to observer differences.Data AnalysisA variety of measures were derived from theraw coding sheets through simple arithmetic proce-dures, and scores were assigned to each of the 48individual subjects.", 
  "Analyses of variance then wereperformed to assess the effects of teacher ex-pectancy, sex, and classroom (teacher) and theirrespective interactions on the obtained scores.Two types of measures were identified.", 
  "The first,subsuming most of the simple frequency counts,involved group differences which are attributableto objective differences in the groups of children\f368JEBB E. BBOPHT AND THOMAS L. GOODthemselves.", 
  "Consequently, any significant groupdifferences discovered in these variables, while im-portant in themselves, could not be taken asevidence of expectancy effects.", 
  "The second setof measures, mostly percentage figures in whichabsolute frequency differences are statisticallycontrolled in order to allow a comparison of rela-tive differences between the groups, are interpretedas measures of expectancy effects.", 
  "Teacher be-havior tapped by these measures is more proactiveor teacher initiated, going beyond simple reactionby the teacher to stimulation by the child.", 
  "Thedistinction between these two types of measures isexemplified in the Results section below, in whichthe two types of findings are separately presented.RESULTSThe results are presented in threetables, each giving mean values for thefour classes, two sexes, and two expectancygroups and the p values for Group Effectsin Class X Sex x Expectancy analyses ofvariance.", 
  "Although no predictions weremade concerning differences by class, thedata are presented to show the degree towhich the teachers varied on the measurestaken.", 
  "In addition, any interactions ofclass variation with expectancy effectswould affect the interpretation of thelatter, and need to be investigated when-ever they occur.", 
  "Inspection of all threetables reveals that a significant classeffect was obtained for the great majorityof the variables.", 
  "The greatest class varia-tion occurs on the simple frequencycolumns, especially in Table 1, althoughclass effects still usually reach significanceeven in the ratio measures related toteacher expectations presented in Table 3.Because of this large variation acrossclasses and the frequent significant inter-action of class with expectancy, thenature of the interaction was specificallyinvestigated for each variable to determinethe consistency of expectancy effects.", 
  "Thisinformation is integrated into the discussionof expectancy effects below.Tables 1 and 2 contain the data fromvariables measuring objective differencesamong the children or aspects of teacher-child interaction which cannot be unam-biguously interpreted as due either toteacher expectation effects or to objectivedifferences among the children.", 
  "Data fromvariables which do appear to be inde-pendent of differences among the childrenand, therefore, interpretable as indexes ofexpectation effects are presented in Table 3.Measures of the quantity and type ofteacher-child contacts are shown in Table 1.Other than the large class differences, thedata are most notable for the consistencyof expectancy group differences on variablesmeasuring the tendency to seek out theteacher and initiate contact with her.Children for whom the teacher held highexpectations (highs) raised their handsmore frequently and initiated more pro-cedural and especially more work-relatedinteractions than did children for whomthe teachers held low expectations (lows).The Class X Expectancy Group interac-tions with regard to child-initiated con-tacts reflect degree rather than directionof effect.", 
  "The highs exceeded the lows ineach class for hand raising, initiatingwork-related interactions, and total child-initiated response opportunities (the hand-raising effect excludes Class 1, where itcould not be assessed because the teachernever asked open questions while her classwas being observed).", 
  "The highs alsoexceeded the lows in three of the fourclasses in initiating procedural interactions.There was a negligible reversal in Class 2,where this type of interaction was veryinfrequent (highs averaged 1.50, lowsaveraged 1.67).", 
  "The only exception to thepattern of significant differences betweenhighs and lows in child-initiated interac-tions occurred in the measure of callingout answers in the reading groups.", 
  "Themean difference is in favor of the highs, butit is not a significant difference and theeffect occurred in only one of the fourclasses.", 
  "The data for child-initiated con-tacts may be summarized, then, in thestatement that, outside the reading groupat least, the highs seek out the teacherand initiate interactions with her morefrequently than the lows.", 
  "The differenceis especially notable in work-related inter-actions: the highs much more frequentlyshow their work to the teacher or ask herquestions about it, and they initiate manymore response opportunities.The data for contacts initiated or con-\fTEACHERS' COMMUNICATION OF DIFFERENTIAL EXPECTATIONS369TABLE 1GROUP DIFFERENCES IN QUANTITY AND TYPE OF CONTACTS WITH TEACHERSVariableNumber of times child raiseshandNumber of times child iscalled on to answer a ques-tionProcedural interaction initi-ated by childWork-related interactions ini-tiated by childTeacher-initiated proceduralinteractionsTeacher-initiated work-re-lated interactionsTeacher-afforded behavioral\u2022criticismsTeacher-afforded questionsduring reading groupsCalling out answers duringreading groupsTotal teacher-afforded re-sponse opportunitiesTotal child-initiated responseopportunitiesTotal dyadic contactsGroup litClass1.00\".00\"6.004.174.689.833.264.608.0810.3317.2648.1724.00.671.681.872.764.601.682.681.688.004,8320.08326.764.087.089.681.264.686.923.762.8312.1719.6046.76421.332.682.922.92.67.673.176.33,6014.008.3326.87SexBoys12.002.134.926.292.606.426.264.633.6811.7613.7941.33Girls13.641.643.383.882.133.381.713.462.929.6010.1727.60ExpectancyLows8.881.713.171.792.686.004.924.792.9610.967.9233.67Highs16.671.966,137.382.043.792.043.293.6410.2918.0436.17p values for group effectsClass.001.001.001.06.001.001.06ru.001.001.001.001Sexruru.06ruru.06.01nsru.06ru.01Ex-pect-ancy.01ru.06.01naru.01.10ruru.01ruClassXSexnant.06ruru.06rurururururuClassXEx-pect-ancy.01ruru.06.06.06ru.01ruru.06ruSexXEx-pect-ancy.06.06rurururu.01runanantruClassXSexX Ex-pect-ancy.10ru.01rururuntnaruntrurua There were no open questions in Class 1.trolled by the teacher are less clear thanfor those initiated by the children.", 
  "Thehighs were called on more frequently toanswer open questions, but the teachersinitiated more procedural and work-relatedinteractions with the lows and affordedthem slightly more response opportunities.None of these differences reach significance,however.", 
  "The only significant differenceoccurred with teacher-afforded behavioralcriticisms, which more frequently went tothe lows than the highs.", 
  "This effect showedan important interaction with sex, due tothe high frequency of teacher criticismsdirected at boys in the low group.", 
  "Malesin the low group averaged 8,25 teacherbehavior criticisms, as compared with 2.25for boys in the high group (the corres-ponding figures for girls are 1.58 and 1,83).Sex also interacted with expectancy in themeasure of hand raising, and again theboys in the low group were notablydifferent from the other three groups.", 
  "Theseboys averaged 6.25 on the hand-raisingmeasure as compared to 17.75 for theboys of the high group (correspondingfigures for the girls are 11.50 and 15.58).The data regarding interactions initiatedor controlled by the teacher may besummarized as follows: there is a tendencyfor the teachers to initiate more contactswith the lows than with the highs, butthe teachers cannot be said to have beencompensating for the superiority of thehighs in child-initiated contacts becausethe trend is not completely consistent andbecause the only significant differencesoccur with teacher criticisms rather thanwith work-related contacts or provision ofresponse opportunities.", 
  "While the data forchild-initiated contacts showed strong ex-pectancy group differences, the measures ofteacher-initiated interactions were muchmore closely related to sex than toexpectancy.", 
  "Boys were higher than girls onall measures of teacher-initiated contacts,significantly so for work-related inter-actions, behavioral criticisms, and totalteacher-afforded response opportunities.When teacher-child dyadic contacts of alltypes are totaled, a clear difference favoringboys is evident; there is no differencebetween expectancy groups.", 
  "Differencesbetween the highs and the lows are inquality rather than quantity of interactionwith the teacher.", 
  "370JERE E. BROPHY AND THOMAS L. GOODTABLE 2GBOTTP DIFFERENCES IN ACADEMIC PEBFOBMANCE AND TEACHER EVALUATIONSVariableTotal correct answersTotal part-correct, incorrect, or\"don't know\" responsesTotal problems in reading dur-ing reading groupAverage number of readingproblems per turn duringreading groupTotal number of times praisedby teacher/total dyadic con-tactsTotal number of times criti-cized by teacher/total dyadiccontactsCriticism/Praise + CriticismAverage SAT score (grade levelequivalent)Group MaClass18.674.3316.763.009.1716.5861.921.7924.752.081.461.387.3313.4268.831.5739.333.6811.756.0310.0023.7563.331.3948.424.006.833.393.2516.4282.381.73SexBoys9.133.889.383.837.7122.8873.001.58Girls6.463.139.023.067.1712.2165.231.66ExpectancyLows6.674.6313.044.673.8824.3385.041.42Highs8.922.386.352.2311.0010.7553.191.82p values for group effectsClass.05na.001.01.05.10na.001Sex.05nananana.001nanaEx-pect-ancy.10.01.001.01.001.001.001.001ClassXSexnanananananananaClassXEx-pect-ancynana.05na.10.05nansSexXiEx-pectancyns\u00bb8\u00absnana.05nanaClassXSexX Ex-pect-ancynanananananananaGroup differences in quality of academicperformance and in frequencies of teacherpraise and criticism are presented inTable 2.", 
  "Consistent expectancy group dif-ferences appear for all the variables inthis table.", 
  "The highs produced more correctanswers and fewer incorrect answers thanthe lows, had fewer problems in the readinggroups, and achieved higher average scoreson the Stanford Achievement Test givenat the end of the year.", 
  "They also weregiven more praise and less criticism thanthe lows by the teachers.", 
  "The directionof difference follows this pattern in allfour classes for every variable in Table 2except for the total correct answers, wherethe group means were equal in one class.Thus the Class X Expectancy interactionsaffected the degree but not the directionof expectation effects.Sex effects also appeared, with boysproducing more correct answers and re-ceiving more criticism than girls.", 
  "Theother, nonsignificant differences in favor ofboys are consistent with the finding notedabove that boys tend to have more inter-actions with the teacher than girls.", 
  "ASex X Expectancy Group interaction oc-curs for the measure of total criticismwhich is similar and related to the onereported for behavioral criticism in Table 1.For the boys in the low group, teachercriticism was present in 32.50% of theirdyadic contacts with the teacher.", 
  "Thecorresponding figure for the high boys is13.25%; for the low girls, 16.17%; and forthe high girls, 8.25%.In summary, the data of Table 2 showthat teacher expectancy consistently pre-dicts objective measures of classroomperformance, objective achievement testscores, and rates of teacher praise andcriticism.", 
  "Hypotheses about the role ofexpectation effects in producing these re-lationships cannot be evaluated from thedata in Table 2, however, since the typeand direction of causal mechanisms atwork remain unknown.Group differences on variables interpret-able as indexes of teacher expectationeffects are presented in Table 3.", 
  "Significantgroup differences on these measures suggestthat the teachers were systematically,although not necessarily deliberately orconsciously, treating one group more fa-vorably than the other.", 
  "The first twomeasures concern provision of responseopportunities to the children, and may beconsidered in combination with the datapreviously discussed in Table 1.", 
  "Since thehighs create more response opportunitiesfor themselves than the lows, do theteachers compensate for this by calling onthe lows more frequently?", 
  "The data sug-gest only a slight tendency in this directionat best.", 
  "The teachers definitely do notcompensate by asking the lows more directquestions, since the mean on this variable\fTEACHERS' COMMUNICATION OF DIFFEBBNTIAL EXPECTATIONS371for the lows is less than that for the highs,although not significantly.", 
  "The mean fordirect questions in the low group wouldhave been increased if \"discipline\" ques-tions had been included in their figures.These were very special questions whichappeared only in the low group, but notwith sufficient frequency to be analyzed asa separate variable.", 
  "\"Discipline\" questionswere direct questions which ostensiblyasked for academic content (\"What's thenext word, John?", 
  "\"), but which weredirected at children not paying attention.In these instances the teacher's questionsappeared to function as control techniquesrather than as response opportunities, andso they were not included in the totals fordirect questions.", 
  "If they had been includedthe results would have been an increase inthe mean for direct questions in the lowgroup, but this mean value would still bebelow that for the highs.The one teacher measure which doessuggest some compensation concerns theteacher's behavior in calling on children toanswer open questions.", 
  "When the numberof times the child is called on is weightedby the number of times he raised his handto seek a response opportunity, the re-sulting recognition rates showed a signifi-cant difference in favor of the lows.", 
  "How-ever, this difference seemed more due to thelarge difference in hand-raising rate be-tween the two groups of children ratherthan to any systematic compensationefforts by the teachers.", 
  "The recognitionrates in Table 3 are not adjusted for thefact that more highs than lows were likelyto be raising their hands seeking anopportunity to answer a given question, sothat a single response opportunity had lesseffect on the recognition rates of the highsthan on those of lows.", 
  "The rates may beadjusted by treating the highs and the lowsas groups and discounting hand raising byother members of the group when onemember of the group is called on.", 
  "Whenthe hand-raising totals are reduced in thismanner, the resultant recognition rates stillfavor the lows, although the difference nolonger approaches statistical significance.In summary, the data on quantity ofcontacts in Table 1 and Table 3 areneutral with regard to expectation effects.The highs initiate more work-related con-tacts and create more response opportuni-ties for themselves then do the lows, butthere is no unequivocal evidence to suggestthat the teachers are systematically eitherexaggerating or compensating for thesedifferences among the children.The data for the last five variables inTable 3 comprise the major findings ofthe study, since they provide direct evi-TABLE3GROUP DIFFERENCES ON VARIABLES RELAXED TO THE COMMUNICATION or TEACHER EXPECTATIONSVariableNumber of direct questionsfrom teacherNumber of times called on toanswer open questions/num-ber of times child raises handPercentage of correct answersfollowed by teacher praisePercentage of wrong answersfollowed by teacher criticismPercentage of wrong answersfollowed by repetition or re-phrasing of the questionPercentage of reading problemsfollowed by repetition or re-phrasing of the question orby giving a cluePercentage of answers (corrector incorrect) not followed byany feedback from the teacherGroup illClass1.42a6.2534.089.7575.082.5022.00.177.1712.4618.7145.758.9232.25.1619.252.0814.7938.9110.5844.00.123.251.8333.8844.6414.17SexBoys2.67.1812.8315.5023.8852.108.00Girls1.67.145.139.7314.6958.3910.08ExpectancyLows1.83.205.8818.7711.5238.8714.75Highs2.50.1212.086.4627.0467.053.33p values for group effectsClass.01ns.01.001na.05.10Sex.10na.01ntntntntEx-pect-ancyns.05.05.01.10.01.001ClassXSexntntnt.001nantntClass\u00a3pect-ancynantn.05na.01.05Sex\u00a3pect-ancynsnantntntntntClassXSexX Ex-pect-ancynantnananantnt' There were no open questions in Class 1.", 
  "372JEEE E. BBOPHT AND THOMAS L. GOODdence that the teachers' differential expec-tations for performance were being com-municated in their classroom behavior.The measures involved are all concernedwith the teachers' reactions to the children'sattempts to answer questions and read inthe reading group.", 
  "All are percentage orratio measures which take into accountabsolute differences in the frequencies ofthe various behaviors involved so as toenable a direct comparison to be madebetween the teachers' behavior toward thetwo groups when faced with equivalentsituations.", 
  "The data show that the teachersconsistently favored the highs over thelows in demanding and reinforcing qualityperformance.", 
  "Despite the fact that thehighs gave more correct answers and fewerincorrect answers than did the lows, theywere more frequently praised when correctand less frequently criticized when incor-rect or unable to respond.", 
  "Furthermore,the teachers were more persistent ineliciting responses from the highs thenthey were with the lows.", 
  "When the highsresponded incorrectly or were unable torespond, the teachers were more likely toprovide a second response opportunity byrepeating or rephrasing the question orgiving a clue than they were in similarsituations with the lows.", 
  "Conversely, theywere more likely to supply the answer orcall on another child when reacting to thelows than the highs.", 
  "This group differencewas observed both for difficulties in answer-ing questions and for problems in readingduring reading group.", 
  "Finally, the teachersfailed to give any feedback whatever only3.33% of the time when reacting to highs,while the corresponding figure for lows is14.75%, a highly significant difference.Group differences in the direction ofexpectancy effects occur for all four classeson three variables; small reversals occurin the measure of criticism following wrongresponses in one class and in the measureregarding teachers' reactions to readingproblems in another class.", 
  "These are theonly measures for which the Class xExpectancy interaction is significant.Significant sex effects also appear inTable 3, as they have previously.", 
  "Theseshow that boys receive more direct ques-tions from the teacher than girls and thatthey are praised more frequently whengiving correct answers.", 
  "The difference ondirect questions fits in with the generalfinding that boys tend to have moreinteractions of all kinds with the teachersthan girls.", 
  "The data concerning praise aremore surprising, in view of the preponder-ance of criticism toward boys noted earlier.Taken together, the data on teacher praiseand criticism in Tables 1, 2, and 3 suggestthat the teachers are generally moreevaluative in responding to boys and moreobjective in responding to girls.", 
  "Boys arepraised more often after correct responsesand criticized more often after incorrectresponses or failures to respond, althoughthe latter difference is not statisticallysignificant.", 
  "The general preponderance ofcritical comments toward boys notedearlier is apparently due to behavioralcriticisms rather than to critical commentsmade during work-related interactions.DISCUSSIONThe data of Tables 1 and 2, which showobjective differences among the childrenrelated to their sex and achievement levels,are quite consistent with previous findings.The finding that high-achieving studentsreceive more teacher praise and support(deGroat & Thompson, 1949; Good, 1970;Hoehn, 1954) was confirmed in the presentstudy.", 
  "Hoehn's suggestion that the dif-ferences between high- and low-achievingstudents in the interaction with theirteachers were in quality rather thanquantity of interaction is also compatiblewith present findings.", 
  "The finding thatteachers have more disapproval contactswith boys than girls has also been fre-quently reported (Meyer & Thompson,1956; Jackson & Lahaderne, 1966; Lippitt& Gold, 1959).", 
  "Meyer and Thompson,(1956) also reported greater praise towardboys, as was found in the present studyin work-related interactions.", 
  "Taken to-gether, the findings on sex differences inthe present study may be summarized asfollows: boys have more interactions withthe teacher than girls and appear to be\fTEACHEBS' COMMUNICATION OF DIFFERENTIAL EXPECTATIONS373generally more salient in the teacher'sperceptual field.", 
  "Teachers direct moreevaluative comments toward boys, bothabsolutely and relatively.", 
  "The largest andmost obvious absolute differences in evalu-ative comments occur with teacher criticismand disapproval, which are directed farmore frequently at boys.", 
  "However, muchof this difference appears to come in theform of behavioral criticisms and disci-plinary contacts rather than criticisms ofacademic performance in work-relatedcontacts.", 
  "The difference appears attribut-able to more frequent disruptive behavioramong boys which brings criticism uponthemselves rather than to a consistentteacher set or bias toward being morecritical toward boys than girls in equivalentsituations.", 
  "The latter statement agreesclosely with the conclusion of Davis andSlobodian (1967), who studied teacherprovision of response opportunities andevaluation of children's performance inreading groups.While sex differences are attributable toobjective differences in the classroom be-havior of the children, the data in Table 3show that differences related to teacherexpectancy are only partly attributable tothe children themselves.", 
  "When the latterdifferences are statistically controlledthrough the use of percentage measures, itis seen that the teachers systematicallydiscriminate in favor of the highs over thelows in demanding .and reinforcing qualityperformance.", 
  "Teachers do, in fact, com-municate differential performance expecta-tions to different children through theirclassroom behavior, and the nature of thisdifferential treatment is such as to en-courage the children to begin to respondin ways which would confirm teacherexpectancies.", 
  "In short, the data confirmthe hypothesis that teachers' expectationsfunction as self-fulfilling prophecies, andthey indicate some of the interveningbehavioral mechanisms involved in theprocess.", 
  "Despite large differences in thefrequencies of the various behaviors ob-served in the four classrooms, expectancyeffects were consistent across the fourteachers (two of the teachers favored thehighs on four of the last five measures inTable 3, while the other two favored thehighs on all five measures).Although the direction of difference intreatment of highs and lows was constantacross teachers, there were observabledifferences in degree.", 
  "In particular oneteacher stood out as extreme in this regard,while one other showed relatively smalldifferences, even though the direction ofdifference was constant.", 
  "It is of interestthat the latter teacher who showed theleast discrimination between highs and lowswas the teacher who did not group thechildren by achievement in her classroomseating pattern.", 
  "It is also worthy of notethat although the teachers' expectationswere highly related to the children'sachievement test scores within classes, theachievement scores are not so closely re-lated to the previous readiness and achieve-ment data which were used as the basisof tracking into classrooms.", 
  "That is, theclass achievement of some classes washigher than expected, while that of otherswas lower.", 
  "While not enough classes wereincluded to allow a statistical test, thedata suggest that the achievement levels ofthe classes were related to the teachers'performance demands and expectations.While this research has demonstrated theapplicability of classroom interaction anal-ysis methods to the study of the communi-cation of teacher expectations and hasyielded data which are consistent andinterpretable as far as they go, it dealtwith only a few of the events interveningbetween the formation of teacher expecta-tions and the initiation of reciprocal be-havior by the children.", 
  "Several relatedstudies are needed to complete the picture.For instance, if differential teacher treat-ment leads to differential reciprocal be-havior by the children, the classroombehavior of highs and lows should becomeprogressively more differentiated as theschool year progresses.", 
  "Hand raising, childinitiation of work-related interactions, andother indexes of attempts by the child toseek response opportunities or academicinteractions should show this kind ofprogressive differentiation between groups.", 
  "374JEEE E. BBOPHY AND THOMAS L. GOODAnother set of questions has to do with in-tervention attempts.", 
  "Can teachers be madeaware of their discriminatory classroom be-havior?", 
  "Can they learn to compensate, notonly for their own differential expectationsbut also for objective differences in theclassroom behavior of the children?", 
  "Willexperimentally induced expectations pro-duce the same differences in classroombehavior as expectations formed \"natu-rally\" by the teachers themselves?", 
  "Theseand related questions will be taken up infuture research.Additional indexes of the ways in whichteachers discriminate in their classroombehavior are also needed to add to ourunderstanding of the processes involvedand to increase the effectiveness of teachereducation and classroom intervention inpreventing or reducing the problem.", 
  "Anec-dotal observations taken during the presentresearch suggest that other useful indexesof teacher communication of differentialperformance expectations may be possible.Possibilities being presently explored in-clude differences in the type of feedbackgiven to the children (inquiry into theprocesses underlying the response productrather than simple negation or provisionof the right answer) and differential en-forcement of teacher expectations (dis-couraging initiative in some children bydoing things for them while requiringother children to do the same thingsthemselves).", 
  "Teachers are frequently una-ware of the subtle differences in theirbehavior in such situations, yet it is insuch situations that teachers systematicallycommunicate differential expectations todifferent students.", 
  "Although subtle, suchteacher behavior is observable and meas-urable, and therefore at least potentiallysubject to modification and control."
 ]
}