{
 "document_id": "14516419199389132929", 
 "sentences": [
  "Quality School LEADERSHIP \nMeasuring School Climate for  Gauging Principal Performance  A Review of the Validity and Reliability   of Publicly Accessible Measures \n\f\fMeasuring School Climate for   Gauging Principal Performance A Review of the Validity and Reliability   of Publicly Accessible Measures \nApril 2012 \nMatthew Clifford, Ph.D., American Institutes for Research  Roshni Menon, Ph.D., American Institutes for Research  Tracy Gangi, Psy.D., Consultant  Christopher Condon, Ph.D., American Institutes for Research  Katie Hornung, Ed.M., American Institutes for Research \n\f\fContents  \n\nIntroduction \n5  Procedure \n7  School Climate Surveys Reviewed \n11  Discussion \n13  Conclusion \n20"
 ]
}