{
 "document_id": "14604632838373574975", 
 "sentences": [
  "Research in Higher Education, Vol.", 
  "46, No.", 
  "6, September 2005 (\u00d3 2005) DOI: 10.1007/s11162-004-4139-z \nSELF-EFFICACY, STRESS, AND ACADEMIC SUCCESS IN COLLEGE \nAnna Zajacova,* Scott M. Lynch,** and Thomas J. Espenshade\u2020,\u2021 \n................................................................................................ ................................................................................................", 
  "This paper investigates the joint effects of academic self-ef\ufb01cacy and stress on the academic performance of 107 nontraditional, largely immigrant and minority, college freshmen at a large urban commuter institution.", 
  "We developed a survey instrument to measure the level of academic self-ef\ufb01cacy and perceived stress associated with 27 college-related tasks.", 
  "Both scales have high reliability, and they are moderately negatively correlated.", 
  "We estimated structural equation models to assess the relative importance of stress and self-ef\ufb01cacy in predicting three academic performance outcomes: \ufb01rst-year college GPA, the number of accumulated credits, and college retention after the \ufb01rst year.", 
  "The results suggest that academic self-ef\ufb01cacy is a more robust and consistent predictor than stress of academic success.", 
  "................................................................................................ ................................................................................................ KEY WORDS: self-ef\ufb01cacy; stress; academic; nontraditional; college; immigrant; minority; retention; performance.", 
  "INTRODUCTION \nDespite steadily rising enrollment rates in U.S. postsecondary institu- tions, weak academic performance and high dropout rates remain persistent problems (Lloyd, Tienda, and Zajacova, 2001; Tinto, 1994).", 
  "For academic institutions, high attrition rates complicate enrollment planning and place added burdens on \namong undergraduates \n*Fifth-Year Graduate Student, O\ufb03ce of Population Research and Department of Sociology, \nPrinceton University.", 
  "**Assistant Professor of Sociology and Faculty Associate, O\ufb03ce of Population Research, \nPrinceton University.", 
  "Professor of Sociology and Faculty Associate, O\ufb03ce of Population Research, Princeton zAddress correspondence to: Thomas J. Espenshade, O\ufb03ce of Population Research, 249 \nUniversity.", 
  "Wallace Hall, Princeton University, Princeton, NJ 08544-2091.", 
  "E-mail: tje@princeton.edu \n\n0361-0365 \u2044 05 \u2044 0900-0677 \u2044 0 \u00d3 2005 Springer Science+Business Media, Inc. \n\nZAJACOVA, LYNCH, AND ESPENSHADE \ne\ufb00orts to recruit new students.", 
  "For students, dropping out before earn- ing a terminal degree represents untapped human potential and a low return on their investment in college (Card and Krueger, 1992; Jaeger and Page, 1996).", 
  "Poor academic performance is often indicative of di\ufb03- culties in adjusting to college and makes dropping out more likely (Gillock and Reyes, 1999; Murtaugh, Burns, and Schuster, 1999).", 
  "This paper examines the joint e\ufb00ect of two related social cognitive factors\u2014academic self-e\ufb03cacy and stress\u2014on academic performance and retention for college freshmen.", 
  "Both of these factors have been examined extensively as predictors of academic adjustment, but we focus explicitly on assessing the relative importance of these two variables in explaining college success.", 
  "We employ a new instrument that assesses both self-e\ufb03cacy and stress with regard to identical college- related tasks, allowing for a more direct comparison of these two constructs.", 
  "We examine three measures of academic success: \ufb01rst-year cumulative grades and credits, and retention in the second year.", 
  "We focus on the e\ufb00ect of these social cognitive factors in the context of a nontraditional, immigrant, and minority college-student population.", 
  "Nontraditional students are de\ufb01ned as students who are older, attend school part-time, and are \ufb01nancially independent (NCES, 2002b).", 
  "Previ- ous studies of college outcomes have often been conducted with tradi- tional students (Kasworm and Pike, 1994) who now account for fewer than half of all undergraduates in the United States (NCES, 1996, 2002b).", 
  "Moreover, problems associated with lower academic perfor- mance and higher attrition are disproportionately concentrated among nontraditional students (Feldman, 1993; Wlodkowski, Mauldin, and Gahn, 2001) and minority students (Eagle and Carroll, 1988; Smedley, Myers and Harrell, 1993).", 
  "Thus, although they account for a large per- centage of college students in metropolitan areas, nontraditional stu- dents are severely understudied.", 
  "We suggest that it is important to focus attention on exploring the e\ufb00ect of social cognitive factors for this more disadvantaged college population.", 
  "BACKGROUND \nSelf-Ef\ufb01cacy \nSelf-e\ufb03cacy is de\ufb01ned as a self-evaluation of one\u2019s competence to suc- cessfully execute a course of action necessary to reach desired outcomes (Bandura, 1977, 1982, 1986).", 
  "It is a multidimensional construct that varies according to the domain of demands (Zimmerman, 2000), and therefore it must be evaluated at a level that is speci\ufb01c to the outcome \n\fSELF-EFFICACY, STRESS, AND ACADEMIC SUCCESS IN COLLEGE \n\ndomain (Bandura, 1986; Pajares, 1996).", 
  "Thus, in academic settings, one should measure academic self-e\ufb03cacy rather than generalized self- e\ufb03cacy, where academic self-e\ufb03cacy refers to students\u2019 con\ufb01dence in their ability to carry out such academic tasks as preparing for exams and writing term papers.", 
  "A large meta-analysis of studies of self-e\ufb03cacy in academic environments concluded that the most speci\ufb01c academic self-e\ufb03cacy indices had the strongest e\ufb00ect on academic outcomes, while the more generalized measures were less closely associated (Multon, Brown, and Lent, 1991).", 
  "General self-e\ufb03cacy measures were not found to be predictive of any college outcomes (Ferrari and Parker, 1992; Lindley and Borgen, 2002), while academic self-e\ufb03cacy has been consis- tently shown to predict grades and persistence in college.", 
  "An extensive body of research has shown that academic self-e\ufb03cacy is positively associated with grades in college (Bong, 2001; Brown, Lent, and Larkin, 1989; Hackett, Betz, Casas, and Rocha-Singh, 1992; Lent, Brown, and Larkin, 1984; Multon, Brown, and Lent, 1991) as well as with persistence (Lent et al., 1984, 1986, 1987; Zhang and RiCharde, 1998).", 
  "Bandura (1993) posits that self-e\ufb03cacy beliefs a\ufb00ect college out- comes by increasing students\u2019 motivation and persistence to master chal- lenging academic tasks and by fostering the e\ufb03cient use of acquired knowledge and skills.", 
  "Torres and Solberg (2001) found a positive associ- ation between academic self-e\ufb03cacy and the number of hours students spent studying.", 
  "Generalized stress is de\ufb01ned as a state of psychological arousal that results when external demands tax or exceed a person\u2019s adaptive abili- (Lazarus, 1966; Lazarus and Folkman, 1984).", 
  "Environmental demands are labeled stressors, and they can take the form of an acute event or an ongoing strain (see Pearlin, 1989 in the context of general stress research), while stress refers to the internal perceived emotions and cognitions.", 
  "Academic stress has been studied extensively as an important (Gall, Evans, and Bellerose, 2000; Mallinckrodt, 1988).", 
  "In general, college-related stress has been found to be inversely related to academic performance among traditional undergraduates (Felsten and Wilcox, 1992; Pritchard and Wilson, 2003; Russell and Petrie, 1992), for freshmen in particular (Struthers, Perry, and Menec, 2000), for inner-city high school students (Gillock and Reyes, 1999), and for (Buddington, 2002).", 
  "Stress has also been identi\ufb01ed as a factor negatively a\ufb00ecting persistence for college freshmen (Perrine, 1999; Zhang and \nfactor in college student adjustment \nimmigrant \nZAJACOVA, LYNCH, AND ESPENSHADE \nRiCharde, 1998) and older nontraditional students (Chartrand, 1992).", 
  "Some studies, on the other hand, have failed to detect an association be- tween stress and academic outcomes.", 
  "Petrie and Stoever (1997) found life-events stress not to be a signi\ufb01cant predictor of academic perfor- mance for college student-athletes, and Sandler (2000a) concluded that perceived stress did not predict the intent to stay in school for adult col- lege students.", 
  "Among nontraditional immigrant and minority student populations, stress may be an even more dominant factor in\ufb02uencing academic out- comes than it is for white U.S.-born students.", 
  "Acculturative stress among immigrants and minorities predisposes them to more social stress, com- pared to native-born and white students (Moritsugu and Stanley, 1983; Smedley, 1993).", 
  "Acculturative stress is highest for students who immi- grated to the United States shortly before enrolling in college.", 
  "For exam- ple, Mena, Padilla, and Maldonado (1987) found that recent immigrants report more stress than either students who immigrated at an early age or the native born.", 
  "Linking Self-Ef\ufb01cacy and Stress \nSelf-e\ufb03cacy and stress are closely related concepts.", 
  "In Lazarus\u2019 cogni- tive model of stress (Lazarus and Folkman, 1984), personal beliefs such as self-e\ufb03cacy are crucial in evaluating demands from the environment.", 
  "Each external demand is evaluated as a \u2018\u2018threat\u2019\u2019 or a \u2018\u2018challenge,\u2019\u2019 and persons with high self-e\ufb03cacy beliefs are more likely to evaluate the demands as a challenge (Chemers, Hu, and Garcia, 2001; Lazarus and Folkman, 1984; Pintrich and De Groot, 1990).", 
  "That is, the extent to which a person feels con\ufb01dent about his or her competence to handle a given situation a\ufb00ects whether a given task is perceived as stressful or threatening, rather than as a challenge.", 
  "When a task is appraised as a challenge, one is more likely to select an e\ufb00ective coping strategy and to persist at managing the task.", 
  "Self-e\ufb03cacy thus a\ufb00ects the perception of external demands and mediates the relation between external stressors (Bandura, 1995).", 
  "Using a path analytic and psychological model, Chemers, Hu, and Garcia (2001) the e\ufb00ect of academic self-e\ufb03cacy on stress was completely mediated by evaluations of demands as threat or challenge.", 
  "In the other direction, physiological arousal states associated with stress and anxiety o\ufb00er information a\ufb00ecting self-e\ufb03cacy judgments (Pajares, 1996; Solberg et al., 1998).", 
  "Similarly, Hackett et al.", 
  "(1992) suggested that stress and anxiety may depress self-e\ufb03cacy judgments of students.", 
  "found that \n\n\fSELF-EFFICACY, STRESS, AND ACADEMIC SUCCESS IN COLLEGE \n\nThus cognitive theory posits a strong negative relationship between self-e\ufb03cacy and perceived stress, and empirical \ufb01ndings o\ufb00er support for the theory.", 
  "In a number of studies, self-e\ufb03cacy and stress among college students have been consistently shown to have moderate to strong negative correlations (Gigliotti and Hu\ufb00, 1995; Hackett et al., 1992; Solberg, Hale, Villarreal, and Kavanagh, 1993; Solberg and Villar- real, 1997; Torres and Solberg, 2001).", 
  "While social cognitive theory provides a coherent framework linking self-e\ufb03cacy and stress, most research has explored their independent roles in explaining academic outcomes.", 
  "Very little work has exam- in\ufb02uence as determinants of academic success in ined their joint college.", 
  "Hackett et al.", 
  "identi\ufb01ed both perceived stress and academic self-e\ufb03cacy as predictors of cumulative grade-point average (GPA) for traditional students enrolled in engineering schools.", 
  "Good grades were associated with low perceived stress and high self-e\ufb03cacy.", 
  "Focusing more among high school students, Pajares and Kranzler (1995) concluded that mathemat- ics self-e\ufb03cacy exerted a strong in\ufb02uence on performance, while math anxiety had an e\ufb00ect only through its association with self-e\ufb03cacy.", 
  "In a study with even younger students, both stress and self-e\ufb03cacy were signi\ufb01cantly associated with performance in English, but self-e\ufb03cacy appeared to be a stronger predictor (Pintrich and De Groot, 1990).", 
  "These studies \ufb01nd self-e\ufb03cacy is a somewhat better predictor of academic success than stress.", 
  "speci\ufb01cally on math performance \nAn even smaller number of studies has addressed the joint e\ufb00ect of self-e\ufb03cacy and stress on persistence for undergraduates.", 
  "Among adult college students, Sandler (2000a, 2000b) found that career decision making self-e\ufb03cacy was a more consistent predictor than perceived stress.", 
  "Torres and Solberg (2001) studied persistence intentions among Hispanic students and concluded that academic self-e\ufb03cacy predicted the outcome, while college stress did not.", 
  "We found only one study (Gigliotti and Hu\ufb00, 1995) included the same three academic outcomes as we do in this paper: grades, credits and persistence.", 
  "However, they used generalized measures of stress and self-e\ufb03cacy and did not \ufb01nd either to be signi\ufb01cantly related to any outcome.", 
  "Finally, an interesting experiment conducted at a community college showed that students who received training on self-e\ufb03cacy and stress management signi\ufb01cantly improved their grades and persistence rates, compared to students who received learning skills training (Barrios, 1997).", 
  "These studies suggest that both academic stress and self-e\ufb03cacy have some e\ufb00ect on academic outcomes, and there is some evidence that self- e\ufb03cacy may be a better predictor.", 
  "However, in all the studies we have \n\nZAJACOVA, LYNCH, AND ESPENSHADE \nreviewed, these two constructs were evaluated with respect to di\ufb00erent tasks.", 
  "They did not evaluate students\u2019 reported stress regarding, say, asking questions in class, and also evaluate students\u2019 self-e\ufb03cacy judg- ment for this task.", 
  "This, we suggest, makes the direct comparison of their e\ufb00ects problematic.", 
  "The main contribution of this paper is to examine the e\ufb00ect of academic self-e\ufb03cacy and perceived stress with regard to identical tasks.", 
  "This allows us to more closely compare the relative importance of these two concepts for students\u2019 academic success than previous research has done.", 
  "RESEARCH QUESTIONS \nOur analysis is guided by the following research questions.", 
  "First, what is the relationship between academic self-e\ufb03cacy and stress?", 
  "We expect to \ufb01nd a negative correlation, when high academic self-e\ufb03cacy success- fully mediates the college demands and results in lower perceived stress.", 
  "Second, how are grades, credits, and persistence related?", 
  "In previous studies, high school GPA was identi\ufb01ed as a strong predictor of college students\u2019 academic performance (Feldman, 1993; Garton, Ball, and Dyer, 2002).", 
  "College GPA is in turn a strong predictor of persistence (Carney and Geis, 1981; Gillock, 1999; Wlodkowski, Mauldin, and Gahn, 2001).", 
  "There are exceptions to this \ufb01nding, however.", 
  "Torres and Solberg (2001) found that GPA did not predict persistence among His- panic students.", 
  "One very consistent \ufb01nding concerns part-time students, who are more likely than their full-time counterparts to drop out of college (Breindel, 1997; Feldman, 1993; Fredda, 2000; King, 2003; Windham, 1994).", 
  "We expect to \ufb01nd that all three outcomes\u2014grades, credits and persistence\u2014will be positively related to one another.", 
  "The third and most important research question concerns the absolute and relative e\ufb00ects of self-e\ufb03cacy and stress on these academic out- comes.", 
  "We hypothesize that both academic self-e\ufb03cacy and stress will have an e\ufb00ect on all outcomes, with higher levels of self-e\ufb03cacy and lower stress being associated with better grades, more accumulated credits, and greater persistence.", 
  "A \ufb01nal question explores the e\ufb00ect of demographic factors on academic success and persistence.", 
  "Previous research has concluded that sociodemographic characteristics of students are inconsistently related to college outcomes.", 
  "Older students have been found to earn higher grades than younger, traditional-age students (Sheehan, McMenamin, and McDevitt, 1992; Spitzer, 2000) but also to drop out at higher rates (Feldman, 1993; Liu and Liu, 1999; Wlodkowski et al., 2001).", 
  "Chartrand (1992) found no relation between age and intent to continue \n\fSELF-EFFICACY, STRESS, AND ACADEMIC SUCCESS IN COLLEGE \n\nin college for nontraditional students.", 
  "In some studies, women have been found to earn higher grades then men (Spitzer, 2000) and to have lower rates of attrition (Feldman, 1993), while other studies have identi- \ufb01ed no consistent relationship between gender and persistence (Fredda, 2000; Liu and Liu, 1999; Wlodkowski et al., 2001).", 
  "Regarding race, most research has found that black and Hispanic students are more likely than white students to drop out of college (Eagle and Carroll, 1988; Liu and Liu, 1999).", 
  "However, some authors have failed to \ufb01nd a signi\ufb01cant race di\ufb00erence (Fredda, 2000), and still others have found that full-time Hispanic students have the lowest attrition rates (Breindel, 1997).", 
  "In sum, the existing research literature suggests that demographic factors are not consistent predictors of college outcomes (Chartrand, 1992; Fredda, 2000; Wlodkowski, Mauldin, and Gahn, 2001).", 
  "We ask whether any demographic characteristics are related to academic outcomes among immigrant and minority nontraditional freshmen.", 
  "Participants \nThe participants in our study include 107 \ufb01rst-semester freshmen who enrolled in college in the spring semester of 1997\u20131998 at one of the City University of New York campuses.", 
  "This large 4-year institution attracts mainly nontraditional, minority and immigrant students who commute to school and often study part-time.", 
  "Attrition is a major prob- lem at this school; only one-quarter of students earns a bachelor\u2019s degree within 6 years of enrolling.", 
  "There were 289 new students in the spring 1998 entering cohort (the cohorts starting in the fall semesters are much larger), so our sample includes 37% of all incoming students.", 
  "We focus on freshmen because studies show that undergraduates are at the highest risk of attrition during their \ufb01rst year in college (NCES, 2002a).1 \nOur sample is representative of the incoming spring cohort.", 
  "The aver- age age of participants in the study (20.7 years) is not signi\ufb01cantly di\ufb00erent (p=0.13) from the average age of all entrants in the spring semester of the 1997\u20131998 academic year (21.3 years)\u2014see Table 1.", 
  "There is also no signi\ufb01cant di\ufb00erence between the proportion of women in the sample (0.73) and the population proportion (0.65).", 
  "The proportions of whites, blacks, and Asians in the sample are representative of the corre- sponding proportions in the population.", 
  "However, the sample proportion of Hispanics (0.35) is signi\ufb01cantly higher than the proportion in college (0.17).", 
  "Perhaps some of the Hispanic students were classi\ufb01ed into the \u2018\u2018other or missing\u2019\u2019 category in the reported administrative data.", 
  "ZAJACOVA, LYNCH, AND ESPENSHADE \nTABLE 1.", 
  "Comparison of Sample and Population Characteristics* \nSample (N = 107) \nPopulation** (N = 289) \nDi\ufb00erence \nOther/missing \n20.7 (3.8) \n21.3 (4.5) \n*Population refers to all students who enrolled as \ufb01rst-semester freshmen in the spring semester **Data acquired by personal communication from Rachel Maxwell, O\ufb03ce of Institutional Research, Hunter College.", 
  "Additional information about the composition of student body is available at http://www.hunter.cuny.edu/ir/.", 
  "***p<0.01.", 
  "Students completed a questionnaire that consists of two parts.", 
  "The \ufb01rst part asks participants to record their age, sex, high school GPA, racial/ethnic identi\ufb01cation, language most often spoken at home, coun- try of birth, and age at immigration for the foreign born.", 
  "Respondents also reported their social security (or college ID) number, which we used a year later to access students\u2019 academic records.", 
  "The second part includes an instrument to measure academic self-e\ufb03- cacy and stress.", 
  "In order to study in detail the interrelationship of these two concepts and their e\ufb00ect on academic outcomes, we developed a new instrument that measures self-e\ufb03cacy and stress with regard to the same college-related tasks.", 
  "One-third of the tasks are chosen selectively from existing measures of academic self-e\ufb03cacy such as the Academic Milestones Scale (Lent et al., 1986) or the College Self-E\ufb03cacy Inven- tory (Solberg, O\u2019Brien, Villareal, Kennel, and Davis, 1993).", 
  "We did not use these scales in their entirety because they are not entirely suited for a nontraditional college population.", 
  "For example, the CSEI includes items related to dormitory life, which are not relevant for the sample of commuting students.", 
  "The additional 18 tasks consist of items that students attending our study\u2019s college but not participating in this study listed as stressful.", 
  "SELF-EFFICACY, STRESS, AND ACADEMIC SUCCESS IN COLLEGE \n\nEach scale contains a list of 27 tasks such as \u2018\u2018writing term papers,\u2019\u2019 \u2018\u2018asking questions in class,\u2019\u2019 and \u2018\u2018managing both school and work.\u2019\u2019 For each task, students were asked to rate on an 11-point Likert scale how stressful they found the task, (from 0 = not at all stressful to 10 = extremely stressful).", 
  "A second scale asks respondents to rate the same tasks according to how con\ufb01dent they are that they could successfully complete them (from 0 = not at all con\ufb01dent to 10 = extremely con\ufb01- dent).", 
  "The list, with each of is shown in Appendix \nthe 27 tasks, \nIn the spring of 1999, 1 year after the students enrolled in college, we obtained institutional data for all 107 students on the following outcome variables: (1) cumulative grade-point average for the \ufb01rst two college semesters, (2) total number of credits earned during the \ufb01rst two semesters; and (3) whether the student was enrolled at the begin- ning of the third semester.", 
  "Cumulative GPA is measured on a 4-point scale with a maximum of 4.0.", 
  "Students normally register for up to \ufb01ve courses per semester.", 
  "Full-time students are those who take at least 12 credit hours per semester.2 \nProcedures \nthe 12 sections of \nAll 289 entering students were expected to register for a one-semes- ter Freshman Orientation Seminar that met one hour each week on a noncredit basis.", 
  "Permission was obtained from the freshman seminar coordinator and from all except one seminar instructor to distribute questionnaires in 11 of the course o\ufb00ered that semester.", 
  "All survey data were obtained during the next-to-last week of classes of the spring semester.", 
  "In each class, the investigator (one of the authors) explained the general purpose of the study and read aloud the informed consent form, which students signed before they \ufb01lled out the questionnaires.", 
  "Students were then asked to answer a two-page instrument that took approximately 12\u201315 min to complete.", 
  "Of the 134 students who were present in the 11 sections of the course on the days the survey instrument was distributed, just nine chose not to participate in the study.", 
  "The resulting survey participation rate is 93.3%.", 
  "Thirteen students either did not include their social security number or college ID number on the questionnaire or wrote it too illegibly for the completed questionnaire to be useful, and we were not able access their records to record the outcome variables.", 
  "An addi- tional \ufb01ve students failed to supply any demographic information.", 
  "These 18 participants were zexcluded from the analysis, leaving a \ufb01nal sample of 107 students.", 
  "ZAJACOVA, LYNCH, AND ESPENSHADE \nSample Description \nAverage sample characteristics are shown in Table 2.", 
  "The typical freshman is 20.7 years old, nearly 3 years older than traditional \ufb01rst- year students, but there is considerable variation in students\u2019 ages.", 
  "Almost three-quarters (72.9%) of sample members are female.", 
  "Hispanics comprise the largest student group (35.5%), followed closely by whites (30.8%), then Blacks and Asians.", 
  "The average sample member has a 3.2 \nTABLE 2.", 
  "Sample Characteristics \n\nPredictor Variables \n\nRace/ethnicity \n\nHigh school GPA** Immigrant status \nU.S. born Recent immigrant*** Experienced immigrant \nLanguage most spoken at home \n\nOutcome Variables Cumulative results of the \ufb01rst year \nCollege GPA** Number of credit hours \nEnrollment status in 3rd semester \nNot enrolled \nSample size (N = 107) \n*Standard deviation in parentheses.", 
  "**GPA in high school and college was measured on a 4-point scale.", 
  "***Has been in the United States for four years or less.", 
  "Means and Frequencies \n20.7 (3.8)* \n3.2 (0.4) \n2.6 (1.0) 19.4 (8.8) \n\n\fSELF-EFFICACY, STRESS, AND ACADEMIC SUCCESS IN COLLEGE \n\nhigh-school GPA, or nearly a B+ average.", 
  "Three out of every \ufb01ve students are foreign-born, and the majority of these report being recent immigrants\u2014in the United States fewer than 5 years.", 
  "Not surprisingly, given other sample characteristics, English is the language used at home by fewer than half of all sample members.", 
  "Spanish is spoken most often at home by nearly one-\ufb01fth of these students, and another 35% use one of 21 other languages, including Chinese, Hebrew, French, Russian, Thai, and Korean, among others.", 
  "The outcome variables of interest are shown in the lower half of Table 2.", 
  "The typical student achieved a 2.6 grade point average for their \ufb01rst two semesters of college coursework.", 
  "Students accumulated an average of 19 credits in the same period.", 
  "Only 35 percent of students earned enough credits to be considered full-time students (24 credits in two semesters).", 
  "Other students either attended school part time or drop- ped out before completing their \ufb01rst year.", 
  "In fact, 30% of the original sample was not enrolled for the third semester.", 
  "Simple bivariate relationships show that older students have slightly higher GPAs than younger students, but there is no di\ufb00erence between men and women in either GPAs or enrollment rates for third semester.", 
  "Whites have the highest college grades (average GPA of 2.98) and Latinos the lowest (2.38).", 
  "Black students are the most likely to drop out; 42% were no longer enrolled by the third semester.", 
  "At the other extreme, Asians have the lowest attrition; just one Asian student among 17 was not enrolled during the third semester.", 
  "Recent migrants have signi\ufb01cantly higher average GPAs (3.1) than either other migrants with more U.S. experience (2.4) or their U.S.-born counterparts (2.3).", 
  "High- school grades are positively associated with college grades but negatively related to persistence.", 
  "The number of credits earned is positively corre- lated with both GPA and with persistence.", 
  "Finally, grades in college are related to attrition rates; students who were enrolled at the start of their second year had GPAs that were on average 0.4 points higher than those who had dropped out.", 
  "In general, students rated their con\ufb01dence in performing the 27 tasks in Appendix Table A more highly than they rated their stress levels.", 
  "The mean self-e\ufb03cacy score is 6.5, with a standard deviation of 1.7, when averaged across all 27 items and 107 students.", 
  "By contrast, the mean stress score is 4.6 (standard deviation of 1.7).", 
  "The items that generate the greatest and least amount of stress are shown in Table 3.", 
  "These rankings are obtained by averaging the stress scores for each task across 107 students.", 
  "The three most stressful tasks are related to academic performance\u2014writing terms papers, having too many tests in one week, and doing well in demanding courses.", 
  "The least stressful tasks are more \n\nZAJACOVA, LYNCH, AND ESPENSHADE \nTABLE 3.", 
  "The Most and Least Stressful Tasks and Their Rank on the Stress and \nSelf-E\ufb03cacy Scales \n\nStress Rank \nSelf-E\ufb03cacy Rank* \nWriting term papers Having more tests in the same week Doing well in my toughest class Making friends at school Talking to college sta\ufb00 Understanding college regulations \n1 (most stressful) 27 (least stressful) \n1 (least con\ufb01dent) \n26 (second most con\ufb01dent) \n*The self-e\ufb03cacy rank is in reverse order to facilitate comparisons.", 
  "social in nature\u2014making friends at school, talking with college sta\ufb00, and understanding rules and regulations.", 
  "The third column of Table 3 shows how the same six items rank on the self-e\ufb03cacy scale.", 
  "Interestingly, the three tasks students consider most stressful are the same three they feel least con\ufb01dent in perform- ing successfully.", 
  "And the three least stressful tasks rank near the top in students\u2019 evaluations of how con\ufb01dent they feel in doing them well.", 
  "The inverse association between stress and self-e\ufb03cacy is also evident at the individual student level.", 
  "For each of the 27 tasks, we calculated correlation coe\ufb03cients between students\u2019 stress scores and their self- e\ufb03cacy scores.", 
  "Each of the correlations is signi\ufb01cantly di\ufb00erent from zero and ranges between )0.26 and )0.74.", 
  "In other words, students who express little stress associated with performing particular tasks tend to display greater con\ufb01dence about doing them well, whereas those students who experience higher stress levels exhibit much less self-con\ufb01dence.", 
  "The analyses were conducted in two parts.", 
  "First, we examined the data via both exploratory and con\ufb01rmatory factor analysis to determine (1) whether the stress and self-e\ufb03cacy items in the questionnaire could be reduced to a smaller subset of indexes capturing di\ufb00erent dimensions of each, and (2) whether stress and self-e\ufb03cacy could be considered distinct constructs, given the approach to measuring them in the survey.", 
  "In the second part of the analysis, we used structural equation modeling to examine the e\ufb00ect of stress and self-e\ufb03cacy as latent constructs on each of the three outcomes: college GPA at the end of the \ufb01rst year, \n\fSELF-EFFICACY, STRESS, AND ACADEMIC SUCCESS IN COLLEGE \n\ncredit hours obtained during the year, and enrollment in college at the start of the third semester.", 
  "Structural equation modeling is particularly well suited to these analyses, because (1) stress and self-e\ufb03cacy can be considered latent constructs that are imperfectly measured by questionnaire items (or indexes derived from them) and (2) structural equation modeling, as a multivariate method, allows estimation of cross-equation error correla- tion (see Bollen, 1989).", 
  "Allowing such correlations is important in this context, because enrollment, credits, and GPA are expected to be re- lated to each other independent of the e\ufb00ects of stress, self-e\ufb03cacy, and background variables.", 
  "Furthermore, stress and self-e\ufb03cacy are not unre- lated constructs, especially as measured in this questionnaire.", 
  "Ignoring cross-equation error correlation by estimating models separately by out- come thus introduces an omitted variable bias.", 
  "Finally, estimating mod- els separately would not allow us to assess the relationship among the outcome measures.", 
  "For these analyses, we used LISREL\u2019s maximum likelihood estimator.", 
  "Although structural equation modeling is appropriate for these analy- ses, our small sample size warrants caution in interpreting the results.", 
  "For example, Bollen (1989), in summarizing the literature, suggests that sample sizes of 100 or more\u2014and preferably 200 or more\u2014are often necessary to ensure the accuracy of the chi-square statistic.", 
  "Factor Analysis \nExploratory and con\ufb01rmatory factor analyses are not discrete approaches to analyzing attitudinal data.", 
  "Instead, they can be viewed along a continuum with exploratory analyses and con\ufb01rmatory analy- ses on opposite ends of the continuum (see Bollen, 1989).", 
  "Exploratory factor analysis allows the data to \u2018\u2018cluster\u2019\u2019 into factors after imposing certain constraints on the model, including considerations such as the method of rotation and the number of factors allowed.", 
  "In con\ufb01rma- tory factor analysis, a factor structure is proposed a priori and the data are tested against the model to \u2018\u2018con\ufb01rm\u2019\u2019 the model.", 
  "Under both approaches, adjustments are generally made on the basis of pre- liminary results, thereby mixing notions of exploratory and con\ufb01rma- \nWe approached the factor analyses of the stress and self-e\ufb03cacy items in several ways.", 
  "We \ufb01rst conducted exploratory factor analyses, using several methods of rotation, restrictions on numbers of factors, and the \n\nZAJACOVA, LYNCH, AND ESPENSHADE \nlike.", 
  "We next conducted con\ufb01rmatory factor analysis to assess the \ufb01t of the factors found in the exploratory analyses to the data and made adjustments based on these results.", 
  "Preliminary exploratory factor anal- yses of the 27 stress items revealed that the items cluster in four domains, which we label di\ufb03culty with interaction at school, di\ufb03culty with academic performance outside of class, di\ufb03culty with academic performance in class, and di\ufb03culty with managing work, family, and school.", 
  "Con\ufb01rmatory factor analyses conducted using the results of (compared with a second set conducted the exploratory analyses independently of the exploratory analyses) suggested relatively few changes to these factors, with four items subsequently being dropped from consideration due to poor loading (items regarding understanding professors, parents\u2019 expectations of grades, taking good class notes, and having enough money).", 
  "the results of \nWe replicated the con\ufb01rmatory factor analysis results for the 27 self- e\ufb03cacy items and obtained similar results, indicating that the self-e\ufb03- cacy items cluster into four factors as well.", 
  "We label these four factors con\ufb01dence in interaction at school, con\ufb01dence in academic performance outside of class, con\ufb01dence in academic performance in class, and con\ufb01dence in ability to manage work, family, and school.", 
  "For both stress and self-e\ufb03cacy, seven items load on the \ufb01rst factor; eight items load on the second factor; and four items load on each of the remaining two factors (see Appendix Table B for details).", 
  "Given the wording of the items in the questionnaire and the simi- larity in loadings on factors, we next sought to determine whether the factors measuring stress were perfectly (and negatively) corre- lated with their respective factors measuring self-e\ufb03cacy.", 
  "That especially because the same items were used to assess stress as self- e\ufb03cacy, it could be the case that the two constructs are simply in- verses of one another\u2014those who evidence greater stress evidence less self-e\ufb03cacy (perhaps in resolving it).", 
  "For these tests, we con- ducted con\ufb01rmatory factor analyses consisting of two factors: one measuring stress and one measuring self-e\ufb03cacy.", 
  "In the \ufb01rst model, we allowed the correlation between the two factors to be freely esti- in the second model, we forced the correlation between the two factors to be \ufb01xed at )1.", 
  "The results of these analyses (not reported in a table) reveal a moderate to strong\u2014but not per- fect\u2014negative correlation between each stress and self-e\ufb03cacy factor (ranging from )0.50 to )0.74).", 
  "Furthermore, chi-square di\ufb00erence tests show a large and signi\ufb01cant di\ufb00erence in model \ufb01t between the restricted and unrestricted models, a\ufb03rming that stress and self-e\ufb03- cacy are not \nsimply inverses.", 
  "these results \n\n\fSELF-EFFICACY, STRESS, AND ACADEMIC SUCCESS IN COLLEGE \n\nstress and self-e\ufb03cacy, despite being measured similarly in the sur- vey, are related but distinct constructs.", 
  "Structural Equation Modeling \nFor structural equation modeling purposes, we summed and aver- aged the items for each factor to produce four indexes for stress and four indexes for self-e\ufb03cacy.3 Thus, in the structural equation mod- els, we constructed a general stress factor measured by four indexes and a general self-e\ufb03cacy factor (also measured by four indexes).", 
  "We took this approach, rather than keeping the four stress and self-e\ufb03- cacy factors independent, for two reasons.", 
  "First, the small sample size prohibits us from estimating the model with eight separate factors (the number of parameters exceeds the pieces of information con- tained in the data).", 
  "Second, this approach is more parsimonious than estimating a more complex model, and the results we report are com- pletely consistent with all other approaches we employ to test robust- Cronbach\u2019s alphas for these indexes.", 
  "All alphas are very large, rang- ing from 0.72 to 0.90. \nspeci\ufb01cations.4 Appendix Table C reports \nto alternate \nFigure 1 presents a graphic depiction of the full structural equation model we estimated.", 
  "In this model, age, gender, race, nativity status (recent immigrants versus everyone else), primary language spoken in the home, and high school GPA are entered as background/control variables a\ufb00ecting stress and self-e\ufb03cacy, as well as each outcome vari- able.5 Stress and self-e\ufb03cacy are treated as latent constructs for which the composite indexes discussed above are indicators.", 
  "Both stress and self-e\ufb03cacy are allowed to predict each of the three outcomes.", 
  "The errors of the outcomes are permitted to correlate, as are the errors of stress and self-e\ufb03cacy.", 
  "We also allow the errors between each stress and self-e\ufb03cacy measure to correlate in order to capture residual e\ufb00ects of similarity in question wording that are not captured in the error correla- tion between the general stress and self-e\ufb03cacy factors (not shown in \ufb01gure).", 
  "The results for the structural model can be found in Table 4, while the results for the measurement model, due to space constraints, can be found in Appendix Table C. In brief, the measurement model results show that all four indicators of both stress and self-e\ufb03cacy load strongly on their respective factors.", 
  "For both stress and self-e\ufb03cacy, the loading for the \ufb01rst indicator (interaction at school) is poorest, with the other indicators.", 
  "reliabilities considerably lower than those of \nitem reliabilities and factor \nloadings vary little \n\nZAJACOVA, LYNCH, AND ESPENSHADE \n\fSELF-EFFICACY, STRESS, AND ACADEMIC SUCCESS IN COLLEGE \nZAJACOVA, LYNCH, AND ESPENSHADE \nmodel with stress only, the model with self-e\ufb03cacy only, and the full model with both.", 
  "In the \ufb01rst structural model (see Table 4), we estimate the e\ufb00ect of only stress and the background variables on each outcome.", 
  "In the second model, we estimate the e\ufb00ect of self-e\ufb03cacy only.", 
  "Finally, the third model, we estimate the joint e\ufb00ect of stress and self-e\ufb03cacy as Fig.", 
  "1 displays.", 
  "All three models \ufb01t the data well, based on three measures of overall model \ufb01t: the model chi-square, the root mean squared error of approximation (RMSEA), and the incremental \ufb01t index (IFI).", 
  "A well-\ufb01tting model should have a nonsigni\ufb01cant chi- square (indicating a close \ufb01t of the model to the data), an RMSEA of 0.05 or less, and an IFI greater than 0.95.", 
  "These criteria are met (or exceeded) by all three models.", 
  "In the \ufb01rst model, we include only stress and the background vari- ables as predicting the outcome measures.", 
  "Stress has no association with any of the three outcomes, and very few background demographic variables have any e\ufb00ect.", 
  "High school GPA has a slight negative e\ufb00ect on enrollment.", 
  "Nonwhites have signi\ufb01cantly fewer credits at the end of the \ufb01rst year and have lower GPAs.6 Recent immigrants and persons with higher high school GPAs have higher \ufb01rst-year college GPAs.", 
  "In terms of the predicted variance for each outcome, stress and the back- ground variables explain 9% of the variance in enrollment, 10% of the variance in credits, and 23% of the variance in GPAs.", 
  "Finally, the error correlations between each pair of outcome measures are signi\ufb01cant and positive, but moderate, ranging from 0.30 for the residual correlation between enrollment and GPA to 0.51 for the correlation between credits and GPA.", 
  "This \ufb01nding implies that GPA, enrollment, and credits are positively related, even after controlling on factors that may in\ufb02uence each, and that a multivariate model is needed to avoid omitted variable bias.", 
  "For example, persons with higher GPAs and more credits are more likely to enroll in the third semester, even after adjusting for observed di\ufb00erences in age, race, and other demographic background characteristics.", 
  "Model 2 includes only self-e\ufb03cacy and the background variables.", 
  "In this model, self-e\ufb03cacy has a signi\ufb01cant and positive e\ufb00ect on credits and GPA but has no e\ufb00ect on enrollment in the third semester.", 
  "Once again, relatively few background variables are associated with any outcome.", 
  "Speaking English as the primary language at home and the high school GPA have slightly signi\ufb01cant negative relationships with enrollment.", 
  "Nonwhites accumulate considerably fewer credits whites.", 
  "Recent immigrants evidence slightly higher college GPAs, as do persons with higher high school GPAs.", 
  "In this model, only 6% of the \n\fSELF-EFFICACY, STRESS, AND ACADEMIC SUCCESS IN COLLEGE \n\nvariance in enrollment is explained by self-e\ufb03cacy and the background variables.", 
  "However, considerably more variance in credits and GPA is explained than in Model 1\u201414% and 32%, respectively.", 
  "The error correlations between the outcome variables are similar in magnitude to those in Model 1.", 
  "In the third model, both stress and self-e\ufb03cacy are entered in addition to the background variables.", 
  "In this model, stress has a slightly signi\ufb01- cant and positive e\ufb00ect on enrollment, while self-e\ufb03cacy has none.", 
  "On the other hand, self-e\ufb03cacy has a signi\ufb01cant and positive e\ufb00ect on both credits and GPA, while stress has none.", 
  "As in the previous two models, background variables have little association with any outcome.", 
  "High school GPA has a slight negative e\ufb00ect on enrollment and a positive ef- fect on credits and college GPA.", 
  "Once again, nonwhites have fewer cred- its, and recent immigrants have higher GPAs at the end of the \ufb01rst year.", 
  "In this model, the error correlation between stress and self-e\ufb03cacy is esti- mated to be moderate, at )0.41, a \ufb01nding consistent with the analyses discussed above.", 
  "The two are related, but distinct, constructs.", 
  "The error correlations between the outcomes are similar to those in the previous two models.", 
  "Finally, stress and self-e\ufb03cacy together (along with the background variables) explain 10% of the variance in enrollment, 15% of the variance in credits, and one-third (33%) of the variance in GPA.", 
  "This represents relatively little improvement over the model for self-e\ufb03cacy alone, except with regard to the enrollment outcome.7 \nDISCUSSION \nThe main research questions in this paper concern the relationship between academic self-e\ufb03cacy and perceived college stress and their joint e\ufb00ect on academic success for immigrant and minority students.", 
  "In order to closely examine the relative in\ufb02uence of these two constructs, we developed a new survey instrument that measures self-e\ufb03cacy and stress with respect to 27 identical college-related tasks.", 
  "This measure allows us to explore in detail the e\ufb00ect of these two social cognitive constructs on nontraditional students\u2019 grades, accumulated credits, and persistence in college.", 
  "The internal reliability of both scales is high.", 
  "Academic self-e\ufb03cacy and stress are negatively correlated, as expected, with the correlations between the pairs of tasks from each scale ranging from )0.27 to )0.71.", 
  "This moderately high inverse association con\ufb01rms \ufb01ndings previous studies (Hackett et al., 1992; Torres and Solberg, 2001).", 
  "Factor analyses were performed independently on each scale, and both scales \n\nZAJACOVA, LYNCH, AND ESPENSHADE \nfactor almost identically into four components: interaction at school, performance in class, performance out of class, and managing work, family and school.", 
  "This is consistent with the domain-speci\ufb01city of self- e\ufb03cacy (Pajares, 1996).", 
  "That both scales factor into similar components o\ufb00ers further support for the strong relationship of self-e\ufb03cacy and perceived stress within each of the four domains.", 
  "We \ufb01nd that all three measures of academic success\u2014\ufb01rst-year cumu- lative GPA, number of earned credits, and enrollment at the start of the second year\u2014are positively related to one another, even after control- ling on students\u2019 demographic background characteristics.", 
  "Full-time students earn higher grades and are more likely to remain enrolled, compared to part-time students.", 
  "This \ufb01nding is consistent with prior research, which has shown that part-time students are at a high risk of attrition (King, 2003; NCES, 2002a; Windham, 1995) and that grades are positively related to persistence (Johnson and Molnar, 1996).", 
  "We are best able to account for variation in GPA in our models and can explain about a third of its variance using the full model.", 
  "We do less well in explaining variation in number of credits and persistence.", 
  "It is possible that these two outcomes are in large part determined by factors unaccounted for in our models, such as the ability to a\ufb00ord tuition or to \ufb01nd time and motivation to remain enrolled.", 
  "Similarly, Gigliotti and Hu\ufb00 (1995) found persistence among older undergraduates to be more di\ufb03cult to predict than grades or course load.", 
  "The focus of this paper centers on the relative importance of self-e\ufb03- cacy and stress in predicting academic outcomes.", 
  "We \ufb01nd that academic self-e\ufb03cacy has a strong positive e\ufb00ect on freshman grades and credits, which is consistent with previous research (Brown et al., 1989; Lent et al., 1984, 1986, 1987).", 
  "In fact, self-e\ufb03cacy is the single strongest predictor of GPA in all models, even taking into account high school academic performance and demographic background variables.", 
  "On the other hand, self-e\ufb03cacy does not have a signi\ufb01cant e\ufb00ect on students\u2019 persistence in the second year.", 
  "This result suggests that students may drop out for reasons unrelated to their beliefs about being able to handle academic demands.", 
  "Stress has generally been found to have a negative in\ufb02uence on GPA and on staying enrolled.", 
  "We expected that because the majority of the student population is immigrant and minority and thus at risk of experiencing a high level of stressful events, perceived stress would be an important predictor of their academic outcomes.", 
  "In our data, stress has a negative but insigni\ufb01cant association with GPA and no relation- ship with college credits.", 
  "On the other hand, we \ufb01nd some evidence that stress is positively, though only marginally, related to persistence.", 
  "This \n\fSELF-EFFICACY, STRESS, AND ACADEMIC SUCCESS IN COLLEGE \n\nis an unexpected \ufb01nding.", 
  "Previous studies have either shown no e\ufb00ect of stress on persistence (Pritchard and Wilson, 2003; Sandler, 2000a) or a negative e\ufb00ect (Chartrand, 1992).", 
  "Perhaps we did not \ufb01nd the expected e\ufb00ect of stress because we do not distinguish between the challenge versus threat appraisals.", 
  "This is an important and often neglected assessment, because the di\ufb00erence between challenge or threat appraisal can result in di\ufb00erent coping behaviors (such as studying harder versus procrastinating) and correspondingly di\ufb00erent academic outcomes.", 
  "stressful college-related tasks.", 
  "For example, \nFuture studies should investigate more closely the threat or challenge appraisal of would rate tasks not only on a \u2018\u2018stressful\u2019\u2019 scale as they did in the pres- ent study, but they would evaluate the tasks on two scales: \u2018\u2018stressful/ threatening\u2019\u2019 and \u2018\u2018challenging\u2019\u2019.", 
  "This distinction would more clearly al- low us to evaluate the relationship between self-e\ufb03cacy and stress, as well as the negative e\ufb00ects of stress on college performance.", 
  "For exam- ple, research has shown that high self-e\ufb03cacy is an important factor in making challenge rather than threat appraisals (Chemers et al., 2001).", 
  "Another possible explanation for why we \ufb01nd stress to be negatively associated with attrition is that there are various causes for attrition.", 
  "Zhang and RiCharde (1998) found that students who dropped out of college identi\ufb01ed three main reasons for doing so: inability to handle lack of commitment, and mismatch between expectations and college reality.", 
  "Thus, only some students who dropped out may have done so for reasons connected to stress, while others may have made the decision for other reasons, thereby confounding the results.", 
  "Sociodemographic variables have little association with academic outcomes.", 
  "We \ufb01nd no relationship between age and sex and any outcome, which is not surprising given the inconsistent \ufb01ndings in the literature (Chartrand, 1992; Wlodkowski et al., 2001).", 
  "The only strong and consistent \ufb01nding is that nonwhites earn about \ufb01ve fewer college credits than whites by the end of the \ufb01rst year.", 
  "Recent immigrants have slightly higher GPAs than immigrants with more U.S. experience or native-born students, which perhaps re\ufb02ects either better academic prep- aration in high school or a motivational di\ufb00erence.", 
  "High school GPA is positively related to college GPA, which supports existing literature (Garton, Ball, and Dyer, 2002; House, 1994).", 
  "However, in contrast to other \ufb01ndings (Fredda, 2000), high school GPA is also weakly and negatively related to persistence in college.", 
  "This \ufb01nding could indicate the discrepancy between expectations and college reality for high achiev- ers in high school, increasing their likelihood of attrition.", 
  "An important potential \nmodest sample size, is the question of representativeness of our sample, \nlimitation of our study, apart \n\nZAJACOVA, LYNCH, AND ESPENSHADE \nbecause all participants were students who enrolled in and attended the orientation seminar.", 
  "If attending the seminar systematically impacted students\u2019 grades and persistence, our \ufb01ndings would be biased.", 
  "However, previous research suggests that there may not be a signi\ufb01cant di\ufb00erence in adjustment to college for students who attend the seminar and those who do not (Martin and Dixon, 1994).", 
  "An additional caveat is that we could not distinguish students who dropped out of college permanently from those who took only a semester o\ufb00 and would return later or from those who transferred to another college.", 
  "This makes our results a conservative estimate of the e\ufb00ect of academic self-e\ufb03cacy and stress on college persistence.", 
  "A longer follow-up period and more information about the reasons for attrition would be desirable to assess the long-term outcomes for students.", 
  "In general, our results suggest that academic self-e\ufb03cacy is more important than perceived stress in predicting the accumulation of college credits and a higher GPA, while perceived stress may be margin- ally more important in accounting for subsequent enrollment.", 
  "This conclusion supports a general trend in the literature (Pajares and Kranzler, 1995; Sandler, 2000a, 2000b).", 
  "The \ufb01ndings underline the importance of academic self-e\ufb03cacy both in moderating the e\ufb00ect of stressors on perceived stress for college students and also in predicting academic success in college.", 
  "ACKNOWLEDGMENTS \nThis research has been supported by the National \nInstitute of Child Health and Human Development Center Core Grant P30 HD32030 to the Of\ufb01ce of Population Research, Princeton University.", 
  "The authors thank Herb Krauss for helpful comments at early stages of this project.", 
  "1.", 
  "There were 1,765 new freshmen who enrolled in the fall semester of 1997\u20131998.", 
  "T-tests and goodness-of-\ufb01t chi-square tests were used to examine compositional di\ufb00erences in age, race, and sex between the entering fall and spring cohorts.", 
  "There are no signi\ufb01cant di\ufb00er- ences even at the 0.1 level.", 
  "2.", 
  "Enrollment status was measured only twice\u2014at the beginning of the \ufb01rst and third semes- ters.", 
  "For students who were enrolled at both times, it is impossible to distinguish between those who were enrolled continuously from the start of \ufb01rst semester and those who \u2018\u2018stopped out\u2019\u2019\u2014that is, they started school, left for a semester, and then returned.", 
  "More- \n\fSELF-EFFICACY, STRESS, AND ACADEMIC SUCCESS IN COLLEGE \n\nover, we cannot tell from our data whether a student who was not enrolled in the third semester transferred to another institution or dropped out permanently or just temporar- \n3.", 
  "Average sample values for the four indexes for stress and four indexes for self-e\ufb03cacy are shown in Appendix Table B.", 
  "The indexes for stress exhibit more variation than those for self-e\ufb03cacy, as measured both by their respective standard deviations and by the range across the four indexes.", 
  "4.", 
  "One could argue that there is a distinction between causal versus re\ufb02ective indicators that is being ignored using this approach.", 
  "Summing items to produce an index treats the items as causal indicators\u2014indicators that produce a composite factor.", 
  "On the other hand, the structural equation model we estimate then treats these indexes as re\ufb02ecting perceptions of stress and self-e\ufb03cacy.", 
  "This is true.", 
  "However, the implication of this approach is unclear.", 
  "Structural equation models with causal indicators are di\ufb03cult (and often impossible) to estimate, due to identi\ufb01cation problems.", 
  "Furthermore, as stated above, we tried various approaches to test the robustness of the results, and all approaches yielded the same con- clusions.", 
  "5.", 
  "De\ufb01nitions for each of the background/control variables are contained in Appendix Table \n\n6.", 
  "The empirical analysis groups Black, Hispanic, and Asian students into one \u2018\u2018nonwhite\u2019\u2019 category.", 
  "In preliminary analyses, no race/ethnic subgroup was signi\ufb01cantly di\ufb00erent from whites in OLS models of GPA.", 
  "However, Asian students were signi\ufb01cantly more likely than other student groups to be enrolled in their second year.", 
  "It is possible that greater di\ufb00erentiation among race groups would emerge with a larger sample.", 
  "A second reason for grouping nonwhite students together is that we are already close to the number of model parameters we can reasonably estimate.", 
  "Adding one more dummy variable adds \ufb01ve more covariances.", 
  "Preserving all four race groups in the analysis would result in unstable covariance estimates.", 
  "We would be well under the rule of thumb of 10 cases per parameter.", 
  "7.", 
  "We could have included a companion diagram to Figure 1, displaying the path coe\ufb03cients and omitting the nonsigni\ufb01cant paths.", 
  "We chose not to do this for several reasons.", 
  "First, the information would duplicate the estimates contained in our tables.", 
  "Second, Figure 1 already shows the relationships we tested.", 
  "Finally, it is not particularly helpful in our judgment to present a path diagram showing only the signi\ufb01cant paths.", 
  "Doing so can con- fuse readers because such a diagram matches neither the original conceptual model nor the model actually tested in the analyses.", 
  "ZAJACOVA, LYNCH, AND ESPENSHADE \n\fSELF-EFFICACY, STRESS, AND ACADEMIC SUCCESS IN COLLEGE \n\nAPPENDIX TABLE B. Descriptive Statistics for Variables Used in Analyses \n\nBackground Variables \nMale (=1) Nonwhite (=1) Recent immigrant (=1) English (=1) \nStress Scales \nInteraction at school* Academic performance out of class** Academic performance in class\u00a0 Managing work, family, and school\u00a0\u00a0 \nSelf-E\ufb03cacy Scales \nInteraction at school* Academic performance out of class** cademic performance in class\u00a0 Managing work, family, and school\u00a0\u00a0 \nOutcome Variables \nEnrollment status (enrolled=1) \nDeviation \n0.13\u20139.6 0.5\u20139.5 \n1.57\u201310 0.75\u201310 1.25\u201310 1.25\u201310 \n*Constructed from the following tasks in Appendix Table A \u2014asking questions in class, making friends at school, talking to professors, getting help and information at school, talking to college sta\ufb00, participating in class discussions, understanding college regulations.", 
  "**Constructed from the following tasks\u2014studying, keeping up with required readings, writing term papers, getting papers done on time, preparing for exams, improving reading and writing skills, researching term papers, understanding my textbooks.", 
  "Constructed from the following tasks\u2014doing well on exams, having more tests in the same week, getting the grades I want, doing well in my toughest class.", 
  "Constructed from the following tasks\u2014managing both school and work, managing time e\ufb03ciently, getting along with family members, \ufb01nding time to study.", 
  "ZAJACOVA, LYNCH, AND ESPENSHADE \nAPPENDIX TABLE C. Results of Structural Equation Models of the E\ufb00ects of Stress and Self-E\ufb03cacy on Continued Enrollment, Credit Hours, and Grade Point \nAverage (N=107): Measurement Model Results \nFactor Loadings (and Item-Reliabilities) for: \nStress only \n\nSelf-E\ufb03cacy \n+ Self-E\ufb03cacy \nIndicator (Cronbach\u2019s a) Stress Subscales \nInteraction at school (0.83) Performance out of class \n1.00***(0.11) 2.59***(0.76) \n\nPerformance in class (0.83) Managing wrk, fam., and \n2.91***(0.74) 2.54***(0.57) \nschool (0.72) \nSelf-e\ufb03cacy Subscales \nInteraction at school (0.87) Performance out of class \n\nPerformance in class (0.87) Managing wrk, fam., \nand school (0.77) \nSelf-E\ufb03cacy \n1.00***(0.15) 2.29***(0.79) \n2.39***(0.71) 2.07***(0.54) \n1.00***(0.46) 1.28***(0.90) \n1.00***(0.35) 1.51***(0.86) \n1.32***(0.74) 0.87***(0.41) \n1.65***(0.76) 1.18***(0.47) \n*** p<0.001.", 
  "Note.", 
  "Item reliabilities are the explained variances of the indicators.", 
  "Each indicator is a summed index of multiple items (see text); Cronbach\u2019s alphas for these indexes are reported in paren- theses.", 
  "Factor loadings are unstandardized."
 ]
}