{
 "document_id": "15142160725287628894", 
 "sentences": [
  "\nSchool Readiness and Later Achievement   \nNovember 14, 2006  \nGreg J. Duncana, Chantelle J. Dowsettb, Amy Claessensa, Katherine Magnusonc, Aletha  C. Hustonb, Pamela Klebanovd, Linda Paganie, Leon Feinsteinf, Mimi Engela, Jeanne Brooks- \nGunng, Holly Sextonh,  Kathryn Duckworthf, and Crista Japeli   \naNorthwestern University, bUniversity of Texas\u2013Austin, c University of Wisconsin\u2013Madison,  dPrinceton University, eUniversit\u00e9 de Montr\u00e9al, fInstitute of Education, University of London ,  gColumbia University, hCenter for the Analysis of Pathways from Childhood to Adulthood,  \nUniversity of Michigan,  iUniversit\u00e9 de Qu\u00e9bec \u00e0 Montr\u00e9al  \nAcknowledgements: A preliminary version of this paper was presented at the biennial meetings  of the Society for Research on Child Development, April 10, 2005.", 
  "The authors are grateful to  the NSF-supported Center for the Analysis of Pathways from Childhood to Adulthood (Grant #  0322356) for research support.", 
  "We would like to thank Larry Aber, Mark Appelbaum, Avshalom  Caspi, David Cordray, Herbert Ginsburg, David Grissmer, Mark Lipsey, Cybele Raver, Arnold  Sameroff, Robert Siegler, Ross Thompson, Sandra Jo Wilson, Nicholas Zill, and other members  of CAPCA and the MacArthur Network on Families and the Economy for helpful comments.", 
  "DO NOT CITE OR QUOTE WITHOUT PERMISSION1\f  \nAbstract  \nUsing six longitudinal data sets, we estimate links between three key elements of  \nschool readiness\u2014school-entry academic, attention, and socioemotional skills\u2014and later school  reading and math achievement.", 
  "In an effort to isolate the effects of these school-entry skills, most  of our regression models control for cognitive, attention, and socioemotional skills measured  prior to school entry, as well as a host of family background measures.", 
  "Across all six studies, the strongest predictors of later achievement are school-entry math,  reading, and attention skills.", 
  "A meta-analysis of the results shows that early math skills have the  greatest predictive power, followed by reading skills and then attention.", 
  "By contrast, measures of  socioemotional behaviors, including internalizing and externalizing problems and social skills,  were generally insignificant predictors of later academic performance, even among children with  relatively high levels of problem behavior.", 
  "Patterns of association were similar for boys and  girls and for children from high and low socioeconomic backgrounds.", 
  "DO NOT CITE OR QUOTE WITHOUT PERMISSION2\f      \nSchool Readiness and Later Achievement   \nEarly childhood programs and policies that promote academic skills have been gaining  \npopularity among politicians and researchers.", 
  "For example, President George W. Bush endorsed  Head Start reforms in 2002 that focus on building early academic skills, observing that \u201c[o]n the  first day of school, children need to know letters and numbers.", 
  "They need a strong vocabulary.", 
  "These are the building blocks of learning, and this nation must provide them.\u201d The National  Research Council\u2019s Committee on the Prevention of Reading Difficulties in Young Children  likewise recommends providing environments that promote pre-literacy skills for all preschool  children (Snow, Burns, & Griffin, 1998).", 
  "Similarly, the National Association for the Education  of Young Children and the National Council of Teachers of Mathematics (2002) issued a joint  statement that advocated for high-quality mathematics education for children ages 3-6.", 
  "Others, however, maintain that a broad constellation of behaviors and skills enable  children to learn in school.", 
  "Asked to identify factors associated with a difficult transition to  school, kindergarten teachers frequently mentioned weaknesses in academic skills, problems  with social skills, trouble following directions, and difficulty with independent and group work  (Rimm-Kaufman, Pianta, & Cox, 2000).", 
  "Researchers too have made this point.", 
  "The National  Research Council and Institute on Medicine argued that \u201cthe elements of early intervention  programs that enhance social and emotional development are just as important as the  components that enhance linguistic and cognitive competence\u201d (Shonkoff & Phillips, 2000, pp.", 
  "398-99).", 
  "These two views have emerged in the current debate about what constitutes school  \nreadiness, particularly what skills predict school achievement.", 
  "Many early education programs,  including Head Start, are designed to enhance children\u2019s physical, intellectual, and social  competencies on the grounds that each domain contributes to a child\u2019s overall developmental  competence and readiness for school.", 
  "However, if early acquisition of specific academic skills or  learning-enhancing behaviors forecasts later achievement, it may be beneficial to add domain- specific early skills to the definition of school readiness and to encourage interventions aimed at  promoting these skills prior to elementary school.", 
  "Thus, understanding which skills are linked to  children\u2019s academic achievement has important implications for early education programs.", 
  "We adopt a child-centered model of school transition, which is nested within a broader  \necological framework, but focuses on the set of individual skills and behaviors that children have  acquired prior to school entry (Rimm-Kaufman & Pianta, 2000).", 
  "A child\u2019s individual  characteristics contribute to the environments in which the child interacts and the rate at which  the child may learn new skills; in turn the child receives feedback from others in the environment  (Meisels, 1998).", 
  "Thus, by influencing both the child and the social environment, early academic  skills and socioemotional behaviors are linked to academic achievement because they provide  the foundation for positive classroom adaptation (Cunha, Heckman, Lochner, & Masterov, 2005;  Entwistle, Alexander, & Olson, 2005).", 
  "For example, a child who enters kindergarten with rudimentary academic skills may be  poised to learn from formal reading and mathematics instruction, receive positive reinforcement  from the teacher, or be placed in a higher-ability group that facilitates the acquisition of  \nDO NOT CITE OR QUOTE WITHOUT PERMISSION3\f  \nadditional skills.", 
  "Similarly, a child who can pay attention, inhibit impulsive behavior, and relate  appropriately to adults and peers may be able to take advantage of the learning opportunities in  the classroom, thus more easily mastering reading and math concepts taught in elementary  school.", 
  "For these reasons, the skills children possess when entering school might result in  different achievement patterns in later life.", 
  "If achievement at older ages is the product of a  sequential process of skill acquisition, then strengthening skills prior to school entry might lead  children to master more advanced skills at an earlier age, and perhaps even increase their  ultimate level of achievement.", 
  "Although there are strong theoretical reasons to expect that individual differences in  \nchildren\u2019s early academic skills and behavior are linked to subsequent behavior and  achievement, surprisingly little rigorous research supports this hypothesis.", 
  "Consequently, the  purpose of this paper is to assess, as precisely as possible using six longitudinal, non- experimental data sets, the association between skills and behaviors emerging during the  preschool years and later academic achievement.", 
  "As with Robins\u2019s (1978) classic study of adult  anti-social behavior, our approach consists of comparable analyses of a number of different  longitudinal developmental studies.1 We are especially interested in identifying academic,  attention, and socioemotional skills and behaviors that may be learned or improved through  experiences prior to school entry.", 
  "In the following sections, we draw from developmental  literature to identify key dimensions of school readiness and to derive theoretical predictions  about how children\u2019s school entry skills and behaviors contribute to short- and long-term  academic success.", 
  "Relations between early skills and later achievement  \nAcademic achievement is a cumulative process involving both mastering new skills and   \nimproving already existing skills (Entwisle & Alexander, 1990; Pungello, Kuperschmidt,  Burchinal, & Patterson, 1996).", 
  "Information about how children acquire reading and math skills  points to the importance of specific academic skills, but also indicates that more general  cognitive skills, particularly oral language and conceptual ability, may be increasingly important  for later mastery of more complex reading and mathematical tasks.", 
  "Basic oral language skills  become critical for understanding texts as the level of difficulty of reading passages increases  (NICHD Early Child Care Research Network, 2005a; Scarborough, 2001; Snow et al, 1998;  Storch & Whitehurst, 2002; Whitehurst & Lonigan, 1998).", 
  "Likewise, mastery of foundational  concepts of numbers allows for a deeper understanding of more complex mathematical problems  and flexible problem-solving techniques (Baroody, 2003; Ferrari & Sternberg, 1998; Hiebert &  Wearne, 1996).", 
  "Although children\u2019s academic achievement is largely stable throughout childhood,  \nchildren do demonstrate both transitory fluctuations and fundamental shifts in their achievement  trajectories (Kowleski-Jones & Duncan, 1998; Pungello et al., 1996).", 
  "Non-experimental data  show that children\u2019s achievement test scores are related to prior cognitive functioning and the  attainment of basic skills in math and literacy such as number and letter recognition (Stevenson  & Newman, 1986).", 
  "In their meta-analysis, La Paro and Pianta (2000) find middle-range  correlations in cognitive/academic skills from both preschool to kindergarten (.43) and from  kindergarten to first or second grade (.48).", 
  "Attention-related skills such as task persistence and self-regulation are expected to  \nincrease the time children are engaged and participating in academic endeavors.", 
  "Research has  \nDO NOT CITE OR QUOTE WITHOUT PERMISSION4\f  \nshown that the signs of attention and impulsivity can be detected as early as age 2 \u00bd, but  continue to develop until reaching relative stability between ages 6 and 8 (Olson, Sameroff, Kerr,  Lopez, & Wellman, 1999; Posner & Rothbart, 2000).", 
  "Studies linking attention with later  achievement are less common, but consistent evidence suggests that the ability to control and  sustain attention as well as participate in classroom activities predicts achievement test scores  and grades during preschool and the early elementary grades (Alexander, Entwisle, & Dauber,  1993; Raver, Smith-Donald, Hayes, & Jones, 2005).", 
  "These attention skills, which are  conceptually distinct from other types of interpersonal behaviors, are associated with later  academic achievement, independent of initial cognitive ability (McClelland, Morrison, &  Holmes, 2000; Yen, Konold, & McDermott, 2004), and of prior reading ability and current  vocabulary (Howse, Lange, Farran, & Boyles, 2003).", 
  "Examining attention separately from  externalizing problems has clarified the role of each in achievement, suggesting that attention is  more predictive of later achievement than more general problem behaviors (Barriga et al., 2002;  Hinshaw, 1992; Konold & Pianta, 2005; Ladd, et al., 1999; Normandeau, 1998; Trzesniewski,  Moffitt, Caspi, Taylor, & Maughan, 2006).", 
  "Children\u2019s socioemotional skills and behaviors are also expected to affect both individual  learning and classroom dynamics.", 
  "Inadequate interpersonal skills promote child-teacher conflict  and social exclusion (Newcomb, Bukowski, & Pattee, 1993; Parker & Asher, 1986), and these  stressors may reduce children\u2019s participation in collaborative learning activities and adversely  affect achievement (Ladd et al., 1999; Pianta & Stuhlman, 2004).", 
  "Correlational evidence linking  problem behaviors to academic achievement is found in the Beginning School Study.", 
  "First grade  ratings on items describing a cheerful, outgoing temperament (roughly the opposite of  internalizing problems) predicted adult educational attainment better than preschool or first- grade achievement scores (Entwisle et al., 2005).", 
  "Other studies yield similar results.", 
  "For  example, children with consistently high levels of aggression from age 2 through 9 were more  likely than other children to have achievement problems in third grade (NICHD Early Child Care  Research Network, 2004).", 
  "Experimental evidence and cross-over effects  \nWhile many studies find associations between early achievement, attention, and behavior  \nand later achievement, few of these studies are designed to determine which of these skills can  be modified prior to school entry, or whether these changes predict achievement.", 
  "Fortunately, a  small, but growing, number of experimental interventions provide encouraging evidence that  high quality programs for preschool children \u201cat-risk\u201d for school failure produce gains in  cognitive and academic skills and reduce behavior problems (Karoly, Kilburn, & Cannon, 2005;  Love et al., 2003; Conduct Problems Prevention Research Group, 2002).", 
  "Early educational  interventions have also been found to result in long-term reductions in special education services,  grade retention, and increases in educational attainment (Campbell, Ramey, Pungello, Sparling,  & Miller-Johnson, 2002; Lazar & Darlington, 1982; Reynolds & Temple, 1998).", 
  "The ability of experimental studies to identify crucial academic and socioemotional skills,  \nhowever, is limited in two important ways.", 
  "First, many of the intervention programs influence  both children\u2019s academic skills and their socioemotional behaviors.", 
  "Thus, it is not possible to  assess the extent to which long-term impacts on achievement are due to higher levels of early  academic skills, attention skills, or lower levels of problem behavior at school entry.", 
  "Given that teachers often emphasize the importance of attention and socioemotional skills  \nDO NOT CITE OR QUOTE WITHOUT PERMISSION5\f  \nfor school readiness, it might be expected that these early skills would have \u201ccrossover\u201d effects  on later achievement outcomes.", 
  "However, the second limitation of experimental evidence is that  few evaluations of interventions on socioemotional behaviors assess how they affect subsequent  achievement, and those that have explored this find little evidence of such cross-over effects (see  Dolan et al., 1993; Kellam, Mayer, Robok, & Hawkins, 1998; Tremblay, Pagani-Kurtz, M\u00e2sse,  Vitaro, & Pihl, 1995).", 
  "Nevertheless, with so few studies it is possible that even small, temporary  changes in behavior that open the door for learning might set off a \u201cmultiplier\u201d effect where  rewarding experiences with classmates and school achievement improve a child\u2019s attitude toward  learning and motivation for school success (Dickens, 2005).", 
  "From a life-course perspective, this  can have important long-term implications for social integration and economic self-reliance.", 
  "Randomized trials of intervention programs show that children can benefit from targeted  direct services, but it remains unclear whether program components directed at specific academic  or socioemotional skills alone are able to boost later school achievement.", 
  "Given the increasing  demand for early education programs to promote school readiness, it is essential to identify  specific, changeable early skills and behaviors that are associated with later achievement in  school.", 
  "The Present Study  \nThis study builds upon previous school readiness research in several ways.", 
  "First, the  \nscope of the study is unprecedented.", 
  "We estimate a carefully-specified set of models with data  from six large-scale longitudinal studies, two of which are nationally representative of U.S.  children, two are drawn from multi-site studies of U.S. children, and one each of children from  Great Britain and Canada.", 
  "Second, we include as predictors a wide representation of school  readiness indicators used in previous research, and carefully distinguish between related but  conceptually distinct skills (e.g., oral language vs. pre-literacy skills, attention vs. externalizing  problems) wherever possible.", 
  "Third, we examine multiple dimensions of academic achievement  outcomes, including grade completion and math and reading achievement as assessed both by  teacher ratings and test scores.", 
  "Fourth, we implement rigorous analytic methods that attempt to  isolate the effects of school-entry academic, attention, and socioemotional skills by controlling  for an extensive set of prior child, family, and contextual influences that may be related to  children\u2019s achievement.", 
  "Finally, we assess whether the predictive power of school readiness  components differs by gender and socioeconomic status, which may place some children at  heightened risk of low achievement.", 
  "We test a number of hypotheses related to how school-entry academic, attention, and  \nsocioemotional skills are associated with later school achievement.", 
  "Developmental theory  suggests that children\u2019s informal, intuitive knowledge of early language and math concepts plays  an important role in the acquisition of more complex skills formally taught in elementary school  (Adams, Treiman, & Pressley, 1998; Baroody, 2003; Griffin, Case, & Capodilupo, 1995;  Tunmer & Nesdale, 1998).", 
  "Theoretically, children\u2019s attention and socioemotional skills should  also affect achievement because they influence children\u2019s engagement in learning activities and  facilitate (or disrupt) classroom processes (Ladd, Birch, & Buhs, 1999; Pianta & Stuhlman,  2004).", 
  "However, some scholars point out that it is important to distinguish between behaviors  that are directly relevant for learning, such as attention, and those that may be correlated with  attention, but are less likely to be directly linked with achievement, such as interpersonal skills  and problem behavior (Alexander et al., 1993; Cooper & Farran, 1991; McClelland et al., 2000;  McWayne, Fantuzzo, & McDermott, 2004).", 
  "Therefore, we expect early academic and attention- \nDO NOT CITE OR QUOTE WITHOUT PERMISSION6\f  \nrelated skills to predict subsequent test scores and teacher achievement ratings, and we expect  attention skills to predict achievement more consistently than socioemotional behaviors.", 
  "In seeking to better understand the extent to which our broad set of early skills is  \nassociated with later achievement, it is important to consider how outcomes are being measured.", 
  "Although test performance provides a key, independent assessment of academic achievement,  teacher ratings also lend insight into children\u2019s everyday performance in the classroom.", 
  "Teachers\u2019 evaluations are probably based on a broad picture of children\u2019s accomplishments,  which include their academic skills as well as whether they complete assignments on time, work  independently, get along with others, and show involvement in the learning agenda of the  classroom.", 
  "Moreover, previous research has found that children\u2019s behavior can play an equal, if  not greater role than prior cognitive ability in predicting teacher-rated attainment or achievement  (Lin, Lawrence, & Gorrell, 2003; Schaefer & McDermott, 1999) and academic skills (National  Center for Education Statistics [NCES], 1993).", 
  "Consequently, we expect a stronger relationship  between school-entry socioemotional behaviors and subsequent teacher-rated achievement than  subsequent test scores.", 
  "While many previous studies have considered the association between early academic,  \nattention, and socioemotional skills and subsequent achievement, few have systematically  considered the extent to which these associations differ by gender (Trzesniewski et al., 2006).", 
  "On  average, boys get poorer grades and have more difficulties related to school progress (e.g., grade  retention, special education, and drop out) than girls do (Dauber, Alexander, & Entwisle, 1993;  McCoy & Reynolds, 1999), and these differences are especially pronounced among low-income  children (Hinshaw, 1992).", 
  "Children from low-income families enter school with lower mean  academic skills, and the gap tends to increase during the school years (Lee & Burkam, 2002).", 
  "These groups also have higher rates of problems with attention and externalizing behavior  (Entwisle et al., 2005; Meich, Essex, & Goldsmith, 2001; Raver, 2004).", 
  "Despite differences in children\u2019s behavior linked to gender and family socioeconomic  \nstatus, few studies have considered whether gender and socioeconomic status moderate the  association between these early skills and behaviors and subsequent achievement.", 
  "We expect  early academic skills, attention, and socio-emotional behaviors to matter more for these  subgroups, particularly when children enter school with very low levels of these skills.", 
  "To estimate the associations between early academic skills and socioemotional behaviors  and later school achievement, we summarize results from a coordinated series of analyses across  six longitudinal datasets in two ways.", 
  "First, we relate early academic, attention, and  socioemotional skills to later achievement in each of the six data sets and provide a basic  summary of these results.", 
  "Second, we formally summarize the findings from these studies in a  meta-analysis, again focusing on the extent to which this collection of early skills predicts later  achievement.", 
  "In this section, we describe the data sets used in this study and the common analytic  procedures that were implemented across studies.", 
  "Detailed information about the measures,  descriptive statistics, and regression results from each study is presented in appendices A-F.  As  the goal of our study is to relate early academic, attention, and socioemotional skills and  \nDO NOT CITE OR QUOTE WITHOUT PERMISSION7\f  \nbehaviors to later achievement, each dataset has measures of these constructs, although there is  variation across the studies in when and how each skill or behavior is assessed.", 
  "Figure 1 provides an overview of data sources and measures available in each study.", 
  "All  six data sets provide measures of children\u2019s academic skills as well as assessments of attention  and socioemotional behaviors around age 5 or 6.", 
  "Because most children enter elementary school  at this age, we refer to the timing of these measures as \u201cschool entry\u201d but alert the reader that the  precise timing varies considerably across studies.", 
  "To facilitate comparison of findings across  studies, all measures were standardized to have a mean of 0 and standard deviation of 1.", 
  "We measure achievement outcomes using teachers\u2019 reports, test scores, and grade  \nretention in early elementary school and, in some studies, middle childhood.", 
  "In terms of the  timing of the measurement of achievement outcomes, the Children of the National Longitudinal  Survey of Youth (NLSY) measures are assessed as late as early adolescence, the NICHD Study  of Early Child Care and Youth Development (NICHD SECCYD) as late as fifth grade, and the  1970 British  Birth Cohort (BCS) at age 10, whereas none of the other studies measures  achievement beyond third grade.", 
  "In terms of measurement methods, two studies have both test- score-based and teacher reports of reading and mathematics achievement (The Early Childhood  Longitudinal Study \u2013 Kindergarten Cohort [ECLS-K] and NICHD SECCYD).", 
  "We measure attention and socioemotional behaviors with mothers\u2019 reports, teachers\u2019  reports and observation.", 
  "Figure 1 provides an overview of the similarities and differences in  measurement across the six studies.", 
  "One of our data sets, the Infant Health and Development  Program (IHDP), has observer reports of attention, another (NICHD SECCYD) has both test- based and teacher-rated measures of attention, and three (NLSY, IHDP, and BCS) have parent  rather than teacher reports of socioemotional behaviors.", 
  "In addition, two of the studies (NICHD  SECCYD and the Montreal Longitudinal-Experimental Preschool Study [MLEPS]) measure  both attention skills and problems, while three (NLSY, IHDP, and BCS) have measures of  attention problems but not skills, and one study (ECLS-K) has a measure of attention skills but  not attention problems.", 
  "In addition, all but one study provides measures of academic, attention,  and socioemotional skills prior to the point of school entry, which we used as key control  variables in our analyses.", 
  "The studies and samples  \n[Insert Figure 1 about here]  \nThe Early Childhood Longitudinal Study \u2013 Kindergarten Cohort.", 
  "The ECLS-K follows a  \nnationally representative sample of 21,260 children who were in kindergarten in 1998-99.", 
  "We  use data from kindergarten, first, and third grades.", 
  "Data are collected from multiple sources,  including direct achievement tests of children, surveys of parents, teachers, and school  administrators (Figure 1; NCES, 2001).", 
  "Achievement tests were administered in the fall of kindergarten and in the spring of  \nkindergarten, first, and third grades.", 
  "We use teacher reports of children\u2019s \u201capproaches to  learning\u201d (which measures both attention skills and achievement motivation) and socioemotional  behaviors, including internalizing and externalizing problems, self-control with peers, and  interpersonal skills, collected in the fall and spring of kindergarten.", 
  "The battery of achievement tests given as part of the ECLS-K kindergarten and first grade  \nassessments covered three subject areas: language and literacy, mathematical thinking, and  \nDO NOT CITE OR QUOTE WITHOUT PERMISSION8\f  \ngeneral knowledge.", 
  "In third grade, the achievement tests included mathematics, reading and  science.", 
  "We use IRT scores for the first two of these as key dependent variables.", 
  "These third  grade assessments required students to complete workbooks and open-ended mathematics  problems.", 
  "As detailed in Appendix A, a host of family- and some child-level controls are  available in the data.", 
  "The Children of the National Longitudinal Survey of Youth.", 
  "The National Longitudinal  \nSurvey of Youth is a multi-stage stratified random sample of 12,686 individuals aged 14 to 21 in  1979 (Center for Human Resource Research, 2004).", 
  "Black, Hispanic, and low-income youth  were over-represented in the sample.", 
  "Annual (through 1994) and biennial (between 1994 and  2000) interviews with sample members, and very low cumulative attrition in the study,  contribute to the quality of the study\u2019s data.", 
  "Beginning in 1986, the children born to NLSY female participants were tracked through  \nbiennial mother interview supplements and direct child assessments.", 
  "Given the nature of the  sample, it is important to note that early cohorts of the child sample were born disproportionately  to young mothers.", 
  "With each additional cohort the children become more representative of all  children, and NLSY children younger than age 14 in 2000 share many demographic  characteristics of their broader set of age mates.", 
  "The sample used in the present analysis consists of 1,756 children whose academic  \nachievement was tracked from age 7/8 to age 13/14 and whose achievement and behavior was  assessed at age 5/6.", 
  "Consequently, our sample is comprised of children who were age 5 or 6 in  1986, 1988, 1990 or 1992.", 
  "The age 13/14 achievement and behavior of these children were  assessed in the respective 1994, 1996, 1998 and 2000 interviews.", 
  "School readiness measures, including math and reading test scores (Peabody Individual  \nAchievement Tests) and maternal reports of children\u2019s behavior problems (adapted from the  Achenbach Behavior Problems Checklist) were collected at age 5 or age 6.", 
  "Academic  achievement outcome measures were collected biennially for children between the ages of 5 and  14.", 
  "In addition, at age 3 or 4, children\u2019s receptive vocabulary was assessed (PPVT) and data on  key dimensions of children\u2019s temperament (compliance and sociability) was collected (Figure 1).", 
  "Family- and child-level control variables are described in Appendix B.", 
  "The NICHD Study of Early Child Care and Youth Development.", 
  "Longitudinal data from  \nthe NICHD Study of Early Child Care and Youth Development (SECCYD) are drawn from a  multi-site study of births in 1991 (NICHD Early Child Care Research Network, 2005b).", 
  "Participants were recruited from hospitals located at 10 sites across the U.S in 1991.", 
  "During 24- hour sampling periods, 5,265 new mothers met the selection criteria and agreed to be contacted  after returning home from the hospital.", 
  "At one month of age, 1,364 healthy newborns were  enrolled in the study.", 
  "Although it is not nationally representative, the study sample closely  matches national and census tract records on demographic variables such as ethnicity and  household income.", 
  "The majority of children in the sample are white, 12% are African-American,  and 11% are Hispanic or another ethnicity.", 
  "About 30% of mothers had a high school education  or less, and 14% were single parents (NICHD Early Child Care Research Network, 1997).", 
  "The  analysis sample had valid data on the achievement outcome measures and at least three sources  of information on the key independent variables (approximately 981 at first grade, 928 at third  grade, and 907 at fifth grade).", 
  "DO NOT CITE OR QUOTE WITHOUT PERMISSION9\f  \nSchool readiness measures, including achievement tests and attention/impulsivity tasks  \nwere administered in a controlled laboratory setting at age 4 \u00bd, and attention problems,  aggression, internalizing behavior, and social skills were measured by teacher report in the fall of  the kindergarten year.", 
  "Outcomes at first, third, and fifth grade include achievement in math and  reading according to teacher ratings and Woodcock-Johnson test scores (Figure 1).", 
  "The  SECCYD also includes information from infancy about children\u2019s early environments, including  child care type and quality, home environment, and parenting (see Appendix C).", 
  "The Infant Health and Development Program.", 
  "The IHDP is an eight-site randomized  \nclinical trial designed to evaluate the efficacy of a comprehensive early-intervention program for  low birth weight (LBW) premature infants.", 
  "Infants weighing 2,500 grams or less at birth were  screened for eligibility if their postconceptional age between January and October 1985 was 37  weeks or less and if they were born in one of eight participating medical institutions.", 
  "A total of  985 infants were randomly assigned either to a medical follow-up only (FUO) or to a  comprehensive early childhood intervention (INT) group immediately following hospital  discharge.", 
  "Infants in both the INT and FUO groups participated in a pediatric follow-up program of  periodic medical, developmental, and familial assessments from 40 weeks conceptional age (the  age at which they would have been born if they had not been premature) to 36 months of age  corrected for prematurity.", 
  "The intervention program, lasting from hospital discharge until 36  months, consisted of home visits, child care services, and parent group meetings.", 
  "A coordinated  educational curriculum of learning games and activities was used both during home visits and at  the center.", 
  "assessments are available for 843 children at age 3, 745 children at age 5, and 787 children at age  8.", 
  "In addition, 76 children who were born extremely low birth weight (ELBW; 1000 grams or  less were excluded from the sample since ELBW children differ markedly from other LBW  children in cognitive and behavioral functioning (Klebanov, Brooks-Gunn, & McCormick,  1994a,b).", 
  "Thus, this study focuses upon a subsample of 690 children who were not born  extremely low birth weight and for whom cognitive assessment and family background data  were available.", 
  "(Figure 1).", 
  "School readiness measures include preschool performance and verbal test scores,  parental reports of children\u2019s mental health and aggressive behavior, and observer reports of  children\u2019s attention and task persistence.", 
  "Reading and math achievement are assessed by the  Woodcock-Johnson broad reading and math tests and by the WISC-III performance and verbal  tests at eight years of age.", 
  "Family- and child-level control variables are described in Appendix D.  \n Data come from a variety of sources:  questionnaires, home visits, and laboratory tests  \nThe primary analysis group consisted of 985 infants.", 
  "Of these 985 infants, cognitive  \nThe Montreal Longitudinal-Experimental Preschool Study.", 
  "The MLEPS comprises  \nseveral consecutive cohorts launched from 1997 to 2000.", 
  "The original sample of 4- and 5-year- old children (n=1,928), representing one-third of its population base, was obtained after a  multilevel consent process involving school board administrators, local school committees,  parents, and teachers.", 
  "Given that its final cohort (2000) does not meet all the data requirements  for the research objective examined here, we limit ourselves to the sample of children beginning  kindergarten in fall of 1998 and fall of 1999.", 
  "DO NOT CITE OR QUOTE WITHOUT PERMISSION10\f  \nIncomplete data reduced the sample from 1,369 to 767 children.", 
  "Students in the final  \nsample had a valid value on any of the four outcome measures of interest (first and third grade  achievement measures) and on at least four of the six socioemotional measures.", 
  "Of the 767  participants in the final sample, 439 began kindergarten in 1998 and 328 began kindergarten in  the fall of 1999.", 
  "Additionally, for 350 of the 767 students, initial data were collected during the  fall of junior kindergarten (332 who began junior kindergarten in 1997 and 18 who began junior  kindergarten in 1998).", 
  "Initial and follow-up data were collected from multiple sources, including direct  \ncognitive assessments of children and surveys of parents and teachers.", 
  "Early academic  assessments include individually administered number knowledge and receptive vocabulary tests  upon junior kindergarten (age 4, cohort 1) and senior kindergarten (age 5, cohort 2) entry and at  the end of senior kindergarten.", 
  "Teachers rated children\u2019s behavioral development, including  physically aggressive, anxious, depressive, hyperactive, inattentive, and prosocial behavior.", 
  "Third grade assessments include a group-administered math test and teacher ratings of children\u2019s  French language skills (Figure 1).", 
  "Family- and child-level control variables are detailed in  Appendix E.  \nThe 1970 British  Birth Cohort.", 
  "The UK 1970 British Birth Cohort (BCS), a nationally  representative longitudinal study, has followed into adulthood a cohort of children born in Great  Britain during one week in 1970 (Bynner, Ferri, & Shepherd, 1997).", 
  "The birth sample of 17,196  infants was approximately 97% of the target birth population.", 
  "Attrition has reduced original  sample to 11, 200 participants.", 
  "Nevertheless, the representativeness of the original birth cohort  has largely been maintained although the current sample is disproportionately female and highly  educated (Ferri & Smith, 2003).", 
  "Missing data on key variables reduces the sample size for most  analyses to between 9,000 and 10,000 cases.", 
  "At each wave, cohort members were given a battery of tests of intellectual and behavioral  development (Figure 1).", 
  "School readiness measures include vocabulary and copying skills tests,  and maternal reports of attention, externalizing behavior, and internalizing behavior were  collected when the children were 5 years of age.", 
  "Reading and mathematics achievement tests  were administered at age 10.", 
  "The data also include measures of basic skills and behavior at ages  22 and 42 months for a 10% sub-sample of the data.", 
  "Family- and child-level controls are  described in Appendix F.  Analysis Plan  \nWe begin our analysis by estimating a similar set of regression models across all six  \nstudies, in which school-entry academic, attention, and socioemotional skills are related to later  academic achievement.", 
  "For example, in ECLS-K data, the school-entry skills and behaviors are  measured in the fall of kindergarten (\u201cFK\u201d) while math and reading achievement are measured in  the spring of third grade (\u201c3rd\u201d).", 
  "The resulting equation is as follows:  \nACHi3rd = a1 + \u00df1 ACADiFK + \u00df2 ATTNiFK + \u00df3 SEiFK + \u03b31 FAMi + \u03b32 CHILDi + eit where ACHi3rd is the math or reading2 achievement of child i in the spring of third grade.", 
  "ACADiFK is the collection of math, reading and general knowledge skills that child i has acquired  at school entry, assessed by achievement tests in the fall of the kindergarten year; ATTNiFK is a  teacher-reported measure of attention; SEiFK is the collection of socioemotional skills that child  i\u2019s teacher reports; FAMi and CHILDi are sets of family background and child characteristics  \nDO NOT CITE OR QUOTE WITHOUT PERMISSION11\f  \nincluded in analyses to control for individual differences that might influence child achievement  before and after school entry; a1 is a constant and eit is a stochastic error term.", 
  "Our interest is in estimating \u00df1, \u00df2, and \u00df3, which, if correctly modeled, can be interpreted  \nas the impact of school-entry academic, attention, and socioemotional skills on subsequent  achievement.", 
  "A key challenge in this approach is ensuring that we have accounted for the  possibility of omitted variable bias, which is likely to arise if unobserved family or child  characteristics are correlated both with children\u2019s school entry skills and their later achievement.", 
  "Our principal strategy for securing unbiased estimation of \u00df1, \u00df2, and \u00df3 is to estimate a model of  the form of equation (1) that includes as many prior measures of relevant child and family  characteristics as possible.", 
  "(As detailed in our appendix, all of the studies contain important  measures of child and family characteristics).", 
  "Of course, we cannot be certain that even a  comprehensive set of control variables captures all of the important confounds, which leaves  open the possibility that this approach will still produce biased estimates of \u00df1, \u00df2, and \u00df3.", 
  "For  example, an obvious bias of this sort would arise if scores on a kindergarten mathematics test  reflected both math skills and underlying cognitive ability.", 
  "To further reduce the possibility of biases, we include measures of a child\u2019s behaviors  \nand either cognitive ability or achievement assessed prior to school-entry, which are available in  all but two studies (ECLS-K and MLEPS).3 With these prior measures, our model becomes:  (2)      ACHi3rd = a1 + \u00df1 ACADiFK + \u00df2 ATTNiFK + \u00df3 SEiFK + \u00df4 ACADiPre-FK + \u00df5 ATTNiPre-FK +  \n\u00df6 SEiPre-FK + \u03b31 FAMi + \u03b32 CHILDi + eit ACADiPre-FK , ATTNiPre-FK, and SEiPre-K refers to child i\u2019s respective achievement,  \nattention, and socioemotional behavior prior to school entry.", 
  "This constitutes a particularly  powerful version of equation (1), because controlling for the child\u2019s cognitive and behavioral  skills before school entry should reduce, if not eliminate, omitted-variable bias in \u00df1, \u00df2 and \u00df3.", 
  "One concern about equation (2) is that by controlling for school entry achievement, we  \nmight reduce attention and socioemotional skills\u2019 deserved explanatory power.", 
  "This would occur  if one of the ways in which attention and socioemotional skills affected later achievement was by  raising children\u2019s school entry academic skills.", 
  "We investigate this possibility by estimating  versions of equation (2) that omit ACADiFK.", 
  "In the second step of our analysis, we employ meta-analytic techniques to summarize  coefficients obtained from our six studies\u2019 estimates of equation (2), and consider if particular  study characteristics are associated with larger (or smaller) coefficients.", 
  "More specifically, the  meta-analysis treats the standardized regression coefficients from equation (2) as observations in  a regression predicting academic achievement measured as late in childhood as possible.", 
  "Independent variables in the meta-analytic regression include: (a) the type of school-entry  measure;4 (b) elapsed time (scaled in years) between measurement of school-entry characteristics  and the outcome; (c) whether the outcome is math or reading achievement; and (d) whether the  outcome is based on a test or a teacher report.", 
  "In keeping with standard meta-analytic practices,  we weighted each regression coefficient observation by the inverse of its variance (Hedges &  Olkin, 1985).", 
  "Regression results  \nDO NOT CITE OR QUOTE WITHOUT PERMISSION12\f  \nTo consider whether school entry5 achievement, attention, and soccioemotional skills are  \npredictive of subsequent achievement, we first estimated a comparable set of regressions  (equation 2) across all of the studies.", 
  "For each study, reading and math outcomes measured as  late in the data set as possible are regressed on school-entry achievement, attention, and  socioemotional behaviors, as well as controls for important family and child characteristics.", 
  "In  all but two cases, our regressions include measures of both cognitive ability and either attention  or socioemotional behaviors.", 
  "Standardized regression coefficients and standard errors from  models predicting achievement from the school-entry academic, attention, and socioemotional  behaviors are presented in Table 1.", 
  "Complete regression results using all available reading and  math outcomes are presented in appendix tables and are summarized below in our meta-analysis.", 
  "[Insert Table 1 here]  \nAs expected, the regression results indicate that school-entry reading and math skills are  \nalmost always statistically significant predictors of later reading and math achievement, with  standardized coefficients ranging from .05 to .53.", 
  "Not surprisingly, school-entry reading skills  predict subsequent reading achievement better than subsequent math achievement and vice versa.", 
  "In the case of attention skills and attention problems, coefficients are usually smaller than  \nthose for math skills, but are statistically significant for more than half of the coefficients.", 
  "In  contrast, coefficients for socioemotional behaviors\u2014externalizing and internalizing behavior  problems and social skills\u2013 rarely pass the threshold of statistical significance.", 
  "This general pattern\u2014relatively strong prediction from school-entry reading and math  \nskills, moderate predictive power for attention skills, and few to no statistically significant  coefficients on socioemotional behaviors\u2014is also found for reading and math achievement  measured at earlier points in the studies and in logistic regressions in which grade retention is the  dependent variable (results shown in Appendix tables A3, B3, C3, D3, E3, and F3 but not in  Table 1).", 
  "To consider whether the effects of school entry skills differ by children\u2019s gender or  \nsocioeconomic status (SES), we ran regressions (equation 2) but also included gender  interactions with school-entry achievement, attention, and socioemotional skills for all six data  sets, and SES interactions for all but the NICHD SECCYD and MLEPS (results shown in  appendices A-F).", 
  "6 In the case of gender interactions, 10 of 76 relevant interaction coefficients  were .05 or larger and statistically significant, but there was no consistent pattern in the direction  of effects.", 
  "In the case of SES interactions, only 2 of the 30 interaction coefficients were .05 or  more and statistically significant.", 
  "It appears that the influences of school-entry achievement,  attention, and socioemotional skills are broadly similar for both boys and girls and for children  from both low- and high-SES families.7 Meta-Analytic Results  \nTo summarize findings across the six studies more systematically, we first averaged the  \n102 bivariate correlations between school-entry achievement, attention, and socioemotional  skills and the latest available reading and math achievement available in each of the data sets.", 
  "(Detailed correlation tables are shown in appendix tables A2, B2, C2, D2, E2, and F2).", 
  "As  shown in the first column of Table 2, the absolute value of these correlations average between .4  and .5 for school-entry reading and math achievement, .25 for the collection of attention  \nDO NOT CITE OR QUOTE WITHOUT PERMISSION13\f  \nmeasures and between .10 and .21 in absolute value for the three sets of socioemotional  measures.", 
  "[Insert Table 2 here]  \nNext, we conducted a formal meta-analysis of the standardized regression coefficients  \nemerging from the individual study regressions.", 
  "We used two sets of regression coefficients.", 
  "The  first was comprised of the 102 coefficient shown in Table 1, and are drawn from regressions  based on equation (2) and achievement outcomes measured as late in childhood as possible.", 
  "These results are shown in the second column of Table 2.", 
  "The second meta-analytic regression is  based on the 228 coefficients taken from regressions with outcomes measured at all possible  points in a given study.", 
  "These coefficients are shown in the appendix tables and produce the  results are shown in third, fourth and fifth columns of Table 2.", 
  "A clear conclusion from the first meta-analytic regression is that only three of the school- entry skill categories predict subsequent reading and math achievement: reading/language, math,  and attention.", 
  "Moreover, rudimentary mathematics skills appear to matter the most, with an  average standardized coefficient of .33.8 Reading skill\u2019s association with later achievement was  less than half as large (.13), and, at .07, the average standardized coefficients on the attention- related measures was less than one quarter the size of the mean math skills coefficient.", 
  "As  expected from Table 1, the meta-analysis results confirm that behavior problems and social skills  are not associated with later achievement, holding constant achievement as well as child and  family characteristics.", 
  "Indeed, none had a standardized coefficient that averaged more than .01 in  absolute value.", 
  "Turning to the other coefficients listed in the second column of Table 2, we see that the  \nschool-entry skills coefficients decreased a little (.010 per year) with each additional year  between school entry and the point of assessment of the math or reading outcome.", 
  "As for  whether teacher-report outcomes or direct skill assessments are more likely to be predicted by  early skills, our meta-analytic results suggest that both types of measures performed about the  \nOur appendices (tables A3, B3, C3, D3, E3, and F3) provide standardized coefficients  \nfrom regressions of achievement outcomes measured at different ages, which constitute the 228  observations used for the meta-analytic regression results shown in the remaining columns of  Table 2.", 
  "The advantage of using outcomes at several ages is that it enables us to control for the  study from which a given standardized coefficient was estimated, which we do by including a set  of study indicator variables.9  The third column of Table 2 summarizes the results across  domains, and the fourth and fifth columns show results separately for reading and math  outcomes.", 
  "To provide a visual representation of the data underlying the meta-analysis, the 228  coefficients are plotted in Figure 2.", 
  "[Insert Figure 2 about here]  \nThe general pattern of results found for outcomes measured later in childhood also hold  \nwhen we also consider the broader set of regression coefficients, which includes outcomes  measured earlier in childhood (column 3 of Table 2).", 
  "With an average standardized coefficient  of .34, school-entry math skills are most predictive of subsequent achievement outcomes,  followed by reading skills (.17), and attention-related measures (.10).", 
  "All of the socioemotional  behavior categories lack predictive power.", 
  "DO NOT CITE OR QUOTE WITHOUT PERMISSION14\f  \nResults in columns 4 and 5 of Table 2 confirm that early reading skills are stronger  predictors of later reading achievement than later math achievement.", 
  "Less expected are the  fourth column\u2019s results showing that early math skills are as predictive of later reading  achievement as are early reading skills.", 
  "Children\u2019s attention skills appear equally important (and  socioemotional behaviors appear equally unimportant) for reading and math achievement.", 
  "The  separate regressions for reading and math skills also show that the association between school- entry skills and later achievement declines more quickly over time for reading than math  outcomes.", 
  "As before, we find no overall difference in the size of the standardized coefficients  \ndepending on whether the outcome being predicted is a based on teacher reports or direct skill  assessments.", 
  "To answer the more specific question of whether shared method variance might  lead to greater associations between school-entry achievement test scores and later achievement  (as opposed to school-entry teacher-reported achievement) outcomes, we added to the meta- analytic regressions interactions between the categories of school entry skills and dummy  variables for type of achievement measure (results not shown).", 
  "Surprisingly, we found no  evidence that the impact of early reading and math skills mattered more for test-based than  teacher-reported outcomes.10 Thus, shared method variance does not appear to be biasing our  results.", 
  "concealing systematic differences among more specific skills.", 
  "For example, our \u201creading\u201d  category includes measures of school-entry reading achievement as well as language and verbal  ability.", 
  "When we reran the meta-analytic regression in the third column with separate groups for  reading achievement and the collection of other language-related measures, we found that we  could not reject the hypothesis of equal effects (p=.11).", 
  "Extensions  \nSince some of our skills groupings are quite broad, we explored whether they might be  \nBeyond shared method variance, there are a number of other reasons to worry that we  \nmay have stacked the deck in favor of our school-entry achievement measures: (a) attention and  socioemotional skills may be more difficult to measure than achievement-related skills; (b)  maternal reports available in three of our data sets may be less predictive than teacher reports of  later academic achievement, in part because parents do not observe their children in school  settings; (c) our models may overcontrol for achievement-related impacts of attention and  socioemotional skills; (d) socioemotional skills may matter more for important school-related  outcomes such as dropout than test scores do, since dropout reflects some combination of  achievement and behavior; (e) most of our outcomes are measured in middle childhood and the  relative importance of school-entry factors may change as schools encourage older children to  become independent learners; (f) a number of our socioemotional measures are counts of  students\u2019 problems, which restricts their range and perhaps explanatory power relative to the full- scale achievement measures; and (g) substantial attrition in some of our studies may bias results.", 
  "A first potential threat to our general conclusion is that children\u2019s behavior is more  \ndifficult to measure than their early achievement.", 
  "Perhaps the lower reliability or validity of the  behavioral measures accounts for their weaker explanatory power.", 
  "It is certainly true that  school-entry tests have high internal consistency (e.g., the alphas were at least .74).", 
  "But the  internal consistency of most of the attention and socioemotional skills was also fairly high,  particularly in the case of teacher reports, which were all were .79 or higher.", 
  "DO NOT CITE OR QUOTE WITHOUT PERMISSION15\f  \nTo investigate the potential impact of unreliable measurement on our results, we used the  \nreported internal consistencies in the ECLS-K and NLSY data to estimate regression models  using the errors-in-variables reliability adjustment in the EIVREG procedure in Stata.", 
  "To accord  the behavioral measures maximum explanatory power, our regressions included school-entry  academic test scores as well as family and child control variables, but only the given measure of  attention or socioemotional behaviors.", 
  "For third-grade reading outcomes and no reliability adjustments in the ECLS-K, the  \nrespective standardized coefficients on approaches to learning, self-control, interpersonal skills,  externalizing problems, and internalizing problems were .05, .02, .02, -.03, and .00.", 
  "Reliability  adjustments produced very similar coefficients: .06, .02, .03, -.04, and .00.", 
  "Reliability-related  changes to the coefficients on these measures predicting math achievement were similarly  \nFor the NLSY early adolescent reading test score outcome, respective coefficients  \nassociated with hyperactivity, headstrong, antisocial behavior, and anxiety/depression were -.06,  -.02, -.05, and -.01.", 
  "Adjusting for reliability generally increased (the absolute value of) these  coefficients somewhat, to: -.09, -.03, -.08, -.01 respectively.", 
  "Reliability-related changes in  coefficients predicting early adolescents\u2019 math scores were similar.", 
  "Although the proportionate  increases in these coefficients are substantial in some cases, none of the reliability-adjusted  coefficients begins to rival the size of the coefficients on early reading and math.", 
  "In sum, it is  unlikely that our attention and socioemotional behavior measures lack the explanatory power of  the reading and math measures entirely because they are less reliable.", 
  "The overall validity of the attention and socioemotional behavior measures is much more  difficult to assess.", 
  "Correlations shown in the first column of Table 2 between later achievement  and the attention and socioemotional behavioral measures have the expected signs and range  from .10 to .25 in absolute value, suggesting at least some degree of validity.", 
  "However, there  remains the possibility that low validity might lead us to underestimate their predictive power.", 
  "Of course, the validity of kindergarten-level achievement tests has also been questioned (Hirsh- Pasek, Kochanoff, Newcombe, & de Villiers, 2005; Meisels & Atkins-Burnett, 2004), so  validity-based downward bias is also a concern for the coefficients on the early achievement  measures.", 
  "A second concern is that we relied on maternal reports of socioemotional behaviors in  \nthree studies (NLSY, IHDP, and BCS).", 
  "Because maternal ratings are comparatively (siblings vs.  classmates) and contextually (family vs. school) different from teacher ratings, it is possible that  our reliance on maternal reports in these data sets leads to a downward bias in the estimated  effects of the attention and socioemotional behavior measures (Gagnon & Tremblay, 1992).", 
  "To investigate whether this might be the case, we took data from the ECLS-K and  \nNICHD SECCYD, both of which gathered comparable ratings from parents and teachers of  several components of socioemotional behaviors, and substituted parent reports for the teacher- report-based measures of these skills.", 
  "Using our full set of controls and averaging across latest  reading and math outcomes, we found that standardized coefficients on externalizing and  internalizing problems and social skills averaged .05, .03 and .03 for teacher reports and -.00, .01  and .01 for parent reports.", 
  "All told, the similarity of these two sets of coefficients suggests little  bias in the estimated influences of NLSY, IHDP and BCS maternal reports of socioemotional  behavior.", 
  "DO NOT CITE OR QUOTE WITHOUT PERMISSION16\f  \nThe third issue, overcontrol, is complicated.", 
  "Our regression models control for school- \nentry achievement, but if early attention and socioemotional skills affect later achievement  primarily by affecting school-entry achievement skills, are we not robbing the school-entry non- achievement measures of some of their explanatory power?11 The pattern of average correlations  presented in the first column of Table 2 bears on this issue.", 
  "The bivariate associations between  school-entry attention and socioemotional skills are considerably larger than their regression- adjusted partial associations, suggesting that this might possibly be the case.", 
  "To investigate this possibility more systematically, we re-estimated our full-control  models, using the latest outcomes in each study and omitting our school-entry measures of  reading and math skills (but retaining all other control variables).", 
  "Standardized coefficients on  attention, externalizing problems, internalizing problems, and social skills averaged .13, .03, .02  and .03, respectively, without school-entry reading and math skills.", 
  "Corresponding averages for  coefficients from models that included school-entry academic skills were .07, .03, .02, and .02.", 
  "Thus, even without including school entry reading and math skills, only attention skills appear to  relate to later reading and math achievement, and some of this may result from its correlation  with the omitted achievement measures rather than a true mediation through achievement.", 
  "It  remains the case that our analysis is focused on behavior during the years just before and at the  point of school entry.", 
  "If some types of socioemotional skills are well established before the  preschool years, and unchanging during these years, then we will not be able to detect their  effects.", 
  "Fourth, attention and socioemotional skills may matter more for outcomes such as special  \neducation classification or dropping out of school than for the test scores and teacher-reported  achievement outcomes used in our studies.", 
  "The outcomes of our analyses are indeed limited, and  it may well be that these types of measures of school completion and success are more strongly  linked to children\u2019s socioemotional behavior and attention skills than to academic skills.", 
  "Our  test for this possibility was to estimate models of the effects of early academic and self- regulatory skills on grade retention, an outcome that includes elements of both academic and  behavioral competence.", 
  "Results in appendix tables A3, B3, C3, D3, E3, and F3 were quite  similar to those from models with purer achievement-related outcomes.12 Nevertheless, the  possibility remains that the predictive power of school-entry skills may differ for other, even  more behavior-based educational outcomes.", 
  "A fifth concern is that most of the outcomes are measured during children\u2019s elementary  school years.", 
  "Achievement in the middle and high school years involves increasingly complex  reading and mathematical tasks, and it may be that general cognitive skills, particularly oral  language and conceptual abilities, are necessary skills for comprehension and advanced problem  solving (Baroody, 2003; Ferrari & Sternberg, 1998; Hiebert & Wearne, 1996; NICHD Early  Child Care Research Network, 2005a; Scarborough, 2001; Snow et al., 1998; Storch &  Whitehurst, 2002; Whitehurst & Lonigan, 1998).", 
  "It is also possible that, once children are past  learning the \u201cbasics\u201d in the early grades, the relative importance of early attention and  socioemotional skills increase as children are increasingly called upon to be independent  learners, allocate their own time, and complete group work and assignments.", 
  "For a general look at the evidence about whether any of the impacts of academic,  \nattention, and socioemotional skill measures are growing over time, we reran our meta-analytic  regressions including interactions between each of the school-entry measures and time between  school entry and the outcome assessment.", 
  "Coefficients on the interactions with early reading,  \nDO NOT CITE OR QUOTE WITHOUT PERMISSION17\f  \nearly math, attention and socioemotional behavior were all negative and ranged from -.023 to - .039 annual decrements in effect sizes, providing no support for hypotheses of increasing  importance.", 
  "Because most of our outcomes are assessed in elementary school, the interactions shed  relatively little light on what would happen if more outcomes were measured during middle or  high school.", 
  "The NLSY data are most telling on this point, since the same skill assessment was  given at both ages 7/8 and ages 13/14.", 
  "In regressions of outcomes based on these two time  points, we find that although school-entry hyperactivity retained its modest explanatory power  (effect sizes around -.07) between these two points, the explanatory power of reading and math  fell.", 
  "In the case of NICHD SECCYD outcomes measured in third and fifth grade, there was  inconclusive evidence on the direction of coefficient change.", 
  "A sixth worrisome methodological concern is that a number of our socioemotional  \nmeasures are counts of students\u2019 problems, which restricts the range of behaviors they capture,  and might therefore reduce their predictive power.", 
  "We explored this possibility by estimating  spline regressions, which allow for non-linear effects (results not shown).", 
  "In these analyses, two  linear segments per measure were fit to the data.", 
  "The first segment was estimated for the most  problematic third of the sample distribution and the second segment was estimated for the other  two-thirds.", 
  "If, say, externalizing behavior problems matter a lot for the children with very high  levels of problem behavior, but owing to the restricted range, much less for the others, then the  slope of the line fit to the most problematic group should be significantly larger (in absolute  value) than the slope for the rest of the sample.", 
  "We found little systematic evidence that this was the case.", 
  "In the ECLS-K data, there was  some evidence that improving early math skills mattered more for low math achievers, while the  NLSY showed that hyperactivity mattered more for children with the highest levels of it.", 
  "No  significant nonlinearities emerged in the analysis of NICHD SECCYD data.", 
  "These spline  analyses confirm that there are few non-linear associations between the socioemotional measures  included in this study and the outcomes they predict.", 
  "It does not rule out, however, the possibility  that other measures that capture a broader range of behaviors may be more strongly associated  with later achievement.", 
  "A seventh and final concern is that sample attrition in some of our studies may bias our  results.", 
  "The extent of attrition is documented in our appendices.", 
  "All of the coefficients used in  our meta-analyses come from models in which missing data are accounted for with missing data  dummy variables.", 
  "In the appendix, we present results for three of our data sets (ECLS-K,  NICHD SECCYD and MLEPS) in which missing data are handled with multiple imputation and  listwise deletion.", 
  "In two data sets (ECLS-K and MLEPS), we also used non-response weighting  adjustments.", 
  "These alternative methods produce similar coefficients.", 
  "The respective coefficients  on school entry reading, math, attention, externalizing, internalizing and social skills averaged  .13, .23, .06, .04, .02 and .02 using missing data dummies.", 
  "Corresponding coefficient averages  for multiply imputed models were .12, .17, .06, .01, .01 and .02.", 
  "Corresponding coefficient  averages for listwise deletion models were .09, .27, .07, .00, .02 and .00.", 
  "Corresponding  coefficient averages for non-response weighted models were .12, .31, .10, -.00, .01, and -.00.", 
  "We have presented results from a coordinated analysis of six longitudinal data sets  \nrelating school-entry skills to later teacher ratings and test scores of reading and math  \nDiscussion and Conclusions  \nDO NOT CITE OR QUOTE WITHOUT PERMISSION18\f  \nachievement, holding constant children\u2019s pre-school cognitive ability, behavior, and other  important background characteristics.", 
  "Our meta-analytic results indicate that such early math  concepts as knowledge of numbers and ordinality were the most powerful predictors of later  learning (the average effect size of school-entry math skills was .34 and every bit as large as  early reading skills in predicting later reading achievement).", 
  "Less powerful, but also consistent,  predictors across studies were early language and reading skills such as vocabulary, knowing  letters, words and beginning and ending word sounds (the average effect size across our studies  was .17), and attention skills (average effect size .10).", 
  "The average effect sizes of externalizing  and internalizing problem behaviors and social skills were close to zero.", 
  "Despite our extensive investigation of the robustness of our key results, any non- \nexperimental analysis using imperfectly measured cognitive, achievement, and behavioral  constructs such as ours cannot rule out all threats to its conclusions.", 
  "First, while shared method  variance, reporter bias, overcontrol, restricted range and measurement reliability cannot account  for the differential predictive power of school-entry achievement and socioemotional measures,  we are unable to rule out bias from the lower validity of socioemotional measures.", 
  "Second,  despite our ability to control for cognitive ability prior to school entry in five of our six studies,  and despite our controls for concurrent reading skills in all six studies, it remains possible that  our surprisingly large school-entry math coefficients overstate causal impacts.", 
  "One of our noteworthy results is that early math is a more powerful predictor of later  \nreading achievement than early reading is of later math achievement.", 
  "Despite our controls for  cognitive ability, it remains possible that some of the apparent effect of early math skills is  spurious.", 
  "To the extent that the effects are real, it is important to discover why.", 
  "Math is a  combination of both conceptual and procedural competencies; however, our data do not allow us  to examine these competencies separately.", 
  "Yet, our findings provide compelling evidence that  warrants future research to closely examine efforts to improve math skills prior to school entry.", 
  "Random assignment evaluations of early math programs that focus on the development of  particular mathematical skills and track children\u2019s reading and math performance across  elementary school could help to illuminate missing causal links between early skills and later  achievement.", 
  "Another finding from our analysis is that attention skills are modestly, but consistently,  \nassociated with achievement outcomes.", 
  "One explanation for this predictive power is that  attention skills increase the time children are engaged and participating in academic endeavors  and learning activities.", 
  "Other studies have shown that attention skills have important associations  with school success, independent of cognitive and/or language ability (Alexander et al., 1993;  McClelland et al., 2000; Howse et al., 2003; Yen et al., 2004), but few of these studies have  controlled for prior levels of academic skills as well as prior levels of behavior.", 
  "Our results  suggest that attention skills, but not problem behavior or social skills, predict achievement  outcomes, even after the effect of early achievement knowledge and cognitive ability have been  netted out.", 
  "Although all of the studies we analyzed were drawn from normative populations, all  contain at least some children falling in the clinical ranges of behavior problems.", 
  "We were  surprised that our spline regression models produced no consistent evidence of nonlinear effects  of problem behaviors on later achievement.", 
  "We caution, however, that it remains possible a  more focused analysis, perhaps with clinical samples, might reach different conclusions.", 
  "DO NOT CITE OR QUOTE WITHOUT PERMISSION19\f  \nGiven that teachers emphasize the importance of attention skills and socioemotional  behavior for school readiness, and the possibility that these skills shape classroom learning  processes, it might be expected that these early skills would have \u201ccrossover\u201d effects on  subsequent reading and math achievement.", 
  "With the important exception of attention skills, we  did not find evidence that changes in these skills during the preschool years predict later  achievement.", 
  "However, as noted earlier, academic skills are only one facet of educational  success, and improvements in problem behavior or social skills may better predict other  important school outcomes, such as a child\u2019s engagement in school and motivation for learning,  relationships with peers and teachers, as well as their overall self-concept and school adjustment  (Greenberg et al., 2003).", 
  "It might also be the case that early-grade teachers are somehow able to  prevent problem behaviors from interfering with student learning, but that problem behaviors  would be linked with lower achievement if teachers were less capable.", 
  "Despite the uniformly  small and often insignificant coefficients on these measures in our regressions, we caution  against completely dismissing the potential academic benefits of environments or programs that  promote positive socioemotional development.", 
  "An additional caveat is that any one child\u2019s socioemotional behavior, in particular  \nexternalizing problem behaviors, may affect other students\u2019 achievement more than the child\u2019s  own individual achievement.", 
  "For example, problem behaviors may disrupt classroom activities  such that even well-behaved children spend less time engaged in instructional and learning  activities.", 
  "Our analyses do not consider this possibility because it requires more complete data  about classmates\u2019 behavior than the studies provide.", 
  "We raise this point, however, because we  believe that the topic of peer effects deserves further attention in future research on  socioemotional behavior.", 
  "Our analyses focus on skills and behaviors that emerge at the time of school entry, and  not on the effects of socioemotional behaviors that emerge after children enter school.", 
  "This is  important, because it may be that reading achievement and problem behavior develop in tandem  during the early elementary years (Trzesniewski et al., 2006).", 
  "Additional research is necessary to  further elucidate the potentially complex and reciprocal relationships between children\u2019s  socioemotional behaviors and their academic achievement.", 
  "Our conclusions about the importance of early academic and attentions skills are  \nconsistent with the recommendations endorsed by the National Association for the Education of  Young Children, the National Council of Teachers of Mathematics, and the National Research  Council\u2019s Committee on the Prevention of Reading Difficulties in Young Children.", 
  "However,  our results say nothing about the types of curricula that would be most effective in promoting  these skills.", 
  "Play-based, as opposed to \u201cdrill-and-practice,\u201d curricula designed with the  developmental needs of children in mind can foster the development of academic and attention  skills in ways that are engaging and fun.", 
  "Taking early math skills as an example, the Big Math  for Little Kids program has been designed to capitalize on children\u2019s interest in exploring and  manipulating numbers (Greenes, Ginsburg, & Balfanz, 2004).", 
  "In addition, play-based curricula  may also have the added benefit of fostering attention-related skills (Berk, 1994).", 
  "Our findings support three key conclusions for developmental research.", 
  "First, math and  \nreading skills at the point of school-entry are consistently associated with higher levels of  academic performance later in later grades.", 
  "Particularly impressive is the predictive power of  early math skills, which supports the wisdom of experimental evaluations of promising early  math interventions.", 
  "Second, among attention-related and socioemotional behaviors, only the  \nDO NOT CITE OR QUOTE WITHOUT PERMISSION20\f  \nattention-related skills predicted later academic achievement with any consistency.", 
  "We find no  meaningful regression-adjusted associations between either interpersonal skills (or problems) or  aggression and later achievement.", 
  "Finally, all of our data sets suggest that reading and math tests  that were individually administered to children by trained personnel around the point of school  entry can be a highly reliable way of assessing early skills.", 
  "That said, it was also the case that we  could not attribute most of the variation in later school achievement to our collection of school- entry factors, so the potential for productive interventions during the early school grades  remains.", 
  "DO NOT CITE OR QUOTE WITHOUT PERMISSION21"
 ]
}