{
 "document_id": "16111512245367032612", 
 "sentences": [
  "TC Online First, published on February 28, 2013 as 10.1136/tobaccocontrol-2012-050765 \n\nhttp://tobaccocontrol.bmj.com/ \n on November 28, 2017 - Published by  \nDownloaded from  \ngroup.bmj.com \nResearch paper \nTobacco display and brand communication at the point of sale: implications for adolescent smoking behaviour Dionysis Spanopoulos, John Britton, Ann McNeill, Elena Ratschen, Lisa Szatkowski \nBackground In England, point-of-sale (PoS) displays in larger shops were prohibited in April 2012, with an exemption for smaller retailers until 2015.", 
  "The aim of this study was to examine the association between tobacco displays and brand communication at the PoS and adolescent smoking behaviour, and to assess the potential bene\ufb01ts likely to accrue from this legislation.", 
  "Methods Self-completion questionnaire survey in students aged 11\u201315 years in March 2011.", 
  "Results The odds of ever-smoking doubled for those visiting shops almost daily relative to less than once a week (OR 2.23, 95% CI 1.40 to 3.55), and susceptibility increased by around 60% (OR 1.62, 95% CI 1.25 to 2.10).", 
  "Noticing tobacco on display every time during store visits increased the odds of susceptibility more than threefold compared with never noticing tobacco (OR 3.15, 95% CI 1.52 to 6.54).", 
  "For each additional tobacco brand recognised at the PoS, the adjusted odds of being an ever-smoker increased by 5% (OR 1.05, 95% CI 1.03 to 1.06) and of susceptibility by 4% (OR 1.04, 95% CI 1.02 to 1.05).", 
  "The association between frequency of visiting stores and susceptibility was predominantly due to exposure in small shops.", 
  "Conclusions Exposure to and awareness of PoS displays and brands in displays were associated with smoking susceptibility.", 
  "The association between PoS display exposure and smoking susceptibility was predominantly due to exposure in small shops.", 
  "These \ufb01ndings suggest that a one-off, comprehensive tobacco display ban is the recommended approach for countries considering a display ban.", 
  "INTRODUCTION Tobacco use is the leading cause of preventable death worldwide, killing nearly six million people every year.1 In England alone, smoking caused over 80 000 deaths in 2009, more than the combined total attributable to the next six most common causes of preventable death.2 Half of all regular smokers die prematurely as a consequence of their smoking,3 and smokers have an average life expect- ancy 10 years lower than non-smokers.4 Since more than 80% of smokers \ufb01rst experiment with and become addicted to smoking in their years,5 protecting children and young people from exposures that increase the likelihood of experi- mentation with tobacco, including advertising and other forms of promotion of tobacco and tobacco brands, is a critical public health priority.", 
  "Tobacco marketing in the Western world is now- adays highly regulated.", 
  "Nevertheless, in countries that restrict tobacco marketing, point-of-sale (PoS) \ndisplays have emerged as an important communica- tion avenue between potential new smokers and the industry.6 In the UK, most forms of tobacco advertising and marketing, including advertise- ments at the PoS, were prohibited by the 2002 Tobacco Promotion and Advertising Act.", 
  "However, the Act did not regulate the size or content of the PoS displays of tobacco products themselves, and product displays emerged as the most important remaining channel of tobacco marketing.", 
  "Only recently, in April 2012, PoS tobacco displays in large stores (exceeding a \ufb02oor area of 3000 sq ft) were prohibited in England under the terms of the Health Act 2009.", 
  "However, display of tobacco pro- ducts at the PoS in smaller shops will be allowed to continue until April 2015.7 \nPrevious studies have demonstrated an associ- ation between PoS tobacco displays and both ado- lescent smoking8 and susceptibility to smoking.8 9 This study examined the characteristics of these associations for large and small shops in aggregate, and in more detail, to assess the potential health bene\ufb01ts of the phased ban currently being imple- mented in England for the bene\ufb01t of other coun- tries considering a display ban in a similar manner in the future; moreover, this study examined the role of PoS displays as a means of tobacco branding communication to youth and how such communi- cation is associated with smoking and smoking sus- ceptibility among never-smokers.", 
  "Data collection We wrote to the head teachers of all state secondary schools with students in school years 7\u201310 (aged 11\u2013 15 years) in and around Nottingham City informing them of the objectives and procedure of the study and requesting consent for their school to participate.", 
  "The head teachers of 11 out of the 36 schools ini- tially contacted agreed to participate, and in these schools during the Spring term of 2011 we distribu- ted an information sheet for parents explaining the study, with an option to decline consent.", 
  "In March 2011, approximately 1 year prior to the display ban in larger shops, we invited all stu- dents with no parental objection to complete a seven-page questionnaire that collected information on year in school, gender, ethnic background, post- code, academic performance in the last year, the number of friends who smoke cigarettes, smoking among family members, whether smoking is allowed in their home and an estimate of perceived smoking prevalence among peers using the ques- tion \u2018Out of 100 people of your age, how many do \nDivision of Epidemiology and Public Health, UK Centre for Tobacco Control Studies, Nottingham City Hospital, Nottingham, UK \nCorrespondence to Dionysis Spanopoulos, Division of Epidemiology and Public Health, UK Centre for Tobacco Control Studies, Nottingham City Hospital, Clinical Sciences Building, Nottingham NG5 1PB, UK; mcxds5@nottingham.ac.uk \nReceived 5 September 2012 Revised 3 January 2013 Accepted 30 January 2013 \nTo cite: Spanopoulos D, Britton J, McNeill A, et al.", 
  "Tob Control Published Online First: [please include Day Month Year] doi:10.1136/tobaccocontrol- 2012-050765 \nSpanopoulos D, et al.", 
  "Tob Control 2013;0:1\u20136.", 
  "doi:10.1136/tobaccocontrol-2012-050765 \nCopyright Article author (or their employer) 2013.", 
  "Produced by BMJ Publishing Group Ltd under licence.", 
  "Downloaded from  \nhttp://tobaccocontrol.bmj.com/ \n on November 28, 2017 - Published by  \ngroup.bmj.com \nResearch paper \nyou think smoke cigarettes at least once a week?\u2019.", 
  "We measured rebelliousness and sensation seeking using a series of four previ- ously de\ufb01ned questions.10 Personal smoking status was ascer- tained based on questions from the Smoking, drinking and drug use among young people in England national survey.11 Exposure to and awareness of PoS displays were assessed for supermarkets and small shops\u2019, \u2018newsagents\u2019 and \u2018off-licences\u2019) using questions adapted from previous studies,8 12 13 asking students how frequently they visit these types of stores, adopting a 6-point response scale ranging from \u2018almost every day\u2019 to \u2018less than once a month\u2019.", 
  "Awareness of PoS displays was measured by asking students how often they noticed cigarettes on display when they visited supermarkets and small shops, adopting a 6-point response scale ranging from \u2018every time\u2019 to \u2018never\u2019.", 
  "Questionnaire data were scanned using Optical Mark Recognition technology.", 
  "(de\ufb01ned as \n\u2018corner \n\nFor analysis of smoking and susceptibility to smoking, we categorised respondents as never-smokers if they indicated that they had \u2018never smoked, not even a puff or two\u2019 and ever- smokers if they reported they had \u2018only ever tried smoking once\u2019 or more.", 
  "Students who reported that they had never smoked were prompted to answer three further questions used previously to assess susceptibility to smoking.14 Students were classi\ufb01ed as \u2018non-susceptible\u2019 if they answered \u2018No\u2019 to the ques- tion \u2018Do you think that you will try a cigarette soon?\u2019 and \u2018De\ufb01nitely not\u2019 to the questions \u2018If one of your best friends were to offer you a cigarette, would you smoke it?\u2019 and \u2018Do you think you will smoke a cigarette at any time during the next year?\u2019.", 
  "Students who answered \u2018De\ufb01nitely yes\u2019, \u2018Probably yes\u2019 or \u2018Probably not\u2019 to either of the last two questions or \u2018Yes\u2019 to the \ufb01rst question were classi\ufb01ed as \u2018susceptible\u2019.", 
  "For the rebelliousness/sensation seeking index, we used data only from students who answered all four questions and used the median response to de\ufb01ne groups of low and high rebelli- ousness/sensation seeking.", 
  "We also created a binary variable to categorise perceived smoking prevalence among peers, in line with methods used previously15; since 12% of 15-year olds in England in 2010 reported themselves to be regular smokers,11 we therefore classi\ufb01ed perceived peer smoking prevalences of up to 15% as an underestimate or about right, and prevalences over 15% as an overestimate.", 
  "We used postcodes to assign a deprivation score for the home address according to the 2010 Index of Multiple Deprivation (IMD)16 categorised into \ufb01ve quintiles according to national deprivation levels.", 
  "Since very few respondents reported visiting shops less than once a week, we collapsed the frequency of visits data into a four- level ordered categorical variable for supermarkets and small shops, indicating whether students visited them almost every day, two or three times a week, once a week or less than once a week.", 
  "A main exposure variable was de\ufb01ned taking the response for the type of store students reported visiting most frequently.", 
  "Again, for the assessment of the extent of noticing PoS displays, a \ufb01ve-level ordered variable was derived to indicate students\u2019 responses for supermarkets and small shops separately, and as a main exposure variable taking the response for the type of store in which students reported noticing PoS displays most frequently.", 
  "We quanti\ufb01ed brand awareness by asking students a single question about whether they noticed any speci\ufb01c tobacco brands on display when visiting either supermarkets or small shops, and asking them to identify these from a list of the 16 cigarette and 4 Roll Your Own tobacco brands most commonly displayed in Nottingham shops, according to the data collected for a previous study,17 or in free text for other brands.", 
  "Brand awareness was modelled as a continu- ous variable indicating the number of brands identi\ufb01ed.", 
  "Statistical analysis Analyses were carried out using the Stata 11 statistical package.", 
  "We used univariate logistic regression to investigate the associ- ation between our main exposure variables (exposure to and awareness of PoS displays and brand recognition) and the main outcome variables (ever-smoking and susceptibility to smoking), and multivariate logistic regression to adjust for sociodemo- graphic factors and other likely confounders (including gender, year group, ethnicity, perceived academic performance, rebelli- ousness/sensation seeking, parental and sibling smoking, home smoking status, friends smoking, perceived peer smoking preva- lence and IMD quintile.", 
  "We excluded data from students who did not provide full data for the two outcome and three expos- ure variables.", 
  "\u03c72 Tests were used to compare the characteristics of students included and excluded from the analysis.", 
  "Missing data for all confounding variables were imputed using Stata\u2019s multiple imputation procedures; 25 imputed datasets were created and combined using Rubin\u2019s rules.18 Con\ufb01dence inter- vals were estimated with allowance for clustering of students within schools.", 
  "PoS display exposure was analysed for large and small shops combined, and separately with mutual adjustment in order to evaluate the independent association between ado- lescent smoking behaviour and store type, and therefore to assess the health implications from the recent tobacco display ban in supermarkets.", 
  "In particular, separate categorical variables measuring exposure in supermarkets and small shops were entered simultaneously, along with other confounding variables, in two separate logistic models exploring the association with ever-smoking and susceptibility to smoking, respectively.", 
  "Of an estimated 8810 students enrolled in years 7\u201310 (aged 11\u201315 years) in the participating schools, we collected and scanned valid questionnaire data from 6485 (74%) students.", 
  "Of these, 1109 students did not provide information for the main outcome and exposure variables, leaving 5376 with suf\ufb01cient data for analysis.", 
  "Characteristics of those included and excluded are given in table 1.", 
  "Those excluded from the analysis were more likely to be male, to report average or below average aca- demic performance and to report that smoking is not allowed in their home, and less likely to overestimate peer smoking preva- lence.", 
  "However, many students had missing data on some of these items, which may account for some of these differences.", 
  "Of the students included in the analysis, 17.7% were ever- smokers, and of the never-smokers, 27.2% were de\ufb01ned as sus- ceptible to smoking (table 1).", 
  "In multivariate models, both smoking and susceptibility to smoking were positively associated with increasing school year, lower academic performance, high rebelliousness/sensation seeking, living in a house where smoking is allowed and having friends who smoke.", 
  "The likelihood of being an ever-smoker was also higher for students whose parents or siblings smoked and increased with increasing deprivation quintile, and susceptibility was higher among females and students of white ethnicity.", 
  "Over 90% of students reported visiting either a supermarket or a small shop at least once a week and over 25% visited small shops almost every day (table 2).", 
  "Students were more likely to report noticing PoS displays every time they visit a small shop than when they visit a super- market (p<0.001).", 
  "Among the 98.3% of students who reported noticing PoS displays at least \u2018hardly ever\u2019, students recognised a median of 3 different brands (range 0\u201320).", 
  "Ever-smokers reported a median (IQR) of 6 (3\u201310) brands, susceptible \n\nSpanopoulos D, et al.", 
  "Tob Control 2013;0:1\u20136.", 
  "doi:10.1136/tobaccocontrol-2012-050765 \n\fDownloaded from  \ngroup.bmj.com \nhttp://tobaccocontrol.bmj.com/ \n on November 28, 2017 - Published by  \nTable 1 Characteristics of students who answered all main outcome and exposure questions compared with students who were excluded from the analysis \nStudents excluded from \nStudents included in analysis \nEver-smokers \nSusceptible never-smokers \n\u03c72 p Value (included\u2013excluded) \nResearch paper \n\nSchool year \n\nPerceived academic performance \nExcellent or good Average or below average \nRebelliousness \n\nParental smoking \nAt least one \nSibling smoking \nAt least one \nSmoking in the home \nNot allowed \nNumber of friends who smoke \n3 or more \nPerceived peer smoking prevalence \nUnderestimate or about Overestimate \n1109 (100) \n679 (61.2) 426 (38.4) \n303 (27.3) 333 (30.0) 250 (22.5) 214 (19.3) \n738 (66.5) 301 (27.1) \n507 (45.7) 495 (44.6) 107 (9.6) \n713 (64.3) 347 (31.3) \n930 (83.9) 130 (11.7) \n845 (76.2) 201 (18.1) \n451 (40.7) 127 (11.5) 204 (18.4) 267 (24.1) \n217 (19.6) \n760 (68.5) 132 (11.9) \nEthnicity Non-white \n809 (72.9) 164 (14.8) 136 (12.3) National Index of Multiple Deprivation quintile 284 (25.6) 126 (11.4) 157 (14.2) 363 (32.7) \nLeast deprived Quintile 2 Quintile 3 Quintile 4 Most deprived \n5376 (100) \n2644 (49.2) 2728 (50.7) \n1402 (26.1) 1546 (28.8) 1279 (23.8) 1144 (21.3) \n4129 (76.8) 1196 (22.2) \n2733 (50.8) 2510 (46.7) 133 (2.5) \n3424 (63.7) 1910 (35.5) \n4716 (87.7) 618 (11.5) \n4132 (76.9) 1165 (21.7) \n2230 (41.5) 755 (14.0) 1142 (21.2) 1203 (22.4) \n985 (18.3) \n4187 (77.9) 204 (3.8) \n4247 (79.0) 850 (15.8) 279 (5.2) \n1515 (28.2) 535 (10.0) 688 (12.8) 635 (11.8) 896 (16.7) 1107 (20.6) \n953 (100) \n1204 (100) \n464 (48.7) 487 (51.1) \n98 (10.3) 193 (20.3) 299 (31.4) 361 (37.9) \n579 (60.8) 358 (37.6) \n233 (24.5) 684 (71.8) \n409 (42.9) 533 (55.9) \n679 (71.3) 263 (27.6) \n567 (59.5) 363 (38.1) \n142 (14.9) 517 (54.3) 206 (21.6) \n585 (48.6) 618 (51.3) \n275 (22.8) 346 (28.7) 309 (25.7) 274 (22.8) \n\n885 (73.5) 315 (26.2) \n463 (38.5) 708 (58.8) \n740 (61.5) 452 (37.5) \n1056 (87.7) 136 (11.3) \n292 (24.3) \n343 (28.5) 234 (19.4) 321 (26.7) 298 (24.8) \n816 (85.6) \n767 (80.5) \n157 (16.5) 115 (12.1) 135 (14.2) 192 (20.1) 274 (28.8) \n965 (80.2) \n171 (14.2) \n367 (30.5) 116 (9.6) 161 (13.4) 137 (11.4) 182 (15.1) \nnever-smokers 4 (1\u20137) and non-susceptible never-smokers 2 (0\u20135).", 
  "In univariate analysis, both smoking and susceptibility to smoking were strongly and signi\ufb01cantly associated with \nincreasing frequency of visiting stores, awareness of PoS displays and brand recognition, and with the exception of \nassociation between awareness of PoS displays \nSpanopoulos D, et al.", 
  "Tob Control 2013;0:1\u20136.", 
  "doi:10.1136/tobaccocontrol-2012-050765 \n\n\fDownloaded from  \ngroup.bmj.com \nhttp://tobaccocontrol.bmj.com/ \n on November 28, 2017 - Published by  \nResearch paper \nTable 2 Frequency of visiting stores and noticing point-of-sale \nMost frequently visited store \nSupermarkets \n\nFrequency of visiting stores (n, %) \nLess than once a week Once a week Two or three times a week Almost every day \n501 (9.3) 1147 (21.3) 2020 (37.6) 1708 (31.8) \nFrequency of noticing displays (n, %) \nHardly ever Sometimes Most times Every time I don\u2019t go to this type \n289 (5.4) 613 (11.4) 1351 (25.1) 3032 (56.4) \n1321 (24.6) 1907 (35.5) 1564 (29.1) 584 (10.9) \n207 (3.9) 656 (12.2) 1196 (22.2) 1569 (29.2) 1702 (31.7) \n1400 (26.0) 992 (18.5) 1557 (29.0) 1427 (26.5) \n170 (3.2) 382 (7.1) 711 (13.2) 1386 (25.8) 2640 (49.1) \never-smoking, remained so after adjustment for confounders in multivariate analysis (table 3).", 
  "After adjustment for confounding, ever-smoking was over twice as likely among students who visited shops displaying cigarettes almost every day relative to less than once per week (OR 2.23, 95% CI 1.40 to 3.55), and susceptibility increased by around 60% (OR 1.62, 95% CI 1.25 to 2.10).", 
  "Among students who reported noticing tobacco displays every time they visited a store (compared with those who reported never noticing PoS displays), the odds of susceptibility to smoking were increased more than threefold (OR 3.15, 95% CI 1.52 to 6.54).", 
  "For each additional tobacco brand recognised at the PoS, the adjusted odds of being an ever-smoker increased by 5% (OR 1.05, 95% CI 1.03 to 1.06), and of suscepti- bility to smoking by 4% (OR 1.04, 95% CI 1.02 to 1.05).", 
  "These \ufb01ndings were not appreciably different in sensitivity analyses using complete cases only, coding missing data as a separate category and increasing the number of imputations used.", 
  "Moreover, students vis- iting stores less than once a week recognised a median of 1 brand \nFigure 1 Association between frequency of exposure to tobacco displays in supermarkets and small shops and susceptibility to smoking.", 
  "on display; students visiting stores once a week recognised a median of 2 brands and students visiting stores two or three times a week and almost every day recognised a median of 3 and 5 brands, respectively (Kruskal\u2013Wallis test for difference p<0.001).", 
  "Higher frequency of noticing displays was associated with higher level of brand recognition in a similar fashion.", 
  "Analysis of independent effects of exposure in large or small shops on susceptibility to smoking demonstrated that, after mutual adjustment, the effects of small shop exposure remained signi\ufb01- cant, whereas large shop effects did not (\ufb01gure 1), with students who reported visiting small shops almost every day being more than twice as likely to be susceptible to smoking than those who visited less than once a week (OR 2.18, 95% CI 1.89 to 2.51).", 
  "There were no signi\ufb01cant differences by store type between expos- ure to displays and ever-smoking and between awareness of dis- plays and either ever-smoking or susceptibility.", 
  "DISCUSSION This study, which was carried out a year before the implementa- tion of a PoS display ban in larger shops in England in April \nTable 3 Association between exposure to and awareness of point-of-sale displays and brand recognition and smoking behaviour \nEver-smoking \nUnadjusted \nAdjusted* \nUnadjusted \nAdjusted* \nSusceptibility to smoking \n\np Value for \n\np Value for \n\np Value for \n\np Value for \nFrequency of visiting stores \nLess than once a week Once a week Two or three times a week Almost every day \n1.00 (ref) 1.10 (0.73\u20131.65) 2.23 (1.42\u20133.52) 4.57 (2.73\u20137.64) \n1.00 (ref) 1.19 (0.78\u20131.82) 1.70 (1.09\u20132.65) 2.23 (1.40\u20133.55) \nFrequency of noticing displays (among students who reported visiting stores) \nHardly ever Sometimes Most times Every time \n\n1.00 (ref) 2.36 (1.18\u20134.71) 1.92 (0.92\u20133.98) 1.90 (1.09\u20133.34) 2.85 (1.49\u20135.45) \n\n1.00 (ref) 2.20 (1.09\u20134.43) 1.68 (0.80\u20133.54) 1.50 (0.84\u20132.70) 1.67 (0.85\u20133.28) \nBrand recognition (among students who reported noticing displays) \n1.00 (ref) 0.96 (0.78\u20131.18) 1.29 (1.04\u20131.60) 2.27 (1.81\u20132.85) \n1.00 (ref) 2.17 (1.29\u20133.66) 2.17 (1.12\u20134.21) 3.18 (1.73\u20135.85) 3.91 (2.05\u20137.43) \n1.00 (ref) 0.98 (0.84\u20131.15) 1.13 (0.91\u20131.41) 1.62 (1.25\u20132.10) \n1.00 (ref) 2.08 (1.27\u20133.42) 2.12 (0.99\u20134.54) 2.88 (1.45\u20135.71) 3.15 (1.52\u20136.54) \nIncreasing number of brands recognised \n1.12 (1.11\u20131.13) <0.001 \n1.05 (1.03\u20131.06) <0.001 \n1.07 (1.06\u20131.09) <0.001 \n1.04 (1.02\u20131.05) <0.001 \n*Adjusted for: gender, year group, ethnicity, perceived academic performance, rebelliousness/sensation seeking, parental and sibling smoking, home smoking status, friends smoking, perceived peer smoking prevalence and Index of Multiple Deprivation quintile.", 
  "Spanopoulos D, et al.", 
  "Tob Control 2013;0:1\u20136.", 
  "doi:10.1136/tobaccocontrol-2012-050765 \n\fDownloaded from  \nhttp://tobaccocontrol.bmj.com/ \n on November 28, 2017 - Published by  \ngroup.bmj.com \nsigni\ufb01cant \nindependent \ndemonstrates \nassociations between PoS display exposure and brand awareness, and both ever-smoking and susceptibility to smoking among secondary school students.", 
  "The study also shows that the association between frequency of visiting stores and smoking susceptibility arose predominantly from exposure in small shops.", 
  "Our \ufb01nding that PoS tobacco displays are widely seen by young people, and our observed effects of display exposure and brand recognition on smoking susceptibility, indicates that PoS displays are a potentially important medium of marketing tobacco products to children and young people.", 
  "Our observation that the independ- ent effect of exposure on susceptibility was much stronger for small than large shops suggests that the recent prohibition of PoS tobacco displays in large shops in England is likely to have rather less impact on adolescent smoking behaviour than the small shop prohibition scheduled for April 2015.", 
  "Our study involved secondary school children in years 7\u201310 (aged 11\u201315 years) from a single UK city, and our \ufb01ndings are dependent on self-reported measures of exposure and outcome.", 
  "The schools we studied included a range of inner city and subur- ban locations with catchments that covered a wide range of levels of deprivation.", 
  "We used measures of smoking prevalence drawn from standard national UK surveys and of susceptibility to smoking that have been widely used elsewhere.14 19 20 Coupled with a participation rate of 74%, these characteristics suggest that our \ufb01ndings are likely to be valid and representative of the wider UK population.", 
  "Although the sale of tobacco to persons under 18 years was illegal in England at the time of the study under the Children and Young Persons (Sale of Tobacco etc.)", 
  "Order 2007,21 a national survey indicated that 45% of secondary school students reported that they buy their cigarettes from a shop.11 It is there- fore likely that the association between exposure to tobacco dis- plays and ever-smoking arises, at least in part, from visiting shops to purchase tobacco.", 
  "However, the association between exposure to PoS displays and susceptibility to future smoking among adolescents who have never smoked suggests a causal element in this association.", 
  "A limitation of this study is that it uses prompted awareness of brands rather than unprompted as the latter would have com- plicated the design and the size of the questionnaire.", 
  "This might affect to some extent the validity of students\u2019 responses; never- theless, students in higher groups of exposure reported aware- ness of a higher number of brands.", 
  "Moreover, the overall high level of tobacco brand awareness among adolescents in a juris- diction where tobacco marketing is highly restricted, and the exposure\u2013response relationship between reported brand recog- nition and ever-smoking and susceptibility is an alarming \ufb01nding in its own right.", 
  "Furthermore, exposure to and noticing of PoS displays were based on self-report and therefore data regarding PoS displays are subject to recall bias.", 
  "However, our \ufb01ndings are consistent with \ufb01ndings from other countries according to which exposure to tobacco displays and PoS tobacco marketing is associated with adolescent smoking behaviour.", 
  "A US study found that the frequency of visiting stores known to carry cigarette advertising was associated with ever-smoking and the frequency of noticing cigarette advertisements when visiting these stores was related to smoking susceptibility.12 A study in New Zealand, which used similar exposure measures to ours, and was conducted in a similar jurisdiction to ours where PoS advertising was not allowed except PoS displays, found that exposure to and aware- ness of PoS displays were both associated with adolescent smoking and susceptibility.8 Moreover, a recent UK household \nResearch paper \nstudy around a thousand 11\u201316-year-old never-smokers also found that noticing tobacco displays and higher attraction to them was associated with smoking susceptibility.9 Evaluations of PoS displays in Ireland and Norway have also suggested that they have a marked effect on younger people and smoking initi- ation.15 22 Nevertheless, this is the \ufb01rst study to demonstrate the potential role of PoS displays as an effective means of communi- cating tobacco branding to young people, highlighting a signi\ufb01- cant association between the level of exposure to tobacco displays and reported brand recognition and linking such recog- nition to adolescent smoking behaviour.", 
  "Moreover, this is the \ufb01rst study to assess the potential health bene\ufb01ts for young people occurring from the recent tobacco display ban in supermarkets under the terms of the Health Act 2009, indicating that by postponing the display ban in small shops, the government has delayed the component of this legis- lation with greater potency to in\ufb02uence adolescent smoking behaviour.", 
  "School students tend to visit small shops more often than supermarkets; exposure in small shops is almost unavoid- able as PoS displays are always placed just behind the pay point, whereas in larger shops there may be several pay points, with only a few being next to PoS displays, so exposure to PoS dis- plays in larger shops is less inevitable.", 
  "It is therefore entirely plausible that small retailer displays are likely to play a greater role in in\ufb02uencing student smoking behaviour.", 
  "It is also therefore regrettable that implementation of the small retailer PoS prohibition in England has been delayed, ostensibly to allow retailers additional time to prepare for the legislation, despite research in Ireland and Norway showing very high retailer compliance immediately following the intro- duction of PoS laws.22 23 A consequence of this delay, however, is perpetuating exposure of children and young people to a potentially important in\ufb02uence on future smoking behaviour.", 
  "In summary, our \ufb01ndings are consistent with others,8 9 which suggest that PoS displays are likely to be harmful; our \ufb01ndings also support that PoS tobacco displays can be a highly effective avenue for promoting tobacco brands to young people in coun- tries where tobacco marketing is highly regulated, increasing smoking susceptibility among young people who have never smoked.", 
  "Similarly, our \ufb01ndings suggest that banning tobacco dis- plays in a phased manner should not be imitated by other coun- tries in the future.", 
  "What this paper adds \n\u25b8 This study shows that tobacco displays are a potentially \neffective channel for promoting cigarette brands to young people, linking such promotion with ever-smoking and susceptibility to future smoking.", 
  "\u25b8 The association between exposure to tobacco displays and \nsusceptibility to smoke is predominantly explained by exposure in small shops and therefore the recent tobacco ban in supermarkets in England fails to safeguard young people from exposure associated with smoking initiation.", 
  "Acknowledgements This study was funded by the Nottingham City Primary Care Trust, supported by a University of Nottingham PhD studentship, with input from the UK Centre for Tobacco Control Studies, which is a UKCRC Centre of Public Health Research Excellence for which funding from the British Heart Foundation, Cancer Research UK, the Economic and Social Research Council, the Medical Research Council and the Department of Health, under the auspices of the UK Clinical \nSpanopoulos D, et al.", 
  "Tob Control 2013;0:1\u20136.", 
  "doi:10.1136/tobaccocontrol-2012-050765 \n\n\fDownloaded from  \nhttp://tobaccocontrol.bmj.com/ \n on November 28, 2017 - Published by  \ngroup.bmj.com \nResearch paper \nResearch Collaboration, is gratefully acknowledged.", 
  "We would like to thank all head teachers, school staff and students who took part in the study.", 
  "Contributors DS had the primary role in questionnaire and study design.", 
  "DS, JB, AM and ER contributed to the collection of data.", 
  "LS supervised data analysis.", 
  "DS, JB, AM, ER and LS contributed to the study design, interpretation of data and preparation of the manuscript.", 
  "Competing interests None.", 
  "Ethics approval The study was approved by the University of Nottingham School of Education Research Ethics Committee.", 
  "Provenance and peer review Not commissioned; externally peer reviewed.", 
  "Open Access This is an Open Access article distributed in accordance with the Creative Commons Attribution Non Commercial (CC BY-NC 3.0) license, which permits others to distribute, remix, adapt, build upon this work non-commercially, and license their derivative works on different terms, provided the original work is properly cited and the use is non-commercial.", 
  "See: http://creativecommons.org/ licenses/by-nc/3.0/ \nREFERENCES 1 World Health Organization.", 
  "WHO report on the global tobacco epidemic, 2011: \nwarning about the dangers of tobacco.", 
  "Geneva, Switzerland: World Health Organization, 2011.", 
  "Department of Health.", 
  "Healthy lives, healthy people: A tobacco control plan for England.", 
  "London: Department of Health, 2011.", 
  "3 World Health Organization.", 
  "Tobacco: deadly in any form or disguise.", 
  "Geneva, \nSwitzerland: World Health Organization, 2006.", 
  "Doll R, Peto R, Boreham J, et al.", 
  "Mortality in relation to smoking: 50 years\u2019 observations on male British doctors.", 
  "BMJ 2004;328:1519.", 
  "Department of Health.", 
  "Smoking kills: a white paper on tobacco.", 
  "London: Department of Health, 1998.", 
  "Quedley M, Ng B, Sapre N, et al.", 
  "In sight, in mind: retailer compliance with legislation on limiting retail tobacco displays.", 
  "Nicotine Tob Res 2008;10:1347\u201354.", 
  "Prohibition of tobacco display in shops.", 
  "Available: http://www.parliament.uk/ brie\ufb01ng-papers/SN05537 (accessed 21 Apr 2012).", 
  "Paynter J, Edwards R, Schluter PJ, et al.", 
  "Point of sale tobacco displays and smoking among 14\u201315 year olds in New Zealand: a cross-sectional study.", 
  "Tob Control 2009;18:268\u201374.", 
  "9 Mackintosh AM, Moodie C, Hastings G. The association between point-of-sale displays and youth smoking susceptibility.", 
  "Nicotine Tob Res 2012;14:616\u201320.", 
  "Hanewinkel R, Isensee B, Sargent JD, et al.", 
  "Cigarette advertising and adolescent smoking.", 
  "Am J Prev Med 2010;38:359\u201366.", 
  "The Health and Social Care Information Centre.", 
  "Smoking, drinking and drug use among young people in England in 2010.", 
  "London, UK: Health and Social Care Information Centre, Lifestyles Statistics, 2010.", 
  "Feighery EC, Henriksen L, Wang Y, et al.", 
  "An evaluation of four measures of adolescents\u2019 exposure to cigarette marketing in stores.", 
  "Nicotine Tob 2006;8:751\u20139.", 
  "National Youth Tobacco Survey 2009. http://www.cdc.gov/tobacco/data_statistics/ surveys/nyts/index.htm (accessed 30 Mar 2012).", 
  "Pierce J, Choi WS, Gilpin EA, et al.", 
  "Tobacco industry promotion of cigarettes and adolescent smoking.", 
  "JAMA 1998;279:511\u201315.", 
  "15 McNeill A, Lewis S, Quinn C, et al.", 
  "Evaluation of the removal of point-of-sale \ntobacco displays in Ireland.", 
  "Tob Control 2010;20:137\u201343.", 
  "Communities and neighbourhoods.", 
  "Indices of deprivation 2010. http://www.", 
  "communities.gov.uk/communities/research/indicesdeprivation/deprivation10/ (accessed 19 Jun 2012).", 
  "Spanopoulos D, Ratschen E, McNeill A, et al.", 
  "Retail price and point of sale display of tobacco in the UK: a descriptive study of small retailers.", 
  "PLoS One 2012;7: Royston P. Multiple imputation of missing values.", 
  "Stata J 2004;4:227\u201341.", 
  "Pierce JP, Choi WS, Gilpin EA, et al.", 
  "Validation of susceptibility as a predictor of which adolescents take up smoking in the United States.", 
  "Health Psychol 1996;15:355\u201361.", 
  "20 Mowery PD, Farrelly MC, Haviland ML, et al.", 
  "Progression to established smoking \namong US youths.", 
  "Am J Public Health 2004;94:331\u20137.", 
  "The Children and Young Persons (Sale of Tobacco etc.)", 
  "Order 2007. http://www.", 
  "legislation.gov.uk/uksi/2007/767/contents/made (accessed 1 May 2012).", 
  "Scheffels J, Lavik R. Out of sight, out of mind?", 
  "Removal of point-of-sale tobacco displays in Norway.", 
  "Tob Control Published Online First: 7 June 2012. doi:10.1136/ tobaccocontrol-2011-050341 Quinn C, Lewis S, Edwards R, et al.", 
  "Economic evaluation of the removal of tobacco promotional displays in Ireland.", 
  "Tob Control 2011;20:151\u20135.", 
  "Spanopoulos D, et al.", 
  "Tob Control 2013;0:1\u20136.", 
  "doi:10.1136/tobaccocontrol-2012-050765 \n\fDownloaded from  \ngroup.bmj.com \nhttp://tobaccocontrol.bmj.com/ \n on November 28, 2017 - Published by  \nTobacco display and brand communication at the point of sale: implications for adolescent  smoking behaviour Dionysis Spanopoulos, John Britton, Ann McNeill, Elena Ratschen and Lisa Szatkowski \nTob Control(cid:160) \n published online February 28, 2013 \nUpdated information and services can be found at:  http://tobaccocontrol.bmj.com/content/early/2013/02/27/tobaccocont rol-2012-050765 \n\nThese include: \nThis article cites 13 articles, 3 of which you can access for free at:  http://tobaccocontrol.bmj.com/content/early/2013/02/27/tobaccocont rol-2012-050765 \nThis is an open-access article distributed under the terms of the Creative Commons Attribution Non-commercial License, which permits use,  distribution, and reproduction in any medium, provided the original work is properly cited, the use is non commercial and is otherwise in compliance  with the license.", 
  "See:  http://creativecommons.org/licenses/by-nc/3.0/legalcode \nhttp://creativecommons.org/licenses/by-nc/3.0/"
 ]
}