{
 "document_id": "16344952630854185092", 
 "sentences": [
  "Increasing Student Learning Through Volitional Control \nERIN J. MCCANN Southwest Educational Development Laboratory \nJEANNINE E. TURNER Florida State University \nStudents\u2019 engagement and persistence on academic learning tasks often require their use of volitional strategies to protect against distractions and facilitate task comple- tion.", 
  "In this article we discusses factors that both positively and negatively in\ufb02uence students\u2019 ability to regulate their learning activities and the supporting role that volitional strategies play in helping students to develop positive work habits for tack- ling academic assignments.", 
  "Using the Academic Volitional Strategy Inventory (AVSI), we present teachers with approaches for helping students who need to support their learning efforts.", 
  "Included are ways to use the AVSI (1) as a diagnostic tool, (2) to incorporate instruction in and modeling of volitional strategies in regular cur- riculum assignments, and (3) to promote student re\ufb02ection and peer group interaction in facilitating self-regulatory action.", 
  "A current catch phrase in education today is \u2018\u2018all students can learn.\u2019\u2019 With the passage of the No Child Left Behind (NCLB) legislation (U.S. Depart- ment of Education, 2002), educators are increasingly looking for ways to help move students who are failing or barely getting by to higher levels of performance.", 
  "If we indeed believe that all students can learn, an important focus must address an understanding of how student work habits affect academic learning.", 
  "To achieve school success students need to exert self- discipline on school tasks and be resourceful in the ways they approach those tasks.", 
  "As teachers, we are in a unique position to in\ufb02uence our stu- dents\u2019 ability to develop and engage work habits that can lead to successful mastery of their school challenges.", 
  "As others in this issue report, positive work habits can perhaps be best understood within the context of self-regulatory behavior.", 
  "Much has been written about the positive bene\ufb01ts that accrue for students when strategi- cally managing their learning environments and concentration on academic tasks.", 
  "Strategic students actively participate in their learning process.", 
  "They \nTeachers College Record Volume 106, Number 9, September 2004, pp.", 
  "1695\u20131714 Copyright r by Teachers College, Columbia University 0161-4681 \n\f1696 Teachers College Record \nselect appropriate methods for learning material and assess their retention of the material as they continue the learning process (see Zimmerman & Schunk, 2001, for review).", 
  "These actions guide their adjustment of learning methods or study conditions to maximize success on the assigned tasks.", 
  "Students\u2019 cultivation of skills and con\ufb01dence for meeting the challenges of academic and later life responsibilities begin with the interactions, sup- port, and instruction that they receive in their early lives.", 
  "As they move through the childhood stages of development, young children\u2019s innate cu- riosity about the world generally gives way to a sensitivity to the standards and reactions of others to their performance (Higgins, 1991).", 
  "Children\u2019s growing senses of self (e.g., self-con\ufb01dence, self-ef\ufb01cacy, self-control) are shaped through these experiences and coincide with their entry into formal schooling (Paris, Byrnes, & Paris, 2001).", 
  "The emotions that arise concur- rently with peer comparisons and others\u2019 feedback can also in\ufb02uence stu- dents\u2019 subsequent academic motivation for particular learning activities (Pekrun, Goetz, Titz, & Perry, 2002).", 
  "In this article, we discuss ways that teachers can assist students in developing work habits to support their mo- tivation for, and cognitive engagement with, academic learning tasks.", 
  "To begin, we review factors that affect students\u2019 self-regulatory learning activities.", 
  "Next we discuss the role played by students\u2019 emotions in their motivation to engage in academic activities.", 
  "Finally we consider the sup- porting role of volitional strategies in the development of effective work habits.", 
  "Although students are often not aware of the importance of voli- tional strategies, teachers can facilitate this awareness and help students use such strategies to support their intentions to gain academic competence.", 
  "SELF-REGULATION OF LEARNING \nSocial cognitive theory stresses that the interaction among behavioral, per- sonal, and environmental processes forms the basis for the varied ap- proaches that students take to tackle their academic work.", 
  "According to Bandura (1986), the ability to regulate these circumstances arises from a sense of personal agencyFthe belief that you have the skills and can reach personal goals.", 
  "When it comes to achieving learning goals, academically successful students not only have a repertoire of effective strategies for learning, they also take control of their learning.", 
  "Effective work habits dis- played by self-regulated learners include planning, organizing, self-in- structing, and self-monitoring during the course of completing their assignments.", 
  "Not only are self-regulated students more likely to be aca- demically successful, but they also perceive themselves as being competent, self-ef\ufb01cacious, and autonomous (Paris & Byrnes, 1989; Zimmerman, 1990).", 
  "These self-regulated students value academic learning and they persist in the face of dif\ufb01cultiesF\u2018\u2018they know why they are studying, so \n\fIncreasing Student Learning Through Volitional Control \n\ntheir actions and choices are self-determined and not controlled by others\u2019\u2019 (Woolfolk, 1995, p. 367).", 
  "In students\u2019 early years, teachers can help students develop self-regu- latory behaviors by structuring feedback to give the message that mistakes are learning experiences rather than a message that errors re\ufb02ect personal de\ufb01ciencies.", 
  "Student reactions may then be better channeled in positive ways that encourage ongoing self-regulatory learning.", 
  "Students in later grades can also bene\ufb01t from teacher interventions through instruction, modeling, and structured learning activities that foster self-regulated be- haviors.", 
  "Indeed, teaching students various self-regulation strategies has been shown to be effective in helping students learn how to learn material, particularly when combined with re\ufb02ection and scaffolded support by (e.g., Pressley, Woloshyn, & Associates, 1995; Weinstein & Mayer, 1986).", 
  "It is important to understand that students\u2019 self-regulation of learning, and the development of positive work habits, occurs over time, is a devel- opmental phenomena, and begins through social interaction (Diaz, Neal, & Amaya-Williams, 1990; Pressley, 1995).", 
  "From a social-cognitive develop- mental perspective, \u2018\u2018human minds are the product of social relationships\u2019\u2019 (Pressley, 1995, p. 210).", 
  "Diaz et al.", 
  "(1990) suggested that \u2018\u2018the quality of social interactions a child experiences might have a significant effect on the development of self-regulation\u2019\u2019 (p. 152).", 
  "To facilitate student self-regula- tion, Diaz and colleagues offered four general strategies: (1) using praise and encouragement, (2) using conceptual questions as opposed to using directives and commands, (3) scaffolding learning so that the child takes over the task, and (4) giving direct relinquishing statements that tell the child that he or she is taking control of his or her learning.", 
  "To build students\u2019 feelings of competence and self-ef\ufb01cacy for learning, Pressley (1995) suggested that it is important for teachers to give students a variety of learning experiences that offer them success and contain varying degrees of dif\ufb01culty.", 
  "However, it is important that the varying dif\ufb01culty is \u2018\u2018within the students\u2019 competence so that consistent success will occur if an appropriate expenditure of effort is made by the student.", 
  "Such experiences do not just happen, but will occur only if teachers or curriculum designers create them, specifically intending for students to have consistent success as they work on a variety of effortful problems\u2019\u2019 (p. 210).", 
  "Additionally, Pressley offered other instructional practices for teachers to provide students with appropriate experiences that foster the development of learning-related self-regulation beliefs and behaviors, including: \n\u000f Provide students with diverse opportunities to learn that effort pays off, and diverse tasks in which they experience consistent success through expending effort; \n\f1698 Teachers College Record \n\u000f Have students practice new procedures they are learning to the point of proceduralization before expecting them to use them in a self-regu- lated fashion; \u000f Encourage the epistemological beliefs that (a) learning often is hard, even for capable learners, and (b) knowledge is rarely absolute, with alternative perspectives and ways of doing things more the rule than the exception; and \u000f Do all possible to encourage student understanding of the use of the strategies and conceptual knowledge they are acquiring.", 
  "Unfortunately, in spite of teachers\u2019 efforts to incorporate opportunities for students to develop feelings of self-ef\ufb01cacy for learning into daily academic tasks, self-doubts can still arise.", 
  "Emotional reactions to negative performance experiences and feedback can trigger uncertainty about both present and future abilities in specific subject areas.", 
  "For example, if Mark encounters a number of test questions in a row that he is unable to answer, his frustration may affect his continued focus on the rest of the test.", 
  "If poor test perform- ance results, Mark may begin to doubt his capability for mastering the ma- terial.", 
  "This emotion may then in\ufb02uence his motivation to willingly participate in future academic tasks with similar content.", 
  "Part of successful student self- regulation is the ability to manage emotional states during learning tasks.", 
  "This aspect of self-regulation has received the least attention in research, yet is important if students are to develop effective work habits.", 
  "EMOTIONAL EFFECTS ON LEARNING \nPekrun (1992, 2000) has been researching the interconnections among students\u2019 emotions and motivational processes that occur during learning.", 
  "His studies demonstrate that students experience a wide range of emotions as they strive to complete academic tasks.", 
  "These emotions are most often related to the extent to which students believe they have control over their learning and the value they attach to their learning (Pekrun, 2000).", 
  "Pek- run\u2019s research is particularly interesting because it shows that students ex- perience emotions about their learning tasks, and, in a reciprocal fashion, these emotions in\ufb02uence how they approach subsequent learning tasks.", 
  "For example, he has demonstrated that \u2018\u2018activating positive emotions like en- joyment of learning and hope for success may exert positive effects on motivation to learn, the use of \ufb02exible learning strategies, task-focused at- tention, and resulting achievement\u2019\u2019 (p. 146).", 
  "Most teachers want their students to experience positive and pleasant emotions with the hope that these emotions will foster motivation, engage- ment, and learning.", 
  "Toward this end, research has enhanced our under- \n\fIncreasing Student Learning Through Volitional Control \n\nstanding about the types of goals and classroom-structures that are most likely to facilitate students\u2019 enjoyment, interest, and learning.", 
  "For example, Turner and Patrick (this volume) point out that teachers\u2019 emphasis on mastery goals has been associated with higher levels of students\u2019 intrinsic interest and positive attitudes about learning tasks.", 
  "Other teaching strat- egies that have been shown to generate student interest include incorpo- ration of variety, meaningfulness, and student collaboration (Blumenfeld, 1992; Meece, 1991; Paris & Turner, 1994).", 
  "However, as much as teachers may try to build supportive and interesting tasks, they also have to follow curriculum guidelines and state standards that demand that particular ma- terial be taught.", 
  "Certain topics may be more dif\ufb01cult to teach in a manner that draws students into learning.", 
  "Additionally, even when teachers pro- mote mastery goals, students will inevitably encounter dif\ufb01culties and roadblocks as they struggle to learn challenging material.", 
  "When dif\ufb01culties are encountered, negative emotions can arise.", 
  "Students may also experi- ence negative and unpleasant emotions when they encounter con\ufb02ict among multiple goals.", 
  "For example, they may need to do their homework but would rather spend the time with their friends (see Xu, this volume).", 
  "Pekrun (1992, 2000) asserted that, in contrast to the effects of positive emotions, the impact of negative emotions on students\u2019 motivation and learning have less straightforward effects.", 
  "Although students may disengage with learning activities when they encounter dif\ufb01culties and negative emo- tions, negative emotions also have the potential to bring into play complex thinking and problem solving when students value high achievement (Turn- er & Schallert, 2001).", 
  "Pekrun suggested that the motivational consequences triggered by negative emotions could lead to either strengthened motivated behavior or to the withdrawal of effortful behavior, depending on a variety of in\ufb02uences such as students\u2019 future goals or a desire to please their teachers and parents.", 
  "The current emphasis on disentangling the impact of negative emotion on learning can potentially broaden teachers\u2019 ability to help students more effectively approach and complete their academic tasks.", 
  "Students may use a number of strategies for learning academic material.", 
  "A major stumbling block to task engagement and completion is students\u2019 lack of ability to support their motivation when confronted with obstacles.", 
  "Internal and external distractions can arise without warning, leaving stu- dents to wrestle with the effects of negative emotion or competing goals.", 
  "Students frequently need a collection of volitional strategies to strengthen their resolve to stay task-focused when obstacles to their motivation for learning occur.", 
  "Even if students have a repertoire of strategies to help them direct their learning activities, they may not have a repertoire of strategies to help them manage their motivation.", 
  "Turner and colleagues (Turner, Husman, & Schallert, 2002; Turner & McCann, 2000) found that students who reported using volitional strategies to counter the shame of receiving \n\f1700 Teachers College Record \nfailure feedback on a test persisted with required course tasks and subse- quently improved on following assessments.", 
  "Students who reported little or no volitional strategy use were seen to give in to being so overwhelmed by their test feedback that they questioned their ability to perform any better on later assessments.", 
  "The following section describes the use of volitional strategies for managing distractions that threaten students\u2019 initiation, main- tenance, and completion of academic tasks.", 
  "MAINTAINING MOTIVATION: THE USE OF VOLITIONAL \nSTRATEGIES \nMany students confront dif\ufb01culty with schoolwork throughout their aca- demic years.", 
  "Whereas some students seem to naturally exhibit effective work habits, others struggle to get started and keep focused.", 
  "They are often distracted by a noisy class or study environment, more pleasurable activities, or assignments that cover lengthy time spans.", 
  "In these instances, volitional strategies can provide the protective boost that is needed for students to keep themselves on track (Corno, 2001; Kuhl, 1984).", 
  "Several studies have shown volitional strategies to be effective in helping students stay task focused.", 
  "In these studies students reported invoking im- ages of themselves attaining good grades, reminding themselves of their original goals, providing self-rewards for \ufb01nishing assignments, and con- sidering consequences they may face related to carelessness or procrasti- nating on academic tasks (see Bembenutty & Karabenick, 1998; Kuhl, 1984; Wolters, 1998).", 
  "These thoughts and actions equipped students with tech- niques for neutralizing negative emotions or intrusions.", 
  "By using volitional strategies, students are better able to maintain or enhance their motivation and engagement on academic tasks and more successfully complete their assignments (Husman, McCann, & Crowson, 2000; McCann & Garcia, 1999).", 
  "(See Appendix B for discussion of effects.)", 
  "Positive work habits involve the ability of students to exert control over their own learning.", 
  "Although they may know strategies for planning, or- ganizing, learning, and guarding against distractions, numerous factors can still in\ufb02uence their inclination to use those strategies to initiate and maintain needed effort for task completion (as discussed in earlier sections).", 
  "The key to success in learning is in students translating their self-regulatory knowl- edge into action.", 
  "This involves effort and self-determination (Snow, Corno, & Jackson, 1996).", 
  "As Zimmerman points out (2001), \u2018\u2018learning is not some- thing that happens to students .", 
  ".", 
  ".", 
  "it is something that happens by students\u2019\u2019 (p. 33).", 
  "The following instrument was designed to assess the extent to which students put forth effort toward supporting their motivation for learning.", 
  "It can also be used as a tool by teachers to promote positive work habits in their students.", 
  "Increasing Student Learning Through Volitional Control \n\nCULTIVATING POSITIVE WORK HABITS: THE ACADEMIC \nVOLITIONAL STRATEGY INVENTORY \nThe Academic Volitional Strategy Inventory (AVSI; see Appendix A) is a survey instrument for assessing students\u2019 tendencies toward volitional control in academic situations.", 
  "The AVSI consists of 20 items asking about methods students use to initiate and support their focus on academic assignments.1 The original version of the AVSI (McCann, 1999) was based on research conducted by Kuhl (1985) in which middle school students reported using a variety of methods to initiate or strengthen their focus when struggling to avoid distractions that threatened their efforts to complete academic tasks.", 
  "Corno and Kanfer (1993) presented a scheme for categorizing these meth- ods, arranging them into \ufb01ve distinct categories of self-regulatory actions: metacognitive control, environmental control, attentional control, emotion control, and motivation control.", 
  "The strategies found in the \ufb01rst three cat- egories have received considerable attention over the past several decades and have been shown to affect students\u2019 self-regulation for learning (see Zimmerman & Schunk, 2001, for review).", 
  "Other studies have more recently indicated that emotion and motivation regulation strategies similarly en- hance students\u2019 learning goals.", 
  "They protect students against the many in- ternal and external distractions that present diversions to their completion of academic assignments (McCann & Garcia, 1999; Turner & McCann, 2000).", 
  "The AVSI specifically addresses students\u2019 management in Corno\u2019s cat- egories of emotion and motivation.", 
  "Initial studies included college-level students, yet the items on the AVSI can be easily adapted to work with younger students.", 
  "For example, Item 1 re\ufb02ects the use of rewards to pro- mote persistence on tasks.", 
  "Types of rewards can be reworded to re\ufb02ect the desires of students in both elementary and secondary settings.", 
  "Some of the items are more specific to students in higher gradesFthose who have ex- perienced feelings of disappointing others or considered how their delay on assigned tasks may affect their future careers (e.g., Item 13, \u2018\u2018I think about the sacri\ufb01ces that I have made or that my parents are making to put me through school\u2019\u2019; Item 8, \u2018\u2018When I don\u2019t feel like studying, or feel like quitting, I think about the kinds of jobs or careers I may end up with if I \ufb02unk out of college\u2019\u2019).", 
  "These items can be modi\ufb01ed to re\ufb02ect the concerns of younger students (e.g., \u2018\u2018I think about having to go to summer school\u2019\u2019; or \u2018\u2018When I don\u2019t feel like studying, or feel like quitting, I think about being held back a grade\u2019\u2019).", 
  "Overall, the items lend themselves rather easily to use with students of all ages.", 
  "As a practical tool, the AVSI can be used by teachers to do the following: \u000f Diagnostically assess whether and the degree to which students use volitional actions to focus on academic tasks when distracted, \n\f1702 Teachers College Record \n\u000f Instruct and model the types of strategies students are known to use to counter distractions in initiating and completing academic tasks, \u000f Promote re\ufb02ection by students on their process of working toward completing academic tasks, and \u000f Provide peer group interaction to recognize and support self-regu- latory behaviors.", 
  "DIAGNOSTIC ASSESSMENTS \nAs students move through the academic grades, they frequently experience a need for more concentrated focus on schoolwork.", 
  "Periodically, it may be advantageous for teachers to assess the types of strategies their students use in tackling academic assignments (see also Corno, this volume).", 
  "Students who have been continually performing poorly on class assignments may show less of an inclination to work on class or homework tasks.", 
  "These students may have dif\ufb01culty initiating study behavior when diversions are present.", 
  "As we strive to produce situations that result in meaningful learn- ing for our students, we must remember that motivation to learn plays a central role.", 
  "Academic emotions associated with learning tasks are funda- mental to students\u2019 investment of effort in the tasks we set before them.", 
  "As an assessment instrument, the AVSI can help teachers pinpoint students who might bene\ufb01t from volitional strategy interventions.", 
  "Once known, teachers can provide appropriate instruction, modeling, feedback, and learning structures to help these students neutralize negative in\ufb02uences.", 
  "INSTRUCTION/MODELING \nParticularly with younger students, explicit instruction and modeling play a strong role in helping them develop or strengthen positive work habits.", 
  "The items on the AVSI can serve as a starting point to instruct students in useful methods for initiating and completing schoolwork.", 
  "With input from stu- dents, additional self-regulatory behaviors may emerge.", 
  "This list of strategic actions may then form a basis for discussions and re\ufb02ections on countering dif\ufb01culties and techniques for success with academic tasks.", 
  "For example, teachers might do the following: \n\u000f Develop charts displaying age-appropriate (or modi\ufb01ed) AVSI strat- \u000f Supplement the charts with further strategies based on dif\ufb01culties and successful ways their students have countered those dif\ufb01culties (both within classroom settings and when working on their own); \n\fIncreasing Student Learning Through Volitional Control \n\n\u000f Discuss with students the kinds of situations that distract them from their work; \u000f Discuss with students the kinds of things they do to get on task or stay \u000f Have students select specific strategies to use in working on various assignments; \u000f Have students re\ufb02ect on problems encountered using strategies, as well as their successes; \u000f Review (weekly) to add to chart.", 
  "For young students, prominently displaying charts of volitional strategies that show actions to help focus on tasks and away from distractions in the classroom or at home can be helpful.", 
  "Strategies from the AVSI that may be relevant to these charts include the following: \u000f Promising oneself a desired reward (#1) \u000f Keeping in mind that they may disappoint their parents if they do poorly on an assignment (#3) \u000f Using statements that reinforce their con\ufb01dence in their ability to complete school tasks (#5) \u000f Thinking about how satis\ufb01ed they will feel after completing the task \u000f Commanding themselves to \u2018\u2018just do\u2019\u2019 the assignment (#12) \u000f Thinking about ways the assignment relates to more fun or interest- ing things that they enjoy (#15) \u000f Considering how doing poorly on an assignment would impact them (e.g., more study time vs. playing with their friends or other desired activities) (#17) \u000f Thinking of the different resources (e.g., parents, friends, books, ex- periences) that they can tap into to help them complete their assignments \u000f Talking to themselves aloud about the assignment to stay focused when others, or other things, tend to be distracting (#20) \nTo make the behaviors relevant to students\u2019 experiences, students can contribute their own methods for staying on task with academic assign- ments.", 
  "Susie, for example, might share how she was able to get her math assignment done even though her little brother and his friends were play- \n\f1704 Teachers College Record \ning loudly in the other room.", 
  "Students should be encouraged to offer and discuss various types of distractions they encounter and how they deal with them.", 
  "Talking about their successful experiences, as well as those that didn\u2019t work for them, may contribute to success for other students who encounter similar situations.", 
  "Strategies that worked can be added to the chart to ex- pand students\u2019 knowledge of strategies to try out in developing or strength- ening their work habits.", 
  "Teachers, students, or both can model how to use the strategies, sim- ulating situations that require volitional action.", 
  "Likewise, feedback by teachers and students can provide instruction to help students adjust or modify strategies to best suit their experiences (see also Randi, this volume, and Perry, Reed, & Dowler, this volume).", 
  "STUDENT REFLECTION ON ACADEMIC WORK HABITS \nThe diagnosis of student dif\ufb01culties with volitional self-regulation is essen- tial for teachers concerned with assisting those students in need of devel- oping good work habits.", 
  "Instruction, modeling, and feedback with students confronting problems in controlling distractions can then be tailored to help them develop positive work habits.", 
  "The AVSI items can serve as suggested ways to counter various dif\ufb01culties.", 
  "Students\u2019 learning of methods for managing tasks, re\ufb02ecting on what worked, what didn\u2019t work, and why may make the crucial difference in the continued use, or adoption, of appro- priate strategies to use in countering specific dif\ufb01culties.", 
  "Structured time for student re\ufb02ection can be meshed with regular project tasks or provided as a separate assignment.", 
  "Student collaboration on academic tasks may also be structured to highlight negative tendencies and model positive strategies for overcoming obstacles.", 
  "Example activities for encouraging re\ufb02ection might include having students keep a journal about the process of com- pleting an assigned task (or tasks), either as part of the assignment or as a separate assignment encompassing a set of tasks or a set period of time.", 
  "Students might be asked to recount their activities related to the following: \n\u000f How and when they planned to tackle the assignment, \u000f The timeframe within which they planned to accomplish the assign- \u000f Obstacles encountered in initiating task activity, \u000f Dif\ufb01culties (with the material or other distractions) that may have led to frustration or tendencies to disengage from the task, \u000f Strategies used to stay focused, and \u000f Whether their strategies were successful, and why or why not.", 
  "Increasing Student Learning Through Volitional Control \n\nTeachers\u2019 feedback on journal entries might suggest alternative methods for future tasks.", 
  "These might include suggestions of strategies for each phase of moving through the process of task completion at the beginning of semesterFencouraging them to try out approaches that they think might better work for them.", 
  "Feedback sessions for the whole class, or in small groups that culminate in whole-group discussions, can highlight the use of successful volitional strategies after each major assignment.", 
  "Areas to discuss include resources used by students as well as their setbacks (e.g., with content, emotional reactions, environmental frustrations).", 
  "Small group and whole-class discus- sions can be structured to elicit task or study dif\ufb01culties as well as methods used to overcome obstacles.", 
  "Through such sessions, teachers can gain im- portant information about the work habits that are displayed by students, as well as gain critical information about students\u2019 level of understanding of the assigned material.", 
  "This information can then feed into further instruc- tion, modeling, and support for improving students\u2019 content understanding and work habit practices.", 
  "Strengthening students\u2019 motivation or mindsets for learning involves encouraging their concerted re\ufb02ection on factors that inhibit cognitive en- gagement and the completion of their assigned work.", 
  "Structuring time to re\ufb02ect about how they dealt with an assignment can help combat the de- velopment of negative attributions and lowered self-ef\ufb01cacy if task per- formance falls short of students\u2019 expectations.", 
  "It may also provide an avenue for de\ufb02ecting potential indifference to the wealth of knowledge that their classes can offer and lowered motivation to understand, engage in, and contribute to the various academic and world experiences that sur- round them.", 
  "PEER GROUP INTERACTIONS \nTo increase students\u2019 use of volitional strategies, teachers can structure groupings of students on assignments to maximize the learning of those in need of strategic methods for initiating/completing tasks.", 
  "Students who share their successes may also bene\ufb01t from seeing their peers achieve suc- cess with strategies they use, con\ufb01rming the effectiveness of their approach.", 
  "Sometimes seeing what other students say and do resonates far beyond teachers\u2019 words and actions.", 
  "Grouping students in ways that \ufb01t their needs (i.e., combinations of low, medium, and high performing students), while at the same time creating tasks that require all to participate, may aid a teach- er\u2019s attempts to provide instruction in volitional strategy use to enhance students\u2019 content learning.", 
  "In-class group activities can use think-aloud assignments that have stu- dents model methods of planning, initiating, and working on tasks.", 
  "Activ- \n\f1706 Teachers College Record \nities can be structured to incorporate goal setting for tackling assignments that include discussions about the following: \n\u000f Considerations of optimum study times and places, \u000f Necessary amounts of time/days to complete a particular assignment, \u000f Needed resources that can contribute to successfully completing the assignment (e.g., extra reading materials, visual aids, study groups), and \u000f Actions to be used if distractions to initiating or working on assign- ments arise.", 
  "Group interactions at the planning stage provide numerous advantages to students needing to develop or strengthen the ways in which they ap- proach assignments.", 
  "Group interactions may help weaker students gain knowledge about various volitional strategies that can be used as they strive toward task completion.", 
  "If assignments span lengthy time periods (e.g., a term paper, a class project), teachers can structure in-class group meetings at regular intervals for students to talk about their process for initiating and working on the assignment.", 
  "As group members listen to each other\u2019s ex- periences, they can help each other catch negative thinking, isolate problem areas, provide alternative suggestions, and serve as a support system for overcoming learning obstacles.", 
  "At the conclusion of assignments, group re\ufb02ection about teacher feedback may also be instructive to the processing of tactics for increasing successes on future similar tasks.", 
  "CONCLUSION \nThe No Child Left Behind (NCLB) legislation (U.S. Department of Edu- cation, 2002) challenges teachers to consider creative instructional tech- niques for guiding their students to higher levels of achievement.", 
  "Although teachers may encounter students who seem to not want to learn, much research has demonstrated that a number of factors tend to underlie this apparent lack of motivationFincluding a complex array of personal char- acteristics and situational factors.", 
  "The differing levels of student commit- ment to the goals that teachers establish, \ufb02uctuating interest and value for learning specific content material, and varying levels of knowledge about methods for maneuvering through class assignments pose significant chal- lenges to teachers as they attempt to confront each student\u2019s unique set of learning needs.", 
  "Volitional self-regulation affects follow-through as students attempt to complete academic tasks (Corno, 2001).", 
  "The demands of classroom situ- ations and out-of-classroom learning often require students to constrain preferred inclinations and activities to meet their task requirements.", 
  "De- \n\fIncreasing Student Learning Through Volitional Control \n\nveloping an aptitude for volitional control can make the difference in stu- dents\u2019 mastery of the challenges that confront them as they strive to attain their academic and future goals.", 
  "Because students\u2019 levels of knowledge differ, and their commitment, interest, and value for academic tasks is known to wax and wane, it is important that teachers keep in mind the underlying thoughts and emotions that can hinder these aspects of learning.", 
  "By includ- ing volitional control strategies as a goal for instructional programs, teachers increase their collection of techniques for promoting effective student work habits.", 
  "As teachers see successes accumulate for their students, they may be more likely to embrace the statement that \u2018\u2018all children can learn.\u2019\u2019 \nAPPENDIX A \nTHE ACADEMIC VOLITIONAL STRATEGY INVENTORY (AVSI) \n1.", 
  "I promise myself something I want when I complete a specific amount of studying (e.g., going to a movie, getting together with friends, a fa- vorite CD).", 
  "2.", 
  "I remind myself that I usually do \ufb01ne on exams and/or other assign- ments when I stick to a study schedule.", 
  "3.", 
  "I think about how disappointed others (family/friends) will be if I do \n4.", 
  "If I am having dif\ufb01culty, I call a friend from the class and discuss the assignment/material with them.", 
  "5.", 
  "I tell myself, \u2018\u2018you can do this!\u2019\u2019 \n6.", 
  "I think about my other coursework, and that if I don\u2019t get going or continue with my studying, I\u2019ll fall behind in assignments for the rest of my courses.", 
  "7.", 
  "I think about the mistakes that I have made on past assignments and exams when I\u2019ve procrastinated in my studying.", 
  "8.", 
  "When I don\u2019t feel like studying, or feel like quitting, I think about the kinds of jobs or career I may end up with if I \ufb02unk out of college.", 
  "9.", 
  "I imagine myself moving through the assignment, or answering test questions without much dif\ufb01culty.", 
  "10.", 
  "I think about how great (how relieved) I\u2019ll feel when I get it \ufb01nished.", 
  "11.", 
  "I think about the amount of time my classmates probably study for this class, and that they\u2019ll get a better grade than me.", 
  "1708 Teachers College Record \n12.", 
  "I tell myself, \u2018\u2018get to it and concentrate, this is an important assign- ment/exam/paper.\u2019\u2019 \n13.", 
  "I think about the sacri\ufb01ces that I have made or that my parents are making to put me through school.", 
  "14.", 
  "I think of interesting or different ways to make studying more fun or challenging for me.", 
  "15.", 
  "I think about the goals I have set for myself (how what I do now may affect my future).", 
  "16.", 
  "I usually meditate or use some method of relaxation so I am better able to concentrate on my studies.", 
  "17.", 
  "I think about the possible negative consequences of doing poorly in this class.", 
  "18.", 
  "I think about my strengths and the resources I can draw on to help me with dif\ufb01cult assignments or test information.", 
  "19.", 
  "I think about things that make me feel good whenever I am feeling frustrated about what I need to get done for this class.", 
  "20.", 
  "I talk aloud to myself about the material I am studying to keep me from getting distracted.", 
  "Subscale Items: \nSelf-Ef\ufb01cacy Enhancement: 2, 5, 6, 10, 12, 15, 18, 19, 20 Negative-Based Incentives: 3, 7, 8, 11, 13, 17 Stress Reducing Actions: 1, 4, 9, 14, 16 \nnThe items in this scale are generally preceded by the statement: \u2018\u2018When I am unable to get \nstarted on my assignment or if I get distracted .", 
  ".", 
  ".", 
  "\u2019\u2019 \nn nThe items are scored on a Likert-type scale using ratings from very true of me to not true of me or I always do this to I never do this.", 
  "The rating values can be on a 5-point or 7-point scale, depending on how \ufb01ne-grained of an analysis is desired.", 
  "The analysis of students\u2019 need for developing volitional strategies should also include a consideration of their performance on various class tasks and their usual methods for tackling the assigned work.", 
  "APPENDIX B \nPSYCHOMETRIC PROPERTIES OF THE AVSI SCALE \nThe development process of the Academic Volitional Strategy Inventory (AVSI) resulted in a scale consisting of 20 items.", 
  "Student responses were \n\fIncreasing Student Learning Through Volitional Control \n\nTable 1.", 
  "AVSI and MSLQ Correlations \nMSLQ Subscale \u000f Intrinsic Goal Orientation \u000f Extrinsic Goal Orientation \u000f Task Value \u000f Control of Learning \u000f Help-Seeking \u000f Peer Learning \u000f Time Management \u000f Metacognitive Strategy Use \u000f Critical Thinking \u000f Elaboration Strategy Use \u000f Organizational Strategy Use \u000f Rehearsal Strategy Use \nassessed using a 5-point Likert scale with anchors ranging from 1 5 not at all true of me to 5 5 very true of me.", 
  "The scale is best used within the context of an assigned content area of material (e.g., math, reading, history), rather than as a global measure of students\u2019 inclinations toward volitional action.The reliability coef\ufb01cients for the original 30-item scale (McCann, 1999; McCann & Garcia, 1999) indicated good reliability for the total scale (a 5 .87).", 
  "Alpha coef\ufb01cients were also reported for the three subscale factors (self-ef\ufb01cacy enhancement a 5 .82; negative-based incentives a 5 .73; stress reducing actions a 5 .69).", 
  "Pre- and posttest results supported the stability of the scale (r 5.72; po.001).", 
  "In a study using the current 20-item version of the AVSI scale (Husman et al., 2000), reliability estimates remained stable and strong during each of four administrations: Cronbach\u2019s a: test 1 5 .89, test 2 5 .89, test 3 5 .91, and \ufb01nal administration 4 5 .93.", 
  "Validity assessments of the correspondence with and independence from (convergent and divergent validity) other instruments currently used to indicate students\u2019 tendencies for self-regulatory behaviors and other related constructs (e.g., initiative, discipline) were carried out.2 Hypothesized cor- respondence of the AVSI with the Action Control Scale (Kuhl, 1994), the Negative Mood Regulation Scale (Catanzaro & Mearns, 1990), Rosenberg\u2019s (1965) Self-Esteem Scale, and the Deferment of Grati\ufb01cation Scale (Ray & Najman, 1985) did not reach significance.", 
  "The nonsignificant \ufb01ndings of these comparisons are believed to be the result of the global focus by the selected scales on individuals\u2019 characteristics, in contrast to the very narrow focus by the AVSI on student characteristics with respect to academic sit- uations that particularly emphasize specific courses of study.", 
  "An additional comparison was made between the AVSI and selected subscales from the Motivated Strategies for Learning Questionnaire \n\f1710 Teachers College Record \n(MSLQ; Pintrich, Smith, Garcia, & McKeachie, 1991).", 
  "Low to moderate correlations occurred indicating a modest positive association of student motivation and learning efforts with volitional action.", 
  "Table 1 shows these correlations.", 
  "The modest correlations found between the AVSI and the MSLQ sub- scales indicated that volition should be viewed as a separate entity.", 
  "The minimal overlap in construct measurement denotes a similar directionality in responding, which is not unexpected as both instruments indicate ten- dencies toward self-regulatory behavior.", 
  "Exploratory factor analyses tested the independence of the AVSI from other self-regulatory strategies.", 
  "Using the learning subscales of MSLQ, 25 of the 30 AVSI items formed independent factors, providing evidence that these items were measuring distinct volitional self-regulatory behaviors unique from the self-regulatory strategies represented in the \nA series of hierarchical regression equations investigated the predictive validity of the AVSI for student performance.", 
  "Analyses indicated that the AVSI items had no direct effect on course performance (as measured by end-of-semester grade).", 
  "However, the results of a path analysis illustrat- ed direct effects of volitional strategy use on students\u2019 use of learning strategies (Table 2), and indirect effects that strengthened the impact of four of the six motivational variables on students\u2019 use of learning strategies (Table 3).", 
  "These results provide evidence to support the contention that volitional in the motivation-cognitive engagement-performance outcome equation of student learning experi- ences (Corno & Kanfer, 1993, Garcia, McCann, Turner, & Roska, 1998, Kuhl, 1985).", 
  "self-regulation is a mediator \nTable 2.", 
  "Direct Effects of Volition On Use of Learning Strategies \nLearning Strategy \nReg.", 
  "Coeff.", 
  "Rehearsal Elaboration Organization Critical Thinking Metacognition Time Management Peer Learning Help-Seeking Note.", 
  "All effects significant at the po.001 level except Time Management (po.05).", 
  "Reg.", 
  "Coeff.", 
  "5 standardized regression coef\ufb01cients.", 
  "Extrinsic Goal Orientation \n\u000f On Rehearsal \u000f On Elaboration \u000f On Organization \u000f On Critical Thinking \u000f On Metacognition \u000f On Time Management \u000f On Peer Learning \u000f On Help Seeking \u000f On Rehearsal \u000f On Elaboration \u000f On Organization \u000f On Critical Thinking \u000f On Metacognition \u000f On Time Management \u000f On Peer Learning \u000f On Help Seeking \u000f On Rehearsal \u000f On Elaboration \u000f On Organization \u000f On Critical Thinking \u000f On Metacognition \u000f On Time Management \u000f On Peer Learning \u000f On Help Seeking \u000f On Rehearsal \u000f On Elaboration \u000f On Organization \u000f On Critical Thinking \u000f On Metacognition \u000f On Time Management \u000f On Peer Learning \u000f On Help Seeking \nControl Beliefs \nIncreasing Student Learning Through Volitional Control \n\nTable 3.", 
  "Motivational Effects on Learning Strategy Variables When Accounting for Volitional Self-Regulation \nMotivational Construct \nIntrinsic Goal Orientation \nTest Anxiety \nNote.", 
  "Unstandardized regression coef\ufb01cients (bs) are reported.", 
  "1 Revision of the original 30-item scale resulted from cumulative analyses of scale prop- \nerties that identi\ufb01ed overlapping items and those infrequently used in goal-striving efforts.", 
  "2 Validity assessments were performed on the 30-item AVSI scale (prior to its re\ufb01nement \ninto the current 20-item scale).", 
  "1712 Teachers College Record"
 ]
}