{
 "document_id": "17298506667986002089", 
 "sentences": [
  "A Study of Proof Conceptions in Algebra Author(s): Lulu Healy and Celia Hoyles Reviewed work(s): Source: Journal for Research in Mathematics Education, Vol.", 
  "31, No.", 
  "4 (Jul., 2000), pp.", 
  "396- Published by: National Council of Teachers of Mathematics Stable URL: http://www.jstor.org/stable/749651 .", 
  "Accessed: 03/11/2011 01:13 \nYour use of the JSTOR archive indicates your acceptance of the Terms & Conditions of Use, available at .", 
  "http://www.jstor.org/page/info/about/policies/terms.jsp \nJSTOR is a not-for-profit service that helps scholars, researchers, and students discover, use, and build upon a wide range of content in a trusted digital archive.", 
  "We use information technology and tools to increase productivity and facilitate new forms of scholarship.", 
  "For more information about JSTOR, please contact support@jstor.org.", 
  "National Council of Teachers of Mathematics is collaborating with JSTOR to digitize, preserve and extend access to Journal for Research in Mathematics Education.", 
  "http://www.jstor.org \n\fJournal for Research in Mathematics Education  2000, Vol.", 
  "31, No.", 
  "4, 396-428  \nA Study of  Proof  Conceptions  \nin Algebra  \nLulu Healy and Celia Hoyles, University of London, UK  \nAfter surveying high-attaining 14- and 15-year-old students about proof in algebra, we found that  students simultaneously held 2 different conceptions of proof: those about arguments they consid-  ered would receive the best mark and those about arguments they would adopt for themselves.", 
  "In  the former category, algebraic arguments were popular.", 
  "In the latter, students preferred arguments  that they could evaluate and that they found convincing and explanatory, preferences that excluded  algebra.", 
  "Empirical argument predominated in students' own proof constructions, although most  students were aware of its limitations.", 
  "The most successful students presented proofs in everyday  language, not using algebra.", 
  "Students' responses were influenced mainly by their mathematical  competence but also by curricular factors, their views of proof, and their genders.", 
  "Key Words: Algebra; Large-scale studies; Proof; Reasoning; Secondary mathematics; Survey study  \nWithin the mathematics community, the topic of proof is frequently the subject  of debate; deductive reasoning is contrasted with natural induction from empirical  pursuits and with informal argumentation.", 
  "Yet research suggests that students of  mathematics do not find these distinctions easy (see, e.g., Martin & Harel, 1989).", 
  "The process of proving is undeniably complex, involving a range of student compe-  tencies-identifying  assumptions, isolating given properties and structures, and  organizing logical  arguments-each  of  which is  by no means trivial.", 
  "These  complexities may be further compounded by the ambiguous nature of the term proof  itself and by the fact that outside of mathematics, proof can be indistinguishable  from evidence.", 
  "As Tall (1989) observed, \"beyond reasonable doubt\" constitutes  proof to a jury; \"occurring with a certain probability\" may imply proof to a statis-  tician; and for a scientist, proof may reside in the result of empirical investigation.", 
  "Even among mathematicians, there is diversity of opinion regarding the role and  functions of proof and to what extent proofs should or should not provide insight  into the underlying mathematics (for reference to discussion of these issues, see  Thurston, 1995).", 
  "Turning more to mathematics education, we note that Hanna and Jahnke (1993)  suggested that understanding is primary to the acceptance by a learner that a new  theorem has been proved, with rigor playing only a secondary role.", 
  "They went on  to argue that students are likely to gain a greater understanding of proof when  emphasis is placed on communication of meaning rather than on formal deriva-  \nWe gratefully acknowledge the support of the Economics and Social Research Council  (ESRC), Project R000236178.", 
  "We would also like to thank the anonymous reviewers for their  helpful comments and suggestions.", 
  "Lulu Healy and Celia Hoyles  \n\ntion: \"A mathematics curriculum which aims to reflect the real role of rigorous proof  in mathematics must present it as an indispensable tool in mathematics rather than  as the very core of that science\" (p. 879).", 
  "In mathematics education, empirical research on this topic has tended to focus  on describing and analyzing students' responses to questions requiring proof.", 
  "A  large body of evidence indicates that most students have difficulties in following  or constructing formally presented deductive arguments, in understanding how they  differ from empirical evidence,  and in using them to derive further results  (Balacheff, 1988; Chazan, 1993; Fischbein, 1982; Harel & Sowder, 1998; Porteous,  1994; Schoenfeld, 1989).", 
  "Students' approaches to proving have been classified  along various dimensions: from pragmatic, involving recourse to actions, to  conceptual, arguing from properties and relationships (Balacheff,  1988; van  Dormolen, 1977); from weak to strong deduction (Bell, 1976; Coe & Ruthven,  1994); according to different representations-enactive, visual, numeric, formal  (Tall,  1998)-and  different proof schemes-transformational  (Simon,  1996),  analytical, empirical, and external (Harel & Sowder, 1998).", 
  "What is a matter of  dispute is  how  far there is  continuity or discontinuity among the different  approaches; for example, Duval (1991) pointed to the dramatic gap between the  two poles  of  argumentation and deduction, whereas mathematics educators  (including ourselves, Hoyles & Healy, 1999; see also Douek, 1998) have sought  to forge connections between them.", 
  "In this corpus of research, little attention has been paid to documenting students'  views of the meaning of proof in mathematics, and the relationship between views  and approaches to proof have been discussed largely on the basis of theory rather  than empirical evidence (e.g., Simon, 1996).", 
  "Additionally, researchers have tended  to limit their attention to individual conceptions or to classroom studies, with  surprisingly little systematic investigation of school and curriculum factors and the  role they might play in shaping students' views of and competencies in mathe-  matical proof.", 
  "(This is a general comment about mathematics education research;  see Hoyles, 1997.)", 
  "We do not claim that the positioning of proof within the curriculum has remained  unchanged over the last quarter century.", 
  "In the United Kingdom, following Polya  (1962), many (e.g., Bell, 1976; Mason, 1982) have argued that students should have  opportunities to test and refine their own conjectures and to gain personal convic-  tion of  their truth alongside the experience of  presenting generalizations and  evidence of their validity.", 
  "This approach is now prescribed in the current National  Curriculum for mathematics in England and Wales (Department for Education,  1995).", 
  "This curriculum is statutory and followed closely by all state schools.", 
  "The purpose of this article is not to critique this development but rather to analyze  its outcomes in terms of student conceptions of proving and proof.", 
  "The move to  specify problem solving and proving processes in a curriculum inevitably imposed  on students a structural organization and sequence in their mathematics instruction.", 
  "In the case of the National Curriculum for England and Wales, the curriculum was  organized into five attainment targets (ATs), which included Number (AT2) and  \n\nProof Conceptions in Algebra  \nAlgebra (AT3) (the mathematical foci of this article); mathematical reasoning was  specified separately in a target termed Using and Applying Mathematics (AT1).", 
  "It  was in ATi  that students were expected to engage in problem solving, formulate  and test conjectures, and explain and justify conclusions.", 
  "Because of the separation  of problem solving and proving from mathematical content, particularly from  geometry, as well as their explicit specification, the curriculum stood in marked  contrast to that of many other countries where proof is still taught in the context of  traditional Euclidean geometry (see Hanna, 1995).", 
  "In terms of sequencing in the  curriculum, each attainment target was divided into eight levels of ascending diffi-  culty against which students would be tested.", 
  "This division into eight levels was not  based on any theoretical or empirical analysis of progression but rather was imposed  across the curriculum as a mechanism to compare achievement across participants.", 
  "Nonetheless the requirement to specify levels in proving would clearly be expected  to have implications for student learning.", 
  "Although this emphasis on processes in the new curriculum resonated with  some of the messages from mathematics education and indeed from mathemati-  cians, initial reactions to the curriculum changes were less  than positive.", 
  "The  debate  culminated  in  1995  in  a publication  spearheaded  by  the  London  Mathematical Society, a powerful group of  mathematicians, who complained  about the lack of emphasis on precision and proof in the curriculum, despite the  latter' s separate specification in the curriculum.", 
  "One interesting aspect of this debate  was that it was conducted largely in the absence of evidence, because the effect of  the separate specification of processes in the curriculum had yet to be systemati-  cally investigated.", 
  "Were students who had followed the new curriculum able to  apply their reasoning skills to content in other attainment targets?", 
  "Were students  competent at constructing or evaluating a mathematical proof?", 
  "What did students  judge to be the nature of mathematical proof?", 
  "What did they see as its purposes?", 
  "Did they see proving as verifying cases or as convincing and explaining?", 
  "What were  the views of mathematics teachers about teaching proof, and how were students  influenced by their views?", 
  "Although the National Curriculum was statutory and  thus universally delivered, were there variations in how it was implemented and  experienced, and if so, what were these variations in the area of proof, why had  they taken place, and what were the implications for student learning?", 
  "THE STUDY  \nIn the research project Justifying and Proving in School Mathematics, we tried  to answer some of these questions by studying, through an analysis of the concep-  tions of proof held by students who had followed this curriculum, how the National  Curriculum was delivered and experienced with regard to proof.", 
  "We also sought  to interpret and explain these conceptions by reference to a landscape of student,  school, and teacher factors and, by such means, to address some \"hot problems\"  (Bauersfeld, 1997, p. 621)  posed for the mathematics education community.", 
  "Specifically, our aims were to investigate the characteristics of arguments recog-  \n\fLulu Healy and Celia Hoyles  \n\nnized as proofs by high-attaining students (aged 14-15 years), the reasons behind  their judgments, and the ways they constructed proofs for themselves.", 
  "We focused  on high-attainers (the top 20-25% of the student population), because it was this  group of students who would have been introduced to most of the content speci-  fied in the eight levels of reasoning in the National Curriculum.", 
  "To relate student responses to school factors, we used multilevel modeling of the  data set (see Goldstein, 1995), a method of statistical analysis used rarely in math-  ematics education but commonly in  school-effectiveness research.", 
  "However,  unlike the use in school-effectiveness studies, our use of this methodology was not  to assess and compare performance across schools but to open a window onto  student conceptions.", 
  "After completing the quantitative analysis, we undertook  interviews of a sample of teachers and their students to seek further illumination  of the trends identified.", 
  "We investigated proof in two domains: arithmetic/algebra and geometry.", 
  "In this  article we report the findings from the former study only (for a complete descrip-  tion of the survey analysis, see Healy & Hoyles, 1998; for a discussion of the find-  ings of the geometry study, see Hoyles & Healy, 2000).", 
  "We will outline the char-  acteristics of a proof recognized by students, the ways in which they constructed  proofs, and the extent to which these productions fulfilled their own criteria.", 
  "We will  describe the role played by algebra, not only as a way of communicating a proof of  a number-theoretic conjecture but also as an indication of students' ideas about the  purpose of proof.", 
  "Finally, we discuss any factors, arising from school and curriculum  organization, that appeared to influence students' conceptions and performance.", 
  "The Research Instruments  \nTo collect the quantitative data, we designed two survey instruments-a student  proof-questionnaire and a school questionnaire-and  schedules for teacher and  student follow-up interviews.", 
  "The proof questionnaire was designed to provide, first,  an overview of students' views of what comprised a proof, its role, and its gener-  ality and, second, an indication of students' competence in constructing proofs.", 
  "The survey included three types of items to probe student views of proof from  a variety of standpoints.", 
  "First, students were asked to provide written descriptions  about proof and what they thought was its purpose.", 
  "Second, students were presented  with mathematical conjectures and a range of arguments in support of them; they  were asked to make two selections from these arguments-the  argument that  would be nearest to their own approaches and the argument they believed would  receive the best mark from their teachers.", 
  "Third, students' assessments of these argu-  ments in terms of their validity or explanatory power were elicited.", 
  "Two conjec-  tures were included, one familiar (Question Al)  and the other unfamiliar (Question  A6),  and these, together with the arguments presented in the multiple-choice  format, are shown in Figures 1 and 2.", 
  "For the theoretical framework that governed the choice of arguments included  in each of these questions, we drew on the analyses of van Dormolen (1977) and  \nProof Conceptions in Algebra  \nArthur, Bonnie, Ceri, Duncan, Eric, and Yvonne were trying to prove  whether the following statement is true or false:  \nWhen you add any 2 even numbers, your answer is always even.", 
  "Arthur's answer  a is any whole number  b is any whole number  2a and 2b are any two even numbers  2a + 2b = 2(a + b)  So Arthur says it's true.", 
  "Ceri's answer  Even numbers are numbers that  can be divided by 2.", 
  "When you  add numbers with a common  factor, 2 in this case, the answer will  have the same common factor.", 
  "So Ceri says it's true.", 
  "Eric's answer  Let x = any whole number,  y = any whole number  \nz + z -  (x + y) = x + y = 2z  So Eric says it's true.", 
  "Bonnie's answer  So Bonnie says it's true.", 
  "Duncan's answer  Even numbers end in 0, 2, 4,  6, or 8.", 
  "When you add any two  of these, the answer will still  end in 0, 2, 4, 6, or 8.", 
  "So Duncan says it's true.", 
  "Yvonne's answer  \n\n000000000  000000000  \nSo  Yvonne says  it's true.", 
  "From the above answers, choose one that would be closest to what you would  do if you were asked to answer this question.", 
  "I  From the above answers, chose the one to which your teacher would give the  best  mark.", 
  "Figure 1.", 
  "The choices of argument for the familiar conjecture Al.", 
  "Balacheff (1988) and the operationalization of Balacheff's framework by Coe and  Ruthven (1994).", 
  "Each question included (if possible) (a) an argument or arguments  characterized as specific, empirical, or requiring an action or concrete demonstra-  tion with little or no explanation (e.g., Bonnie's in Al);  (b) an argument that relied  on common properties or a generic case (e.g., Yvonne's in Al);  (c) an argument  that suggested underlying reasons and explanations written in a narrative everyday  \n\fLulu Healy and Celia Hoyles  \nKate, Leon, Maria, and Nisha were asked to prove whether the  following statement is true or false:  \nWhen you multiply any 3 consecutive  numbers, your answer is always a  multiple of 6.", 
  "Kate's answer  A multiple of 6 must have factors of 3 and 2.", 
  "If you have three consecutive numbers, one will be a multiple of 3 as every  third number is in the three times table.", 
  "Also, at least one number will be even and all even numbers are multiples of 2.", 
  "If you multiply the three consecutive numbers together, the answer must  have at least one factor of 3 and one factor of 2.", 
  "So Kate says it's true.", 
  "Leon's answer  1 x2x3=6  2x3x4=24  6 x 7 x 8 = 336  So Leon says it's true.", 
  "Maria's answer  \"x is any whole number  \"xx (x + 1) x (x + 2) = (X2 + 2) x (x + 2)  \n= x3 + X2 + 2X2 + 2X  Cancelling the xs  gives  1 + 1 + 2 + 2 = 6  So Maria says it's true.", 
  "Nisha's answer  Of the three consecutive numbers, the first number is either  EVEN, which can be written 2a (a is any whole number), or  ODD, which can be written 2b -  1 (b is any whole number).", 
  "2a x (2a + 1) x (2a + 2) is a multiple of 2  and either a is a multiple of 3  or a is not a multiple of 3  \n\n..  2a is not a multiple of 3  .'.", 
  "Either (2a + 1) is a multiple of 3 or (2a + 2) is a multiple of 3  DONE  \n\n(2b -1) x 2b x (2b + 1) is a multiple of 2  and either b is a multiple of 3  or b is not a multiple of 3  \n2b is not a multiple of 3  \n\nEither (2b -  1) is a multiple of 3 or (2b + 1) is a multiple of 3  \nSo Nisha says it's true.", 
  "From the above answers, choose one that would be closest to what you would  do if you were asked to answer this question.", 
  "I  From the above answers, chose the one to which your teacher would give the  best  mark.", 
  "Figure 2.", 
  "The choices of argument for the unfamiliar conjecture A6.", 
  "Proof Conceptions in Algebra  \nstyle (e.g., Ceri's in Al);  and (d) a deductive proof, written in a formal style,  presenting a logical argument with explicit links made between premises and  conclusions.", 
  "Because we were interested in to what extent students would distin-  guish form and content, we included two arguments in this final category, one valid  (e.g., Arthur's in Al)  and one not (e.g., Eric's in Al).", 
  "Having agreed on the framework for the arguments to be presented in each  multiple-choice question, we  developed the items over five phases.", 
  "First, we  studied the National Curriculum specifications and found that students of this age  and attainment were likely to have explored a variety of situations that led to the  expression of relationships algebraically and would have had some experience of  using letters to represent unknowns and of manipulating algebraic expressions.", 
  "Second, we scoured textbooks for conjectures, in the arithmetic/algebra domain,  appropriate for use with high-attaining 14- and 15-year-old students and discussed  possibilities with a group of six teachers.", 
  "Third, we gave a sample of these conjec-  tures to a prepilot group of 68 high-attaining students, aged 14-15 years, who were  asked to construct proofs of each conjecture.", 
  "These responses provided us with a  bank of appropriate proofs from which to choose arguments for our multiple-choice  questions.", 
  "Fourth, if there were any gaps in the framework, we filled them by writing  with the teachers some arguments that fit the criteria.", 
  "Finally, all the arguments were  subject to some modification after the proof questionnaire was piloted.", 
  "To obtain more evidence of students' views of the functions of proof, we asked  the students, after they had answered each multiple-choice question, to evaluate  each argument presented.", 
  "They were asked to assess the correctness (\"Do you think  the argument contains a mistake?\")", 
  "and generality (\"Do you believe that the argu-  ment holds for all cases or simply for a specific case or cases?\").", 
  "An example of  the format used, as it applied to Bonnie's argument in Question Al,  is shown in  Figure 3, Statements 1, 2, and 3.", 
  "The correctness of students' evaluations of gener-  ality was scored by what was called a student's validity rating (VR): An entirely  correct profile of responses to 1, 2, and 3 for any given argument scored 2; a profile  in which the student correctly noted whether the argument was general, specific,  or wrong but was unsure of other factors obtained a rating of 1; all other profiles  scored 0.1  \nStudents were also asked to assess to what degree each argument explained the  proof and convinced them of its truth.", 
  "An example, again relating to the assess-  ment of Bonnie's answer, is also given in Figure 3, Statements 4 and 5.", 
  "If students  agreed with both statements, their explanatory power rating (EP) for that argument  was 2; if they agreed with one or the other of the statements, the EP was 1; other-  wise the EP was 0.", 
  "We sought further to assess students' views of the generality of a proved state-  ment by asking them whether or not it automatically held for a given subset of cases.", 
  "1 Because the validity of Yvonne's visual argument is particularly ambiguous, students who assessed  \nit as either specific or general were considered to be correct.", 
  "Lulu Healy and Celia Hoyles  \n\nBonnie's answer  1.", 
  "Has a mistake in it  2.", 
  "Shows that the statement is always true  3.", 
  "Only shows that the statement is true for  \nsome even numbers  \n4.", 
  "Shows you why the statement is true  5.", 
  "Is an easy way to explain to someone in  \nyour class who is unsure  \n\ndon't know  disagree  \nFigure 3.", 
  "Assessing the validity and explanatory power of Bonnie's answer.", 
  "The statement that was assumed to have been proved was the familiar conjecture  presented in Question Al,  about the sum of  two even numbers.", 
  "The question  posed (A2) is given in Figure 4.", 
  "Suppose it has been proved that when you add any 2 even numbers,  your answer is always even.", 
  "Zach asks what needs to be done to prove whether when you add 2 even  numbers that are square, your answer is always even.", 
  "Tick either A or B.", 
  "(A)  Zach doesn't need to do anything; the first statement has already  \nproved this.", 
  "(B)  Zach needs to construct a new proof.", 
  "Figure 4.", 
  "Assessing the generality of a proved statement.", 
  "The proof questionnaire also included questions with an open format: Students  were asked to construct their own proofs, again for one familiar and one less familiar  conjecture, and to present their arguments so as to obtain the best possible mark  (Questions A4 and A7, respectively; see Figure 5).", 
  "The order of questions was such  that students could adapt arguments presented in earlier multiple-choice questions  for use in their own proof constructions (for example, by adapting a proof about  the sum of two even numbers to prove a conjecture about the sum of two odd  numbers).", 
  "All students' constructed proofs were scored for correctness (0 for no  basis for proof, 1 for relevant information but no deductions, 2 for partial proof,  and 3 for a complete proof).", 
  "The main form of argument was also noted: empir-  ical, formal (algebraic), or narrative.", 
  "We noted if responses were irrelevant or  absent; all the remaining proof types were classified as other.", 
  "Proof Conceptions in Algebra  \nThe familiar conjecture to be proved was  A4: Prove that when you add any 2 odd numbers, your answer is always  \neven.", 
  "(Write down your answer in the way that would get you the best mark  you can.)", 
  "The unfamiliar conjecture to be proved was  A7: Prove that if p and q are any two odd numbers, (p + q) x (p - q) is  \nalways a multiple of 4.", 
  "(Write your answer in the way that would get you  the best mark you can.)", 
  "Figure 5.", 
  "The familiar and unfamiliar statements to be proved.", 
  "Finally, we coded students' written descriptions of the purposes of proof into  three categories: truth (verification), explanation (illumination and communi-  cation), and discovery (discovery and systemization), following and simplifying  deVilliers's (1990) categories, shown in parentheses.", 
  "If students wrote nothing  or if their contributions were irrelevant, we coded the response in a category  none/other.", 
  "While we were developing the student proof-questionnaire, we designed a  school questionnaire to obtain information about a school-the  type of school,  its selection and setting (tracking) procedures, the hours spent in mathematics  classes per week, the textbooks adopted, and the examinations entered.", 
  "The proof  questionnaire was to be given to whole classes of students, so the school ques-  tionnaire was completed by the students' mathematics teachers, who were also  asked to provide information on their backgrounds, qualifications, reactions to  the place of proof in the National Curriculum, and the approaches they adopted  to proof and the proving process in the classroom.", 
  "They were also asked to esti-  mate the percentage of their class that would be entered for the GCSE higher  tier2 and to provide the Key Stage 3 (KS3) test scores3 of all the students who  had completed the proof questionnaire.", 
  "These  teachers were  also  asked to  complete all the multiple-choice questions in the proof questionnaire, but with  a small change in the best-mark criterion.", 
  "They (like the students) were asked  to give their own choices of proof but also the proofs that they thought their  students would believe would receive the best mark.", 
  "2  The General Certificate of  Education (GCSE) is  the public examination taken by students in  England and Wales at the end of their compulsory schooling (age 16 years).", 
  "Students are entered for  one of three levels in the examination-foundation, middle, or higher.", 
  "Although there is overlap in the  grades obtainable from taking the examinations in the different tiers, there are ceiling grades for the  lower tier examinations.", 
  "3 Key Stage 3 tests are national tests administered in the summer term to all Year 9 students (age 13-14  years).", 
  "The scores are organized into Levels 1 to 8.", 
  "At Key Stage 3, about 20% of students achieve each  of Levels 5 and 6, 10% Level 7, and 2% Level 8.", 
  "Lulu Healy and Celia Hoyles  \n\nWe returned to a sample of schools to interview these teachers as well as a subset  of their students (the details of how the samples were chosen are given in the next  section).", 
  "Our aim in the teacher interviews was to build a picture of the teachers'  views of proof and the ways they assessed their students.", 
  "We devised a semi-  structured interview schedule comprising some general questions on selection  and procedures for tracking in mathematics followed by questions specifically about  proof: on what they thought should be the focus of the teaching of proofs and how  they went about teaching proof.", 
  "In each interview, we also asked the teachers about  responses of interest from their proof and school questionnaires, and, in particular,  we discussed differences between their predictions of arguments students believed  would receive the best mark and the actual response patterns of their students on  the best-mark question.", 
  "For the students, we designed a semistructured interview to probe the reasons  for their responses to the proof questionnaire.", 
  "We started with general questions  about their attitudes toward mathematics and their plans for future study in math-  ematics.", 
  "We then asked if they had encountered proof in their mathematics lessons  and, if so, where and how.", 
  "Before the interviews, we had selected some of the  students' interesting responses to the proof questionnaire, which we probed further  by asking the students why they had chosen a particular argument, why they had  made their assessment of the argument (as, for example, true for all cases), or why  they had gone about a proof in a particular way.", 
  "The two questionnaires were piloted with 182 high-attaining 14- and 15-year-  old students in 8 schools, and modifications were made on the basis of the responses.", 
  "These modifications included some small changes to the wording of a few of the  conjectures and arguments and a tighter specification of administration procedures  of the proof survey.", 
  "The survey, which was to be completed in 70 minutes, was  administered to 2,459 students from 94 classes in 90  schools; the mathematics  teachers of the 94 classes completed the proof questionnaire and school question-  naire.", 
  "A person employed by the research team for this task oversaw the adminis-  tration of the survey.", 
  "The schools were spread across England and Wales, 29 in  urban, 25 in rural, and 36 in suburban settings.", 
  "The sample of 2,459 students was  made up of 1,305 girls and 1,154 boys, 14-15 years of age (Year 10 or U.S. Grade  9), with a mean Key Stage 3 score of 6.56.4 Thus these students were of higher than  average ability, and because the survey was administered toward the end of the  school year, they would all have been exposed to the algebra curriculum described  earlier.", 
  "The arguments chosen, the written descriptions given in the proof questionnaire,  and the information provided in the school questionnaire were coded and the proof  \n4 The distribution of scores according to National Curriculum Levels was 1 Level 4,  133 Level 5,  \n920 Level 6, 1109 Level 7, 162 Level 8, and 133 unknown.", 
  "Proof Conceptions in Algebra  \nconstructions scored.", 
  "Descriptive statistics based on frequency tables, simple  correlations, and tests of  significance were produced, and we built multilevel  models of the factors associated with student responses (see Goldstein, 1995).", 
  "This  multilevel analysis had a two-level structure with student variables at Level 1 and  class, teacher, school, and curriculum variables at Level 2.", 
  "Following this analysis,  we attempted to contextualize the statistical correlates identified in the quantita-  tive analyses through data from the teacher and student interviews.", 
  "To obtain the  sample for interviews, we first chose some interesting schools, that is, schools with  unusual characteristics, and then, within those schools, some students who either  had responded following the general response pattern for that school or had given  some intriguing answers.", 
  "To find the interesting schools, we used our multilevel  analysis to identify schools that performed particularly well.", 
  "In these outlier  schools, the students' scores were better than the scores predicted statistically after  all the variables found to affect performance had been taken into account.", 
  "Schools  were also interesting in other ways; some had students who were good at formal  proof or particularly expert at algebra.", 
  "By looking at the multilevel data school by  school and by carefully going through all the survey responses for those schools  that looked interesting, we selected an initial sample of 22 schools.", 
  "For practical  reasons, this sample was honed to 10 schools that we revisited to conduct the teacher  and student interviews.", 
  "RESULTS WITH DISCUSSION  \nChoices in the Multiple-Choice Questions  \nFirst, we present in Table 1 the distributions of students' and teachers' choices  \nin the multiple-choice questions Al  and A6 (see Figures 1 and 2).", 
  "Distribution of Students' and Teachers' Choices of Proofs for Al, Familiar Conjecture,  and for A6, Unfamiliar Conjecture  \nPercentages of students  Own approach Best mark  Own approach Best mark  \nPercentages of teachers  \nN = 2450  \nN = 2423  \nArgument  \nArgument chosen for Al  Duncan (narrative)  Bonnie (empirical)  Ceri (narrative)  Yvonne (visual)  Arthur (algebraic)  Eric (algebraic)  Kate (narrative)  Leon (empirical)  Nisha (algebraic)  Maria (algebraic)  \nArgument chosen for A6  \nNote.", 
  "Yvonne's response was not given to the teachers.", 
  "N = 2381  \nN = 2348  \n\fLulu Healy and Celia Hoyles  \n\nClearly there was marked variation between the choices students made for their  own approaches and for best mark.", 
  "The differences between these distributions were  highly significant for both questions (Al: X2 = 1741.5, df= 5, p < .0001; A6: X2 =  1891.2, df = 3, p < .0001).", 
  "In fact, the arguments that were the most popular for  the students' own approaches turned out to be the least popular when it came to  choosing for best mark, and vice versa: In answer to Al,  Duncan's and Bonnie's  arguments were popular for one's own approach but not for best mark, whereas  the reverse was true for Eric's algebraic (but incorrect) attempt and, to a lesser  extent, for Arthur' s proof.", 
  "The differences between the teachers' own choices  and those the teachers  predicted the students would select for best mark were also significant (Al: :2  =  12.3, df=  4, p < .05; A6: X2 =  16.3, df=  3, p < .01), although in both questions,  the most popular among the teachers' choices for their own approaches (Arthur's  correct algebraic approach for Al  and Kate's more narrative presentation for A6)  were also the most frequently selected by the teachers as the argument that they  believed their students would choose for best mark.", 
  "Both sets of data indicate that  students judged that their teachers would reward any argument provided it contained  some \"algebra\" whereas teachers presumed that the logic of the argument would  also be important.", 
  "Teachers thus appeared to overestimate the extent to which their  students would make judgments that were based on mathematical content rather  than simply on form.", 
  "Students' Constructed Proof Scores  \nAfter scoring all the students' proofs (see Figure 5), we compared the distribu-  tion of the scores with the distribution of choices of correct proofs in the multiple-  choice questions.", 
  "Comparison of the total number of students who selected an argu-  ment representing what we deemed to be a correct proof with the total number of  students who constructed either a partial or complete proof showed that students  were  significantly  better at choosing  correct mathematical proofs  than at  constructing them (X2 = 1088.77, df=  1, p < .0001).", 
  "In fact, students were rather  poor at constructing proofs, as shown in Table 2, which presents the distributions  and means of students' scores for the proofs to the familiar and unfamiliar conjec-  tures A4 and A7.", 
  "Not surprisingly, students constructed better arguments for the familiar conjec-  ture than for the unfamiliar one, with 40% using some deductive reasoning in the  former case (22% completely correct together with 18% partial proofs).", 
  "For the less  familiar and more complex statement, more than a third of the student sample could  not give any basis for a proof, and only 3% managed to produce a complete proof.", 
  "Clearly, constructing a proof was difficult for the students.", 
  "To obtain more  insight into what students believed a proof should look like, we  analyzed the  major forms in which their arguments were presented.", 
  "Our analysis of student  choices of argument had pointed to their preferences for empirical, narrative, and  formal (algebraic) proofs, the first two for a student's own approach and the last  \n\nProof Conceptions in Algebra  \nDistribution and Mean of Students' Scores for Each Constructed Proof  \nConstructed proof score  \n0 No basis for the construction of a correct  \n\n1 No deductions but relevant information  presented  2 Partial proof, including all information  needed but some reasoning omitted  3 Complete proof  aM =  1.47;  SD =  0.988.  bM =  0.778;  SD  = 0.708.", 
  "Familiar  \nUnfamiliar  conjecture (A4)a  conjecture (A7)b  \nfor best mark.", 
  "We therefore focused on the distribution of these major forms of argu-  ment among the students' own productions, as shown in Table 3.", 
  "(Other interesting  types of informal argumentation that students used in response to the familiar A4  but not to the unfamiliar A7 do not appear in this classification.", 
  "We have briefly  noted them under Table 3.)", 
  "Distribution of Forms of Presentation for Constructed Proofs  \nForm of proof  \nFamiliar  \nconjecture (A4)  \nUnfamiliar  conjecture (A7)  \nEmpirical  Narrative  Formal (algebraic)  a8% of the responses for A4 were attempts at visual proofs, and 15% were attempts to produce an exhaus-  tive proof by examples referring to the units digit.", 
  "These types of proof did not appear in responses  \nTable 3 shows that although producing empirical examples was the most popular  form of argument used by the students, if they did try to go beyond this pragmatic  approach, students were more likely to give arguments expressed informally in a  narrative style than to use algebra formally.", 
  "As shown in Table 4, these narrative  proofs clearly were more likely than the algebraic attempts to be correct.", 
  "In the following three sections we discuss in more detail the three dominant forms  of  argument used by the students-empirical, algebraic, and narrative.", 
  "We will  \n\fLulu Healy and Celia Hoyles  \nDistribution of Scores for Proofs in Narrative and Formal Modes  \nNarrative  \nFamiliar conjecture, A4  \nUnfamiliar conjecture, A7  \nconsider students' reactions to and use of these different types of argument and contex-  tualize the quantitative data with extracts from the interviews when appropriate.", 
  "Empirical Arguments  \nEmpirical arguments dominated responses in this study-a  finding not surprising  in light of previous research (most recently in the United Kingdom by Coe &  Ruthven, 1994) although disappointing given the age and attainment level of the  students in the sample.", 
  "However, the students' use of examples in their constructed  proofs was interesting, because this presentation was clearly influenced by the activ-  ities specified in the Using and Applying attainment target (AT1) of the National  Curriculum.", 
  "As mentioned earlier, it is in this attainment target in activities known  as investigations that students are most likely to encounter reasoning and proof-sepa-  rated from the content of algebra or geometry.", 
  "In investigations, real data must be  collected and tabulated; then a pattern is to be spotted and, if possible, explained and  proved.", 
  "In students' proofs of the conjectures presented in A4 and A7, we frequently  found evidence of the transposition of this investigations approach (of producing  evidence, finding patterns, and making checks) from the applied problem-solving  context in which it had been learned to the production of empirical proofs in the  number-theoretic context.5 Typical examples are shown in Figures 6 and 7.", 
  "Responses to other questions in the proof questionnaire provided some insight  into how the students assessed their empirical arguments.", 
  "First, empirical evidence  was not judged in the same way as the other arguments presented in the multiple-  choice questions.", 
  "Only a tiny minority of students chose an argument consisting  \n5 This phenomenon was also evident in the student responses to the geometry questions (see Hoyles  \n& Healy, 1999).", 
  "My answer  \nProof Conceptions in Algebra  \nadd 1 (a)  \nadd 2 (b)  \na + b (c)  \nI noticed all the sums will be an even number  \na = 35, b = 73  \n35  + 73  = 108  \n108 is also even so it is true.", 
  "Figure 6.", 
  "An empirical argument for the proof of the familiar conjecture A4 (typed from  \noriginal student work).", 
  "(p + q)x(p-q)  = multiple of 4  I would substitute a range of numbers into p and q and divide by 4 and  see if it is a multiple of 4.", 
  "(p -  q)  \nmultiple  \n\nFigure 7.", 
  "An empirical argument for the proof of the unfamiliar conjecture A7 (typed from  \noriginal student work).", 
  "entirely of examples as one that would receive the best mark (3% in Al,  2% in A6;  see Tables 1 and 2), although many chose such an argument as being nearest their  own approach (24% in Al  and 39% in A6; see Tables 1 and 2).", 
  "This result suggests  that most students were aware that empirical arguments had limitations; they knew  more was expected of them.", 
  "Lulu Healy and Celia Hoyles  \n\nThis interpretation is given some support by our analysis of the validity ratings of  the empirical arguments presented in the multiple-choice questions, that is, whether  or not students thought arguments had mistakes and whether students believed argu-  ments held for all or only some cases.", 
  "The first part of Table 5 shows the validity  ratings of the empirical arguments, Bonnie's in A I and Leon's in A6.", 
  "These data indi-  cate that although around one third of students (37% and 28% for Bonnie's and Leon's  arguments, respectively) had no idea of the validity of these empirical arguments,  more than half gave completely correct evaluations (54% and 60%); that is, they knew  that these arguments had been proved to be true only in a subset of cases.", 
  "Validity Ratings and Explanatory Power of Empirical, Algebraic,  and Narrative Arguments, in Percentages  \nArgument type  Empirical arguments  \nAlgebraic arguments  \nBonnie's (Al)  Leon's (A6)  Arthur's (Al, correct)  Eric's (Al, incorrect)  Duncan's (Al)  (most popular choice of Al)  \nNarrative argument  \nValidity ratings  \n\nExplanatory power  \nNote.", 
  "N = 2459 for each argument.", 
  "There are three evaluations of the validity of each argument  (mistake, always true, sometimes true): 2 = correct evaluation, 1 = partially correct evaluation, 0 =  incorrect.", 
  "There are two evaluations of explanatory power (shows you why, explains to someone in  your class): 2 = explains private and public, 1 = explains private or public, 0 = does not explain.", 
  "Even among those students who had made incorrect evaluations of the empir-  ical argument in Al,  many suggested in their interviews that they had made this  response as a result of having \"looked through\" the particular cases to the gener-  ality because the truth of the conjecture was so obvious.", 
  "This finding is illustrated  in the following interview extract in which a student justified her choice of Bonnie's  argument essentially by saying, \"I know it is true.\"", 
  "If you look at Bonnie's [argument],... you said it doesn't have a mistake in it, but you  said it does show it's always true, and it's not just for some even numbers; you said,  \"It's always true and not just for some.\"", 
  "Could you justify why you said that and show  it's always true?", 
  "T:  Why does it show it's always true?", 
  "Because when you're adding two even numbers,  it [pointing to the units] will always give that number, so even if you had say 10 added  to it, it would still give that [pointing to the units]; you'd still be adding these as well,  so you'd still end up with that on the end [pointing to the units].", 
  "I:  Oh, you're looking at just the units column, so if you start adding all the others, other  \ndigits on the end, it wouldn't make any difference?", 
  "T:  No, before them [to the left of the units place], it wouldn't make any difference.", 
  "Proof Conceptions in Algebra  \nIn A6,  although the majority of  students (rather more than was the case for  Bonnie's argument) realized that Leon's empirical argument held only for specific  cases, it was also the case that more students chose Leon's than Bonnie's for their  own approach.", 
  "Some students clarified in their interviews that they had selected  Leon's argument not because it was a \"good proof' but because they were aware  that they were unable to construct anything better.", 
  "We in fact tested to see if the distri-  bution of empirical choices was the same as the distribution of empirical construc-  tions and found significant differences ( X2 = 246.73, df= 1, p < .0001).", 
  "These differ-  ences  not only showed that students were more likely to construct empirical  arguments than to choose them but also supported the suggestion that they were the  best arguments available to the students, and not necessarily that they were satis-  fied with them as proofs.", 
  "A student who would have preferred an argument with  more reasoning and more explanation than Leon's made this point in an interview:  I:  Now here you say that Leon's only shows the statement is true for some numbers, but  \nyou say that's closest to what you would do.", 
  "S:  What did I ...?", 
  "Of course I was being honest....", 
  "I mean I would like to find reasoning,  but the answer I would give instinctively would be well ...  examples.", 
  "But I think  reasoning you get more marks for.", 
  "I:  And do you think that that [Leon's argument] is a proof?", 
  "S:  No,... well,... it looks as if it is right, but it is not finished because it doesn't tell you  \n\nTaken together, the data indicate that students were more likely to assess empir-  ical arguments as general-to  believe them to be proofs-if  they were already  convinced of the truth of the statement and so intuitively could extend the argu-  ment for themselves.", 
  "When using this strategy was not possible, as in response to  Question A6, they assessed the limitations of the empirical argument correctly but  were honest enough to realize that they would produce something similar.", 
  "Turning to other ways students assessed empirical arguments, we analyzed the  explanatory powers they had awarded these arguments, also shown in Table 5.", 
  "These data indicate that fewer than one third of the students (24% for Bonnie's argu-  ment, 28% for Leon's) felt that empirical argument had no explanatory value at  all.", 
  "This result again indicates sensitivity to the role of  examples in proofs:  Examples provide an immediate entry into what the conjecture is about and help  to convince oneself or another of its truth.", 
  "Formal, Algebraic Arguments  \nTable 1 showed that arguments that included algebra were clear favorites among  the students (Arthur's and Eric's for Al,  Nisha's and Maria's for A6) when they  made a choice for best mark; algebraic arguments were chosen by 63% of students  for Al  and 79% for A6.", 
  "Clearly many students had not checked the logic of the  arguments they had chosen for best mark but instead were swayed by the presence  of  the algebraic form.", 
  "Our interviews indicate that students may have chosen  Eric's argument simply because it was \"hard\" to follow.", 
  "Lulu Healy and Celia Hoyles  \nSo you chose Duncan's for you but Eric's for what you thought would get the best  answer.", 
  "Why did you think Eric would get the best answer?", 
  "E:  Because I didn't completely understand what he was going on about, lots of xs and ys.", 
  "I:  Eric?", 
  "E:  Yes.", 
  "And it's what Miss G likes because she likes complicated things and would prob-  \nably give it the best mark.", 
  "I:  Right.", 
  "But this one you chose for yourself because you did understand that one?", 
  "E:  Yes, because I understood it.", 
  "I:  That's interesting.", 
  "In fact, you thought that Eric's was wrong; you said you didn't know  if it's got a mistake in it and you thought Arthur's one is right,... but this [Eric's] would  get the best mark because it's kind of got x and y in?", 
  "E:  Yes.", 
  "I understood Arthur's one, but Eric's was more, looked more mathematical; it's  \ngot more to it.", 
  "Recall  that teachers tended to choose  Arthur's argument for their own  approach  and for the choice  of their students for best mark (see  Table  1).", 
  "In the interviews,  many teachers explained this latter choice  by saying that it was more important that  the argument was  clear and uncomplicated  than that it included  any algebra.", 
  "For  example,  in the interview  extract below  a teacher describes  this type of motivation  as underlying  her choices:  I:  You said Arthur's here would be your choice for this one [A l], the best mark, and for  \nthis one [A6], Kate's.", 
  "A:  Well I would say that, I would say that [Arthur's argument] because to me that proves  it unequivocally that that's the answer.", 
  "I think it's because that's straightaway more  obvious....", 
  "But I think you don't always have to go for formal; I think you go for the  one that's most obvious ...  when you're trying to explain something.", 
  "When it comes  to this one [A6], to start with I would explain it like that [Kate's argument].", 
  "I think I  perhaps thought, \"Well, you're going to get confused really quickly,\" and certainly  the students might not be happy with this one  [Nisha's].", 
  "So I think I may have  discounted from that point of view, and I also felt that you'd get bogged down in that  [Nisha's argument].", 
  "It's very complicated, isn't it?", 
  "Well it isn't when you read through  it, but it looks like it's going to be awful.", 
  "Although  arguments that included algebra were the most popular among students  for  best  mark,  our  results  show  that  students  knew  that they  would  be  highly  unlikely  to base  their own  arguments on  similar algebraic  constructions.", 
  "In both  multiple-choice  questions  (Al  and A6),  the  algebraic  arguments  were  the  least  frequently  selected  as the closest  to the approach students would  use,  and algebra  was  used  rarely as the language  through which  students  attempted to write their  own  proofs  (11% for A4,  3% in A7;  see  Table  3).", 
  "When  students did give  alge-  braic arguments,  frequently  the arguments  scored  0 (30% in A4,  40% in A7;  see  Table 4) because,  for example,  the student simply  seemed  to sprinkle letters about  in a nonsensical  way,  as illustrated in Figure 8.", 
  "As Table 4 also  shows,  of those  students who did use a formal approach for A4,  65% included  no deductions  or reasoning  (30% scored 0, 35% scored  1).", 
  "Only  52  students (or 2% of the whole  sample)  who  scored 2 in proving A4  used algebra to  capture the structure of odd numbers with letters, and even fewer (47 students) went  beyond  this  stage  to manipulate  the algebra and prove  the statement (scoring  3).", 
  "Proof Conceptions in Algebra  \n3a + 3b = 6(a + b)  (3 x 3) + (3 x 9) = 36  5a + 5b = 10(a + b)  93a  + 57b  = 140(a + b)  An even number of odd numbers make an even answer but an odd number of  odd numbers makes an odd answer:  93a  +  7b  \n+  13c  +  101d  \n=  40(a+b+c+d)  \nEven  Odd  \nEven  Odd  \n=  153(a+b+c+d+e)  \n=  27(a+b+c)  \nEven  Odd  \n=  16(a+b)  \nFigure 8.", 
  "A \"nonsense\" argument, with letters masquerading as algebra, to prove familiar  \nconjecture A4 (typed from original student work).", 
  "In the unfamiliar question, these percentages dropped even further.", 
  "Only 3% of  students (82) chose to use algebra at all, and of these, only 5% (4 students) gave  what we assessed as a complete proof (see Table 4).", 
  "Again, the majority (85%) of  those attempting a formal argument engaged in no reasoning or deduction.", 
  "Clearly  our students have difficulty presenting arguments algebraically.", 
  "To find out if reasons other than fluency explained students' reluctance to incor-  porate algebra into their constructions, even for a familiar conjecture (Al),  we  turned to their evaluations of the validity and explanatory power of the two alge-  braic arguments in Al,  shown in Table 5.", 
  "First, the VR rating for the arguments  were on average lower than for any other argument, suggesting that students had  difficulty deciding whether the arguments were correct and if the letters meant the  argument was always true or only sometimes true.", 
  "Students' difficulty in identi-  fying errors was noticeable: For Eric's answer, 69% failed to identify any mistake,  and only 40% of students could correctly evaluate Arthur's argument.", 
  "Regarding explanatory power, arguments that incorporated algebra were most  likely to be viewed neither as showing why the given statement was true nor as  representing an easy way to explain to someone who was unsure.", 
  "This result is illus-  trated in the VR and EP scores for Arthur's and Eric's answers (see Table 5); 56%  of students found nothing convincing in Arthur' s argument, and (not surprisingly)  64% were unconvinced by Eric's.", 
  "Similarly few students felt that these arguments  both communicated and illuminated the mathematics involved (EP of  2  was  awarded by only 11% of students to Arthur's answer and by 3% to Eric's).", 
  "Lulu Healy and Celia Hoyles  \n\nThese evaluations suggest that students were put off from using algebra because  it offered them little in the way of explanation; they were uncomfortable with alge-  braic arguments and found them hard to follow.", 
  "These factors did not however seem  to deter them from thinking that their teachers would give these arguments the best  mark-an  interesting insight into how the teacher' s preferences as shown in their  choices are transferred to students despite the limited emphasis on algebra in the  curriculum.", 
  "These interpretations are given support in the student interviews, as  illustrated below:  I:  Could you elaborate on your evaluation of Eric's argument?", 
  "A:  I think if someone was unsure of why it worked in the first place, then going into algebra  about it just wouldn't help them; it would just confuse them ... whereas this [refer-  ring to numbers], you can say ... this is what happened, and you are using numbers,  which are easier to deal with, whereas lots of people find algebra confusing....", 
  "If they  didn't understand it anyway, then they might have a problem as well with the algebra;  they might not understand that.", 
  "I'd start with the simplest way of looking at it.", 
  "I mean,  it depends; sometimes algebra might be an easier way to explain, because the numbers  just bog you down; there's too many of them,... but in this case algebra would just be  complicating it.", 
  "Narrative Arguments  \nArguments in which mathematical relationships and reasoning were described in  everyday narrative or in pictures were chosen by large numbers of students as closest  to their own approach: For Al,  Duncan' s, Ceri' s, and Yvonne' s answers collectively  accounted for 62% of the responses, and for A6, 41% selected Kate's narrative expo-  sition.", 
  "Such arguments were also more popular than formal ones when it came to  students' attempts to write proofs of their own (see Table 3).", 
  "Narrative arguments  accounted for 28% of students' proof constructions in A4 and 32% in A7, and for  both questions these presentations were in general associated with a higher incidence  of deductive reasoning than any other mode of presentation (see Table 5).", 
  "For  example, for Question A4, 42% of the narrative arguments were complete proofs  (see, e.g., Figure 9), and nearly two thirds of students who adopted this mode of argu-  mentation used some deductive reasoning (scored 2 or 3).", 
  "Even for the unfamiliar A7, 28% of the arguments presented in words contained  some deductive reasoning.", 
  "A rather typical example is given in Figure 10, which  illustrates a variety of representations \"glued together\" in an explanatory narrative.", 
  "Note that in the arguments presented in Figures 9 and 10, students also included  empirical examples alongside their narrative explanations.", 
  "These student proofs  seemed to follow a pattern: Examples are presented as evidence to convince and  are followed by a discussion, in words perhaps illustrated by pictures, of why the  statement is true.", 
  "This type of argument appeared to be firmly connected to the  mathematical structure of odd and even numbers and was clearly not the result of  students' simply following a routine given by the teacher.", 
  "For these students we  argue that empirical data convince whereas words and pictures, but not algebra,  explain.", 
  "Proof Conceptions in Algebra  \nan odd number = [an] even number + 1. e.g.", 
  "9 = 8 + 1  so when you add two odd numbers you are adding an even no.", 
  "+ an even  no.", 
  "+ 1 + 1, so you get an even number.", 
  "This is because it has already  been proved that an even number + an even number = an even number.", 
  "Therefore as an odd number = an even no.", 
  "+ 1, if you add two of them  together, you get an even number + 2, which is still an even number.", 
  "Figure 9.", 
  "A complete narrative proof of the familiar conjecture A4 (typed from original  \nstudent work).", 
  "(1 + 3) = 4  If p is odd and q is odd:  (p + q) = even  p -  q = even  \n(1 -  3) = [-]2  \n2 x 4 = 8  \nAn odd subtracted from another odd no.", 
  "leaves an even no.", 
  "even x even = multiple of 4.", 
  "Because each even no.", 
  "is a multiple of 2 when multiplied together  they must make a multiple of 4.", 
  "(p + q) x (p -  q) = multiple of 4  \nFigure 10.", 
  "A narrative proof of the unfamiliar conjecture A7 (typed from original student  \n\nWe find evidence to support this claim in student evaluations of the generality  and explanatory power of arguments presented in words.", 
  "The most popular choice  for the student's own approach in Al  (Duncan's argument) was given an explana-  tory power of 2 by 42% of students overall (see Table 5), and only 18% felt that  it neither explained why the conjecture is  true nor served as a good means to  communicate to someone who was unsure.", 
  "Students also found evaluating these  arguments easier than evaluating those that included algebra.", 
  "Duncan's answer  received the best validity rating, with 68% of  students achieving a maximum  \nStudents' Views of the Role and Generality of Proof  \nThe students' views of proof were evident in their choices of proofs, their eval-  uations of these choices, and in their own proofs-although students' constructions  were also influenced by their understanding of the mathematics involved.", 
  "We had  further evidence about their views of the generality of a proof though their responses  to Question A2.", 
  "Among our student sample, the majority of students (62%) were  \n\fLulu Healy and Celia Hoyles  \n\naware that no further work was necessary to check whether a proof held for a subset  of cases  if its generality  had already been proved.", 
  "In fact, this proportion might be even higher, inasmuch as our interview data show  that some of the students' reasons for saying that a new proof was necessary were unre-  lated to any lack of appreciation of the generality of a proof.", 
  "For example, one student  misunderstood the language  of  the question; another assumed  that a student must  always do something in school.", 
  "The former case is illustrated in the following  extract:  I:  Let me just look at this next question, which is A2.", 
  "Remember that we've shown that  when you add two even numbers, the number [sum] is always even....  And you said  the following [Zach needs to construct a new proof]: Do you think you could tell me  why you chose (B) (reference to Figure 4) and why you think you need to construct a  new proof and what you would do?", 
  "I think you have to construct a new proof because in the former question you proved  that when you add two even numbers the answer is even, but if you're squaring them,  then you're multiplying them together, yeah, multiplying them by themselves, and you  haven't shown that if you multiply two even numbers the answer is even.", 
  "In contrast, Susie's  response  revealed  a conviction  that proof  is not general.", 
  "In  her view  of  proof,  the  conjecture  has  to  be  tested  with  the  particular examples  suggested,  that is with even  numbers that are square:  I:  Could you [say] ...  why you need a new proof?", 
  "Why does Zach need a new proof?", 
  "S:  Yes, I think you need to use some examples because you just write out a statement....", 
  "He needs to write out some examples and then to make it more clear.", 
  "I:  Right, so what sort of examples would you have to do?", 
  "S:  Like 2 times 2 and the whole squared.", 
  "It is 4 squared equals 16, so this [4 plus 16] is  even, but it's not enough.", 
  "You need to prove at least more than three times and then  do more again.", 
  "If you think it is even, then you can use x and y to prove it again; x and  y can be the even number.", 
  "Susie's  response raises the central issue of students' views  of the purpose of proof  in  school  mathematics-verification,  explanation,  examples,  or ritual.", 
  "We  have  further evidence concerning students' views  of proof from their answers to the open-  ended survey question  asking them to describe proof and its purposes.", 
  "Responses  were  coded  into four categories;  the distribution  of the categories  used  is  shown  in Table 6.", 
  "Students' Descriptions of Proof and Its Purposes  Categories  \nView of proof and its purposes"
 ]
}