{
 "document_id": "18278042660887691408", 
 "sentences": [
  "Cambridge  University  Press 978-0-521-68896-3  -  Talking  Voices:  Repetition,  Dialogue,  and  Imagery  in  Conversational Discourse Deborah  Tannen Frontmatter More information \nTalking voices \nWritten  in  readable, vivid, non-technical  prose, this  book  presents  the highly respected scholarly research that forms the foundation for Deborah Tannen\u2019s best-selling books about the role of language in human relation- ships.", 
  "It  provides  a  clear  framework  for  understanding  how  ordinary conversation works to create meaning and establish relationships.", 
  "A sig- ni\ufb01cant  theoretical  and  methodological  contribution  to  both  linguistic and literary analysis, it uses transcripts of tape-recorded conversation to demonstrate that everyday conversation is made of features that are asso- ciated with literary discourse: repetition, dialogue, and details that create \nThis second edition features a new introduction in which the author shows  the  relationship  between  this  groundbreaking  work  and  the research that has appeared since its original publication in 1989.", 
  "In partic- ular, she shows its relevance to the contemporary topic \u201cintertextuality,\u201d and provides an invaluable summary of research on that topic.", 
  "\uf764 \uf765 \uf762 \uf76f \uf772\uf761 \uf768   \uf774\uf761 \uf76e \uf76e \uf765 \uf76e is University Professor and Professor of Linguistics at Georgetown University.", 
  "She has published 21 books and over 100 arti- cles  on  such  topics  as  doctor\u2013patient  communication, family  discourse, spoken  and  written  language, cross-cultural  communication, modern Greek  discourse, the  poetics  of everyday  conversation, the  relationship between conversational and literary discourse, gender and language, work- place interaction, agonism in public discourse, and family communication.", 
  "Her  most  recent  book, You\u2019re  Wearing  THAT?, analyzes  conversations between mothers and adult daughters.", 
  "\u00a9 Cambridge University Press \nwww.cambridge.org \n\fCambridge  University  Press 978-0-521-68896-3  -  Talking  Voices:  Repetition,  Dialogue,  and  Imagery  in  Conversational Discourse Deborah  Tannen Frontmatter More information \nStudies in Interactional Sociolinguistics \nPaul Drew, Marjorie Harness Goodwin, John J. Gumperz, Deborah Schiffrin \n1 Discourse strategies John J. Gumperz 2 Language and social identity edited by John J. Gumperz 3 The social construction of literacy Jenny Cook-Gumperz 4 Politeness: Some universals in language usage Penelope Brown and Stephen C. \n\n5 Discourse markers Deborah Schriffrin 6 Talking voices: Repetition, dialogue, and imagery in conversational discourse \nDeborah Tannen \n7 Conducting interaction: Patterns of behaviour in focused encounters Adam \n\n8 Talk at work: Interaction in institutional settings edited by Paul Drew and John \n\n9 Grammar in interaction: Adverbial clauses in American English conversations \nCelia E. Ford \n10 Crosstalk and culture in Sino-American communication Linda W. L. Young \nwith foreword by John J. Gumperz \n11 AIDS counselling: Institutional interaction and clinical practice Anssi Perakyla 12 Prosody in conversation: Interactional studies edited by Elizabeth Couper- \nKuhlen and Margret Selting \n13 Interaction and grammar edited by Elinor Ochs, Emanuel A. Schegloff, and \nSandra A. Thompson \n14 Credibility in court: Communicative practices in the Camorra trials Marco \nJacquemet \n15 Interaction and the development of mind A. J. Wootton 16 The news interview: Journalists and public \ufb01gures on the air Steven Clayman and \nJohn Heritage \n17 Gender and politeness Sara Mills 18 Laughter in interaction Philip Glenn 19 Matters of opinion: Talking about public issues Greg Myers 20 Communication in medical care: Interaction between primary care physicians and \npatients edited by John Heritage and Douglas Maynard \n21 In other words: Variation in reference and narrative Deborah Schiffrin 22 Language in late modernity: Interaction in an urban school Ben Rampton 23 Discourse and identity edited by Anna De Fina, Deborah Schiffrin, and \nMichael Bamberg \n24 Reporting Talk: Reported speech in interaction edited by Elizabeth Holt and \nRebecca Clift \n25 Talking Voices Second Edition by Deborah Tannen \n\u00a9 Cambridge University Press \nwww.cambridge.org \n\fCambridge  University  Press 978-0-521-68896-3  -  Talking  Voices:  Repetition,  Dialogue,  and  Imagery  in  Conversational Discourse Deborah  Tannen Frontmatter More information \nTalking voices Repetition, dialogue, and imagery in conversational discourse \nDEBORAH TANNEN Department of Linguistics Georgetown University \n\u00a9 Cambridge University Press \nwww.cambridge.org \n\fCambridge  University  Press 978-0-521-68896-3  -  Talking  Voices:  Repetition,  Dialogue,  and  Imagery  in  Conversational Discourse Deborah  Tannen Frontmatter More information \n\uf763\uf761\uf76d\uf762\uf772\uf769\uf764 \uf767\uf765 \uf775\uf76e\uf769\uf776\uf765\uf772\uf773\uf769\uf774\uf779 \uf770\uf772\uf765\uf773\uf773 Cambridge, New York, Melbourne, Madrid, Cape Town, Singapore, S\u00e3o Paulo \n\uf763 \uf761 \uf76d \uf762 \uf772 \uf769 \uf764 \uf767 \uf765  \uf775 \uf76e \uf769 \uf776 \uf765 \uf772 \uf773 \uf769 \uf774\uf779  \uf770 \uf772 \uf765 \uf773 \uf773 The Edinburgh Building, Cambridge CB2 8RU, UK \nPublished in the United States of America by Cambridge University Press, \nwww.cambridge.org Information on this title www.cambridge.org/9780521868907 \n\u00a9 Deborah Tannen 2007 \nThis publication is in copyright.", 
  "Subject to statutory exception and to the provisions of relevant collective licensing agreements, no reproduction of any part may take place without  the written permission of Cambridge University Press.", 
  "First published 1989 Reprinted 1991, 1992, 1994, 1996, 1999 Second edition 2007 \nPrinted in the United Kingdom at the University Press, Cambridge \nA catalogue record for this book is available from the British Library \nISBN 978-0-521-68896-3 hardback ISBN 978-0-521-86890-7 paperback \nCambridge University Press has no responsibility for the persistence or accuracy of URLs for external or third-party internet websites referred to in this book, and does not guarantee that any content on such websites is, or will remain, accurate or appropriate.", 
  "\u00a9 Cambridge University Press \nwww.cambridge.org \n\fCambridge  University  Press 978-0-521-68896-3  -  Talking  Voices:  Repetition,  Dialogue,  and  Imagery  in  Conversational Discourse Deborah  Tannen Frontmatter More information \nFor Michael  now and from now on \n\u00a9 Cambridge University Press \nwww.cambridge.org \n\fCambridge  University  Press 978-0-521-68896-3  -  Talking  Voices:  Repetition,  Dialogue,  and  Imagery  in  Conversational Discourse Deborah  Tannen Frontmatter More information \n\nAcknowledgments \n1 Introduction to \ufb01rst edition \nOverview of chapters Discourse analysis \nIntroduction to second edition \nIntertextuality Intertextuality and repetition Intertextuality in interaction: creating identity Intertextuality and power Repetition as intertextuality in discourse Constructed dialogue Repetition and dialogue in interactional discourse Ventriloquizing \n2 Involvement in discourse \nInvolvement Sound and sense in discourse Involvement strategies Scenes and music in creating involvement \n3 Repetition in conversation: toward a poetics of talk \nTheoretical implications of repetition Repetition in discourse Functions of repetition in conversation Repetition and variation in conversation Examples of functions of repetition The range of repetition in a segment of conversation Individual and cultural di\ufb00erences Other genres The automaticity of repetition The drive to imitate Conclusion \n4 \u201cOh talking voice that is so sweet\u201d: \nconstructing dialogue in conversation \nReported speech and dialogue \n\u00a9 Cambridge University Press \nwww.cambridge.org \n\fCambridge  University  Press 978-0-521-68896-3  -  Talking  Voices:  Repetition,  Dialogue,  and  Imagery  in  Conversational Discourse Deborah  Tannen Frontmatter More information \nDialogue in storytelling Reported criticism in conversation Reported speech is constructed dialogue Constructed dialogue in a conversational narrative Modern Greek stories Brazilian narrative Dialogue in writers\u2019 conversation Conclusion \n5 Imagining worlds: imagery and detail in  \nconversation and other genres \nThe role of details and images in creating involvement Details in conversation Images and details in narrative Nonnarrative or quasinarrative conversational discourse Rapport through telling details The intimacy of details Spoken literary discourse Written discourse High-involvement writing When details don\u2019t work or work for ill Conclusion \n6 Involvement strategies in consort: \nliterary non\ufb01ction and political oratory \nThinking with feeling Literary non\ufb01ction Speaking and writing with involvement Involvement in political oratory Conclusion \n7 Afterword: toward a humanistic linguistics \nAppendix I: Sources of examples \nAppendix II: Transcription conventions \n\nList of references \nAuthor index \nSubject index \n\u00a9 Cambridge University Press \nwww.cambridge.org \n\fCambridge  University  Press 978-0-521-68896-3  -  Talking  Voices:  Repetition,  Dialogue,  and  Imagery  in  Conversational Discourse Deborah  Tannen Frontmatter More information \nAcknowledgments \nTo  A. L. Becker  and  Paul  Friedrich  I  owe  an  immense  debt.", 
  "They  read and commented on many drafts as this work changed shape, and they and Ed Finegan read and commented on the entire pre-\ufb01nal manuscript.", 
  "David Bleich, Wallace  Chafe, Ralph  Fasold, Barbara  Johnstone, Michael Macovski, and Deborah Schi\ufb00rin read and commented on drafts of parts.", 
  "This book is improved by all these gifts of time and attention, though it doubtless  includes  much  with  which  each  of these  colleagues  would  dis- \nI  am  grateful, now  as  always, to  my  teachers  at  the  University  of California, Berkeley: Wallace Chafe, John Gumperz, and Robin Lako\ufb00.", 
  "No \ufb01ner program, no richer environment for studying linguistics could I have been lucky enough to \ufb01nd.", 
  "I thank the friends and strangers who o\ufb00ered me their talk, letting me tape and analyze them.", 
  "(Their various discourses are named and explained, along with other sources of examples, in Appendix I.)", 
  "Some of those who have  been  helpful  in  other  ways  are  Diane  Hunter  Bickers, Nils  Erik Enkvist, Tom Fox, Hartmut Haberland, Paul Hopper, Christina Kakava, Fileni Kalou, X. J. Kennedy, Sharon March, John Ohala, Ilana Papele, Dan Read, Maria Spanos, and Jackie Tanner.", 
  "I have bene\ufb01ted from discussions of Bakhtin with Ray McDermott and Mirna Velc\u02c7ic\u00b4.", 
  "I  began  work  on  this  project  with  the  support  of a  Rockefeller Humanities Fellowship and continued and completed it with support from the National Endowment for the Humanities.", 
  "I remain deeply grateful for these invaluable periods of uninterrupted research time.", 
  "At the National Endowment for the Humanities, I owe special thanks to my unusually dedi- cated and able project o\ufb03cer, David Wise.", 
  "A signi\ufb01cant part of the writing was done while I was on sabbatical leave from Georgetown University and a Visiting  Researcher  at  Teachers  College, Columbia  University.", 
  "I  thank Georgetown  for  the  sabbatical  leave  and  Lambros  Comitas  and  the Teachers  College  Joint  Program  in  Applied  Anthropology  for  a\ufb03liation during that leave.", 
  "\u00a9 Cambridge University Press \nwww.cambridge.org \n\fCambridge  University  Press 978-0-521-68896-3  -  Talking  Voices:  Repetition,  Dialogue,  and  Imagery  in  Conversational Discourse Deborah  Tannen Frontmatter More information \n\nAcknowledgements \nThe author and publisher gratefully acknowledge permission to reproduce extracts from the following: \nStardust memories by Woody Allen.", 
  "\u00a9 1980, United Artists Corporation, all  rights  reserved.", 
  "Reprinted  by  permission  of the  author  and  United Artists Corporation.", 
  "Our own metaphor by Mary Catherine Bateson.", 
  "Reprinted by permission \nof the author.", 
  "\u201cAnimals and us\u201d by S. J. Gould.", 
  "Reprinted with permission from The \nNew York Review of Books.", 
  "Copyright \u00a9 1988 Nyrev, Inc.", 
  "Fly away home by Marge Piercy (Fawcett).", 
  "Reprinted by permission of \nSimon and Schuster.", 
  "The birthday party by Harold Pinter.", 
  "Copyright \u00a9 1959, 1987 by Harold Pinter.", 
  "Used by permission of Methuen, London, and Grove Press, a divi- sion of Wheatland Corporation.", 
  "The journals of Sylvia Plath by Sylvia Plath.", 
  "Copyright \u00a9 1982 by Ted Hughes as Executor of the estate of Sylvia Plath.", 
  "Reprinted by permission of Doubleday, a division of Bantam, Doubleday, Dell Publishing Group, \nAwakenings (E. P. Dutton), The man who mistook his wife for a hat (Simon and Schuster), and \u2018Tics\u2019, The New York Review of Books, by Oliver Sacks.", 
  "Reprinted by permission of the author.", 
  "Household words by Joan Silber.", 
  "Copyright \u00a9 1976, 1980 by Joan Silber.", 
  "All rights reserved.", 
  "Reprinted by permission of Viking Penguin Inc. and the \nOne  writer\u2019s  beginnings by  Eudora  Welty.", 
  "Reprinted  by  permission  of \nHarvard University Press.", 
  "\u00a9 Cambridge University Press \nwww.cambridge.org"
 ]
}