{
 "document_id": "22d81a95fb9f480a98be20c1b5ac51ef", 
 "sentences": [
  "Development and  \nimplementation of  \nquality rating\u00a0and  improvement systems in  Midwest Region states  \n\nAnn-Marie Faria \nAriela Greenberg \nLaura Hawkinson \nIvan Metzger \nAmerican Institutes for Research  \nWhat\u2019s Happening \nThis  report  describes  common  and  unique  approaches  that  Regional  Educational  \n\nLaboratory (REL) Midwest Region states have adopted in developing and implementing  their quality rating and improvement systems (QRISs).", 
  "A QRIS is a method for assessing,  \n\nimproving,  and  communicating  the  quality  of  early  childhood  education  and  care  providers.", 
  "The study examined the ways that Race to the Top\u2013Early Learning Challenge  grants have shifted the QRIS landscape and how states have been influenced by the  \n\ngrant process in developing their QRISs, incorporating observations into their QRISs,  using alternate pathways to ratings, and incentivizing providers to participate in QRISs.", 
  "The report provides a knowledge-sharing outlet for states in the REL Midwest Region  \nand beyond that may inform potential QRIS revisions.", 
  "Why this study?", 
  "Recent federal and state policies, such as the Race to the Top\u2013Early Learning Challenge and the Pre\u00ad school for All initiative,1 recognize the benefits of high-quality early childhood education programs and  aim to improve the quality of such programs nationally.", 
  "The Race to the Top\u2013Early Learning Challenge  grants (awarded in 2011, 2012, and 2013) supported states in their efforts to improve program quality\u2014  \nincluding a requirement for states to launch, revise, or expand a quality rating and improvement system  (QRIS; box 1) that aligned with the grant\u2019s QRIS guidelines.", 
  "As a result, QRISs have expanded rapidly  across the country, with new or revised QRIS initiatives in states that received Race to the Top\u2013Early  Learning Challenge awards as well as those that applied for funding but did not receive a grant.", 
  "U .", 
  "S .", 
  "D e p a r t m e n t   o f   E d u c a t i o n \nAt American Institutes for Research  \n\fBox 1.", 
  "Key features of a quality rating and improvement system  \nA quality rating and improvement system (QRIS) is a method to assess, improve, and communicate the quality of  early childhood education and care providers (Mitchell, 2005).", 
  "QRISs have the following key features:  \u2022\t  Ratings typically range from 1 to 4 or from 1 to 5, with the highest number indicating the highest quality.", 
  "\u2022\t  A QRIS usually includes measures of quality that incorporate self-ratings and direct observations of quality.", 
  "\u2022\t  Most QRISs measure multiple aspects of early childhood education quality\u2014most commonly staff qualifica\u00ad \ntions, curriculum, environment, administration and management, and health and safety.", 
  "\u2022\t  Most QRISs are voluntary and are for licensed early childhood education providers that include center- and  \nhome-based care.", 
  "Although  49  states  implement  a  QRIS  in  some  form  (map  1),  each  QRIS  differs  in  its  approach  to  defin\u00ad ing, rating, supporting, and communicating quality.", 
  "Because of this variability, QRIS administrators in REL  \nMidwest Region states2 expressed an interest in sharing information about each state\u2019s approach to implement\u00ad \ning a QRIS as well as each state\u2019s challenges and successes in order to inform the development of their own  \nsystems.", 
  "For example, each state takes a different approach to incorporating direct observations of quality, using  alternate pathways, and incentivizing providers (QRIS Compendium, 2015).", 
  "QRIS administrators are interest\u00ad \ned in other states\u2019 strategies regarding direct observations because they are logistically challenging and costly  \nto administer, but they may provide information about the program environment and adult\u2013child interactions  \nthat may be difficult to capture through self-reported data or document reviews.", 
  "QRIS administrators are also  \ninterested in how other states have used alternate pathways, which provide automatic or accelerated rating  \nprocedures for programs that meet quality standards developed for accreditation or public preschool funding.", 
  "Alternate pathways can reduce the burden of QRIS participation for providers and administrators by reducing  \nthe need for additional data collection, but they may not represent quality in a way that is consistent with the  full rating process.", 
  "In addition, states with voluntary QRISs may need to offer incentives to encourage partici\u00ad \npation, such as tiered reimbursement rates for child care subsidies or financial bonuses for rating increases, and  QRIS administrators are interested in the strategies other states have used to incentivize participation.", 
  "This report summarizes REL Midwest Region states\u2019 key strategies used in developing and implementing  their QRISs as well as the lessons they learned in the process.", 
  "It is meant to be a resource for QRIS adminis\u00ad trators as states refine their QRISs.", 
  "The study team conducted interviews with REL Midwest Region state officials, such as directors or manag\u00ad ers of state QRISs, to answer four questions about developing and implementing a QRIS:  \n1.", 
  "How did the Race to the Top\u2013Early Learning Challenge process influence REL Midwest Region states\u2019  \ndevelopment and implementation of QRISs?", 
  "2.", 
  "How did REL Midwest Region states incorporate direct observations of quality into their QRISs?", 
  "3.", 
  "How did REL Midwest Region states incorporate alternate pathways to ratings within their QRISs?", 
  "4.", 
  "How did REL Midwest Region states financially incentivize providers to participate in their QRISs,  \nincluding the use of tiered subsidy reimbursement?", 
  "The report also provides details on how REL Midwest Region states are revising their QRISs and additional  resources to help states develop and refine their QRISs.", 
  "Box 2 summarizes the data and methods used to  conduct the study, and appendix A provides further detail.", 
  "Map 1.", 
  "Status of quality rating and improvement systems by jurisdiction, February 2015  \n\nNote: Status is as of February 2015; a state\u2019s status may have since changed.", 
  "a.", 
  "Indicates that QRIS is not statewide and is instead administered by counties or other local or regional agencies.", 
  "For example, in  Florida 14 of the 30 local early learning coalitions operate voluntary QRIS programs.", 
  "Source: Data provided by the QRIS National Learning Network and Build Initiative on the current status of QRIS and jurisdictions  (http://www.buildinitiative.org/TheIssues/EarlyLearning/QualityQRIS.aspx).", 
  "Box 2.", 
  "Data and methods  \nThe study team first reviewed relevant documents such as state quality rating and improvement system (QRIS)  websites, provider application templates, explanations of ratings structures, summary explanations of QRISs for  families, and published research reports studying QRISs in the seven Regional Educational Laboratory Midwest  Region states.", 
  "Study team members reviewed the documents to familiarize themselves with the details of each  state\u2019s QRIS to ask appropriate follow-up or probing questions during interviews in the next stage of the study.", 
  "The study team conducted a 90-minute semi-structured interview with representatives knowledgeable about  the  development  and  implementation  of  the  QRIS  in  each  state  (see  appendix  B  for  the  interview  protocol).", 
  "Seven interviews with eight respondents were conducted.", 
  "Respondents included staff from the state agency  that administers the QRIS, which varied by state.", 
  "The study team qualitatively analyzed data collected during the interviews by coding the data using qual\u00ad itative analysis software to identify topics and themes.", 
  "Study team members then examined both sources of  data across all seven states to find similarities and differences in how they approach QRIS development and  implementation.", 
  "What the study found  \nAll seven states in the REL Midwest Region have implemented a QRIS and\u2014consistent with trends across  the country\u2014vary in their approaches to quantifying high-quality early childhood education.", 
  "For example,  states have a different number of rating levels and use different approaches for calculating ratings.", 
  "Further\u00ad more, states began implementing their QRISs at different times.", 
  "Information about each state\u2019s QRIS can  be found on the states\u2019 websites (table\u00a01).", 
  "The process of applying for a Race to the Top\u2013Early Learning Challenge grant helped advance development of a quality  rating and improvement system, even in states that were not awarded funds, but capacity and funding to operate and  sustain the systems remain challenges  \nInterviewees reported that although the impetus for a QRIS varied by state, all REL Midwest Region states  benefited from the Race to the Top\u2013Early Learning Challenge grant process to build support for a statewide  QRIS\u2014even states that were not awarded a grant.", 
  "One state QRIS administrator said, \u201cI\u00a0can\u2019t empha\u00ad size enough how much of a catalyst the Early Learning Challenge grant was for all of this.", 
  "[Otherwise]  there would not have been political will to do this.\u201d The grant application process motivated REL Midwest  \nTable 1.", 
  "Information on each Regional Educational Laboratory Midwest Region state\u2019s quality  rating and improvement system  \nName of quality  rating and  improvement  \nExceleRate  \nYear implemented  2007 as Quality Counts,  2013 as ExceleRate  \nof rating  \nCircles of  Qualityb  \nCalculation  \napproach  for ratingsa  \nhttp://www.excelerateillinois.com  \nBuilding block  http://childcareindiana.org  \nhttp://dhs.iowa.gov/iqrs  \nIllinois  \n\nMichigan  \nPaths to QUALITY  2001  Iowa Quality  Rating System  Great Start to  \nMinnesota  Parent Aware  \n2005 initial development,  5  2009 pilot,  \n2012 statewide  2007 pilot,  \n2012 county,  \n2015 statewide  \nPoint (initially),  http://greatstarttoquality.org  hybrid (as of  \nhttp://parentaware.org  \n\nStep Up to Quality  2006  \nWisconsin  YoungStar  \nhttp://www.earlychildhoodohio.org/  sutq.php  http://dcf.wisconsin.gov/youngstar  \na.", 
  "The point approach assigns values to a variety of quality standards or domains (Zellman & Perlman, 2008), child care providers  earn points for meeting specific quality indicators, and quality ratings are based on minimum required points earned for any stan\u00ad dard or domain (Tout et al., 2010).", 
  "The building block approach uses sequential levels that can be reached only by meeting all the  criteria within a level and the levels preceding it (Tout et al., 2010).", 
  "The hybrid approach combines elements of both the building  block and point approaches.", 
  "b. Illinois uses four unique Circle of Quality designations or ratings.", 
  "The first Circle of Quality designation, Licensed Circle of  Quality, means that the provider meets state licensing standards for quality.", 
  "The second, Bronze Circle\u00a0of Quality, refers to the  qualifications of provider staff; teachers and administrators at such providers have completed ExceleRate Illinois trainings and  met staff qualifications and participate in continuous quality improvement.", 
  "Providers that receive the third rating, the Silver Circle  of Quality, either meet or exceed quality standards in learning environment and teaching quality, administrative standards, and  staff training and education and are actively engaged in continuous quality improvement.", 
  "Providers with the fourth rating, the Gold  Circle of Quality, meet or exceed the highest quality standards in the three areas and are actively engaged in continuous quality  improvement (ExceleRate Illinois, 2015).", 
  "Source: Authors\u2019 document review (see appendix A).", 
  "Region  states  to  plan  and  develop  a  new  QRIS,  revise  an  existing  QRIS,  or  expand  the  reach  of  their  current QRIS.", 
  "Minnesota and Ohio were awarded a Race to the Top\u2013Early Learning Challenge grant in 2011, Illinois and  Wisconsin were awarded a grant in 2012, and Michigan was awarded a grant in 2013 (table 2).", 
  "Indiana and  Iowa applied for a grant but were not awarded one.", 
  "According to interviewees, both applying for and being  awarded a grant shifted the landscape for QRIS implementation across states\u2014for example:  \n\u2022\t  Not being awarded a Race to the Top\u2013Early Learning Challenge grant in 2011 prompted Illinois  administrators to convene more stakeholders and experts to develop a stronger application for 2012.", 
  "Illinois was awarded a grant in 2012, which allowed the state to deepen its QRIS development and  revisions.", 
  "Quality Counts, developed in 2007, grew into the new QRIS ExceleRate Illinois, which  uses a unique Circle of Quality designation approach to rating early childhood education quality  (see http://www.excelerateillinois.com).", 
  "\u2022\t  Although  Michigan  was  not  awarded  a  Race  to  the  Top\u2013Early  Learning  Challenge  grant  until  2013, its previous applications generated the political support needed for the Michigan Department  of  Education\u2019s  Office  of  Great  Start  to  implement  its  comprehensive  plan  to  expand  the  QRIS  statewide in 2012.", 
  "\u2022\t  The Race to the Top\u2013Early Learning Challenge award provided Minnesota with the funding and  political will to implement the existing QRIS.", 
  "Previously, the QRIS had suffered from a lack of  state funding, requiring a public\u2013private partnership with the Minnesota Early Learning Founda\u00ad tion to support the pilot.", 
  "\u2022\t  In  Ohio  the  Race  to  the  Top\u2013Early  Learning  Challenge  grant  process  brought  together  state  agencies that oversee different birth-to-age-5 programs but that had rarely worked together.", 
  "Being  awarded  a  grant  generated  the  political  will  and  funding  needed  to  streamline  the  Step  Up  to  Quality system and the Integrated Monitoring Process and Continuous Improvement Tool into a  unified QRIS.", 
  "Although  the  Race  to  the  Top\u2013Early  Learning  Challenge  grants  eased  the  challenges  of  limited  state  budgets and contributed to improved QRISs, interviewees from all states reported limited capacity to carry  out the full scope of their QRISs.", 
  "States struggled to launch and sustain systems, collect sufficient obser\u00ad vational data to compute ratings for all providers, and implement quality improvement supports (such as  \nTable 2.", 
  "Race to the Top\u2013Early Learning Challenge applications and awards for the Regional  Educational Laboratory Midwest Region states  \nIllinois  Michigan  Minnesota  Wisconsin  \nYear or years of  \napplication  2011, 2012  \nYear grant  \nwas awarded  2012 (Phase 2)  \n\n2011, 2012, 2013  2011, 2012, 2013  \n\n2011, 2012  2011, 2012  \n\n2013 (Phase 3)  2011 (Phase 1)  2011 (Phase 1)  2012 (Phase 2)  \nYear grant  funds expire  \nGrant amount  $52,498,043  $51,737,456  $44,858,313  $69,993,362  $34,052,084  \nAmount allocated for quality  \nrating and improvement  \nsystem  specific activities  \n$46,163,852  $29,331,566  $25,338,689  $23,119,157  $13,961,354  \nna is not applicable because that state was not awarded a Race to the Top\u2013Early Learning Challenge grant.", 
  "Source: Authors\u2019 analysis of Race to the Top\u2013Early Learning Challenge applications from all seven Regional Educational Laboratory  Midwest Region states and U.S. Department of Education (2014).", 
  "technical assistance and staff trainings, scholarships to advance teacher credentials, and other related ini\u00ad tiatives).", 
  "Michigan lawmakers stopped initial funding from supplemental appropriations after the state was  awarded a Race to the Top\u2013Early Learning Challenge grant, financially straining QRIS delivery in the  \nRegional Educational Laboratory Midwest Region states have adopted a variety of approaches to strategically reduce  \nthe number of classrooms with direct observational assessments to balance the value of these data against its  logistical and financial costs  \nAll seven REL Midwest Region states use direct observations of quality in combination with self-report  measures to collect data on five broad dimensions of early childhood education quality: classroom environ\u00ad ment, staff qualifications, family and community engagement, instructional quality, and administration.", 
  "Typically, the self-report measures focus on structural quality, such as teacher credentials and staff ratios,  and the observations are used to measure process quality, such as instructional quality or teacher\u2013child  interactions.", 
  "Three states in the REL Midwest Region use the Environment Rating Scales\u2014Revised suite of assessments,  which includes the Early Childhood Environment Rating Scales (Harms, Clifford, & Cryer, 1998) for preK  classrooms  and  the  Infant/Toddler  Environment  Rating  Scales  for  classrooms  with  children  ages  3  and  younger.", 
  "States use the Environment Rating Scales\u2014Revised alone or in combination with the Classroom  Assessment Scoring System (Pianta, La Paro, & Hamre, 2008).", 
  "Michigan is the only state in the region  that uses the Preschool Program Quality Assessment (High/Scope Educational Research Foundation, 2003;  Jurkiewicz, 2003), and Indiana and Ohio each use their own state-developed observational assessment to  measure process quality.", 
  "The  costs  associated  with  conducting  observations  can  be  a  challenge  for  states  at  all  phases  of  QRIS  implementation.", 
  "In Illinois, Iowa, Michigan, Minnesota, and Wisconsin provider observations strained the  state budget and were logistically difficult for state agencies to complete.", 
  "States have started to identify  personnel and financial resources to support independent observations and have adopted strategies to over\u00ad come funding and staffing limitations (table 3).", 
  "For example, Iowa, Michigan, Minnesota, and Wisconsin  have decided to conduct observations only for providers seeking the highest QRIS ratings.", 
  "Another strategy is to limit the types of providers that receive ratings.", 
  "Minnesota reserves the Classroom  Assessment Scoring System for center-based preschool providers seeking a three- or four-star rating and  does not conduct observations for family- or home-based care to help reduce observational costs.", 
  "States  also sample classrooms within providers to reduce the number of observations conducted at each provider,  thereby decreasing the total cost of observations.", 
  "Indiana observes at least a third of a provider\u2019s class\u00ad rooms, whereas Ohio randomly selects half a provider\u2019s classrooms to observe.", 
  "To ensure that the rating is  representative of the entire provider, both Indiana and Ohio observe at least one classroom per age group.", 
  "The use of direct observational assessments, particularly the Classroom Assessment Scoring System, may  also create challenges for QRIS participation among providers.", 
  "Illinois and Indiana QRIS administrators  voiced this concern about the system\u2019s high thresholds, which providers in their states found difficult to  meet.", 
  "In Iowa there was concern that the observation requirement could discourage participation, since  providers that were already accredited or participating in the Iowa Quality Preschool Program standards  viewed the Environment Rating Scales\u2014Revised observations to be duplicative.", 
  "Despite  the  associated  logistical  and  financial  burdens,  state  agencies  have  expressed  a  commitment  to  \ncontinuing the use of standardized observational assessments.", 
  "Interviewees stated that the widespread use  \n\fTable 3.", 
  "Regional Educational Laboratory Midwest Region states\u2019 observational measures and  methods used to assess quality in their quality rating and improvement system  \nIllinois  \nObservational measure  \nof quality  Classroom Assessment Scoring  \nSystem, Environment Rating  \nScales\u2014Revised  \nProviders that  \nare eligible  Providers seeking a silver Circle  of Quality conduct self-assessed  \nobservations; providers seeking  \na gold Circle of Quality must be  validated by an outside assessor  \nApproach to selecting  classrooms for observations  Classroom Assessment Scoring System:  \nfor Chicago Public School\u2019s Preschool  for All program every classroom is rated,  and for Head Start programs a third of  classrooms at random  Environment Rating Scales\u2014Revised: a  third of classrooms, with at least one per  age group  \nProviders seeking a higher rating  A third of classrooms, with at least one per  \nage group  A third of classrooms, with at least one per  age group  One classroom per age group  \nA third of eligible classrooms  \nHalf of classrooms, with at least one per  age group  \nA third of classrooms for each age group  \nMichigan  \nMinnesota  \nIndiana Classroom Observation  \nEnvironment Rating Scales\u2014  \nPreschool Program Quality  \nAssessment (Form A)  Classroom Assessment Scoring  \n\nProviders seeking the highest  rating (level 5)  Providers seeking the highest  two ratings (level 4 or 5)  \nCenter-based preschool  providers seeking the highest  two ratings (three or four stars)  \n\nOhio Classroom Observation Tool\t  Providers seeking the highest  \nWisconsin  \nEnvironment Rating Scales\u2014  \nthree ratings (three, four, or five  Providers seeking the highest  rating (level 5)  \nSource: Authors\u2019 analysis based on a document review and transcripts from semi-structured interviews with quality rating and  improvement system stakeholders (see appendix A).", 
  "of direct observations has changed the definition of high-quality care by emphasizing the importance of  \nprocess quality in early childhood education settings.", 
  "One state QRIS administrator said, \u201cBy putting the  \n[Classroom Assessment Scoring System] in there\u2014by putting the focus on instructional support and curric\u00ad ulum and all that\u2014we\u2019re trying to push forward a real change in the field that\u2019s very new.", 
  "That is, the under\u00ad standing of \u2026 how much content in curriculum matters, how much intentional instruction matters.\u201d States  \nface the challenge of ensuring that their rating systems reflect a continuum of quality, given that the process  \nquality expected at higher QRIS levels differs fundamentally from expected structural quality (box\u00a03).", 
  "Box 3.", 
  "Process quality versus structural quality in early childhood education and quality rating and  improvement systems  \nResearchers have conceptualized early childhood education quality into two primary components: structural and  process quality (see Vandell & Wolfe, 2000, for a review of the literature).", 
  "\u2022\t  Structural quality includes the aspects of classrooms that can be regulated, such as class size, staff quali\u00ad \nfications, classroom materials, and teacher\u2013child ratios.", 
  "\u2022\t  Process  quality  includes  more  dynamic  aspects  of  the  classroom  that  involve  the  interactions  between  \npeople in the classroom, typically including teacher\u2013child or peer interactions.", 
  "While most quality rating and improvement systems (QRISs) measure both structural and process quality,  research suggests that process quality is linked most closely with child outcomes and that structural quality  has a weaker or inconsistent relationship with child outcomes (Early et\u00a0al., 2007; Sabol, Soliday Hong, Pianta,  & Burchinal, 2013).", 
  "Research also suggests that QRISs that combine both process and structural components  into one overall rating had only weak relationships with student outcomes (Sabol et\u00a0al., 2013).", 
  "Five states in the Regional Educational Laboratory Midwest Region use alternate pathways to rate certain early  childhood education providers in their quality rating and improvement systems, most commonly accredited or state  prekindergarten program providers  \nFive REL Midwest Region states have sought flexibility in the requirements and processes by which pro\u00ad viders achieve a QRIS rating through alternate pathways, given that many early childhood education pro\u00ad viders already have quality standards and monitoring systems in place (for example, those for Head Start/  Early Head Start providers, state preK program providers, and accredited providers).", 
  "Alternate pathways  allow providers that already meet some form of quality standards (typically accreditation) to receive a QRIS  rating without completing all the self-assessment or observation requirements.", 
  "The assumption is that pro\u00ad viders that already have met the other standards or monitoring requirements are of high quality and there\u00ad fore can be accelerated to a higher QRIS rating.", 
  "Alternate pathways are also used to encourage providers to participate in a QRIS because some providers  report that completing the paperwork and observations is redundant with their own standards and a time  burden.", 
  "For example, providers that were already accredited or participating in the Iowa Quality Preschool  Program standards viewed the Environment Rating Scales\u2014Revised observations to be duplicative.", 
  "Alter\u00ad nate pathways remove this burden and duplication and allow these select providers to enter the QRIS at an  elevated rating (typically the second highest rating) due to the quality standards that they already meet in  other early childhood education systems.", 
  "Illinois, Michigan, Minnesota, Ohio, and Wisconsin all offer accelerated rating pathways for certain pro\u00ad viders to achieve higher QRIS ratings (table 4).", 
  "The most common provider types to receive ratings through  alternate  pathways  are  those  accredited  by  a  national  accreditation  organization  such  as  the  National  Association for the Education of Young Children.", 
  "Three states also use alternate pathways to rate their  state-funded preK providers (for example, Great Start Readiness providers in Michigan).", 
  "Table 4.", 
  "Five Regional Educational Laboratory Midwest Region states have specific eligibility  conditions for accelerated ratings in their quality rating and improvement system  \nAccreditation or program type  \neligible for accelerated ratings  American Montessori Society  Association of Montessori International\u2013USA  Council on Accreditation  National Accreditation Commission for Early Childhood Education  National Afterschool Association  National Association for the Education of Young Children  National Association of Family Child Care  National Early Childhood Program Accreditation  Head Start providers  State-funded preK program providers  \n(for example, Great Start Readiness providers in Michigan)  School-based providers  \nIllinois  Michigan  Minnesota  \n\nWisconsin  \nNote: Iowa and Indiana do not offer alternate pathways.", 
  "Source: Authors\u2019 analysis based on a document review and transcripts from semi-structured interviews with quality rating and  improvement system stakeholders (see appendix A).", 
  "Five states consider the reduced burden of collecting observational QRIS data in alternative pathways a  cost-efficient way to rate providers as moderate or high quality because they already meet pre-established  quality criteria, such as state preschool standards, Head Start standards, or national accreditation.", 
  "However,  there is criticism from stakeholders that alternative pathways reflect mistaken assumptions that all provid\u00ad ers within eligible groups have equivalent program quality.", 
  "Regional Educational Laboratory Midwest Region states employed strategies to encourage early childhood education  providers to join the quality rating and improvement system, such as linking state subsidies and other early childhood  education funding to participation in the system  \nREL  Midwest  Region  states  have  encouraged  providers  to  participate  in  QRISs  and  undertake  quality  improvements by offering a range of monetary incentives, including linking ratings to tiered reimburse\u00ad ment rates for child care subsidies or publicly funded centers, providing one-time cash awards to providers  that receive a high rating or progress to a higher rating over time, or requiring a specific rating to receive  other public funding such as state preK funding or local grants.", 
  "Five of the seven REL Midwest Region  states\u2014Illinois, Indiana, Minnesota, Ohio, and Wisconsin\u2014offer tiered reimbursements based on QRIS  ratings to providers accepting at least some types of subsidies (table 5).", 
  "Each state has an ongoing need to attract providers to participate in its QRIS and to encourage providers  to continually improve their quality after an initial rating.", 
  "Interviewees reported that incentive structures  are most successful when they appeal to providers, foster participation in the system, and encourage pro\u00ad viders to invest in quality improvements.", 
  "The use of tiered reimbursement rates to encourage enrollment is  growing both in the REL Midwest Region and nationwide\u2014for example:  \n\u2022\t  Illinois offers higher tiered subsidy rates to providers that complete their QRIS submission by a  \nparticular date.", 
  "\u2022\t  Indiana offers a time-limited opportunity for tiered reimbursement; only providers that apply to the  QRIS by a certain date are eligible to receive ongoing tiered reimbursement rates.", 
  "Subsidy reim\u00ad bursement rates for centers in the QRIS increase at level 1 (licensing) and at level 4 (accreditation).", 
  "\u2022\t  Minnesota providers with three- or four-star ratings are eligible to receive tiered reimbursement  up to 15\u00a0percent or 20\u00a0percent, respectively, above the standard maximum Child Care Assistance  Program reimbursement rate.", 
  "Only providers that participate in the state\u2019s QRIS, Parent Aware,  are eligible to offer scholarships to families.3  \n\n\u2022\t  Ohio offers tiered reimbursements for licensed child care centers that serve children who receive  \nsubsidies.", 
  "Table 5.", 
  "Most Regional Educational Laboratory Midwest Region states offer multiple incentives  for providers participating in a quality rating and improvement system, and all states offer at least  one type of incentive  \nIncentive type  Tiered reimbursement of child care  subsidies linked to participation and rating  One-time cash award for receiving a  high rating or increasing rating level  Eligibility or preference for certain grants  or resources determined by rating  \nIllinois  \nMichigan  Minnesota  \nOhio  Wisconsin  \nSource: Authors\u2019 analysis based on a document review and transcripts from semi-structured interviews with quality rating and  improvement system stakeholders (see appendix A).", 
  "\u2022\t  Wisconsin offers tiered subsidy payments based on the going market rate for early child care.", 
  "Level  \n1 providers are not eligible for subsidy reimbursements, Level 2 providers receive 95\u00a0percent of the  market rate, level 3 providers receive the full market rate, level 4 providers receive 110\u00a0percent of  the market rate, and level 5 providers receive 125\u00a0percent of the market rate.", 
  "Most Regional Educational Laboratory Midwest Region states are actively revising their quality rating and  improvement systems  \nIn all REL Midwest Region states QRIS development and refinement are ongoing, and systems are continu\u00ad ally evolving.", 
  "All seven states have made at least one change to their system since inception\u2014for example:  \u2022\t  Illinois undertook a major redesign of its QRIS in 2013.", 
  "Illinois initially developed Quality Counts  \nin  2007,  but  after  winning  a  Race  to  the  Top\u2013Early  Learning  Challenge  grant  from  the  U.S.  Department of Education in 2013, Quality Counts gained momentum, underwent changes, and  was  renamed  ExceleRate  Illinois  by  the  Illinois  Network  of  Child  Care  Resource  and  Referral  Agencies.", 
  "\u2022\t  Iowa recalibrated its system in 2011 and is revising the standards again in 2015/16.", 
  "\u2022\t  Michigan\u2019s development of a QRIS began in 2005, was piloted in 2009, and was rolled out state\u00ad \n\nwide in 2012.", 
  "The state revised the scoring criteria in June 2013.", 
  "\u2022\t  Minnesota is considering changes to its system in 2015/16 to further refine Parent Aware.", 
  "Implications and future considerations  \nThe study found that federal policies such as the Race to the Top\u2013Early Learning Challenge grants influ\u00ad enced how and to what extent REL Midwest Region states developed or expanded QRISs.", 
  "However, QRIS  administrators still reported limited capacity and funding for full statewide implementation as a challenge  even in states that received the grant.", 
  "One key feature of any QRIS is how to measure quality.", 
  "States across  the  REL  Midwest  Region  used  a  combination  of  self-reported  measures  of  structural  quality  and  direct  observations of process quality.", 
  "The direct observations of process quality varied from published instru\u00ad ments, such as the Classroom Assessment Scoring System and the Environment Rating Scales\u2014Revised,  to locally developed measures used in Indiana and Ohio.", 
  "These observations can be costly, and in an effort  to reduce burden and cost, REL Midwest Region states either limited the use of direct observations to pro\u00ad grams eligible for higher ratings to specific types of programs or a subset of classrooms in larger centers or  used alternate pathways to ratings.", 
  "Alternate pathways to ratings, such as automatic or accelerated rating  processes for programs with accreditation or public funding, were used in five out of seven REL Midwest  Region  states.", 
  "These  strategies  allow  states  to  retain  their  desired  QRIS  rating  requirements,  including  measures of process quality, while reducing the cost and burden of the rating system.", 
  "However, both strategies have the potential to change the QRIS rating that a program would have received  otherwise.", 
  "Reducing  requirements  for  direct  observations  can  affect  the  rating  a  program  receives.", 
  "For  example, Karoly, Zellman, and Perlman (2013) found that ratings under the Colorado QRIS differed in  approximately 30\u00a0percent of programs when only half of classrooms were randomly selected for observa\u00ad tion.", 
  "And alternate pathways may lead to programs receiving a higher or lower rating than they otherwise  would.", 
  "For  example,  Kelton,  Talan,  and  Bloom  (2013)  found  that  family  child  care  providers  under  the  Illinois QRIS were accelerated to the three-star rating because they were accredited and would not have  earned it otherwise.", 
  "REL Midwest Region states also used various types of financial incentives, such as tiered reimbursement  for child care subsidies and bonus awards for ratings, to encourage programs to participate in the QRIS  and increase their ratings over time.", 
  "Given the expense of high-quality care, this strategy may encourage  \n\n\fproviders to improve or maintain quality.", 
  "However, states may want to exercise caution in using ratings  to determine funding until there is evidence that the QRIS accurately differentiates low-, moderate-, and  high-quality early child care.", 
  "Validation studies, which link the rating with other data sources in the state,  are necessary to document the extent to which the QRIS distinguishes provider quality and relates to chil\u00ad dren\u2019s outcomes.", 
  "Otherwise, states risk spending money on financial incentives that may fail to promote  provider quality or children\u2019s development.", 
  "Finally,  as  Race  to  the  Top\u2013Early  Learning  Challenge  grants  expire,  states  may  struggle  to  maintain  forward momentum without federal funds to support their efforts, and issues of sustainability may arise.", 
  "QRIS stakeholders may build support for sustainable funding in their own states by providing decision- makers with rigorous evidence on the validity of the QRIS ratings, as well as evidence to support financial  incentives and cost-saving measures related to data collection.", 
  "Additional resources to help states develop and  \nrefine\u00a0their\u00a0quality rating and improvement systems  \nFindings from this report can help state QRIS administrators learn from each other\u2019s successes and chal\u00ad lenges in implementing a QRIS.", 
  "Additional resources to help states develop and refine their QRISs include:  \u2022\t  The 2014 QRIS Online Compendium, A Catalog and Comparison of Quality Rating and Improve\u00ad \nment  Systems,  which  documents  states\u2019  attempts  to  promote  thoughtful  design,  analysis,  and  ongoing improvement in early care and education systems (http://qriscompendium.org).", 
  "\u2022\t  The website of the QRIS National Learning Network, a coalition of states and other organiza\u00ad \ntions formed to use rating and improvement strategies to improve children\u2019s development (http:// qrisnetwork.org \n\u2022\t  The REL Midwest Early Childhood Education Research Alliance website, which provides informa\u00ad \ntion on projects supporting the implementation of QRISs across the REL Midwest Region (http:// www.relmidwest.org/research-alliances/early-childhood-education-research-alliance \n\u2022\t  Faria, Hawkinson, Greenberg, Howard, and Brown\u2019s (2015) report on Michigan\u2019s QRIS (http://eric.", 
  "ed.gov/?id=ED555393 \n\fAppendix A.", 
  "Data collection and analysis methods  \nThis  appendix  describes  the  methods  used  to  collect  data  for  this  study  (document  review  and  semi\u00ad structured telephone interviews) and to conduct the qualitative data analysis.", 
  "Document review  \nBefore conducting the semi-structured interviews, the study team reviewed relevant documents on state  QRIS  websites,  such  as  published  reports,  frequently  asked  questions,  and  guidance  and  administrative  documents.", 
  "The documents collected for the study included provider application templates, explanations of  ratings structures, summaries that explained the QRIS to families, state survey response reports, and guid\u00ad ance for families and providers (table A1).", 
  "The study team also used state profiles from the recently released  QRIS compendium (QRIS Compendium, 2015).", 
  "Semi-structured telephone interviews  \nThe data instrument was an interview protocol designed for use in a semi-structured interview format, with  respondent review of prepopulated information for some protocol questions.", 
  "The study team used the pro\u00ad tocol to collect detailed information on four QRIS aspects: the definition of quality, the method for calcu\u00ad lating provider ratings, quality improvement, and system features.", 
  "The instrument contained 48 questions  (some with subquestions) organized into six sections (background, quality, ratings, system, improvement  plans, and conclusion).", 
  "See appendix B for the full interview protocol.", 
  "The semi-structured telephone interviews with QRIS representatives from all seven REL Midwest Region  states  took  place  between  April  and  July  2013.", 
  "Study  team  members  experienced  in  semi-structured  \nTable A1.", 
  "Number and description of documents collected for each state  \nIllinois  \nNumber of documents  \ncollecteda  20 (2 from state agencies)\t  Quality checklist, lists of participating providers, frequently asked questions web  \nDescription of documents collected  \n\n25 (4 from state)  \n\n17 (2 from state)\t  \nMichigan  Minnesota  \n19 (3 from state)  16 (5 from state)\t  \n\n10 (2 from state)  \nWisconsin  \n29 (11 from state)\t  \npage, parent information web page, child care resource and referral information for  providers, rating scales, overall list of number of providers participating in the QRIS,  criteria for ratings, executive summary of the quality rating improvement system  history and rating structure  Levels of quality, system overview, system mission and goals, evaluation brief,  standards, and validation study report  Local child care resource and referral website, standard and criteria descriptions,  Environment Rating Scales\u2014Revised training materials, application forms, ratings  summaries shared with providers  Standards, presentation materials, Race to the Top\u2013Early Learning Challenge application  Report on early learning in the state, validation study, presentation materials from  Minnesota Professional Development Advisory Committee, Race to the Top\u2013Early  Learning Challenge application  Validation study, Step Up to Quality guidance document (background and detailed  information)  Evaluation plan, provider measures, Department of Children and Families grant  materials, social marketing campaign, point details, materials used to develop the  quality rating and improvement system  \na.", 
  "An example of one document may be a final report on the quality rating and improvement system methodology or a screenshot  from one web page.", 
  "Source: Authors\u2019 review of existing documents.", 
  "qualitative interviews conducted each 90-minute interview by telephone using the study\u2019s interview pro\u00ad tocol instrument.", 
  "A second study team member joined each interview to take notes.", 
  "The interviews were  also  audio-recorded  and  transcribed  by  the  study  team.", 
  "During  the  semi-structured  interview  the  study  team member followed the interview protocol questions in order, asked respondents to either answer ques\u00ad tions that had not been prepopulated or briefly verify the prepopulated responses, and updated information  when necessary.", 
  "If a question had already been answered during an earlier part of the interview, the ques\u00ad tion was read aloud and then skipped.", 
  "After the interview, the study team reviewed the protocol responses  and interview transcript to check for information that was not collected or confirmed during the telephone  interview.", 
  "The study team emailed questions that were missing responses to the respondent, with a request  to provide the additional information as soon as possible.", 
  "Qualitative data analysis  \nData analysis for the study used qualitative analysis methods and involved multiple steps, which included  reviewing all documents to identify broad topic areas, developing a coding scheme to flag text pertain\u00ad ing to each topic, coding the data in qualitative analysis software to identify topics, generating reports to  isolate each topic area, reading through all text coded in each topic report to find themes, and identifying  findings for reporting in each theme area.", 
  "In addition, some study data were more quantitative in nature  (such as factual information about the types of providers eligible to participate in the QRIS or the types  of quality improvement supports offered).", 
  "The qualitative coding scheme focused on complex issues that  are not easily quantified, and it did not include topics for some of the more objective information collected  in the interview protocol.", 
  "Instead, this objective information was reported in tables and state profiles and  analyzed descriptively.", 
  "Appendix B. Semi-structured interview protocol  \nThis appendix includes the protocol used during the semi-structured interviews with state QRIS staff.", 
  "The  following is the script that was used as a guide.", 
  "Final semi-structured interview protocol  \nAs you know, Regional Educational Laboratory (REL) Midwest is conducting a study to learn about how  your state and other Midwestern states implement quality rating and improvement systems (QRISs).", 
  "For  this study, we are speaking with representatives from all of the Midwestern states serviced by REL Midwest;  our aim is to understand how different states implement their QRISs.", 
  "This information will help us to build  a knowledge base about QRISs in the Midwestern states, which will be disseminated through a summary  brief  and  a  knowledge-sharing  conference.", 
  "We  expect  this  information  will  be  valuable  to  Midwestern  states as they continue to roll out and refine their QRISs.", 
  "Thank you for taking the time to review these questions and go through them with me over the phone at  our scheduled time.", 
  "We are asking you for detailed information about your state\u2019s approach to developing  and implementing a QRIS, including domains covered and your state\u2019s measurement of quality, calculation  of quality ratings, any quality improvement efforts in place in your state as part of your state\u2019s QRIS, and  how your state\u2019s QRIS ratings are disseminated and used in your state.", 
  "In some of the questions below, you  will see answers based on what we found in our research.", 
  "We have already conducted some preliminary  research on your state\u2019s QRIS and we would like to get clarification, correction, or confirmation from you  about the information we have collected.", 
  "We have a series of questions for you.", 
  "Please answer to the best of your ability.", 
  "Have you had the opportunity to read the materials that were sent to you via email?", 
  "[Yes/no]  \nHave you read the information page included in those materials and do you have any questions?", 
  "[Interviewer waits for verbal acknowledgement]  \nWe would like your permission to record the interview so that we capture all the information verbatim.", 
  "This recording will be shared only with the research team, stored in a secure server, and destroyed after the  study.", 
  "If there is anything you would like to have off the record, please let us know and we will not record  it.", 
  "Is it okay to move forward with recording the discussion?", 
  "[Interviewer waits for verbal acknowledgement]  \nBackground information  \nI\u2019d like to confirm your role in your state.", 
  "What is your title and what are your responsibilities?", 
  "2.", 
  "What is the name of your current quality rating and improvement system (QRIS)?", 
  "[Confirm known name]  \nIs the QRIS a statewide system or is it implemented at a different level such as the county level?", 
  "Probe: If not statewide, what is the geographic coverage of your QRIS?", 
  "4.", 
  "Are there any plans to change or update the QRIS?", 
  "If so, what is the timing for those changes?", 
  "5.", 
  "We are interested in learning about the types of providers that are eligible to participate in the QRIS  in [state].", 
  "I am going to read you a list of types of providers; please tell me if they are currently eligible  to participate in the quality system.", 
  "a.", 
  "Are child care providers accepting child care subsidies eligible to participate (for example, vouch\u00ad \ners)?", 
  "[Yes/no]  \nb.", 
  "Are child care centers receiving direct subsidies from your state eligible to participate?", 
  "[Yes/no]  \nc.\t  Are unsubsidized child care centers eligible to participate?", 
  "[Yes/no]  \nd.\t  Are Head Start/Early Head Start programs eligible to participate?", 
  "[Yes/no]  \ne.\t  Are state preschools eligible to participate?", 
  "[Yes/no]  \nf.\t  Are licensed family child care homes eligible to participate?", 
  "[Yes/no]  \ng.\t  Are legally nonlicensed providers eligible to participate?", 
  "[Yes/no]  \nh.\t  Are programs funded by IDEA\u2014Parts B and C eligible to participate?", 
  "[Yes/no]  \ni.", 
  "Are Title I sites eligible to participate?", 
  "[Yes/no]  \n\nj.", 
  "Are school-age programs eligible to participate?", 
  "[Yes/no]  \nk.\t  Are other providers eligible to participate?", 
  "[Yes/no].", 
  "Can you tell about these programs?", 
  "6.", 
  "Is the program voluntary for all programs in your state or are some types of programs required to partic\u00ad \nipate?", 
  "Are some programs exempt?", 
  "Are some programs recruited?", 
  "Probe for details [tailored based on document review] about which programs are required to participate or are  exempt and under what circumstances.", 
  "What mechanisms for recruiting are used?", 
  "7.", 
  "What are the minimum requirements for applying to be a part of the existing system?", 
  "Probe:  For  example,  must  providers  be  licensed  or  is  a  minimum  Environment  Rating  Scale  (ERS)  score  required in order to receive a rating?", 
  "8.", 
  "What age groups of children are included in the system?", 
  "[If answered in questions 5j and 5k, skip to question 9.]", 
  "9.", 
  "Does participation occur at the program or classroom level?", 
  "Quality  \nThank you for that background information that provides helpful context.", 
  "Now, the first topic we are going  to talk about is Quality.", 
  "10.", 
  "What was the process that your state underwent to develop the QRIS?", 
  "[Interviewer should try to keep this section short.]", 
  "11.", 
  "How does your state define \u201cquality\u201d for the QRIS?", 
  "12.", 
  "What aspects or dimensions of quality are measured in the QRIS?", 
  "Does your state measure:  \na.", 
  "Teacher qualifications (education and credentials)?", 
  "[Yes/no]  \nb.  Curriculum?", 
  "[Yes/no]  \nInstructional quality (e.g., Classroom Assessment Scoring System [CLASS] scores)?", 
  "[Yes/no]  \nd.  Classroom environment (e.g., Early Childhood Environment Rating Scale [ECERS])?", 
  "[Yes/no]  \ne.  Teacher warmth and sensitivity?", 
  "[Yes/no]  \nf.  Staff\u2013child ratio and group size?", 
  "[Yes/no]  \ng.  Accreditation?", 
  "[Yes/no]  \nh.  Parent involvement/family engagement?", 
  "[Yes/no]  \ni.", 
  "Community partnerships (e.g., fit of the program model with the community\u2019s family needs)?", 
  "[Yes/no]  \n\nj.", 
  "Program leadership/management/teacher professional development supports?", 
  "[Yes/no]  \nk.  Cultural and linguistic diversity?", 
  "[Yes/no]  \nl.  Child assessment/developmental screening?", 
  "[Yes/no]  \nm.  Provisions for children with special needs?", 
  "[Yes/no]  \nn.  Transition to kindergarten?", 
  "[Yes/no]  \no.", 
  "Licensing compliance?", 
  "[Yes/no]  \np.  Other?", 
  "[Yes/no] Can you tell us about these?", 
  "13.", 
  "Please tell me about the process of selecting aspects or dimensions of quality to include in the QRIS.", 
  "How were these dimensions selected?", 
  "a.", 
  "Who was involved in defining quality?", 
  "Did your state work with an advisory panel or consultant(s)?", 
  "Describe those involved (e.g., state policymakers, academics, practitioners, parent representatives).", 
  "b.", 
  "What sources of information or literature did you draw on to select these dimensions?", 
  "c.\t  Did you choose any aspects of quality to measure based on widely used instruments such as ECERS  \nor CLASS?", 
  "Probe: Were any suggestions discarded?", 
  "d.\t  Do you have documentation that describes the process for selecting dimensions of\u00a0quality?", 
  "14.", 
  "Does the QRIS include classroom observations to measure quality?", 
  "[If yes, continue to questions 14a\u201314d.", 
  "If no, skip to Ratings section]  \na.", 
  "What instruments are used (ECERS, Family Day Care Rating System [FDCRS], Infant/Toddler  \nEnvironment Rating Scale [ITERS], CLASS, Arnett Caregiver Interaction Scale [CIS], other)?", 
  "b.", 
  "Are the observations\u2026  \ni.\t  Self-reported by the program?", 
  "[Yes/no].", 
  "ii.", 
  "Conducted by independent observers?", 
  "[Yes/no].", 
  "c.\t  Are observers trained to have inter-rater reliability?", 
  "What kind of training do they receive?", 
  "d.\t  How  did  your  state  make  the  decision  to  include  self-reported  or  independent  observations  of  \nquality in the QRIS?", 
  "Next, we would like to learn more about the Ratings used in your QRIS.", 
  "15.", 
  "Based on the documentation we reviewed about your state\u2019s QRIS, we see that your state calculates  the ratings as such [discuss/explain the calculation of state\u2019s rating from review of documentation].", 
  "Is this  correct?", 
  "16.", 
  "Are ratings calculated using a block system, point system, or a combination?", 
  "17.", 
  "Does your rating system vary by program or provider type?", 
  "If so, how?", 
  "Probe: For example, are licensed family child care homes rated on a different set of dimensions or with a differ\u00ad ent calculation approach than other licensed centers?", 
  "a.", 
  "Do all providers participating in the QRIS receive a rating?", 
  "[Yes/no].", 
  "18.", 
  "We just discussed dimensions or aspects of quality in question 12.", 
  "Did you set up your ratings to priori\u00ad \ntize certain aspects of quality that are more important?", 
  "Probe: In other words, are some dimensions weighted more than others in the rating calculation?", 
  "If so, which  ones and how is the weighting done?", 
  "19.", 
  "Please describe the process of determining the rating calculation approach.", 
  "a.", 
  "Who were the stakeholders at the table during this process and who had primary authority to make  decisions?", 
  "Did your state work with an advisory panel, organization, or consultant(s)?", 
  "Describe those  involved in the process (e.g., state policymakers, academics, practitioners, parent representatives).", 
  "b.", 
  "How easy or difficult was it to arrive at a consensus for the rating system?", 
  "Were there any topics  \nthat sparked disagreements or intense discussions?", 
  "c.\t  How did your state determine the cutoff scores for each rating level?", 
  "What sources of information  were used to select the cutoff scores and how much of this decision was based on empirical research  evidence versus recommendations from experts?", 
  "20.", 
  "Is there a process through which providers can appeal their rating?", 
  "21.", 
  "How long is the program rating valid before it must be reassessed?", 
  "22.", 
  "Did you pilot the rating system?", 
  "Probe: Can you tell me about how you piloted the scoring system?", 
  "23.", 
  "Were the ratings validated using the pilot or other data collection?", 
  "24.", 
  "Do providers receive technical assistance to achieve the minimal ratings required or desired for partici\u00ad \npation, or for readiness for participation?", 
  "25.", 
  "Are QRIS ratings made available to the general public for ALL participating programs?", 
  "[If yes, skip to question 27.", 
  "If no, continue to questions 25a\u201325c]  \na.", 
  "If not, which program ratings are publicly available and which are not?", 
  "b.", 
  "For ratings not available to the general public, who has access to the ratings data and under what  \ncircumstances?", 
  "c.\t  If ratings are not publicly available, can parents have access to the ratings under specific circum\u00ad \nstances?", 
  "If so, please describe.", 
  "[If any ratings are made available to the public or to parents at all, go to question 26.", 
  "Otherwise, skip to  question 29.]", 
  "26.", 
  "What efforts has your state made to ensure that families are aware that this resource exists?", 
  "Please tell  \nme about the dissemination plan.", 
  "27.", 
  "How do you disseminate the QRIS data to parents or other stakeholders?", 
  "a.", 
  "Do you \u2026  \ni.\t  Disseminate information through child care resource and referral agencies?", 
  "[Yes/no]  \nii.", 
  "Disseminate information through a dedicated state QRIS website?", 
  "[Yes/no]  \niii.", 
  "Disseminate information through other websites?", 
  "[Yes/no]  \niv.", 
  "Disseminate information through social service agencies or caseworkers?", 
  "[Yes/no]  \nv.\t  Disseminate information through other source(s)?", 
  "[Yes/no] Please explain.", 
  "b.", 
  "If  families  do  not  have  Internet  access,  what  other  ways  are  they  are  able  to  access  ratings  \ninformation?", 
  "28.", 
  "What level of information about program quality is available to consumers?", 
  "Probe: For example, in addition to the overall program quality rating level, do parents have access to provider  scores on the individual quality measures or to subratings in specific quality domains?", 
  "29.", 
  "What data are collected on providers in the system and on families using those providers?", 
  "Probe: Does your state collect and store data about program characteristics (such as program type and model,  number of children and ages served, service area and location, funding source) in addition to the QRIS ratings?", 
  "Probe: Does your state collect and store data about children and families attending programs that participate  in the QRIS?", 
  "Probe: How are the QRIS data linked with other longitudinal data systems?", 
  "Are children or staff tracked  using unique IDs, and can those IDs be linked to other state data systems such as public schools?", 
  "30.", 
  "We are interested in finding out how the QRIS ratings are utilized by your state.", 
  "Does your state use  \nratings to:  \n[Read each line to the respondent]  \na.", 
  "Determine provider eligibility to accept child care subsidy vouchers?", 
  "[Yes/no]  \nb.", 
  "Determine the reimbursement rate for providers accepting subsidies?", 
  "[Yes/no]  \nc.\t  Qualify providers for state preschool or other direct payment contracts with your state?", 
  "[Yes/no]  \nd.\t  Determine funding levels for providers participating in state preschools or other state contracts?", 
  "[Yes/no]  \n\n\fe.  Prioritize highly rated programs for other public or private grants?", 
  "[Yes/no]  \nf.\t  Determine professional development needs statewide?", 
  "[Yes/no]  \ng.\t  Determine professional development needs for individual programs?", 
  "At the classroom level?", 
  "[Yes/no]  \nh.\t  Determine other material-, intervention-, or curriculum-based needs?", 
  "[Yes/no]  \ni.", 
  "Other?", 
  "[Yes/no] Please explain.", 
  "31.", 
  "Are the ratings high stakes for any programs (e.g., does funding for some program types depend on the  \nquality rating)?", 
  "Improvement plans  \nNext, we would like to learn more about the Improvement Plans or other quality improvement efforts that  are part of the QRIS.", 
  "32.", 
  "Does your state include quality improvement plans (or other quality improvement supports) as part of  \nthe QRIS?", 
  "[If no, skip to Conclusion; we will ask about other quality initiatives at the end].", 
  "33.", 
  "Are improvement plans (or other QRIS quality improvement supports) available to all participating  \nproviders or only to certain ones?", 
  "a.", 
  "If only certain providers, please explain which ones (e.g., subsidized providers, state preK).", 
  "b.", 
  "Can unlicensed providers or licensed family child care providers participate?", 
  "c.\t  Is there support for those who don\u2019t qualify (preliminary support to get up to speed)?", 
  "34.", 
  "Are improvement plans (or other QRIS quality improvement supports) triggered by a particular quality  rating level or can eligible providers participate in improvement plans regardless of the rating level?", 
  "If  so, please describe.", 
  "Probe: Are certain types of programs, such as state preK, required to participate in an improvement plan  under certain circumstances?", 
  "35.", 
  "Are there any other criteria used to determine eligibility for participation in improvement plans (or  \nother QRIS quality improvement supports)?", 
  "36.", 
  "Please  describe  the  process  within  the  QRIS  for  developing  an  improvement  plan  (or  planning  for  \nother QRIS quality improvement supports).", 
  "a.", 
  "How  are  the  specific  aspects  or  domains  of  quality  that  need  improvement  identified?", 
  "Are  the  results of the QRIS rating measures used or is there an additional assessment process?", 
  "If so, who  completes the assessment\u2014the provider or an external assessor/consultant?", 
  "b.", 
  "Which stakeholders are involved in the improvement plan process (e.g., teachers, parents, commu\u00ad \nnity members)?", 
  "c.\t  Do  improvement  plans  entail  a  written  document  summarizing  planned  quality  improvement  activities?", 
  "If so, who completes the written plan\u2014the provider or an external assessor/consultant?", 
  "37.", 
  "Can you tell me about the content of the improvement plans (or other QRIS quality supports/improve\u00ad \nment supports)?", 
  "Probe: Are certain aspects or domains of quality prioritized over others for improvement plans (e.g., provider  qualifications, instructional quality, family involvement)?", 
  "38.", 
  "What are the strategies and methods for delivery of the improvement plans?", 
  "Do your improvement  \nplans involve:  \na.", 
  "Technical assistance/consulting support [Yes/no]  \nb.\t  Training/workshops [Yes/no]  \n39.\t  Who provides and pays for the improvement assistance?", 
  "40.", 
  "Is compliance with or successful completion of the improvement plan (or other quality improvement  supports) mandatory or high stakes (e.g., dictates funding) for any providers?", 
  "If so, which providers and  what are the stakes?", 
  "Conclusion  \n41.", 
  "Have any validation studies been conducted by your state or by outside researchers of your state\u2019s QRIS?", 
  "If yes, could you please share them with us?", 
  "Probe: Ask about pilot studies if they did not mention them above in quality section.", 
  "42.", 
  "How did you build political will and buy-in for the QRIS in your state?", 
  "Please briefly list these activities.", 
  "43.", 
  "Can you please share with us any challenges you faced in developing and implementing the QRIS in  \nyour state (beyond those you shared in the previous question)?", 
  "44.", 
  "Or helpful tips you discovered?", 
  "45.", 
  "Is your state engaging in any quality improvement activities that you or others believe are exceptionally  \neffective at improving program quality or serving as a model for other states?", 
  "If yes, what are they?", 
  "46.", 
  "Aside from eligibility for publicly funded programs or tiered reimbursement rates, does your state offer  any other financial or nonfinancial incentives to improve program quality?", 
  "For example, does your state  \na.", 
  "Start-up grants?", 
  "[Yes/no]  \nb.", 
  "Quality improvement awards?", 
  "[Yes/no]  \n\fc.  Scholarships for children?", 
  "[Yes/no]  \nd.  Curriculum/instructional improvement grants?", 
  "[Yes/no]  \ne.  Facility improvement grants?", 
  "[Yes/no]  \nf.  Staff scholarships/tuition assistance?", 
  "[Yes/no]  \ng.  Staff wage enhancement/retention bonus/stipend?", 
  "[Yes/no]  \nh.  Teacher permit reimbursement?", 
  "[Yes/no]  \ni.", 
  "Publicizing of QRIS ratings?", 
  "[Yes/no]  \n\nj.", 
  "Other?", 
  "[Yes/no] Please describe.", 
  "47.", 
  "Are there any additional documents and/or sample reports that come to mind now that you have not  \nyet shared with us that would help us gain a better understanding of the QRIS used in your state?", 
  "48.", 
  "Is it okay if we follow up with you by telephone or email if we need clarification on anything?", 
  "If there is anything about your state\u2019s QRIS that you would like to add that we haven\u2019t covered during this  conversation, please feel free to contact us any time.", 
  "Thank you!", 
  "1.", 
  "See  http://www2.ed.gov/programs/racetothetop-earlylearningchallenge/index.html  and  https://www.", 
  "whitehouse.gov/the-press-office/2013/02/13/fact-sheet-president-obama-s-plan-early-education-all  -americans \n for more information on these initiatives.", 
  "2.", 
  "Illinois, Indiana, Iowa, Michigan, Minnesota, Ohio, and Wisconsin.", 
  "3.", 
  "The Minnesota Department of Education offers Early Learning Scholarships that can be used to cover  family co-payments, rates, or fees.", 
  "However, the funds can be applied only to care or education provid\u00ad ed by programs that participate in Parent Aware."
 ]
}