{
 "document_id": "2459603570226377229", 
 "sentences": [
  "J Youth Adolescence (2009) 38:826\u2013838 DOI 10.1007/s10964-008-9300-0 \nE M P I R I C A L R E S E A R C H \nA Longitudinal Study of the Simultaneous In\ufb02uence of Mothers\u2019 and Teachers\u2019 Educational Expectations on Low-income Youth\u2019s Academic Achievement \nRashmita S. Mistry \u00c6 Elizabeth S. White \u00c6 Aprile D. Benner \u00c6 Virginia W. Huynh \nReceived: 7 March 2008 / Accepted: 30 May 2008 / Published online: 17 June 2008 \u00d3 Springer Science+Business Media, LLC 2008 \nin\ufb02uences of adults\u2019 \nAbstract This short-term longitudinal study investigated the simultaneous (mothers and teachers) educational expectations and youth\u2019s achieve- ment (standardized test scores and teachers\u2019 ratings of academic performance) across a 3-year time span on youth\u2019s performance in school (GPA).", 
  "Participants were an ethnically diverse sample of 426 low-income urban youth, ages 6 through 16 at T1.", 
  "Results from cross-lagged and autoregressive path analyses indicated stability in adults\u2019 expectations and youth\u2019s standardized test scores; cross- lagged in\ufb02uences of teachers\u2019, but not mothers\u2019, expecta- tions across time; and effects of youth\u2019s achievement outcomes on adults\u2019 expectations at T2, but not vice versa.", 
  "Overall, the pattern of \ufb01ndings demonstrate that adults\u2019 educational expectations are dynamic and responsive to how youth are faring in school and to changes in academic performance across time.", 
  "Keywords Academic achievement \u0001 Adolescence \u0001 Adults\u2019 educational expectations \u0001 Poverty \nR. S. Mistry (&) \u0001 E. S. White Department of Education, University of California, Los Angeles, Box 951521, Los Angeles, CA 90095-1521, USA e-mail: mistry@gseis.ucla.edu \nA. D. Benner Department of Human Ecology, University of Texas, Austin, TX, USA \nV. W. Huynh Department of Psychology, University of California, Los Angeles, Los Angeles, CA, USA \n\nIn the current era of a knowledge economy, education is a powerful marker of success and is deemed essential for escaping poverty (Friedman 2005).", 
  "The persistence of race and class-related disparities in educational outcomes are stark reminders, however, that not all children have an equal chance to succeed in the U.S. (Rothstein 2004).", 
  "Low- income and visible minority youth (e.g., African American, Latino/a) living in urban communities are at particular risk for educational challenges (e.g., drop outs, referrals for special needs, grade retention; McLoyd 1998).", 
  "However, not all youth from economically disadvantaged back- grounds fare poorly in the educational system; many excel despite the adversity they face.", 
  "Such within- group variability in the educational and economic pros- pects of ethnic minority, low-income youth highlights the necessity for identifying factors that both promote and hinder these youth\u2019s positive development and academic success within the context of risk.", 
  "Academic achievement is a product of a constellation of factors, including individual attributes, such as cognitive ability and psychosocial maturity (e.g., Masten and Coatsworth 1998), environmental in\ufb02uences, such as the quality of interactions and activities across the dual con- texts of home and school (e.g., Eccles and Harold 1993; Steinberg et al.", 
  "1992), and neighborhood factors, including safety and resource availability (e.g., Brooks-Gunn et al.", 
  "1993).", 
  "Recognizing this, in the current study, we investi- gated how dynamic interactions across two of youth\u2019s most proximate environments, namely home and school, in\ufb02u- ence low-income students\u2019 academic achievement.", 
  "To do so, we conducted a short-term longitudinal investigation of mothers\u2019 and teachers\u2019 educational expectations for youth to attend college and their in\ufb02uence on grade point average \n\fJ Youth Adolescence (2009) 38:826\u2013838 \n\nBackground \nTheoretical Foundation \nTo inform the understanding of the in\ufb02uence of adults\u2019 educational expectations on youth\u2019s academic achievement, we draw on tenets from ecological perspectives, which posit that development is driven by complex interactions between the individual and the environment across time and throughout the numerous ecological systems within which individuals are embedded (Bronfenbrenner 1979; Bronfen- brenner and Morris 2006).", 
  "Ecological perspectives specify a hierarchy of in\ufb02uences such that ecological systems most proximate to an individual and the socializing agents within these systems exert the greatest in\ufb02uence on development.", 
  "For children, two of most investigated proximate systems are the home and school, and a large body of research has documented the primacy of parents and teachers as social- izing agents (Birch and Ladd 1998; Vandell 2000; Wentzel 2002).", 
  "Ecological perspectives are typically viewed as \u2018\u2018macro\u2019\u2019 theories for understanding development that do not necessarily specify the precise mechanisms by which parents and teachers in\ufb02uence child development.", 
  "Never- theless such perspectives highlight parents and teachers as instrumental to development and focus attention on dimensions and aspects of a child\u2019s environment likely to impact developmental outcomes.", 
  "Ecological perspectives also emphasize that the most proximate settings are inherently interrelated and in\ufb02uence development through both independent and conjoint means.", 
  "In the present study, inclusion of longitudinal data allowed us to directly assess the degree to which parents and teachers mutually in\ufb02uence each other.", 
  "This is in contrast to much of the prior literature on children\u2019s edu- cational attainment which has overwhelmingly emphasized development within the home or school separately (see Benner and Mistry 2007; Wood et al.", 
  "2007 for exceptions).", 
  "The dynamic interactions highlighted by ecological per- spectives capture not only how youth are directly in\ufb02uenced by the quality of their interactions with envi- ronmental agents, but also how children, in turn, in\ufb02uence these environments.", 
  "In the current study, we investigated whether or not adults\u2019 educational expectations are in\ufb02u- in part, by indicators of youth\u2019s academic performance, assessed both contemporaneously and at an earlier time point (see also Goldenberg et al.", 
  "2001 for parents; Madon et al.", 
  "1998 for teachers).", 
  "Adults\u2019 Educational Expectations and Youth\u2019s Academic Achievement \nSince the landmark study by Rosenthal and Jacobson self-ful\ufb01lling \nexamining \nempirical \nprophecies (i.e., teacher expectations affecting youth\u2019s ability and performance) have documented the immediate and long-term effects of teacher expectations on students\u2019 academic performance.", 
  "Smith et al.", 
  "enduring effects of teacher expectations, assessed during middle school, on multiple indicators of students\u2019 high school academic performance (i.e., standardized test scores, enrollment in non-remedial math courses).", 
  "Teach- ers\u2019 educational expectations have also been shown to be in\ufb02uenced by youth\u2019s social class background and race/ ethnicity and, in turn, related to biased teaching practices.", 
  "For example, Dusek and Joseph (1983) reported that teachers expected lower levels of performance from Afri- can American, Latino, compared to those from white or middle-class back- grounds, and that teachers treated students differently based on their expectations.", 
  "Muller and colleagues (1999) reported similar \ufb01ndings and further found that teacher expectations were the strongest predictor of expectations to attend college.", 
  "As these results indicate, teacher expectations have the potential to in\ufb02uence not only academic performance but long-term educational goals as well.", 
  "Moreover, students who are at greatest risk of suffering from negative academic stereotypes are par- ticularly vulnerable to low teacher expectations (see Jussim and Harber 2005 for review).", 
  "and lower-SES students \nResearch has also demonstrated a positive association between parental educational expectations and the aca- demic achievement of low-income, ethnic minority youth.", 
  "In particular, higher parental expectations predicted higher levels of children\u2019s reading and math achievement and teachers\u2019 reports of competence (Reynolds and Gill 1994), as well as higher grades in school and student graduation rates (Zhan and Sherradan 2003).", 
  "Although some studies demonstrate that lower-income parents tend to endorse high educational expectations for their children (Howard 2003; Stevenson et al.", 
  "1990), others have found that lower- income parents and those with lower levels of education report lower educational expectations for their children as compared to higher-income and more educated parents (Crosnoe et al.", 
  "2002; Zhan and Sherraden 2003).", 
  "Existing Gaps in Research on the In\ufb02uence of Adults\u2019 Educational Expectations on Youth\u2019s Academic Achievement: Conjoint In\ufb02uences \nDespite sizable bodies of literature assessing the indepen- in\ufb02uences of parents\u2019 and teachers\u2019 educational expectations on youth\u2019s academic achievement, few studies have examined their conjoint in\ufb02uence.", 
  "Because the home and school settings are inextricably linked (Bronfenbrenner and Morris 2006), a stronger model of the relations between adult expectations and children\u2019s school outcomes \nJ Youth Adolescence (2009) 38:826\u2013838 \nwould consider parents\u2019 and teachers\u2019 expectations con- jointly rather than in isolation.", 
  "Doing so can help identify the processes by which adult expectations matter for low- income youth\u2019s academic performance.", 
  "For example, the in\ufb02uence of teachers\u2019 educational expectations on youth\u2019s academic performance may be due, in part, to their in\ufb02u- ence on parents\u2019 expectations.", 
  "Such expectations may get transmitted through several means, including parents\u2019 perceptions of the role of teachers in educating their chil- dren.", 
  "For example, Lareau (2003) noted that, compared to more af\ufb02uent parents, lower-income parents were more likely to view teachers as authorities of their children\u2019s education and to accept teacher assessments and recom- mendations of their children\u2019s academic attainment and advancement prospects.", 
  "This suggests that lower-income parents may be more likely than higher-income parents to modify their subsequent expectations based on teacher reports.", 
  "Parents, in turn, may transmit their educational expectations to teachers through activities and behaviors, such as their involvement in school-related activities.", 
  "For example, Hughes et al.", 
  "(2005) found that teacher percep- tions of a stronger parent\u2013teacher alliance and higher parent involvement were positively associated with teach- ers\u2019 perceptions of a child\u2019s ability, above and beyond demographic variables and the child\u2019s actual academic achievement.", 
  "The conjoint in\ufb02uence of parents\u2019 and teachers\u2019 expec- tations on youth academic outcomes have been shown to occur within a single point in time (see for example, Benner and Mistry 2007), but few studies have investigated the cross-contextual in\ufb02uences of adults\u2019 educational expectations on youth\u2019s academic outcomes across time (see, for example, Gill and Reynolds 1999) or changes in adults\u2019 expectations in relation to children\u2019s progress in school.", 
  "Such studies could be instructive for better under- standing how home\u2013school partnerships play out children\u2019s scholastic development.", 
  "An exception is Gold- enberg and colleagues\u2019 (2001) study of Latino immigrant low-income mothers\u2019 educational expectations and chil- dren\u2019s achievement across elementary school.", 
  "Results revealed that whereas mothers\u2019 aspirations remained high (parents wanted their child to attend/\ufb01nish college) and invariant across elementary school, their expectations were signi\ufb01cantly lower and variable across time.", 
  "Goldenberg and colleagues tested two unidirectional models assessing whether (a) maternal expectations in\ufb02uenced subsequent academic performance (\u2018\u2018expectations-driven\u2019\u2019 model) or (b) student performance in\ufb02uenced later maternal expec- tations (\u2018\u2018achievement-driven\u2019\u2019 model).", 
  "They found greater support for the latter.", 
  "Speci\ufb01cally, changes in mothers\u2019 expectations were found to be systematically in\ufb02uenced by variations in how well children were doing in school.", 
  "While these \ufb01ndings are noteworthy, the extent to which \n\nsimilar \ufb01ndings hold true across contexts (i.e., teachers\u2019 expectations) as well as among more diverse samples of low-income youth remain to be investigated.", 
  "The Current Study \nFew studies have examined the cross-contextual in\ufb02uences of adult expectations on youth achievement, while simul- taneously accounting for the reciprocal relations among the two.", 
  "To address this gap, we used longitudinal data to investigate relations between maternal and teacher educa- tional expectations across a three-year time period and their in\ufb02uence on youth performance in school, as assessed by GPA.", 
  "We chose GPA as our most distal indicator of aca- demic achievement because of its signi\ufb01cance for post- secondary education (Conley 2007) and because it is a broad indicator of academic achievement across subject matters and teachers.", 
  "As such, it can be viewed as repre- senting a less biased indicator of school performance.", 
  "Furthermore, GPA is based on performance spanning a time period (i.e., semester) rather than a single point in time.", 
  "A second goal of this investigation was to examine the directionality of relations between adults\u2019 expectations (i.e., teachers and parents) and how well youth fare at school, across multiple dimensions of schooling (i.e., standardized test scores, teacher report of academic func- tioning).", 
  "Following from the initial studies by Benner and Mistry (2007) and Goldenberg and colleagues (2001), we hypothesized that (a) adults\u2019 educational expectations would predict youth\u2019s GPA independently and conjointly across time and (b) adults\u2019 expectations would be more strongly in\ufb02uenced by indicators of youth\u2019s achievement than vice versa (i.e., the \u2018\u2018achievement-driven\u2019\u2019 model).", 
  "Given the paucity of existing research examining simulta- neous in\ufb02uences of parents\u2019 and teachers\u2019 educational expectations on youth achievement outcomes, we also explored the extent to which longitudinal associations between parents\u2019 educational expectations and youth\u2019s achievement outcomes would be mediated through teacher reports of educational expectations, and vice versa.", 
  "Data Source \nData come from a larger evaluation of the New Hope Project (\u2018\u2018New Hope\u2019\u2019), a three-year antipoverty demon- stration program implemented in Milwaukee, Wisconsin (see Bos et al.", 
  "1999).", 
  "Eligibility requirements for New Hope were that participants be 18 or older, live in house- holds at or below 150% of the federal poverty line, and be willing to work 30 or more hours weekly.", 
  "Eligible \n\fJ Youth Adolescence (2009) 38:826\u2013838 \n\nparticipants were randomly assigned to a control or pro- gram group.", 
  "Those assigned to the program group were eligible for New Hope services (i.e., earnings supplements, health insurance and child care subsidies, access to com- munity service jobs, individual case management) for 3 years from the time of random assignment (see Bos et al.", 
  "1999).", 
  "Participants assigned to the control group although not eligible for New Hope services, remained eligible for other government assistance programs or services available in the community.", 
  "All adults in the New Hope sample who had at least one dependent child between the ages of 1 and 10 at baseline (N = 745) were eligible to participate in a study designed to assess program effects on families with children in early and middle childhood.", 
  "At baseline, when they applied for New Hope, parents were 29.4 years, on average; slightly over half (55%) were non-Hispanic African American, and 29% were Hispanic.", 
  "About half had a high school diploma or GED.", 
  "The majority had a history of employment, but most had earnings of less than $5,000 in the previous year.", 
  "Approximately 80% were receiving public assistance.", 
  "Procedures \nDetailed information about the procedures used in the New Hope evaluation is described in Bos et al.", 
  "(1999) and Huston et al.", 
  "(2003).", 
  "We include below information most pertinent to the goals of the current study.", 
  "In-person interviews with parents and children were conducted 5 and 8 years after the initial random assignment.", 
  "All children in the sample were English-speaking.", 
  "Although Spanish translations of the surveys were made available to parents in the study, an overwhelming majority of parents elected to take the survey in English.", 
  "Two interviewers visited each family\u2019s home and conducted separate interviews with the parent and child.", 
  "Researchers also mailed surveys to youth\u2019s teachers, based on information from consenting parents.", 
  "For students in middle or high school, English and math teachers were primarily targeted.", 
  "Survey cover letters indicated that the youth were participating in a study of children and families but made no mention of the family\u2019s participation in New Hope or the accompanying evaluation \nParticipants \n\nData for the current study are drawn from evaluations conducted 5 and 8 years (referred to as T1 and T2, respectively, hereafter) after the implementation of New Hope (N = 561 families; 863 children).", 
  "We excluded young children (i.e., younger than age 6 at T1) because educational expectations data were not available for these children (n = 302).", 
  "Due to the small sample size (n = 39), youth with only father reports of educational expectations were also excluded from our \ufb01nal sample, as were youth who had already graduated from high school by T2 (n = 75).", 
  "An additional 20 youth were excluded for mul- tiple reasons\u2014those missing high school graduation data at T2 and aged 18 years or older at T2 (n = 7), missing high school graduation data at T2 and age data (either T1 or T2) (n = 11), and missing a majority of baseline data, expec- tation data, and outcome measures (n = 2).", 
  "study was 12.2 years \nThe \ufb01nal sample for the current study was comprised of 426 youth from 309 families.", 
  "The average age of the youth (SD = 2.05; included in this range = 6.8\u201316.6 years) at T1 and 15.7 years (SD = 2.07; range = 10.3\u201320.0 years) at T2.", 
  "The sample included roughly equal numbers of boys (54%) and girls and was ethnically diverse (60% non-Hispanic African American; 26% Hispanic, any race; and 14% non-Hispanic White).", 
  "Approximately 30% of youth received special educational services for a physical, emotional or learning problem at T1; 35% received such services at T2.", 
  "The majority of students attended public schools at both T1 and T2.", 
  "Descriptive information is presented in Table 1.", 
  "Measures were primarily drawn from other existing large- scale surveys and studies involving low-income and racially/ethnically diverse samples.", 
  "All study measures were pilot-tested and modi\ufb01ed accordingly.", 
  "Table 2 pro- vides correlation estimates for all study variables.", 
  "Educational Expectations \nMothers and teachers answered questions regarding expectations that the youth would attend college at T1 and T2.", 
  "Mothers completed one item reporting how much education they expected their child to complete: some high school (1), \ufb01nish high school (2), technical school after high school (3), some college (4), \ufb01nish college (5), or graduate or professional school after college (6).", 
  "This item was adapted from one used by Medrich and colleagues (1994).", 
  "Teachers responded to an item assessing their certainty that the youth would go to college, rated on a 5- point scale from 1 (not at all sure) to 5 (very sure).", 
  "This item was adapted from those used by Cook and colleagues (Cook et al.", 
  "1996).", 
  "Youth\u2019s Achievement-related Outcomes \nStudents\u2019 prior and contemporaneous achievement-related outcomes were assessed using two indicators of academic achievement.", 
  "Teachers provided ratings of academic per- formance using the Academic Subscale of the Social Skills \nJ Youth Adolescence (2009) 38:826\u2013838 \nTable 1 Sample descriptives for the study sample, by New Hope program and control group status \nFull sample \nNew Hope program status \nControl group \nProgram group \nExpectations T1 \nMothers\u2019 expectations, T1 \nTeachers\u2019 expectations, T1 \nYouth achievement T1 \nWoodcock\u2013Johnson \nSSRS academic subscale \nExpectations T2 \nMothers\u2019 expectations, T2 \nTeachers\u2019 expectations, T2 \nYouth achievement T2 \nWoodcock\u2013Johnson \nSSRS academic subscale \nYouth outcome T2 \nSchool GPA \nCovariates \nProgram status \nControl group \nProgram group \nYouth\u2019s gender \nSpecial education status, T1 \nSpecial education status, T2 \nType of school attended, T1 \nType of school attended, T2 \nYouth\u2019s grade in school T1 \nMaternal race/ethnicity \nNon-Hispanic African \nNon-Hispanic White \nMaternal education level \nLess than HS graduate \nHigh school graduate/GED \nNote: Youth-level variables and covariates (N = 426); Family/maternal-level covariates (N = 309).", 
  "+ p \\ .10, * p \\ .05 \n\n\fJ Youth Adolescence (2009) 38:826\u2013838 \nTable 2 Correlations among study variables \nVariable name \n1.", 
  "Mothers\u2019 expectations, T1 \n2.", 
  "Teachers\u2019 expectations, T1 \n3.", 
  "Woodcock\u2013Johnson, T1 \n4.", 
  "SSRS academic subscale, T1 \n5.", 
  "Mothers\u2019 expectations, T2 \n6.", 
  "Teachers\u2019 expectations, T2 \n7.", 
  "Woodcock\u2013Johnson, T2 \n8.", 
  "SSRS academic subscale, T2 \n9.", 
  "School GPA \nNote: + p \\ .10, * p \\ .05, ** p \\ .01 \nrated on a 5-point \nRating System (SSRS; Gresham and Elliott 1990).", 
  "On this 10-item measure, (1 = \u2018\u2018lowest 10% of class,\u2019\u2019 5 = \u2018\u2018highest 10% of class\u2019\u2019) the child\u2019s academic performance in comparison to others in the same classroom.", 
  "As a second indicator, youth com- pleted three subscales (Letter-Word Identi\ufb01cation, Passage Comprehension and Applied Problems) of the Woodcock\u2013 Johnson Achievement Battery-Revised (Woodcock and Johnson 1990) to determine pro\ufb01ciency in reading and mathematics.", 
  "For analysis purposes, we included a total standardized achievement score based on the sum of the three subscales.", 
  "The \ufb01nal youth outcome measure was school grade point average (GPA) measured at T2, based on school records.", 
  "Possible scores ranged from 0.0 (F) to 4.0 (A).", 
  "Covariates \nAnalyses included family-level covariates collected at baseline: experimental status (1 = New Hope program group, 0 = control group), maternal race/ethnicity (dummy variables for non-Hispanic African American; Hispanic, any race), and maternal education level (1 = high school graduate or GED, 0 = less than high school graduate).", 
  "For the race/ethnicity covariates, non-Hispanic White families served as the reference group.", 
  "This group is typically the normative reference group in research documenting racial/ ethnic group differences in academic achievement, partic- ularly in research examining the achievement gap between non-Hispanic White students and their Hispanic and non- Hispanic African American peers (see Farkas 2003 for review).", 
  "Child-level covariates included youth\u2019s gender (1 = male, 0 = female), grade in school, assessed at T1, mothers\u2019 report of whether or not the youth ever received special education services for a physical, emotional or learning problem (1 = yes, 0 = no), and whether the youth attended a public school (1 = public, 0 = private), asses- sed at T1 and T2.", 
  "Data Analytic Strategy \nWe used cross-lagged and autoregressive techniques within a structural equation modeling (SEM) framework to account for the temporal nature of the data.", 
  "Cross-lagged models allow for inferences about the temporal relation- ships between the constructs to be made (Mayer and Carroll 1988; Singer and Willett 2003).", 
  "The inclusion of multi-year assessments of adults\u2019 educational expectations and two of the three indicators of youth\u2019s academic per- formance enabled us to better account for intra-individual differences in our study measures across time.", 
  "That is, by auto-regressing the in\ufb02uence of earlier adult educational expectations on expectations assessed 3 years later, we were able to simultaneously assess the effect of earlier and later expectations as well as changes in these indicators time on youth\u2019s academic outcomes.", 
  "The auto- regression purges much of the intra-individual or omitted error bias inherent in observational data, thereby better dealing with issues of selection bias, and is a signi\ufb01cant improvement over more traditional OLS regression-based analyses (Duncan et al.", 
  "2004; Schneider et al.", 
  "2007; Singer and Willett 2003).", 
  "Path analysis, using the software Mplus v. 4.2 (Muthen and Muthen 2004), was used to test relations among the study constructs and to simultaneously test for direct and indirect (i.e., mediating) effects, which is not possible with an OLS regression approach (Stage et al.", 
  "2004).", 
  "All inferences for the indirect effects were based on the Mplus estimation of indirect effects, which estimates indirect effects with delta method standard errors (Muthen and Muthen 2004).", 
  "Full-information maximum likelihood (FIML) estimation procedures were used to address miss- ing data issues.", 
  "FIML does not estimate missing data; rather, it \ufb01ts the covariance structure model directly to the observed raw data for each participant (e.g., Arbuckle 1996).", 
  "In addition, Mplus enabled us to account for siblings clustered within families.", 
  "Testing for Model Nonequivalence (Moderation) Across Groups \nAs a \ufb01rst step to testing our hypothesized model, we determined whether the pattern of associations among the study variables operated similarly for families assigned to the New Hope program versus the control group.", 
  "Testing for the possibility that there may have been differences in the strength of associations among the study variables based on program status was an important consideration with these data because all study participants were initially recruited to participate in an intervention study but only about half were randomly assigned to receive program services.", 
  "Moderation analyses allowed us to evaluate if the study\u2019s \ufb01ndings were due to systematic differences between those assigned to the program as compared to the control group.", 
  "To test for moderation by New Hope program status, multiple-group comparisons were conducted for the struc- tural equations to determine if there were differences by treatment status in the strength of associations among the modeled constructs.", 
  "Using methods recommended by Bollen (1989) and Kenny (2005), we used a stepwise process for the multi-group comparisons, whereby we included a series of increasingly restrictive constraints on the model parameters and observed whether doing so led to a signi\ufb01cant decrease in the model \ufb01t.", 
  "Omnibus tests (e.g., chi-square difference tests) determined whether the intro- duction of additional parameter constraints resulted in a signi\ufb01cant decrease in the model \ufb01t.", 
  "Such a decrease would suggest that the more restrictive model does not \ufb01t the data as well as the less restrictive model and, as such, that there are meaningful differences across groups in the pattern of associations among the sets of covariance matrices.", 
  "Over- all, moderation analyses revealed little systematic evidence of differences by program group status.", 
  "The results for the baseline model relatively well, v2 (4) = 9.754, p \\ .05, CFI = .991, RMSEA = .08.", 
  "Successively imposed constraints revealed sporadic differences across the two groups and only limited evidence of a signi\ufb01cant decrease in the overall model \ufb01t.", 
  "In addition to testing for differences in the structural paths across the study variables, we also conducted t-tests between the program and control group on all of the study variables to test for mean-level differences by treatment status.", 
  "These results revealed few differences as a function of treatment status (see Table 1).", 
  "Taken together, these results indicate that the patterns of observed associations were not systematically in\ufb02uenced by assignment to the New Hope program group as compared to the control \nthe model \ufb01t \nindicated that \n\nJ Youth Adolescence (2009) 38:826\u2013838 \nModel Results for the Full Sample \nBecause the multiple-group analyses revealed no systematic differences as a function of experimental status (i.e., assignment to the program as compared to the control group), subsequent analyses collapsed across experimental status and included all of the study participants.", 
  "Figure 1 summarizes results of the path analysis testing the cross- lagged and autoregressive relations among adults\u2019 expec- tations, teachers\u2019 ratings of youth\u2019s school performance, and youth\u2019s scores on the Woodcock\u2013Johnson test of achievement, assessed at T1 and T2.", 
  "Also estimated were the direct effects of the T1 indicators and of teachers\u2019 and mothers\u2019 T2 expectations on youth\u2019s GPA, assessed at T2.", 
  "Finally, the analysis modeled in Fig.", 
  "1 included direct paths from indicators of youth\u2019s academic achievement assessed at T1 and T2, to mothers\u2019 and teachers\u2019 educational expectations at T2.", 
  "This was done to test the possibility that adults\u2019 educational expectations are in\ufb02uenced, in part, by youth\u2019s prior and contemporaneous academic achievement.", 
  "Specifying the associations among the study variables in this manner yielded a good overall model \ufb01t: v2 (2) = 3.60, ns; CFI = .997; RMSEA = 0.043.", 
  "First, with respect to the autoregressive and cross-lagged associations among adults\u2019 expectations, teachers\u2019 ratings of youth\u2019s academic performance, and youth\u2019s standard- ized test scores, the results revealed (a) stability in both mothers\u2019 and teachers\u2019 ratings of educational expectations time (b\u2019s = .28 and .20, p \\ .001, of youth across respectively), (b) stability in youth\u2019s performance on a standardized measure of achievement (b = .60, p \\ .001), but not teacher ratings of school performance (b = -.09, ns), and (c) cross-lagged effects of teachers\u2019 educational expectations at T1 on maternal expectations (b = .18, p \\ .01), and teachers\u2019 ratings of school performance at T2 (b = .33, p \\ .001), but not scores on the Woodcock\u2013 Johnson at T2 (b = .10, ns).", 
  "No other cross-lagged paths were signi\ufb01cant.", 
  "It is important to note that the cross-lag- ged path from teachers\u2019 educational expectations at T1 on teachers\u2019 ratings of youth school performance at T2 are not due to respondent bias because different teachers were surveyed at T1 and T2.", 
  "teachers\u2019 \nexpectations, \nSecond, as shown in Fig.", 
  "1, indicators of youth\u2019s aca- demic achievement, assessed at T2, predicted adults\u2019 educational expectations at T2 (b\u2019s = .16, p \\ .05 and .60, p \\ .001 for teacher ratings of achievement on mothers\u2019 respectively; b\u2019s = .18, p \\ .05 and .06, ns for standardized test scores on mothers\u2019 and teachers\u2019 expectations, respectively), lending support to the hypothesis that adults\u2019 expectations are, in part, in\ufb02uenced by how well youth are doing academically.", 
  "It is important that because within each assessment period the same teachers provided educational \nto note, however, \n\fJ Youth Adolescence (2009) 38:826\u2013838 \n\nAdult Expectations & Youth  \nAchievement, T1 \nYouth Achievement, T2 \nAdult Expectations, T2 \nSchool GPA, T2 \nYouth Test Scores  \non Woodcock- Johnson, T2  \nR2 = .50  \n\nYouth Test Scores  \non Woodcock- Johnson, T1  \nMaternal  Educational  Expectations   \nMaternal  Educational  \nExpectations, T2  \nSchool GPA,  \n\nR2 = .40  \n\nEducational  \nExpectations, T2  \nR2 = .60  \n\nEducational  Expectations \n\nTeacher Report,  \nAcademic  \nSubscale of the  \nSSRS, T1  \nTeacher Report,  \nAcademic  \nSubscale of the  \nSSRS, T2  \nFig.", 
  "1 Results for model assessing direct and cross-lagged relations of adult (maternal and teacher) educational expectations and youth achievement measures at T1 and T2 on youth GPA at T2.", 
  "Notes.", 
  "Model \ufb01t statistics: v2 (N = 426; df = 2) = 3.600, ns; CFI = 0.997; RMSEA = 0.043.", 
  "* p \\ .05, ** p \\ .01, *** p \\ .001.", 
  "All reported standardized coef\ufb01cients represent partial coef\ufb01cients, adjusting for \nthe in\ufb02uence of covariates (shown in Appendix A) and other modeled associations.", 
  "Dashed lines denote ns paths; solid lines are signi\ufb01cant at p \\ .05 or greater.", 
  "Due to the complexity of the model and issues of representation, we do not write out coef\ufb01cients which were not signi\ufb01cant at a p-value of \\.05.", 
  "These are available by request from the \ufb01rst author \nexpectation data and ratings of the youth\u2019s academic per- formance on the SSRS, at least part of the strongly observed association between these two variables (b = .60, p \\ .001) is due to respondent bias.", 
  "Third, adjusting for the in\ufb02uence of all other modeled associations, including the covariates (see Appendix A for coef\ufb01cients), both mothers\u2019 and teachers\u2019 expectations at T2 predicted youth GPA at T2, and the relative magnitude of this relation was observed to be about equal across respondents (b\u2019s = .27 and .29, p \\ .001 for mothers and teachers, respectively).", 
  "Finally, after accounting for the in\ufb02uence of the more contemporaneous associations between youth achievement outcomes and adults\u2019 educa- tional expectations (T2), we observed no remaining direct effects of the T1 indicators on youth GPA (b\u2019s = -.03, -.07, -.04, .11, ns for standardized test scores, teacher\u2019s ratings of academic performance, mothers\u2019 and teachers\u2019 expectations, respectively).", 
  "Tests of the signi\ufb01cance of indirect effects in Mplus con\ufb01rmed that a combination of adults\u2019 expectations (mothers and teachers) and teachers\u2019 ratings of youth achievement at T2 accounted for the direct relations of teachers\u2019 expectations at T1 on youth GPA, assessed at T2 (see Table 3).", 
  "To more carefully delineate the relations among adults\u2019 educational expectations and the multiple indicators of \nyouth\u2019s achievement outcomes, an alternative speci\ufb01cation of modeled associations was also tested.", 
  "In this model, we reversed the directionality of the in\ufb02uence between adults\u2019 educational expectations and youth\u2019s achievement mea- sures, assessed at T2.", 
  "Speci\ufb01cally, adults\u2019 educational expectations at T2 were modeled as in\ufb02uencing teachers\u2019 ratings of youth\u2019s academic performance and standardized test scores at T2 which, in turn, were modeled as directly in\ufb02uencing youth GPA.", 
  "Specifying the associations among the study variables in this manner yielded a worse \ufb01tting model (v2 (2) = 13.99, p \\ .001; CFI = .980; RMSEA = 0.119) than the model discussed above (results not shown but available, upon request).", 
  "Results of this alternate speci\ufb01cation of the modeled associations among adults\u2019 educational expectations and youth\u2019s achievement out- comes bolster con\ufb01dence in our interpretation of the pattern of associations summarized in Fig.", 
  "1.", 
  "Discussion \nIn this study, we conducted a short-term longitudinal examination of the simultaneous effects of adults\u2019 expec- tations for youth to attend college on youth\u2019s grades in school.", 
  "The sample consisted of multi-ethnic, urban, low- \nJ Youth Adolescence (2009) 38:826\u2013838 \nTable 3 Tests of indirect effects for path analysis model presented in Fig.", 
  "1 (N = 426; see Fig.", 
  "1 for summary of model \ufb01ndings) \n\nMplus estimate of indirect effects \nWoodcock\u2013Johnson (T1) ?", 
  "GPA (T2) \nWoodcock\u2013Johnson (T1) ?", 
  "Woodcock\u2013Johnson (T2) ?", 
  "Mothers\u2019 Exp (T2) ?", 
  "GPA (T2) Woodcock\u2013Johnson (T1) ?", 
  "Woodcock\u2013Johnson (T2) ?", 
  "Teachers\u2019 Exp (T2) ?", 
  "GPA (T2) Woodcock\u2013Johnson (T1) ?", 
  "Academic subscale (T2) ?", 
  "Mothers\u2019 Exp (T2) ?", 
  "GPA (T2) Woodcock\u2013Johnson (T1) ?", 
  "Academic subscale (T2) ?", 
  "Teachers\u2019 Exp (T2) ?", 
  "GPA (T2) Woodcock\u2013Johnson (T1) ?", 
  "Mothers\u2019 Exp (T2) ?", 
  "GPA (T2) Woodcock\u2013Johnson (T1) ?", 
  "Teachers\u2019 Exp (T2) ?", 
  "GPA (T2) \nMothers\u2019 Exp (T1) ?", 
  "GPA (T2) \nMothers\u2019 Exp (T1) ?", 
  "Woodcock\u2013Johnson (T2) ?", 
  "Mothers\u2019 Exp (T2) ?", 
  "GPA (T2) Mothers\u2019 Exp (T1) ?", 
  "Woodcock\u2013Johnson (T2) ?", 
  "Teachers\u2019 Exp (T2) ?", 
  "GPA (T2) Mothers\u2019 Exp (T1) ?", 
  "Academic subscale (T2) ?", 
  "Mothers\u2019 Exp (T2) ?", 
  "GPA (T2) Mothers\u2019 Exp (T1) ?", 
  "Academic subscale (T2) ?", 
  "Teachers\u2019 Exp (T2) ?", 
  "GPA (T2) Mothers\u2019 Exp (T1) ?", 
  "Mothers\u2019 Exp (T2) ?", 
  "GPA (T2) Mothers\u2019 Exp (T1) ?", 
  "Teachers\u2019 Exp (T2) ?", 
  "GPA (T2) \nTeachers\u2019 Exp (T1) ?", 
  "GPA (T2) \nTeachers\u2019 Exp (T1) ?", 
  "Woodcock\u2013Johnson (T2) ?", 
  "Mothers\u2019 Exp (T2) ?", 
  "GPA (T2) Teachers\u2019 Exp (T1) ?", 
  "Woodcock\u2013Johnson (T2) ?", 
  "Teachers\u2019 Exp (T2) ?", 
  "GPA (T2) Teachers\u2019 Exp (T1) ?", 
  "Academic subscale (T2) ?", 
  "Mothers\u2019 Exp (T2) ?", 
  "GPA (T2) Teachers\u2019 Exp (T1) ?", 
  "Academic subscale (T2) ?", 
  "Teachers\u2019 Exp (T2) ?", 
  "GPA (T2) Teachers\u2019 Exp (T1) ?", 
  "Mothers\u2019 Exp (T2) ?", 
  "GPA (T2) Teachers\u2019 Exp (T1) ?", 
  "Teachers\u2019 Exp (T2) ?", 
  "GPA (T2) \nAcademic subscale (T1) ?", 
  "GPA (T2) \nAcademic subscale (T1) ?", 
  "Woodcock\u2013Johnson (T2) ?", 
  "Mothers\u2019 Exp (T2) ?", 
  "GPA (T2) Academic subscale (T1) ?", 
  "Woodcock\u2013Johnson (T2) ?", 
  "Teachers\u2019 Exp (T2) ?", 
  "GPA (T2) Academic subscale (T1) ?", 
  "Academic subscale (T2) ?", 
  "Mothers\u2019 Exp (T2) ?", 
  "GPA (T2) Academic subscale (T1) ?", 
  "Academic subscale (T2) ?", 
  "Teachers\u2019 Exp (T2) ?", 
  "GPA (T2) Academic subscale (T1) ?", 
  "Mothers\u2019 Exp (T2) ?", 
  "GPA (T2) Academic subscale (T1) ?", 
  "Teachers\u2019 Exp (T2) ?", 
  "GPA (T2) \nNote: + p \\ .10, ** p \\ .01, *** p \\ .001 \nincome youth\u2014a group that has been shown repeatedly to be at-risk educationally and to have lower odds of com- pleting high school and enrolling in post-secondary institutions (Bridgeland et al.", 
  "2006; NCES 2005).", 
  "Innova- tive features of the study include the cross-lagged analytic approach used to investigate the pathways by which adults\u2019 expectations and youth\u2019s achievement (both prior and contemporaneous) interact to mutually in\ufb02uence youth\u2019s school performance.", 
  "The results indicating that an earlier teachers\u2019 expectations in\ufb02uenced teachers\u2019 expectations and ratings of youth\u2019s academic achievement three years later are particularly noteworthy in so much as different teachers were surveyed at the two time points.", 
  "The \ufb01ndings demonstrate the potentially far reaching in\ufb02uence of teachers\u2019 expectations and ratings of youth\u2019s academic achievement beyond the immediate classroom context.", 
  "In contrast, there was little evidence to suggest that mothers\u2019 \neducational expectations exerted an in\ufb02uence, across time, on teachers\u2019 educational expectations or indicators\u2019 youth\u2019s academic achievement.", 
  "Study results also revealed that contemporaneous indi- cators of academic achievement, net the in\ufb02uence of earlier indicators of achievement, were systematically associated with adults\u2019 educational expectations at T2.", 
  "Indeed, a more accurate interpretation of these \ufb01ndings is that changes in youth\u2019s academic achievement across the three year study period positively predicted adult expectations at T2 which, in turn, were associated with how well students were cur- rently performing in school (as assessed by GPA).", 
  "Our \ufb01ndings are consistent with those reported by Goldenberg and colleagues (2001) and extend evidence for an achieve- ment-driven model of the relations between adults\u2019 educational expectations and youth\u2019s academic achieve- ment outcomes to a more diverse sample of low-income, \n\n\fJ Youth Adolescence (2009) 38:826\u2013838 \n\ntheme evident \nurban youth and across both parents\u2019 and teachers\u2019 reports of educational expectations.", 
  "Together, the pattern of \ufb01ndings highlight the bi-directionality of the adult\u2013child relationship and suggest that adults\u2019 educational expectations are dynamic and responsive to how youth are faring in school and to changes in their academic performance across time.", 
  "Teachers\u2019 and mothers\u2019 expectations mutually in\ufb02u- enced youth GPA, suggesting that adults\u2019 expectations in different settings should be considered simultaneously as failure to do so may ignore an important source of in\ufb02u- ence on youth school performance.", 
  "Our longitudinal \ufb01ndings extend earlier cross-sectional \ufb01ndings with low- income youth (see Benner and Mistry 2007; Wood et al.", 
  "2007) while simultaneously accounting for the in\ufb02uence of other indicators of youth\u2019s academic achievement.", 
  "A par- ticularly salient in our \ufb01ndings is that whereas both mothers\u2019 and teachers\u2019 educational expecta- tions in\ufb02uenced how well youth fared academically, teachers\u2019 expectations exerted an enduring effect on youth\u2019s GPA.", 
  "The cross-over effects of teacher in\ufb02uences on maternal expectations are of particular signi\ufb01cance given the demographic characteristics of the families included in the current investigation.", 
  "Low-income parents, particularly those with limited post-secondary education experience, often view school of\ufb01cials, including teachers and counselors, as a primary authority regarding their child\u2019s future educational prospects (Lareau 2003).", 
  "To the that school-related of\ufb01cials promote low-income students\u2019 efforts and educational endeavors, convey this optimism to youth\u2019s parents, and work with parents to seek information and resources to facilitate the youth\u2019s future educational pursuits, the results can be extremely bene\ufb01cial.", 
  "That our results indicate that mothers have little in\ufb02uence on teachers\u2019 expectations across time suggests that teachers\u2019 perceptions are less informed by cross-con- textual sources, including parents.", 
  "This is unfortunate in so much as parents are a valuable resource for understanding better how youth\u2019s home lives and past experiences may affect their performance at school.", 
  "Study\u2019s Strengths, Caveats, and Future Directions \nSeveral design features contributed to the strength of the current study.", 
  "First, the longitudinal nature of our data enabled us to assess the effects of earlier adults\u2019 expecta- tions and youth\u2019s academic achievement, through their effects on more achievement, on youth\u2019s school performance.", 
  "As such, we were able to determine the extent to which absolute levels as well as changes in adults\u2019 expectations and youth\u2019s achievement outcomes affected youth\u2019s GPA.", 
  "A related strength of the study\u2019s longitudinal design is that it affor- ded greater \ufb02exibility in dealing with issues of selection \ncontemporaneous \nexpectations \nSecond, our measurement model \nbias.", 
  "Speci\ufb01cally, cross-lagged and auto-regressive tech- niques within an SEM framework allowed for better accountability of omitted error bias inherent experimental research designs.", 
  "The result is a far more conservative estimation of expectation effects, one which accounts for intra-individual differences in adults\u2019 expec- tations and youth\u2019s achievement (Singer and Willett 2003).", 
  "included multiple informants, integrating data from parents and teachers as well as independent measures of academic achievement (i.e., Woodcock\u2013Johnson, GPA).", 
  "By using multiple infor- mants for both predictor and outcome measures, we were able to minimize some of the method (or respondent) bias in youth\u2019s outcomes, adding to the ecological validity of the tested model (Bank et al.", 
  "1989).", 
  "This is an important consideration for any analysis based on correlational data because it helps to limit the bias introduced when the same respondent contributes multiple data points (e.g., reports on adults\u2019 expectations and child outcomes) to the analysis.", 
  "Third, while the same parent respondent contributed expectations data at both time points, different teachers contributed data across time, adding another source of independence in the analyses.", 
  "This is to be expected given the current structure of the U.S. educational system in which students generally have a new teacher or set of teachers every year.", 
  "There are, however, processes by which teachers\u2019 expectations can be transmitted across grade levels (e.g., reviews of student records, formal and informal interactions between prior and current teachers) which may have contributed, in part, to the observed sta- bility in teachers\u2019 expectations across time (but not, interestingly, of teachers\u2019 ratings of students\u2019 academic performance across time).", 
  "On the other hand, within time, the same teacher provided data on educational expectations and ratings of academic achievement, so there is some inherent respondent bias in our model.", 
  "To the extent that teacher-reported expectations at T1 predicted both moth- ers\u2019 and teachers\u2019 expectations at T2 and teachers\u2019 ratings of youth\u2019s achievement at T2 (see Fig.", 
  "1), and further that teacher-reported expectations at T2 also predicted youth\u2019s GPA (informed by multiple respondents) bolsters con\ufb01- dence that the observed pattern of \ufb01ndings are not spurious.", 
  "While we believe that the current study makes a sig- ni\ufb01cant contribution to the existing research on how adults\u2019 expectations matter for youth\u2019s academic outcomes, some limitations and caveats should be noted.", 
  "First, the current study focused on a sample of low-income youth residing in one Midwestern city in the United States, and, as such, the results are not generalizable to other student populations.", 
  "However, given that low-income youth are at particular risk for low adult expectations (Dusek and Joseph 1983), understanding how adult expectations impact academic achievement, both concurrently and longitudinally, can \nJ Youth Adolescence (2009) 38:826\u2013838 \ninform the design of appropriate interventions to support low-income students\u2019 school progress.", 
  "Second, future studies should better address the ways in which adults\u2019 educational expectations vary as a function of youth\u2019s race/ethnicity and gender.", 
  "Teachers have been shown to hold lower educational expectations for Latino and African American students than for White students (Dusek and Joseph 1983; Muller et al.", 
  "1999), yet parents of ethnic minority students tend to demonstrate high expec- tations for their children\u2019s educational success (Howard 2003; Goldenberg et al.", 
  "2001; Stevenson et al.", 
  "1990).", 
  "Additionally, research has shown that both parents and teachers report higher educational expectations for African American females as compared to African American males, even after controlling for prior academic achieve- ment (Wood et al.", 
  "2007).", 
  "Given that African American and Latino youth (particularly boys) face a myriad of chal- lenges that put them at greater risk for negative educational outcomes throughout their academic careers (Bridgeland et al.", 
  "2006; NCES 2005), understanding the impact of race/ ethnicity and gender in determining adults\u2019 expectations over time will further illuminate ways to promote more positive academic outcomes.", 
  "Third, while the current study identi\ufb01es the relationship between adults\u2019 expectations, youth\u2019s academic achieve- ment, and GPA, the mechanisms by which expectations their in\ufb02uence were not explored.", 
  "How students become aware of adults\u2019 expectations for their educational attainment and how they realize these expectations have changed are particularly important questions that remain unanswered.", 
  "For example, academic tracking, present in almost all American secondary schools, is likely to further reinforce the negative (or positive) expectations that adults have for students, and the link between academic tracking and youth\u2019s educational outcomes is well-established in the extant literature (Oakes 2005).", 
  "Furthermore, low teacher expectations may result in a reduction of instructional materials, fewer opportunities for student responses, less \nAppendix A \nchallenging assignments, fewer positive teacher\u2013student interactions, and disadvantageous desk placement (Dia- mond et al.", 
  "2004; Dusek and Joseph 1983; Taylor 1979).", 
  "Future research should investigate more thoroughly the speci\ufb01city of the behaviors, attitudes, and motivational factors through which adult expectations in\ufb02uence youth\u2019s academic achievement outcomes.", 
  "Conclusion \nIn this study, we examined the in\ufb02uence of mothers\u2019 and teachers\u2019 educational expectations and youth\u2019s academic achievement across a 3-year time span on low-income youth\u2019s GPA.", 
  "Results demonstrated that whereas both teachers\u2019 and mothers\u2019 educational expectations in\ufb02uence how well youth fare in school, the pathways of in\ufb02uence vary across adults.", 
  "Mothers\u2019 educational expectations were in\ufb02uenced through multiple pathways, including their own as well as teachers\u2019 prior expectations and changes in their child\u2019s level of academic achievement.", 
  "Teachers\u2019 expec- tations, in contrast, were primarily in\ufb02uenced by other teachers\u2019 educational expectations and ratings of students\u2019 academic achievement.", 
  "Taken together, the \ufb01ndings high- the dynamic and enduring in\ufb02uence of adults\u2019 educational expectations on low-income youth\u2019s academic pursuits and accomplishments.", 
  "Acknowledgments The New Hope Child and Family Study was conducted in collaboration with the MacArthur Network on Suc- cessful Pathways Through Middle Childhood.", 
  "The larger program evaluation was conducted by the Manpower Demonstration Research Corporation under a contract with the New Hope Project, Inc.", 
  "The \ufb01ve- and eight-year evaluations were funded by the National Institute of Child Health and Human Development award to the University of Texas at Austin (HD36038).", 
  "For the eight-year evaluation, core support was provided by the R24 center grant from NICHD to the Population Research Center, University of Texas at Austin.", 
  "We thank the participating families and children for their time and interest.", 
  "We also thank Nina Chien for her comments on a previous draft of this manuscript.", 
  "Path analysis results for model shown in Fig.", 
  "1\u2014In\ufb02uence of covariates on adult expectations (T1, T2), youth achievement (T1, T2) and youth academic outcomes (T2) \nCovariates \nSpecial Ed.", 
  "status T1 \nSpecial Ed.", 
  "status T2 \nschool T1 \nschool T2 \nLatino Maternal education \nMother expectations T1 \nTeacher expectations T1 \nWoodcock\u2013Johnson T1 \nSSRS academic subscale T1 \nMother expectations T2 \n-.08+ -.00 \n\fJ Youth Adolescence (2009) 38:826\u2013838 \nAppendix continued \nCovariates \nSpecial Ed.", 
  "status T1 \nSpecial Ed.", 
  "status T2 \nschool T1 \nschool T2 \nLatino Maternal education \nTeacher expectations T2 \nWoodcock\u2013Johnson T2 \nSSRS academic subscale T2 -.07 \n-.19** -.04 \nSchool GPA \n.38*** -.05 \nNote: Coef\ufb01cients for adult expectations (T1) and youth achievement (T1) represent correlation coef\ufb01cients; Coef\ufb01cients for adult expectations (T2), youth achievement (T2) and youth GPA (T2) represent standardized beta values.", 
  "+ p \\ .10, * p \\ .05, ** p \\ .01, *** p \\ .001"
 ]
}