{
 "document_id": "2482958689455773253", 
 "sentences": [
  "Student Success in College:  Creating Conditions that  \nElizabeth J. Whitt \nThe University of Iowa Student Success Team \nFebruary 13, 2007 \n\fOverview \n(cid:153) Introduction to Project DEEP \n\u2022 Methods \n(cid:153) Conditions for Student Success (cid:153) Discussion: Implications for the  \n\n\fThree Short Stories \n\fWhat Really Matters in College:  Student Engagement \nThe greatest impact appears to  stem from students\u2019total level of  campus engagement, particularly  when academic, interpersonal,  and extracurricular involvements  are mutually reinforcing\u2026 \nHow College Affects  Pascarella & Terenzini, How College Affects  Pascarella & Terenzini,  Students, 2005, p. 647 , 2005, p. 647 \n\fLessons from Research on  College Impact So, engagement has 2 components: (cid:153)What students do -- time and energy  devoted to educationally purposeful  activities [no matter who they are .", 
  ".", 
  ".]", 
  "(cid:153)What institutions do -- using effective  \neducational practices to induce students  to do the right things \n\fLessons from Research on  College Impact  \nEffective Educational Practices for  \nFostering Engagement: \n(cid:153) Academic Challenge (cid:153) Active and Collaborative Learning (cid:153) Student-Faculty Interaction (cid:153) Enriching Educational Experiences (cid:153) Supportive Campus Environments \n\fProject DEEP \nTo discover,  document, and  describe what high  performing  institutions do to  achieve their  notable level of  effectiveness.", 
  "DEEP Guiding Questions: \n(cid:153)What do \u2018high-performing\u2019 colleges and  \nuniversities do to promote student  \n(cid:153)What campus features -- policies,  \nprograms, and practices \u2013 are related to  higher-than-predicted graduation rates  and student  engagement?", 
  "DEEP Selection Criteria \nControlling for student and institutional  characteristics (i.e., selectivity, diversity,  institutional type), DEEP schools have:  (cid:190) Higher-than-predicted graduation           \n\n(cid:190) Higher-than-predicted NSSE scores Region and institutional  \ntype, special mission \n\fProject DEEP Schools \nDoctoral Extensive University of Kansas University of Michigan \nDoctoral Intensive George Mason University Miami University (Ohio) University of Texas El Paso \nMaster\u2019s Granting  Fayetteville State  Gonzaga University Longwood University \nUniversity \nLiberal Arts \nCalifornia State, Monterey Bay Macalester College Sweet Briar College The Evergreen State College Sewanee: University of the South Ursinus College Wabash College  Wheaton College (MA) Wofford College  \nBaccalaureate General \nAlverno College  University of Maine at Farmington Winston-Salem State University \n\fResearch Approach \nQualitative Research Methods: \n(cid:190)24 researchers: faculty, administrators, grad  \n\n(cid:190)2 multiple-day site visits to each institution  \nby teams of 3-6 researchers.", 
  "(cid:190)Data collection: observations, document  \nanalysis, interviews (cid:57)2,700+ people, 60 classes, 30 events \n(cid:190)Data analysis: within and across sites \n\fWhat We  \nLearned from  Project DEEP \nJossey-Bass  \n\n\fPoints to Ponder \n?Which of these practices does UI offer?", 
  "What proportion of UI undergraduate  students engages in and benefits from  them?", 
  "Is that enough?", 
  "?What are the outcomes of these practices  \nfor UI students?", 
  "How do you know?", 
  "?Which of these practices are transferable  and adaptable to UI?", 
  "Which are not, and  \n\fSix Shared Conditions \n\u201cLiving\u201d Mission and \u201cLived\u201d Educational  Philosophy Unshakeable Focus on Student Learning    Clearly Marked Pathways to Student Success Improvement-Oriented Ethos Environments Adapted for Educational  Enrichment  Shared Responsibility for Educational Quality  \n\fLessons from Project DEEP \n1.", 
  "Living Mission and \u201cLived\u201d Educational  \nPhilosophy \n\u2022 A clear mission, widely understood and endorsed.", 
  "\u2022 A web of complementary policies and practices  tailored to the school\u2019s mission and students\u2019 needs  and abilities.", 
  "\u2022 Institutional values really do guide important  \npolicy and operation decisions, from admissions to  orientation to graduation requirements.", 
  "\u201cLiving\u201d Mission \nRecall the 3 short stories: \u2022 Fayetteville State University \u2022 University of Michigan  \u2022 California State University, Monterey Bay One theme: We know our educational mission,  we know our students, and we have brought  our resources to bear in a coherent fashion to  foster success for those students.", 
  "Lessons from Project DEEP \n2.", 
  "Unshakeable Focus on Student Learning \u2022 Students are our business \u2022 Teaching for learning \u2022 High expectations and high standards  \n(cid:131) \n\u201cWork with the students we have\u201d \n\fFocus on Student Learning \u201cSea change\u201d at KU to emphasize  undergraduate instruction: \u201cWe\u2019re all in  this together\u201d \n\u2022 Awards and rewards for good teaching \u2022 Faculty in each academic unit serve as \u201cFaculty  \nAmbassadors\u201d to the Center for Teaching  Excellence; CTE \u2018fall teaching summit.\u2019 \u2022 Course enrollments kept low in many   undergraduate courses; 80% have 30 or fewer  students; 93% 50 or fewer students.", 
  "Lessons from Project DEEP \nStudent Success \n3.", 
  "Clearly Marked Pathways to  \u2022 Acculturation \u2022 Alignment \n\fClear Pathways \nMiami\u2019s First Year Experience (FYE)  Committee designed a way to bring more  coherence to the first-year by linking: (1)  Miami Plan Foundation courses; (2) first- year seminars; (3) community living  options that emphasize leadership and  service; and (4) cultural, intellectual, and  arts events.", 
  "Clear Pathways \nAmong the explicit goals for MU students  are: \u201cInvest considerable time in your own  and your peers\u2019 academic learning.", 
  "[Ask  yourself] \u2018Why did I come to college?", 
  "Am I  devoting enough time to my studies?\u2019 Identify your educational goals and make  purposeful choices about your major,  courses and extracurricular experiences to  advance those goals.\u201d \n\fClear Pathways \n(cid:153)Among the explicit goals for MU  \nfaculty are: \u201cSet high expectations for  learning in your courses.", 
  "Partner with  others on campus to deepen students\u2019 learning.\u201d \n(cid:153)Goals for student affairs staff include  \u201cAssist students in focusing on their  educational objectives and devoting  time to their studies.\u201d \n\fClear Pathways \nAll DEEP institutions have some form of  \u201cearly warning system\u201d consistent with  student and institutional characteristics,  and composed of multiple and integrated  safety nets involving faculty and staff.", 
  "Lessons from Project DEEP \nImprovement-oriented ethos \n\u2022 \u201cPositive restlessness\u201d \u2022 Investments in student success \u2022 Decision-making informed by data  \u2022 \u201cWe know who we are and to what we  aspire.\u201d \n\fImprovement-Oriented Ethos \n(cid:57)Miami (cid:57)Michigan (cid:57)Macalester (cid:57)Kansas What can you tell us about how to  \n\n\fLessons from Project DEEP \n5.", 
  "Environments Adapted for Educational  \nAdvantage \ngood place for a college!\u201d \n\u2022 DEEP schools make wherever they are \u201ca  \u2022 Connect to the local community in mutually  beneficial, educationally purposeful ways.", 
  "\u2022 \u201cHuman scale\u201d structures and facilities  \u2022 Psychological size fosters engagement with  \npeers, faculty and staff.", 
  "Environments for Educational  \nAdvantage \nUrsinus College\u2019s Common Intellectual  Experience (CIE) is a two-semester course for  all first-year students.", 
  "First-year students are  housed with their CIE peers and some CIE  classes meet in the dorms.", 
  "Common readings  and the \u201cUncommon Hour\u201d give students a  shared intellectual experience outside the  classroom -- and in the residence hall -- that  complements class activities.", 
  "Advising is done  by \u201cteams\u201d \n\fEnvironments for Educational  \nAdvantage \nUniversity of Michigan has sought to  reduce its psychological size through  extensive development of living-learning  centers, the residential college, and  academic-related residential programs.", 
  "Most touch a relatively small number of  students but, collectively, they serve  thousands of UM undergraduates.", 
  "Lessons from Project DEEP \n\nShared responsibility for  \neducational quality \n\u2022 Supportive educators are everywhere \u2022 Student and academic affairs collaboration \u2022 Student ownership  \u2022 A caring, supportive community \n\fShared Responsibility \n(cid:153)Wheaton: Each First-Year Seminar  includes a faculty member, a student  affairs staff member, a librarian and 2  student preceptors.", 
  "(cid:153)George Mason: Comprehensive program  of advising integrating advising center  staff, faculty, career center, orientation,  librarians, and others.", 
  "Shared Responsibility  \nAll University of Kansas  committees must  have 20% student  representation, including search and  screen committees.", 
  "A student is the   the \u2018Vice-Chair\u2019 of every  committee and serves as chair in the  absence of the faculty chairperson.", 
  "Shared Responsibility \nAt Alverno, student affairs staff members  described themselves as \u201cpartners in  learning in developing a community of  learners\u201d and have identified desired  cocurricular outcomes that complement  the College\u2019s Eight Ability outcomes.", 
  "A  staff member noted, \u201cWe see ourselves as  an extension of the classroom.\u201d \n\fCreating Conditions that Matter \nFirst and Foremost, Focus Everyone\u2019s \nAttention On Student Success (cid:57)Know your institution and know  (cid:57)Make student success everyone\u2019s  \nyour students \n(cid:190)Mission matters (cid:190)So does institutional leadership \n\fCreating Conditions that Matter \nSpecify The Path To Student Success \nwidely and follow it consistently \n(cid:57)Draw an accurate map; \u2018distribute\u2019 it  (cid:57)Implement a comprehensive network of  early warning systems and safety nets (cid:57)If something works, consider requiring  \n\n\fCreating Conditions that Matter \nUse Data to Inform Decisions \n(cid:57) Conduct ongoing outcomes assessment and  (cid:57) Do more of what you know works for  \nuse the results.", 
  "student success; do less of what you know  doesn\u2019t [or can\u2019t demonstrate does  (cid:57) Review and revise time commitments and  \npriorities \n\fCreating Conditions that Matter Put Money Where It Will Make A  Difference In Student Engagement \n(cid:57) Align the reward system with the  \ninstitutional mission, values, and priorities (cid:57) Invest in student learning and activities that  \ncontribute to student success  \n(cid:57) Invest in faculty and staff members who are  \ndoing the right things  \n\fCreating Conditions that Matter \nCreate Spaces For Learning \n(cid:57) Make every student residence a learning  \ncommunity \n(cid:57) Build and renovate spaces to reflect  commitment to student engagement \n(cid:57) Recognize and exploit the educational  \nadvantages of your setting \n\fQuestions &  Questions &  Discussion Discussion \n\fDEEP Reflections \n?", 
  "What do you find most interesting or  \nsurprising about the DEEP results?", 
  "?", 
  "What conditions foster student success  \nat UI?", 
  "How do you know?", 
  "?", 
  "What are we not doing that we should?", 
  "What could we stop doing without  negative consequences?", 
  "?", 
  "What are the implications of the DEEP  results for the Student Success Team?"
 ]
}