{
 "document_id": "254414203976473561", 
 "sentences": [
  "Florida State University Libraries \nFaculty Publications  \n Department of Educational Leadership and Policy Studies \n\nWorking with Missing Data in Higher Education Research: A Primer in Real- World Example \nBradley Cox, Kadian McIntosh, Robert Reason, and Patrick T. Terenzini \nFollow this and additional works at the FSU Digital Library.", 
  "For more information, please contact lib-ir@fsu.edu \n\fCox et al - 2013 - Missing Data \nPre-publication version \nWorking with missing data in higher education research:  \nA primer and real-world example  \nBradley E. Cox  \n Florida State University  \nKadian McIntosh   \nPennsylvania State University  \n Robert D. Reason   Iowa State University  \nPatrick T. Terenzini   \nPennsylvania State University  \nAuthor Note.", 
  "A previous version of this paper was presented at the Annual Meeting of the  \nAssociation for the Study of Higher Education in Indianapolis, IN.", 
  "November, 2010.", 
  "Special  \nthanks are due to Stephen DesJardins for his valuable feedback.", 
  "Cox et al - 2013 - Missing Data \nPre-publication version \nWorking with missing data in higher education research:  \nA primer and real-world example  \nIn the study of higher education, nearly all quantitative analyses draw from incomplete  \ndatasets.", 
  "Incomplete responses from research participants (as occurs when someone skips a  \nsurvey item or refuses to answer a question) can have a dramatic influence on the results  \nproduced through statistical analysis.", 
  "Although the manner of influence varies depending on how  \nmissing data are handled, at least some bias occurs whenever data are missing.", 
  "No amount of  \nstatistical compensation can remove all of the biases inherent with incomplete data.", 
  "Indeed,  \nAllison (2002) concluded that the \u201conly really good solution to the missing data problem is not to  \nhave any\u201d (p. 2).", 
  "But as Allison also acknowledged, perfectly complete data sets are highly  \nimprobable when conducting survey research on human subjects.", 
  "The prevalence of missing data in education research was illustrated most clearly by  \nPeugh and Enders (2004) who examined leading education journals published in 1999 and 2003.", 
  "They identified 389 studies that were published with missing data, all but six of which either  \nignored the issue entirely or employed outdated \u201ctraditional\u201d methods (e.g., mean replacement,  \nlistwise deletion) of missing-data adjustments.", 
  "A review of recent articles from the Review of  \nHigher Education suggests that missing data still pose a problem for quantitative researchers in  \nthe field.", 
  "Of the twenty articles published in 2012, one was a conceptual piece about network  \nanalysis, one appeared to have no missing data, one was an invited response piece, and eight  \nmore were qualitative (excluding one \u201csupplemental\u201d issue).", 
  "Of the nine quantitative articles  \nwith incomplete data, only three provided explicit justifications for their approach to handling  \nmissing data.", 
  "The remaining six quantitative articles made little or no mention of missing data,  \n\fCox et al - 2013 - Missing Data \nPre-publication version \ngenerally leaving the reader to use context clues to infer that any case with any missing data was  \nexcluded from analysis (i.e., listwise deletion).", 
  "Higher education researchers thus regularly encounter \u2013 and often ignore \u2013 a problem for  \nwhich there is no perfect solution.", 
  "Nonetheless, researchers can deal with missing data in a  \nmanner that corrects as much as possible for known biases while also maximizing data usability  \nand applicability to the broad aims of the research project.", 
  "To help researchers do so, in this  \npaper we 1) describe why missing data matter, 2) discuss the advantages and disadvantages of six  \ncommon methods for handling missing data, and 3) present a real-world, empirical example of  \nhow one\u2019s approach to missing data can have important effects on statistical conclusions,  \nresearcher interpretations, and resultant implications for policy or practice.", 
  "We are certainly not the first group of researchers to highlight the issue of missing data.", 
  "Outside of higher education, the topic has received considerable attention in the fields of  \npsychology and sociology.", 
  "The topic has also been addressed in education broadly, most notably  \nby Peugh and Enders (2004) in Educational Researcher.", 
  "Within higher education, specifically,  \nthe topic has been addressed both in professional meetings (e.g., pre-conference workshops for  \nthe Association of Institutional Researchers) and in print (Croninger & Douglas, 2005).", 
  "Despite  \nthese multiple and varied discussions of missing data, the field of higher education has been  \nheretofore reluctant to confront the issue consistently or embrace the most modern approaches to  \nhandling missing data.", 
  "Why, then, does the field still not embrace these modern techniques  \nwhen, as one of the most user-friendly higher education publications on this topic (Croninger &  \nDouglas, 2005) concluded, \u201cnewer strategies for coping with missing data yield not only  \naccurate but more precise parameter estimates than traditional strategies do\u201d (p. 48)?", 
  "Cox et al - 2013 - Missing Data \nPre-publication version \nThat same manuscript (Croninger & Douglas, 2005) may provide some clues as to why  \nthe field has hesitated when confronted with missing data.", 
  "First, the authors are relatively  \ncautious when making suggestions for other researchers.", 
  "Citing simplicity and efficiency, they  \n\u201cdon\u2019t think investigators should abandon traditional strategies,\u201d but should simply \u201cexpand their  \nmissing data repertoire to include these newer techniques\u201d (p. 48).", 
  "The authors\u2019 reluctance to  \nabandon traditional approaches is also related to a second reason the field hasn\u2019t transitioned to  \nmodern methods: sometimes traditional approaches yield the same results as do the newer  \nmethods.", 
  "Indeed, analysis of their own made-up dataset showed that \u201call six missing data  \nstrategies [including both modern and traditional approaches] yield the same substantive  \nconclusions as [was] made for the regression analysis based on complete data\u201d (p. 44).", 
  "The  \nCroninger and Douglas (2005) study also highlights a third potential reason missing data  \ncontinues to be overlooked in the higher education literature: nearly all of the studies advocating  \nthe use of more modern techniques base their conclusions on complex statistical manipulations  \nand/or analysis of artificial datasets.", 
  "Higher education researchers, however, work in an applied  \nfield and seek concrete solutions to common problems with real world data.", 
  "As a field, we  \ntypically are not compelled by abstract, esoteric, or hypothetical problems.", 
  "Thus, our paper tries to overcome each of these potential reasons for hesitation by a)  \nusing real data collected through surveys of 5,000+ students at 33 institutions, b) showing that  \ndifferent missing-data approaches can lead to substantively meaningful differences when  \ninterpreting results, and c) providing direct suggestions for selecting an appropriate method for  \nhandling missing data.", 
  "Cox et al - 2013 - Missing Data \nPre-publication version \nWhy Missing Data Matter  \nRubin\u2019s (1976; Little & Rubin, 1987, 2002) terms describing the mechanism by which  \ndata are missing, though somewhat confusing syntactically, are foundational to any discussion of  \nanalysis with missing data.", 
  "Data are said to be \u201cmissing completely at random\u201d (MCAR) when  \nthe likelihood of data being missing for variable Y is not related to the value of Y itself, nor to  \nany other variables in the analytic model.", 
  "Missing data are said to be \u201cnon-ignorable\u201d (Little &  \nRubin, 1987, 2002) or \u201cmissing not at random\u201d (MNAR) (Graham, 2009; Schafer & Graham,  \n2002) when the likelihood of a datapoint being missing is the result of some unobserved factor  \nnot accounted for by other variables in the analysis.", 
  "Finally, missing data can be labeled as  \n\u201cmissing at random\u201d (MAR) if \u201cthe probability of missing data on a variable Y is related to some  \nother measured variable (or variables) in the analysis model but not to the values of Y itself\u201d  \n(Enders, 2010, p. 6).", 
  "Croninger & Douglas (2005), Enders (2010), and Graham (2009) offer  \nmore thorough, though still reader friendly, discussions of missing data types.", 
  "Throughout this paper, we assume that the missing data qualifies the definition of  \n\u201cmissing at random\u201d (MAR).", 
  "Although many datasets do not technically meet MAR conditions,  \nand no straightforward method is able to confirm the assumption, most quantitative studies in  \neducation to make the (often implicit) assumption that their data are missing at random.", 
  "Dealing  \nwith missing data is dramatically simplified when data are MCAR (Graham, 2009), though the  \nphenomenon rarely occurs with survey research.", 
  "In contrast, analyses when missing data are  \nMNAR are considerably more complex and require even advanced statisticians to take \u201cextreme  \ncaution\u201d (Allison, 2002, p. 77); Allison (2002) and Graham (2009) offer introductions to  \nanalyses with MNAR missing data.", 
  "Regardless, missing data of any type can have adverse  \n\fCox et al - 2013 - Missing Data \nPre-publication version \neffects on two key components of any statistical analysis (parameter estimates and standard  \nerrors) which can lead to errors of inference and interpretation.", 
  "Parameter Estimates  \nWhen aware of the reason(s) why some people would not respond to questions,  \nresearchers could alter the study\u2019s data collection procedures to encourage complete responses.", 
  "However, despite meticulous planning and conscientious implementation of strong designs,  \nresearchers typically end up with datasets for which they do not know exactly why some data are  \nmissing.", 
  "Although the researcher may not know why the data set has missing data, there is a  \nreason.", 
  "Without accounting for the underlying reasons for such missing data, the resulting  \nparameter estimates (e.g., means, correlation coefficients) contain bias of an unknown direction  \nand magnitude, making the bias difficult to detect and easy to overlook.", 
  "These unknown biases  \nare even more difficult to identify in multivariate analyses derived from a variance-covariance  \nmatrix (e.g., regression, hierarchical linear models).", 
  "Standard Errors  \nStandard errors represent the precision and certainty with which an estimated statistic  \n(e.g., mean, Pearson correlation, regression coefficient) reflects a true population parameter.", 
  "An  \ninstance of missing data reflects the explicit absence of a known value for a particular variable in  \na particular case, thereby introducing uncertainty into any estimate of population parameters.", 
  "Without accounting for uncertainty introduced by such \u201cmissingness,\u201d standard errors will be  \nunderestimated (biased downward, sometimes dramatically, depending on the amount of missing  \n\fCox et al - 2013 - Missing Data \nPre-publication version \ndata), thus increasing the likelihood of making a Type-I error where one incorrectly finds that an  \nestimate is statistically significant.", 
  "Four \u201cTraditional\u201d Options for Missing Data  \nListwise Deletion (Full-Case Analysis)   \nFull-case analysis (a.k.a., listwise deletion), using only those cases with complete data on  \nthe variables deemed by the researcher to be critical for analysis, is perhaps the most commonly  \nemployed approach to the missing data problem.", 
  "This approach is appealing for two reasons.", 
  "First, it is simple to implement and can be used for any type of statistical analysis.", 
  "Second, in  \ncertain specific circumstances, full-case analyses yield parameter estimates as accurate as, and  \nsometimes even more accurate than, more modern or complex approaches.", 
  "Allison (2002)  \nconcluded that \u201cwhenever the probability of missing data on a particular independent variable  \ndepends on the value of that variable (and not the dependent variable), listwise deletion may do  \nbetter than maximum likelihood or multiple imputation\u201d (p. 7).", 
  "Similarly, Graham (2009) argued  \nthat parameter estimates from listwise deletion will be only minimally biased, \u201cespecially for  \nmultiple regression models\u201d (p. 554), when sufficient covariates are included in the models.", 
  "Concerns about complete-case analyses come in two forms.", 
  "First, in many circumstances  \n\u2013 whenever the criteria outlined by Allison (2002) and Graham (2009) are not met \u2013 parameter  \nestimates may be biased (Allison, 2002; Little & Rubin, 1989).", 
  "If cases are removed from the  \noriginal sample, the remaining analytic sample is not fully representative of the original sample  \nor population, creating conditions likely to yield biased parameter estimates (Little & Rubin,  \n1989).", 
  "Second, and even when the Allison (2002) and Graham (2009) criteria are met,  \nresearchers using listwise deletion decrease the effective sample size, thereby decreasing the  \n\fCox et al - 2013 - Missing Data \nPre-publication version \nstatistical power of the analyses.", 
  "The loss of power makes it more difficult to detect relatively  \nsmall (but potentially important) effects or relationships between variables.", 
  "In a field where  \nstrong models often explain little more than ten percent of the variance in student outcomes,  \nresearchers can ill-afford any unnecessary loss of statistical power.", 
  "Pairwise Deletion  \nIn an effort to retain cases and preserve statistical power, some researchers employ a  \nprocess called pairwise deletion.", 
  "With pairwise deletion, each particular analysis is based on the  \nsubset of cases having values for all variables in that particular analysis.", 
  "For example, a  \nrespondent who answered question A but not question B would be included when calculating the  \nmean for question A, but excluded from an identical calculation for question B.", 
  "The problems  \nassociated with using different subsamples to calculate parameter estimates for a single  \npopulation are magnified for statistics derived from a variance-covariance matrix (e.g.,  \ncorrelations, regression coefficients).", 
  "When based on a pairwise approach to missing data, the  \ncovariance pairs populating such a matrix would be based on different subsets of cases and have  \ninconsistent values for n. Thus, parameter estimates would be not only biased but also biased in  \nmultiple directions and magnitudes.", 
  "The lack of a consistent n also complicates calculations of  \nappropriate standard errors, requiring complex formulas not typically available in popular  \nstatistical software (Allison, 2002; Graham, Cumsille, & Elek-Fisk, 2003).", 
  "Finally, because the  \nvariance-covariance matrix may have less information than would be expected based on the  \nnumber of variables, a pairwise approach increases the likelihood (relative to other approaches  \nfor handling missing data) of obtaining a matrix that is not positive definite, a circumstance that  \nhalts most analyses (Allison, 2002; Graham, 2009; Kim & Curry, 1977).", 
  "Cox et al - 2013 - Missing Data \nPre-publication version \nMean, regression, or hot-deck imputation  \nMean substitution, regression-based single imputation, and hot- and cold-deck imputation  \nare grouped together because results using any of these procedures suffer from similar problems  \n(Schafer & Graham, 2002).", 
  "While these methods preserve data and are easy to use, their flaws  \nmake them less appealing than the more modern approaches to missing data.", 
  "Mean substitution  \nfills in the missing value with the sample mean (or, sometimes, the median or modal value) for  \neach particular variable.", 
  "This procedure does not alter calculations of variable means.", 
  "However,  \nbecause the values filled-in for a variable are all the same, the addition of mean-imputed values  \nreduces estimates of population variance, thereby attenuating variance and covariance estimates  \n(Roth, 1994) and any subsequent statistics derived from the variance-covariance matrix.", 
  "Mean  \nimputation for subgroups (e.g., replacing missing values for a woman\u2019s SAT score with the mean  \nSAT score of all sampled women) offers some improvement over whole-sample mean  \nreplacement but remains problematic for similar reasons.", 
  "A slight improvement over mean imputation procedures, regression imputation (or  \nconditional mean imputation, as it is sometimes called) creates a predictive model that uses  \navailable data as regressors to generate a predicted value for missing data points.", 
  "Hot-deck and  \ncold-deck procedures involve the replacement of missing data points with values from other  \n\u201cmatched\u201d cases in the same dataset (for hot-deck) or a comparable dataset (for cold-deck).", 
  "For  \nexample, with hot-deck imputation, a 20-year old White male survey respondent (\u201cStudent A @  \n20yrs\u201d) who did not report his parents\u2019 income might be given the value of some other 20-year  \nold White male (\u201cStudent B @ 20yrs\u201d) in the sample who did provide his parents\u2019 income.", 
  "Using  \ncold-deck imputation, an analyst would simply insert the parental income reported by the same  \nstudent two years earlier (\u201cStudent A @ 18yrs\u201d).", 
  "These methods are intuitively appealing  \n\fCox et al - 2013 - Missing Data \nPre-publication version \nbecause the values assigned are generally realistic values that, unlike mean substitution, preserve  \nthe variables\u2019 distributional characteristics (Roth, 1994; Schafer & Graham, 2002).", 
  "Moreover,  \nthe quality of regression, hot deck, and cold deck imputations improves as the number of cases  \nand/or variables increases (thereby allowing greater complexity in the regression equation and/or  \nmatching procedure).", 
  "However, each of these methods is likely to yield biased parameter  \nestimates and underestimated standard errors (Schafer & Graham, 2002); r-squared will be  \noverestimated in subsequent regressions that include the imputed variables (Graham, et al.,  \n\nDummy-Variable Adjustment  \nA final \u201ctraditional\u201d method for handling missing data builds upon mean imputation  \nprocedures by introducing one or more dummy-coded variables indicating the extent to which  \neach case contains missing data on the variables included in the analyses.", 
  "Based on the procedure  \nsuggested by Cohen and Cohen (1975), several variants of dummy-variable adjustments have  \nbeen employed by educational researchers.", 
  "In all variations, however, the underlying principle is  \nthe same: when including a dummy-coded indicator of missingness alongside the original and  \nmean-imputed data, the calculated coefficient for the dummy variable attempts to control for  \nwhatever effect an independent variable\u2019s missingness might have on the dependent variable.", 
  "However, as first demonstrated by Jones (1996), subsequently confirmed by Allison (2002), and  \nstated plainly by Graham (2009), the dummy-variable approach \u201chas been discredited and should  \nnot be used\u201d (p. 555).", 
  "Cox et al - 2013 - Missing Data \nPre-publication version \nTwo \u201cModern\u201d Options for Missing Data  \nHaving recognized the various shortcomings of the traditional approaches to statistical  \ncorrections for missing data, methodologists have developed two \u201cmodern\u201d methods that offer  \nconsiderable improvements over the traditional approaches.", 
  "Granted, these methods are not  \nperfect.", 
  "First, as Enders (2010) notes, data that are not multivariate normal in their distribution  \n\u201ccan distort model fit statistics and standard errors, with or without missing data\u201d (p. 124), and  \neven the most advanced missing data procedures can yield biased parameter estimates when  \ncontinuous variables are highly skewed (Lee and Carlin, 2010).", 
  "Still, these \u201cmodern\u201d approaches  \n(especially multiple imputation) are quite robust to violations of such assumptions about the data  \n(Allison, 2002; Johnson & Young, 2011).", 
  "Second, maximum likelihood or multiple imputation  \nprocedures can complicate interpretation of subsequent analyses because imputed datasets can  \ncontain illogical or implausible values for certain cases (e.g., a typically dichotomous \u201csex\u201d  \nvariable could be imputed as 8.7% female, or a Likert scale with integer anchors ranging from 1  \nto 5 could have an imputed value of 0.23) \u2013 a phenomenon that, while intuitively perplexing, is  \nstatistically legitimate; although software packages often include an option to round imputed data  \nor force plausible values for each imputed variable, statisticians generally discourage the practice  \n(Graham, 2009; Horton, Lipsitz, & Parzen, 2003; Schafer, 1997; see Bernaards, Belin, &  \nSchafer, 2007, for a more thorough discussion).", 
  "Finally, the use of an advanced imputation  \nmethod does not immunize subsequent analyses from computational or interpretive  \ncomplications caused by multicollinearity or improper analytic model specifications.", 
  "Nonetheless, data sets created by maximum likelihood and multiple imputation  \nprocedures retain all of their original cases and maintain the underlying relationships between  \nvariables.", 
  "Both maximum likelihood (especially Expectation-Maximization approaches) and  \n\fCox et al - 2013 - Missing Data \nPre-publication version \nmultiple imputation estimation processes can be improved when the imputation models include  \nauxiliary variables (Enders, 2010; Graham, 2009) that, while not necessarily to be included in the  \nfinal substantive analyses, are available in the dataset and potentially related to the source of  \nmissing data.", 
  "The most effective such auxiliary variables are those that have few missing values  \nthemselves and also have non-redundant correlations with other variables in the imputation  \nmodels.", 
  "In subsequent sections of this paper we highlight additional procedure-specific  \nadjustments that allow researchers to increase further the accuracy and precision of their analyses  \nwith imputed data.", 
  "Collectively, the benefits of these \u201cmodern\u201d approaches to missing data  \nanalyses typically outweigh their costs, and most statisticians (e.g., Allison, 2002; Enders, 2010;  \nGraham, 2009; Little & Rubin, 1987; Schafer & Graham, 2002) conclude that such approaches  \ngenerally outperform their more \u201ctraditional\u201d counterparts.", 
  "As Allison (2002) summarizes,  \n\u201csome missing data methods are clearly better than others\u201d and \u201cmaximum likelihood and  \nmultiple imputation [approaches to handling missing data] have statistical properties that are  \nabout as good as we can reasonably hope to achieve\u201d (p. 2).", 
  "Maximum Likelihood  \nMaximum likelihood approaches to missing data imputation use iterative procedures to  \nestimate means, variances, and covariances reflecting the most likely population parameters from  \nwhich the sample data would be drawn.", 
  "Within the family of maximum likelihood procedures,  \nthe application of some variant of Little and Rubin\u2019s (1987, 2002) Expectation-Maximization  \n(EM) algorithms is perhaps the most commonly used in the educational literature.", 
  "Other  \nmaximum likelihood approaches appear infrequently in higher education research.", 
  "For example,  \na Full-Information Maximum-Likelihood (FIML) procedure, typically used for structural  \nequation models, can offer some advantages, especially when interactions among variables are of  \n\fCox et al - 2013 - Missing Data \nPre-publication version \nparticular interest to the researcher.", 
  "However, the relative complexity of FIML has limited its  \ninclusion in popular statistical software and, even when included, generally limits the range of  \nstatistical analyses that can be applied to the data (Graham, 2009; Johnson & Young, 2011).", 
  "See  \nHausmann et al.", 
  "(2009) for an example of FIML used in higher education; see Enders (2001,  \n2010) for details about FIML procedures.", 
  "The EM procedures involve a two-step, iterative process.", 
  "The estimation step uses  \nestimated population parameter values to determine the likelihood that the observed data would  \nhave come from a population with the given parameters.", 
  "The maximization step then adjusts the  \npopulation parameter estimates to maximize the aforementioned likelihood.", 
  "These two  \nprocedures continue until sequential estimation and maximization steps yield (nearly) equivalent  \nvalues.", 
  "In doing so, the EM algorithms yield estimated population parameters (means, variances,  \nand covariances) that are free from some of the biases that accompany the \u201ctraditional\u201d  \napproaches to analysis with missing data (Graham, 2009; Little & Rubin, 1987; Schafer &  \nGraham, 2002; von Hippel, 2004).", 
  "Several commercially available statistical packages1 can perform such a procedure and  \nalso \u201cfill in\u201d the missing values in a dataset.", 
  "In creating an EM-imputed dataset, for example,  \nSPSS replaces the original missing data with data from the last iteration\u2019s Expectation results, a  \npractice yielding subsequent statistics with lower levels of variance than the true maximum- \nlikelihood means, variances, and covariances (von Hippel, 2004).", 
  "Moreover, the analyses  \nthereafter are unable to distinguish the original data from the imputed data.", 
  "Despite the increased  \n1 Although the analyses conducted for this study were run using SPSS, similar procedures and results  \nwould be obtained using most major statistical packages (e.g., SAS, STATA, R).", 
  "Several stand-alone programs are  also available for specific procedures (e.g., NORM, CAT, and MIX programs by Schafer).", 
  "Relative to SPSS, many of  these alternate software packages offer more advanced options for analysts looking to, for example, bootstrap  starting values or conduct graphical convergence diagnostics to help confirm the quality of the imputation process.", 
  "Cox et al - 2013 - Missing Data \nPre-publication version \nlevel of uncertainty introduced by the missing data, therefore, subsequent analyses using a single  \nEM-imputed dataset fail to account for such uncertainty and yield standard errors that are  \nartificially small, threatening the validity of subsequent hypothesis testing (Graham, 2009; von  \nHippel, 2004)2.", 
  "In sum, although imputation using an EM algorithm will produce generally  \nunbiased correlation and regression coefficients, researchers must acknowledge the increased  \nlikelihood of Type-I errors, and would be wise to adopt more conservative critical p-values (e.g.,  \n.01 instead of .05).", 
  "Multiple Imputation  \nMultiple imputation (MI) procedures for handling missing data have been employed for  \nanalyses in higher education, although the practice is not common in studies published in the  \nmajor higher education journals.", 
  "During multiple imputation, an initial value for each originally  \nmissing data point is predicted using other data in the dataset.", 
  "Then, a random error term, drawn  \nfrom a Bayesian distribution of parameter estimates, is added to each predicted value.", 
  "The  \nprocess iterates with the new values (i.e., initial value plus random error term) serving as the  \ninitial values for the next iteration.", 
  "After some defined number of iterations, the imputed values  \nare written to a new dataset.", 
  "This process repeats to create a user-specified number of imputed  \ndatasets.", 
  "Subsequent substantive analyses are then run separately for each of the imputed  \ndatasets.", 
  "The resulting parameter estimates and standard errors are pooled, typically using  \nequations outlined by Rubin (1987).", 
  "2 Moreover, as of version 17, SPSS has effectively abandoned its support of EM-based dataset creation  \nand instead encouraged use of its multiple imputation procedures (see http://www- 01.ibm.com/support/docview.wss?uid=swg21479652).", 
  "Cox et al - 2013 - Missing Data \nPre-publication version \nWhereas other missing data procedures artificially reduce variance by creating imputed  \nvalues that fall precisely along a prediction line, a practice that fails to replicate the variability  \nexisting within the larger population, multiple imputation repeatedly adds random error terms  \nand pools estimates across datasets to reflect the uncertainty that would exist if the analyst  \nsomehow knew the true values for the missing data points.", 
  "Pooled estimates can be computed for  \nan ever-growing number of analytic procedures (e.g., correlations, multiple regression, and  \nmultilevel models).", 
  "Multiple imputation thus provides analytic flexibility;  preserves the  \nunderlying characteristics of the data and produces approximately unbiased estimates of means,  \nvariances, covariances, correlations, and regression coefficients; yields appropriate standard  \nerrors; and retains much of the statistical power lost with other methods (Allison, 2002; Graham,  \n\nMultiple imputation, however, has practical limitations.", 
  "First, because the imputation  \nprocess includes the addition of random error terms, estimated population parameters (e.g.,  \nmeans or regression coefficients) from analyses using imputed data will differ slightly each time  \nan analysis occurs.", 
  "These differences, occurring even if researchers were to repeat the same  \nanalysis on the same data, are (perhaps counter-intuitively) statistically legitimate variations  \nreflective of the uncertainty inherent in any analysis that includes missing data.", 
  "Second, the  \nintroduction of random error modifications after each iteration adds considerably to  \ncomputational complexity.", 
  "Accordingly, multiple imputation may not be practical for researchers  \nusing large datasets or employing complex analytic models (sometimes requiring hours or days  \nto complete).", 
  "Cox et al - 2013 - Missing Data \nPre-publication version \nConclusions from the Literature  \nThree fairly straightforward conclusions can be drawn from the statistical literature  \nregarding procedures for handling missing data.", 
  "First, except in the most specific of  \ncircumstances, \u201ctraditional\u201d methods (i.e., complete-case analysis, pairwise deletion, regression  \nimputation, hot- and cold-deck imputation, and dummy-variable adjustments) should be avoided.", 
  "Second, multiple imputation has emerged as the preferred option among statisticians and  \nsociologists (who have been employing advanced methods for more than a decade).", 
  "With most  \nmajor software packages (e.g., SPSS, STATA, SAS, Mplus) now including options for multiple  \nimputation, a strong argument can be made that multiple imputation should be the new default  \noption for quantitative research in higher education.", 
  "Third, if context-specific considerations  \nmake multiple imputation unfeasible, maximum likelihood approaches provide a good, second  \nchoice.", 
  "If considering a maximum likelihood approach, however, researchers should remember  \nthat Full Information Maximum Likelihod (FIML) is practical, typically, only for structural  \nequation models (see Enders, 2001 for details) and that a single dataset EM-algorithm approach  \nmight warrant the use of a more conservative p-value (i.e., .01 instead of .05) when interpreting  \nresults.", 
  "A Real-World Example of Missing Data Approaches and Outcomes  \nComplicated equations and technical language make can it difficult to recognize the  \nmanner in which decisions regarding missing data can affect study results.", 
  "This section offers a  \nstraightforward example of how different approaches to the missing data problem play-out in a  \nreal-world study.", 
  "In this example, we use data from the Parsing the First Year of College project  \nto explore whether and how students\u2019 critical thinking is related to their use of activities  \nreflecting Bloom\u2019s (1956) taxonomy of learning.", 
  "Cox et al - 2013 - Missing Data \nPre-publication version \n\nThe Parsing the First Year of College project drew student participants from a pool of all  \nbaccalaureate degree-seeking first-year students enrolling in 33 participating institutions during  \nthe Fall 2006 term.", 
  "To be included in the final sample, students must have completed both the  \nACT Test (college entrance exam) and at least one of four assessments in the Spring 2007 term,  \nnear the end of their first college year: the National Survey of Student Engagement, the Critical  \nThinking and/or Writing Skills module(s) of the Collegiate Assessment of Academic Progress  \n(CAAP), and a supplemental survey designed specifically for this study.", 
  "Data from these  \nassessments were augmented by information provided by participating institutions and drawn  \nfrom students\u2019 ACT college entrance exam (both the student profile information and the actual  \ntest scores).", 
  "A total of 5,905 students provided information on one or more of the study\u2019s  \ninstruments.", 
  "Data and Missingness  \nFor this example, we use students\u2019 scores on the CAAP \u2013 Critical Thinking (CAAP-CT)  \nmodule as our outcome variable.", 
  "Of the 5,905 students in our sample, 2,245 had data for all of  \nthe 14 variables used in this example (including demographic information, measures of pre- \ncollege academic success, and college experiences; see Tables 1 and 2 for details).", 
  "Most student  \ncases either provided complete responses or were missing data on only one variable.", 
  "The  \ndistribution of missing values is presented in Table 1 and Figure 1.", 
  "The most frequently missing  \ndata element was the dependent variable (CAAP-CT).", 
  "Although we have heard researchers in  \nhigher education avoid the imputation of outcome variables, statisticians (Landerman, Land, &  \nPieper, 1997; Little & Rubin, 2002) have demonstrated that imputation of dependent variables  \n\fCox et al - 2013 - Missing Data \nPre-publication version \n\u201cis essential for getting unbiased estimates of the regression coefficients\u201d (Allison, 2002, p. 52;  \nitalics in the original).", 
  "Analyses Conducted to Compare Approaches for Handling Missing Data  \nTo demonstrate the effects of different approaches for handling missing data, we ran two  \nsets of analyses typical of methods used in studies of student success in higher education.", 
  "In the  \nfirst analysis, we compiled descriptive statistics for each of the 14 variables to be used in  \nsubsequent regression analysis.", 
  "Means and standard deviations are presented in Table 2.", 
  "For the  \nsecond analysis, we ran an OLS regression in which we regressed students\u2019 score on the CAAP -  \nCritical Thinking module on the 13 variables reflecting students\u2019 demographic characteristics,  \npre-college academic preparations, and college experiences.", 
  "Many other forms of statistical  \nanalyses (e.g., logistic regression, structural equation modeling, or hierarchical linear modeling)  \nadd considerable complexity and nuance to the discussion of missing data adjustments and,  \ntherefore, fall beyond the scope of this paper.", 
  "Readers seeking an introductory discussion of  \nthese circumstances should review Allison (2002) and/or Graham (2009).", 
  "Missing Data Approaches used for Comparison  \nWe repeated the descriptive and regression analyses for each of four popular approaches  \nto dealing with missing data: 1) using only complete cases (i.e., listwise deletion); 2) a  \ncombination of pairwise deletion, mean imputation, and dummy-variable adjustment; 3)  \nmaximum likelihood imputation using an Expectation-Maximization algorithm to create a single  \nimputed dataset; and 4) multiple imputation creation of 10 imputed datasets.", 
  "All data  \nmanipulations and calculations were made using SPSS software (version 18.03).", 
  "Cox et al - 2013 - Missing Data \nPre-publication version \nComplete-case analyses (listwise deletion).", 
  "Using the most frequently chosen and  \nsimplest option for handling missing data excludes from analysis any student who is missing any  \nof the relevant data.", 
  "In our example, full-case analysis could be conducted on 2,245 students,  \nmeaning data from 3,660 students would be ignored.", 
  "By including only students with complete  \ndata, we lost more than 60% of our available cases, many of which were missing only one of the  \nfourteen relevant data points.", 
  "Results from the complete-case analyses are presented in the first  \ncolumn of Tables 2 and 3.", 
  "Pairwise deletion, mean imputation, and dummy-variable adjustment.", 
  "To improve  \nclarity in reporting results \u2013 and to reflect the way in which the three procedures are often used  \ntogether in practice \u2013 we combine pairwise deletion, mean imputation, and dummy-variable  \nadjustment procedures.", 
  "When calculating descriptive statistics, we employ pairwise deletion, so  \nmeans and standard deviations reported in the second column of Table 2 are based on all cases  \nthat have a value for a particular variable.", 
  "Thus, because the CAAP-CT score was missing for  \nnearly half of the students in the dataset, its descriptive statistics are based on only 2,895  \nstudents\u2019 scores.", 
  "In contrast, every student had an ACT Test score, so descriptive statistics for  \nthat variable are based on roughly twice as many students (n=5,905).", 
  "Before running regression analyses using a dummy-variable approach to adjust for  \nmissing data, the researcher must choose which variant of the dummy-variable procedure to  \nimplement.", 
  "The most common variations are to: a) create a single variable indicating the extent  \nto which each case includes missing data on the variables to be included in the analysis (i.e., a  \nsummary of each case\u2019s overall level of \u201cmissingness\u201d), or b) create a dummy-coded indicator of  \nmissingness for each of the variables to be included in the analysis (e.g., a variable called  \nmissing_q6 would be given a value of 0 for all students who answered the original question 6,  \n\fCox et al - 2013 - Missing Data \nPre-publication version \nand would be given a value of 1 for those students who did not answer the original question 6).", 
  "Table 3 presents results from procedure \u201cb,\u201d although results using procedure \u201ca\u201d (not presented  \nhere) are nearly identical.", 
  "Once the dummy variables are created, they \u2013 along with the original variables from  \nwhich the dummies are derived \u2013 are entered into a regression.", 
  "When computing the regression  \ncoefficients, the researcher must specify what the software should do when it encounters missing  \ndata (that is still present amid the original variables).", 
  "Although one could select list-wise or  \npairwise deletion, either option could decrease statistical power for the regression.", 
  "Instead, likely  \nbelieving that the dummy-coded indicator(s) of missingness have already accounted for any bias  \nassociated with missing data, researchers often choose the mean-imputation option (thereby  \nretaining all of the original data and its accompanying statistical power).", 
  "Accordingly, the  \ndummy-variable-adjusted regression for the current analysis also uses the mean-imputation  \noption.", 
  "Maximum-likelihood single dataset imputation using EM algorithm.", 
  "Our first  \n\u201cmodern\u201d approach to missing data uses an expectation-maximization algorithm.", 
  "Preparation of  \nthe EM database requires significant attention to the original/source dataset.", 
  "All categorical  \nvariables were dummy coded; missing data indicators were set consistently for all variables; a  \ndummy-coded indicator of students\u2019 institution was created; and several common and  \ntheoretically relevant interaction terms were created (e.g., race by gender, race by ACT Test  \nscore).", 
  "These variables, and all of the student-level variables in the original dataset (323  \nvariables in total), 3 are included in the model from which the imputed dataset will be derived.", 
  "3 With each additional variable added, the computational power/time required to compute an underlying  \nvariance-covariance matrix (a key process for maximum-likelihood and multiple imputation procedures) grows  \n\fCox et al - 2013 - Missing Data \nPre-publication version \nAmong the included variables are some that may be dependent variables in future analyses4, the  \nomission of which would lead regression coefficients from subsequent analyses to be  \nsubstantially biased toward zero (Allison, 2002; Schafer, 1997).", 
  "The imputation model also  \nincludes auxiliary variables that, while not likely to be used for subsequent analyses, nonetheless  \nmay reduce bias in the resulting imputed dataset (Allison, 2002; Collins & Kam, 2001).", 
  "In our example, the means and standard deviations reported in the third column of Table  \n2 are based on the complete sample (5,905 students) and comply with Graham\u2019s (2009)  \nsuggestion that the EM procedure be used only for analyses that do not require interpretation of  \nstandard errors (e.g., means, exploratory factor analysis).", 
  "Table 3, however, does not follow  \nGraham\u2019s (2009) suggestion that an EM-imputed dataset \u201cshould not be used for hypothesis  \ntesting [because] standard errors based on this dataset, say from a multiple regression analysis,  \nwill be too small, sometimes to a substantial extent\u201d (p. 556).", 
  "Although Graham (2009) suggests  \nthat multiple regression analyses with missing data should be based on full-information  \nmaximum-likelihood (FIML) or multiple imputation (MI) procedures, these approaches are not  \npractical within the context of the larger project from which the current analyses are drawn.", 
  "Therefore, acknowledging the need to find a compromise between what was statistically ideal  \nand what was realistically practical, we use the expectation-maximization procedure to create a  \nsingle imputed dataset that serves as the source for subsequent descriptive and regression  \nexponentially.", 
  "Using a desktop computer with a quad-core processor effectively dedicated to our procedure, the  EM imputation took nearly three days to complete.", 
  "4 Ideally, analysts would revisit the issue of missing data every time they run a different analysis or specify  \na different outcome variable.", 
  "But, for reasons explained later in this paper, such an approach was not practical  within the context in which the larger project was situated.", 
  "Revisiting the missing data problem for each analysis,  however, may be more practical in other contexts and could drastically reduce the computation time required for  each discrete implementation of a maximum likelihood or multiple imputation procedure for missing data.", 
  "Cox et al - 2013 - Missing Data \nPre-publication version \nanalyses.", 
  "We make inferences of statistical significance, however, based on the critical value p \u2264  \n0.01 instead of the conventional p \u2264 0.05.", 
  "Multiple Imputation.", 
  "In preparing to run the multiple imputation procedure, we again  \nensured that all variables in the dataset were properly specified as categorical, ordinal, or scale.", 
  "The SPSS multiple imputation command uses the variable-type specification to determine  \nwhether each imputed variable will be drawn from a linear or logistic regression distribution  \nmodeled on the other variables included in the dataset.", 
  "Although the assignment of an  \nappropriate distribution for each variable in a multiple imputation model (e.g., logistic for  \ndichotomous/categorical variables) has some statistical benefits and intuitive appeal, we could  \nhave skipped this step without much sacrifice.", 
  "Instead, because multiple imputations based on  \nthe normal distribution have been shown to be remarkably robust to violations of normality  \n(Graham & Schafer, 1999; Schafer, 1997) the minor improvement to the accuracy of the imputed  \ndatasets may not be worth the additional computation time resulting from the complexity  \nintroduced by the use of variable-specific distribution specifications.", 
  "After data preparation, we instructed the software to create a total of 10 different datasets  \nby extracting one new dataset after every 200 iterations of the imputation model.", 
  "By increasing  \nthe number of iterations between datasets (from the typical default of 5), we adopted settings  \nmore in line with Allison\u2019s (2002) multiple imputation examples, though his results suggest such  \na change would have only marginal practical value.", 
  "Moreover, although five datasets may be  \nadequate for most analyses (Allison, 2002; Schafer & Olsen, 1998), Graham and colleagues  \n(Graham, Olchowski, & Gilreath, 2007) recently called for a dramatic increase in the number of  \nimputed datasets, suggesting that the number of imputed datasets should increase as the amount  \nof missing data increases.", 
  "Because some of the variables had a large amount of missing data, we  \n\fCox et al - 2013 - Missing Data \nPre-publication version \ndoubled the number of imputed datasets, thereby presumably \u201ccut[ting] the excess standard error  \nin half\u201d (Allison, 2002, p. 50).", 
  "Finally, when specifying our multiple imputation model we included only the 14  \nvariables that were to be used in the subsequent analyses.", 
  "Knowing exactly what subsequent  \nanalysis we would be running, we chose not to do any variable transformations or include any  \npotential interaction effects in our imputation models.", 
  "Because the eventual analyses modeled on  \nthe imputed datasets would be relatively straightforward, so, too, could be the model that created  \nthe imputed datasets.", 
  "However, the imputation model should be at least as complex as any  \nsubsequent analytic models (Allison, 2002; Graham; 2009; Rubin, 1987; Schafer, 1997; see also  \nsome new approaches mentioned on page 53 of Allison, 2002), meaning researchers should  \n\u201canticipate any interaction terms and include the relevant product terms in the imputation model\u201d  \n(Graham, 2009, p. 562).", 
  "For this reason, Rubin (1996) makes a compelling argument that the  \nonus falls on the original data collectors to develop an appropriate imputation model before  \nreleasing the data to outside users.", 
  "Comparing Results Across Missing Data Methods  \nIn this section, we present results of two sets of analyses for each of four methods for  \nhanding missing data.", 
  "These analyses have been chosen to represent the methods typically  \nemployed in studies of college student experiences and outcomes.", 
  "Descriptive Statistics  \nWhen trying to argue that the analysis of a particular sub-sample would yield results  \napproximating those from an analysis of an entire sample, researchers often compare the basic  \ndescriptive statistics of the whole vs. sub-sample.", 
  "The descriptive statistics in this study (see  \n\fCox et al - 2013 - Missing Data \nPre-publication version \nTable 2) allow a similar comparison.", 
  "A cursory comparison from left to right across Table 2  \nreveals few clear differences in either means or standard deviations.", 
  "On the whole, differences  \ndue to changes in missing data technique appear small, perhaps even trivial.", 
  "Of the 14 variables,  \nonly two (the number of Advanced Placement courses taken in high school and whether the  \nstudent was in the top quartile of his/her high school class) appear to have potentially meaningful  \ndifferences in means.", 
  "Comforted by this apparent similarity across the various methods for  \nhandling missing data, many researchers would confidently employ listwise deletion.", 
  "Likely to be overlooked, however, are differences in the standard errors, for example, of  \nstudents\u2019 composite ACT score.", 
  "By removing those cases that have any missing data, the full- \ncase approach drastically cuts the sample size (thus increasing the standard error relative to any  \nof the other methods) and fails to make complete use of any data from the dropped cases \u2013 even  \nthe student who answered all but one question.", 
  "Each of the imputed datasets makes more  \ncomplete use of the available data, yielding similar estimates for the mean ACT score, but with  \nsubstantially more precision (i.e., a 30% smaller standard error).", 
  "Were substantive analysis to  \nend with descriptive statistics, such sporadic differences in standard errors are subtle, perhaps  \neven negligible.", 
  "But if analyses continue via multivariate modeling procedures (e.g., regression,  \nstructural equation modeling), the consequences of missing-data decisions more clearly become  \nboth statistically and practically important.", 
  "Regression  \nAs is typical in studies of college student experiences, we next regressed student  \noutcomes (in this case, CAAP-Critical Thinking score at the end of the first year) on gender/sex,  \nrace/ethnicity, three measures of pre-college academic preparation, and eight variables reflecting  \n\fCox et al - 2013 - Missing Data \nPre-publication version \nvarious college-specific experiences.", 
  "The results, presented in Table 3, highlight the subtle  \nmanner in which missing data can affect statistical conclusions and researcher interpretations.", 
  "In particular, researchers using the analysis for hypothesis testing appear likely to draw  \ndifferent conclusions simply because of the choice of how to handle missing data.", 
  "Those using  \nmean imputation with dummy-coded indicators of missingness would, for example, conclude  \nthat White/Caucasian students receive higher CAAP-Critical Thinking scores than similar  \nstudents of another race/ethnicity (p-value = .037).", 
  "Yet those using listwise deletion, EM, or  \nmultiple imputation approaches would not conclude that race/ethnicity has any direct  \nrelationship with students\u2019 critical thinking test scores (p-values of .326, .100, and .264,  \nrespectively).", 
  "The opposite phenomenon occurs with the APPLYING variable: the coefficient is  \nstatistically significant for all of the missing data methods except mean imputation with dummy- \ncoded indicators of missingness.", 
  "If using the conventional p \u2264 0.05 standard for statistical significance, researchers using  \nthe EM algorithm to impute a single dataset would conclude that students living on campus (p- \nvalue = 0.011) or preparing two or more drafts of a paper (p-value = 0.023) have lower critical  \nthinking scores than their otherwise-similar peers.", 
  "Such a conclusion, however, is not supported  \nby results from any of the other three missing-data methods, nor does it meet the p \u2264 0.01 critical  \nvalue we suggest to account for the artificial reduction in standard errors that likely accompanies  \nour use of a single EM-imputed dataset.", 
  "In contrast, results from the analysis using the EM- \nimputed data indicate that students in the top quartile of their high school class receive higher  \nCAAP-CT scores than do their lower-rank peers \u2013 even when considered using the more  \nconservative critical value of p \u2264 0.01.", 
  "But such an inference would not be made by researchers  \nusing any of the other three methods for handling missing data.", 
  "Cox et al - 2013 - Missing Data \nPre-publication version \nCareful readers of Table 3 might note a strong similarity between the results using  \nlistwise deletion and multiple imputation.", 
  "In fact, hypothesis tests using either approach would  \nyield the same conclusion regarding every one of the 13 independent variables.", 
  "Although these  \nresults are inconvenient for our overarching argument, running counter to our earlier criticism of  \n\u201ctraditional\u201d procedures for handling missing data, they do serve to demonstrate an inevitable  \nparadox that arises whenever data are missing: although statisticians working with theoretical or  \nartificial datasets may be able to determine which missing data approach is \u201cbest,\u201d datasets  \nderived from real-world data collection offer no way to determine which of the approaches will  \nyield the \u201cright\u201d results or most-closely reflect the \u201ctruth.\u201d   \nChoosing a Method to Address Missing Data  \nAlthough our analyses demonstrate that the choice of a procedure for handling missing  \ndata matters, our results do not clearly identify any mechanism as the best.", 
  "Rather, this study  \nsuggests that the choice of an appropriate method is context specific.", 
  "The Parsing the First Year  \nof College project, the parent project from which original data for these analyses come, serves as  \nan example of the manner in which project-specific context might drive researchers\u2019 decisions  \nregarding the handling of missing data.", 
  "In deciding a course of action for the Parsing the First  \nYear of College project, we acted upon the following five assumptions about the project:   \n1.", 
  "The project database includes several measures that might be used as outcome  \nvariables in analyses.", 
  "2.", 
  "Several of these same measures could also be used as independent variables or  \nintermediate outcome variables (Astin, 1993) in analyses.", 
  "Cox et al - 2013 - Missing Data \nPre-publication version \n3.", 
  "The project database would likely be used by researchers who, while working in loose  \ncollaboration, would be operating autonomously and from varied locations \u2013 a  \nsituation that increases the difficulty of maintaining dataset consistency over time.", 
  "4.", 
  "Different users would have widely varying levels of comfort and experience dealing  \nwith missing data, thereby increasing the potential for confusion or errors when  \nimplementing missing data procedures or interpreting results.", 
  "5.", 
  "Analysts would employ a variety of statistical procedures, computer hardware, and  \nsoftware packages when working with the project data.", 
  "Key to our eventual decision between maximum likelihood and multiple imputation (with  \nthe \u201ctraditional\u201d approaches having already been eliminated following our review of the  \nliterature) were the issues of stability and usability.", 
  "For the Parsing the First Year of College  \nproject, we decided to use an EM algorithm approach for most of our data analyses because it: a)  \nwould create a single, common dataset for all researchers (as opposed to the five or ten with  \nmultiple imputation); b) makes use of all 323 student variables (whereas, with multiple  \nimputation, computational complexity placed severe practical constraints on the size of the  \nimputation model); c) enables all types of subsequent statistical analyses (in contrast to FIML);  \nd) does not require special software or extensive statistical expertise (as would be required for  \nFIML or multiple imputation approaches); and e) allows us to offer straightforward suggestions  \nabout interpretation of statistical results.", 
  "Of course, others might well have chosen a different  \napproach, and we make no claim as to have chosen the \u201cbest\u201d approach.", 
  "Rather, we acknowledge  \nthe limitation of our approach and claim only to have made an informed and reasonable choice.", 
  "In fact, in a subsequent project led by two of this paper\u2019s authors (Cox & Reason\u2019s Linking  \nInstitutional Policies to Student Success project; or LIPSS for short), for which data were  \n\fCox et al - 2013 - Missing Data \nPre-publication version \ncollected in 2011-12, we are following our own advice and have adopted multiple-imputation as  \nthe default approach for handling missing data.", 
  "Conclusion  \nThe problem of missing data is as persistent as it is complex.", 
  "And while traditional  \nmethods (e.g., listwise deletion, pairwise deletion, mean imputation, and dummy-variable  \nadjustments) have provided relatively simple solutions, they likely have also contributed to  \nbiased statistical estimates and misleading or false findings of statistical significance.", 
  "More  \npowerful methods that capitalize on recent statistical and computational advances now provide  \nresearchers with practical alternatives that address many of the shortcomings associated with the  \ntraditional approaches to analysis with missing data.", 
  "As Allison (2002) concluded, \u201csome  \nmissing data methods are clearly better than others\u201d and \u201cmaximum likelihood and multiple  \nimputation [approaches to handling missing data] have statistical properties that are about as  \ngood as we can reasonably hope to achieve\u201d (p. 2).", 
  "Thus, we encourage higher education researchers to consider adopting multiple  \nimputation as a first-choice method for handling missing data.", 
  "Maximum likelihood approaches  \nwould be a reasonable second-choice should multiple-imputation be unavailable or impractical  \nfor a specific project.", 
  "More traditional methods should generally be avoided unless researchers  \ncan make a compelling argument that their dataset satisfies the conditions outlined by Allison  \n(2002) or Graham (2009).", 
  "However, real-world datasets rarely meet these conditions and  \nresearchers have few tools with which to evaluate the adequacy of listwise deletion for a  \nparticular analysis.", 
  "Regardless of a researcher\u2019s ultimate decision regarding missing data, we encourage  \nscholars to actively address the issue in a manner that corrects as much as possible for known  \n\fCox et al - 2013 - Missing Data \nPre-publication version \nbiases while also maximizing data usability and applicability to the broad aims of the  \noverarching research project.", 
  "Though the resulting choices of procedures may vary, critical  \nconsideration and forthright discussion of missing data are likely to help both authors and readers  \nmake appropriate and defensible inferences.", 
  "Cox et al - 2013 - Missing Data \nPre-publication version"
 ]
}