{
 "document_id": "2709286752854281876", 
 "sentences": [
  "Educational Administration \nQuarterly \nhttp://eaq.sagepub.com/ \n\nReassessing the Principal's Role in School Effectiveness: A \nReview of Empirical Research, 1980-1995 \nPhilip Hallinger and Ronald H. Heck \nEducational Administration Quarterly \n 1996 32: 5 \nDOI: 10.1177/0013161X96032001002 \nThe online version of this article can be found at: \nhttp://eaq.sagepub.com/content/32/1/5 \n\nPublished by: \n\nhttp://www.sagepublications.com \nOn behalf of: \n\nUniversity Council for Educational Administration \nAdditional services and information for  \nEducational Administration Quarterly \n\nfound at: \nEmail Alerts:  \n\nhttp://eaq.sagepub.com/cgi/alerts \nSubscriptions:  \n\nhttp://eaq.sagepub.com/subscriptions \nReprints:  \n\nhttp://www.sagepub.com/journalsReprints.nav \nPermissions:  \n\nhttp://www.sagepub.com/journalsPermissions.nav \nCitations:  \n\nhttp://eaq.sagepub.com/content/32/1/5.refs.html \nDownloaded from  \neaq.sagepub.com \n at CHINESE UNIV HONG KONG LIB on January 11, 2011 \n(cid:160) (cid:160) (cid:160) (cid:160) (cid:160) (cid:160) (cid:160) (cid:160) (cid:160) (cid:160) (cid:160) (cid:160) (cid:160) (cid:160) (cid:160) \ffrom the SAGE Social Science Collections.", 
  "All Rights Reserved.", 
  "at CHINESE UNIV HONG KONG LIB on January 11, 2011 \nDownloaded from  \neaq.sagepub.com \n\fDownloaded from  \neaq.sagepub.com \n at CHINESE UNIV HONG KONG LIB on January 11, 2011 \n\fDownloaded from  \neaq.sagepub.com \n at CHINESE UNIV HONG KONG LIB on January 11, 2011 \n\fDownloaded from  \neaq.sagepub.com \n at CHINESE UNIV HONG KONG LIB on January 11, 2011 \n\fDownloaded from  \neaq.sagepub.com \n at CHINESE UNIV HONG KONG LIB on January 11, 2011 \n\fDownloaded from  \neaq.sagepub.com \n at CHINESE UNIV HONG KONG LIB on January 11, 2011 \n\fDownloaded from  \neaq.sagepub.com \n at CHINESE UNIV HONG KONG LIB on January 11, 2011 \n\fDownloaded from  \neaq.sagepub.com \n at CHINESE UNIV HONG KONG LIB on January 11, 2011 \n\fDownloaded from  \neaq.sagepub.com \n at CHINESE UNIV HONG KONG LIB on January 11, 2011 \n\fDownloaded from  \neaq.sagepub.com \n at CHINESE UNIV HONG KONG LIB on January 11, 2011 \n\fDownloaded from  \neaq.sagepub.com \n at CHINESE UNIV HONG KONG LIB on January 11, 2011 \n\fDownloaded from  \neaq.sagepub.com \n at CHINESE UNIV HONG KONG LIB on January 11, 2011 \n\fDownloaded from  \neaq.sagepub.com \n at CHINESE UNIV HONG KONG LIB on January 11, 2011 \n\fDownloaded from  \neaq.sagepub.com \n at CHINESE UNIV HONG KONG LIB on January 11, 2011 \n\fDownloaded from  \neaq.sagepub.com \n at CHINESE UNIV HONG KONG LIB on January 11, 2011 \n\fDownloaded from  \neaq.sagepub.com \n at CHINESE UNIV HONG KONG LIB on January 11, 2011 \n\fDownloaded from  \neaq.sagepub.com \n at CHINESE UNIV HONG KONG LIB on January 11, 2011 \n\fDownloaded from  \neaq.sagepub.com \n at CHINESE UNIV HONG KONG LIB on January 11, 2011 \n\fDownloaded from  \neaq.sagepub.com \n at CHINESE UNIV HONG KONG LIB on January 11, 2011 \n\fDownloaded from  \neaq.sagepub.com \n at CHINESE UNIV HONG KONG LIB on January 11, 2011 \n\fDownloaded from  \neaq.sagepub.com \n at CHINESE UNIV HONG KONG LIB on January 11, 2011 \n\fDownloaded from  \neaq.sagepub.com \n at CHINESE UNIV HONG KONG LIB on January 11, 2011 \n\fDownloaded from  \neaq.sagepub.com \n at CHINESE UNIV HONG KONG LIB on January 11, 2011 \n\fDownloaded from  \neaq.sagepub.com \n at CHINESE UNIV HONG KONG LIB on January 11, 2011 \n\fDownloaded from  \neaq.sagepub.com \n at CHINESE UNIV HONG KONG LIB on January 11, 2011 \n\fDownloaded from  \neaq.sagepub.com \n at CHINESE UNIV HONG KONG LIB on January 11, 2011 \n\fDownloaded from  \neaq.sagepub.com \n at CHINESE UNIV HONG KONG LIB on January 11, 2011 \n\fDownloaded from  \neaq.sagepub.com \n at CHINESE UNIV HONG KONG LIB on January 11, 2011 \n\fDownloaded from  \neaq.sagepub.com \n at CHINESE UNIV HONG KONG LIB on January 11, 2011 \n\fDownloaded from  \neaq.sagepub.com \n at CHINESE UNIV HONG KONG LIB on January 11, 2011 \n\fDownloaded from  \neaq.sagepub.com \n at CHINESE UNIV HONG KONG LIB on January 11, 2011 \n\fDownloaded from  \neaq.sagepub.com \n at CHINESE UNIV HONG KONG LIB on January 11, 2011 \n\fDownloaded from  \neaq.sagepub.com \n at CHINESE UNIV HONG KONG LIB on January 11, 2011 \n\fDownloaded from  \neaq.sagepub.com \n at CHINESE UNIV HONG KONG LIB on January 11, 2011 \n\fDownloaded from  \neaq.sagepub.com \n at CHINESE UNIV HONG KONG LIB on January 11, 2011 \n\fDownloaded from  \neaq.sagepub.com \n at CHINESE UNIV HONG KONG LIB on January 11, 2011 \n\fDownloaded from  \neaq.sagepub.com \n at CHINESE UNIV HONG KONG LIB on January 11, 2011 \n\fDownloaded from  \neaq.sagepub.com \n at CHINESE UNIV HONG KONG LIB on January 11, 2011 \n\fDownloaded from  \neaq.sagepub.com \n at CHINESE UNIV HONG KONG LIB on January 11, 2011 \n\fDownloaded from  \neaq.sagepub.com \n at CHINESE UNIV HONG KONG LIB on January 11, 2011"
 ]
}