{
 "document_id": "2735785981188706723", 
 "sentences": [
  "World Journal of Computer Application and Technology 2(2): 43-47, 2014  DOI: 10.13189/wjcat.2014.020203  \n  http://www.hrpub.org  \nData Mining: A prediction for Student's Performance  \nUsing Classification Method  \nAbeer Badr El Din Ahmed1, Ibrahim Sayed Elaraby2,*  \n2Demonstrator at Higher Institute for Specific Studies, Management Information System Department, Cairo, Egypt  \n1Lecturer at Sadat Academy, Computer Science Department, Cairo, Egypt  \n*Corresponding Author: oe_2010@yahoo.com  \nCopyright \u00a9 2014 Horizon Research Publishing All rights reserved.", 
  "Abstract    Currently  the  amount  huge  of  data  stored  in  educational  database  these  database  contain  the  useful  information  for predict of students performance.", 
  "The  most  useful  data  mining  techniques  in  educational  database  is  classification.", 
  "In this paper, the classification task is used to  predict  the  final  grade  of  students  and  as  there  are  many  approaches that are used for data classification, the decision  tree (ID3) method is used here.", 
  "Keywords  Classification,  Knowledge  Discovery  in  Database  (KDD),  ID3 Algorithm.", 
  "Educational  Data  Mining  \n1.", 
  "Introduction  \nThe advent of information technology in various fields has  lead the large volumes of data storage in various formats like  records, files, documents, images, sound, videos, scientific  data  and  many  new  data  formats.", 
  "The  data  collected  from  different  applications  require  proper  method  of  extracting  knowledge from large repositories for better decision making.", 
  "Knowledge discovery in databases (KDD), often called data  mining,  aims  at  the  discovery  of  useful  information  from  large  collections  of  data  [1].", 
  "The  main  functions  of  data  mining are applying various methods and algorithms in order  to discover and extract patterns of stored data [2].", 
  "The  main  objective  of  this  paper  is  to  use  data  mining  methodologies  to  study  student\u2019s  performance  in  end  General appreciation.", 
  "Data mining provides many tasks that  could  be  used  to  study  the  student  performance.", 
  "In  this  research, the classification task is used to evaluate student's  performance and as there are many approaches that are used  for data classification, the decision tree method is used here.", 
  "2.", 
  "Related Work  \nHan  and  Kamber  (1996)  [3]  describes  data  mining  software that allow the users to analyze data from different  \n\ndimensions,  categorize  it  and  summarize  the  relationships  which are identified during the mining process.", 
  "Brijesh  Kumar  Baradwaj  and  Saurabh  Pal  (2011)  [1]  describes the main objective of higher education institutions  is to provide quality education to its students.", 
  "One  way  to  achieve highest level of quality in higher education system is  by  discovering  knowledge  regarding  enrolment  of  students  in  a  particular  course,  detection  of  abnormal  values  in  the  result  sheets  of  the  students,  prediction  about  students\u2019  performance  and  so  on,  the  classification task is used to evaluate student\u2019s performance  and  as  there  are  many  approaches  that  are  used  for  data  classification, the decision tree method is used here.", 
  "for  prediction  \nfrom  data  \nthat  come  \nAlaa  El-Halees  (2009)  [4]  applied  the  educational  data  mining  concerns  with  developing  methods  for  discovering  knowledge  from  educational  environment.", 
  "used  educational  data  mining  to  analyze  learning behavior.", 
  "Student\u2019s data has been collected from  Database  course.", 
  "After  preprocessing  the  data,  we  applied  data mining techniques to discover association, classification,  clustering and outlier detection rules.", 
  "In each of these four  tasks,  we  extracted  knowledge  that  describes  students'  behavior.", 
  "Mohammed M. Abu Tair and Alaa M. El-Halees (2012) [5]  the  educational  data  mining  concerns  with  developing  methods  for  discovering  knowledge  from  data  that come  from educational domain.", 
  "used educational data  mining  to  improve  graduate  students\u2019  performance,  and  overcome  the  problem  of  low  grades  of  graduate  students  and try to extract useful knowledge from graduate students  data collected from the college of Science and Technology.", 
  "The  data  include  fifteen  years  period  [1993-2007].", 
  "After  preprocessing the data, we applied data mining techniques to  discover  association,  classification,  clustering  and  outlier  detection rules.", 
  "In each of these four tasks, we present the  extracted  knowledge  and  describe  educational domain.", 
  "importance  \nSonali Agarwal, G. N. Pandey, and M. D. Tiwari (2012) [6]  describes  the  educational  organizations  are  one  of  the  important  parts  of  our  society  and  playing  a  vital  role  for  growth and development of any nation.", 
  "Data Mining is an  \n  Data Mining: A prediction for Student's Performance Using Classification Method  \nemerging technique with the help of this one can efficiently  learn  with  historical  data  and  use  that  knowledge  for  predicting  future  behavior  of  concern  areas.", 
  "Growth  of  current education system is surely enhanced if data mining  has been adopted as a futuristic strategic management tool.", 
  "The  Data  Mining  tool  is  able  to  facilitate  better  resource  utilization  terms  of  student  performance,  course  development  and  finally  the  development  of  nation's  education related standards.", 
  "Monika Goyal and Rajan Vohra (2012) [7] applied data  mining  techniques  to  improve  the  efficiency  of  higher  education  institution.", 
  "If  data  mining  techniques  such  as  clustering, decision tree and association are applied to higher  education  processes,  it  would  help  to  improve  students\u2019  performance,  their  life  cycle  management,  selection  of  courses, to  measure their retention rate and  the  grant  fund  management  of  an  institution.", 
  "This  is  an  approach  to  examine the effect of using data mining techniques in higher  education.", 
  "Surjeet  Kumar  Yadav,  Brijesh  Bharadwaj,  and  Saurabh  Pal (2012) [11] used decision tree classifiers are studied and  the experiments are conducted to find the best classifier for  retention data to predict the student\u2019s drop-out possibility.", 
  "Brijesh  Kumar  Baradwaj  and  Saurabh  Pal  (2011)  [12]  Used the classification task on student database to predict the  students division on the basis of previous database.", 
  "K.Shanmuga  Priya  and  A.V.Senthil  Kumar  (2013)  [13]  applied  a  Classification  Technique  in  Data  Mining  to  improve the student's performance and help to achieve the  goal by extracting the discovery of knowledge from the end  semester mark.", 
  "Bhise R.B, Thorat S.S and Supekar A.K.", 
  "(2013) [14] used  data mining process in a student\u2019s database using K-means  clustering algorithm to predict students result.", 
  "Varun Kumar and Anupama Chadha (2013) [15] used of  one  of  the  data  mining  technique  called  association  rule  mining in enhancing the quality of students\u2019 performances at  Post Graduation level.", 
  "Pallamreddy.venkatasubbareddy and Vuda Sreenivasarao  (2010) [16] explained the Decision trees are commonly used  in  operations  research,  specifically  in  decision  analysis,  to  help identify a strategy most likely to reach a goal and use of  decision  trees  is  as  a  descriptive  means  for  calculating  conditional probabilities.", 
  "3.", 
  "Data Mining Definition and  \nTechniques  Data mining refers to extracting or \"mining\" knowledge  from large amounts of data [3].", 
  "Data mining techniques are  used to operate on large volumes of data to discover hidden  patterns  and  relationships  helpful  in  decision  making  [1].", 
  "The  sequences  of  steps  identified  in  extracting  knowledge  from data are: shown in Figure 1.", 
  "Various  algorithms  and  techniques  like  Classification,  \nClustering,  Regression,  Artificial  Intelligence,  Neural  Networks,  Association  Rules,  Decision  Trees,  Genetic  Algorithm,  Nearest  Neighbor  method  etc.,  are  used  for  knowledge discovery from databases.", 
  "These techniques and  methods  in  data  mining  need  brief  mention  to  have  better  understanding.", 
  "Figure 1.", 
  "The Steps of Extracting Knowledge from Data  \n3.1.", 
  "Classification  \nClassification is the most commonly applied data mining  technique, which employs a set of pre-classified examples to  develop a model that can classify the population of records at  large.", 
  "This  approach  frequently  employs  decision  tree  or  neural  network-based  classification  algorithms.", 
  "The  data  classification process involves learning and classification.", 
  "In  Learning  the  training  data  are  analyzed  by  classification  algorithm.", 
  "In classification test data are used to estimate the  accuracy  of  the  classification  rules.", 
  "If  the  accuracy  is  acceptable the rules can be applied to the new data tuples [1].", 
  "In  our  case  study  we  used  ID3  decision  tree  to  represent  logical rules of student final grade.", 
  "3.2.", 
  "Clustering  \nClustering  is  finding  groups  of  objects  such  that  the  objects  in  one  group  will  be  similar  to  one  another  and  different from the objects in another group.", 
  "In educational  data  mining,  clustering  has  been  used  to  group  students  according to their behavior.", 
  "According to clustering, clusters  distinguish  student\u2018s  performance  according  behavior and activates.", 
  "In this paper, students are clustered  into three groups according to their academics, punctuality,  exams and soon [8].", 
  "3.3.", 
  "Association rule  \nAssociation analysis is the discovery of association rules  showing  attribute-value  conditions  that  occur  frequently  together in a given set of data.", 
  "Association analysis is widely  used for market basket or transaction data analysis [9].", 
  "3.4.", 
  "Decision Trees  \n  World Journal of Computer Application and Technology 2(2): 43-47, 2014  \nDecision trees are commonly used in operations research,  specifically in decision analysis, to help identify a strategy  most likely to reach a goal [10].", 
  "4.", 
  "Data Mining Process  \n4.1.", 
  "Data Preparations  \nThe  data  set  used  in  this  study  was  obtained  from  a  student's database used in one of the educational institutions,  on the sampling method of Information system department  from session 2005 to 2010.", 
  "Initially size of the data is 1547  records.", 
  "In this step data stored in different tables was joined  in a single table after joining process errors were removed.", 
  "4.2.", 
  "Data selection and transformation  \nIn  this  step  only  those  fields  were  selected  which  were  required  for  data  mining.", 
  "A  few  derived  variables  were  selected.", 
  "While  some  of  the  information  for  the  variables  was  extracted  from  the  database.", 
  "All  the  predictor  and  response  variables  which  were  derived  from  the  database  are given in Figure 2.", 
  "Figure 2.", 
  "Student Related Variables  \n4.3.", 
  "Decision Tree  \nA decision tree is a flow-chart-like tree structure, where  each internal node is denoted by rectangles, and leaf nodes  are denoted by ovals.", 
  "All internal nodes have two or more  child nodes.", 
  "All internal nodes contain splits, which test the  value of an expression of the attributes.", 
  "Arcs from an internal  node to its children are labeled with distinct outcomes of the  test.", 
  "Each leaf node has a class label associated with it [11].", 
  "4.4.", 
  "The ID3 Decision Tree  \nThe  basic  idea  of  ID3  algorithm  is  to  construct  the  decision  tree  by  employing  a  top-down,  greedy  search  through the given sets to test each attribute at every tree node.", 
  "In  order  to  select  the  attribute  that  is  most  useful  for  classifying a given sets, we introduce a metric - information  gain.", 
  "To find an optimal  way to classify a learning set we  need  some  function  which  provides  the  most  balanced  splitting.", 
  "The  information  gain  metric  is  such  a  function.", 
  "Given a data table that contains attributes and class of the  attributes, we can measure homogeneity of the table based on  the classes.", 
  "The index used to measure degree of impurity is  Entropy [2].", 
  "The Entropy is calculated as follows:  \nSplitting criteria used for splitting of nodes of the tree is  Information  gain.", 
  "To  determine  the  best  attribute  for  a  particular  node  in  the  tree  we  use  the  measure  called  Information Gain.", 
  "The information gain, Gain (S, A) of an  attribute A, relative to a collection of examples S, is defined  \nv Values A \nEntropy Sv \n5.", 
  "Results and Discussion  \nThe  data  set  used  in  this  study  was  obtained  from  a  student's database used in one of the educational institutions,  on the sampling method of Information system department  from session 2005 to 2010.", 
  "Initially size of the data is 1548  records are given in Figure 3.", 
  "Figure 3.", 
  "Data Set  \nTo work out the information gain for A relative to S, we  first need to calculate the entropy of S. Here S is a set of 1547  examples  are  292  \"  Excellent  \",  536  \"Very  Good\",  477  \"Good\", 188 \"Acceptable\" and 54 \"Fail\".", 
  "Entropy S \nExcellent \nExcellent \nAcceptable \nAcceptable \n  Data Mining: A prediction for Student's Performance Using Classification Method  \nTo determine the best attribute for a particular node in the  tree  we  use  the  measure  called  Information  Gain.", 
  "The  information gain, Gain (S, A) of an attribute A, relative to a  collection of sample S.  Gain S Midterm \nEntropy S \nExcellent \nExcellent \nEntropy S \nExcellent \nEntropy S \nEntropy S \nAcceptable \nAcceptable \nEntropy S \nAcceptable \nEntropy S Fail \nMidterm has the highest gain, therefore it is used as the  \nroot node as shown in figure 4.", 
  "This process goes on until all data classified perfectly or  run out of attributes.", 
  "The knowledge represented by decision  tree  can  be  extracted  and  represented  in  the  form  of  IF-THEN rules as shown in Table 1.", 
  "The Table 1 discusses 8 cases:  Case 1 - If Midterm Mark = Excellent, Lab Test Grade =  Good, Student Participate = No, Homework = No, Seminar  \nPerformance = Good, Department = Scientific Mathematics  then Final Grade = Very Good.", 
  "Case 2 \u2013 If Midterm Marks = Excellent, Lab Test Grade =  Good,  Student  Participate  =  No,  Attendance  =  Good,  Homework  =  No,  Department  =  Secondary  Technical  Commercial then Final Grade = Very Good.", 
  "Case 3 - If Midterm Marks = Excellent, Lab Test Grade =  Good,  Student  Participate  =  No,  Attendance  =  Good,  Homework  =  No,  Department  =  Secondary  Industrial  Technical then Final Grade = Very Good.", 
  "Case 4 - If Midterm Mark = Excellent, Lab Test Grade =  \nPoor, Attendance = Good then Final Grade = Very Good.", 
  "Case 5 - If Midterm Mark = Excellent, Lab Test Grade =  Average, Attendance = Good then Final Grade = Excellent.", 
  "Case 6 - If Midterm Mark = Excellent, Lab Test Grade =  Average, Attendance = Poor then Final Grade = Very Good.", 
  "Case 7 - If Midterm Mark = Very Good, Lab Test Grade =  Good,  Homework  =  No,  Seminar  Performance  =  Good,  Student Participate = No then Final Grade = Very Good.", 
  "Case 8 - If Midterm Mark = Very Good, Lab Test Grade =  Good,  Homework  =  No,  Seminar  Performance  =  Good,  Student  Participate  =  No,  Department  =  Scientific  Mathematics then Final Grade = Very Good.", 
  "Figure 4.", 
  "Midterm as root node  \n  World Journal of Computer Application and Technology 2(2): 43-47, 2014  \nTable 1.", 
  "Rule Set generated by Decision Tree  \nIF Midterm='Excellent' AND LG='Good' AND SP='No' AND HW='No' AND SEM='Good' Dep='Scientific Mathematics' THEN  \nFG='Very Good'  \nIF Midterm='Excellent' AND LG='Good' AND SP='No' AND ATT='Good' AND HW='No' AND Dep=' Secondary Technical  \nIF Midterm='Excellent' AND LG='Good' AND SP='No' AND ATT='Good' AND HW='No' AND Dep=' Secondary Industrial  \nCommercial' THEN FG='Very Good'  \nTechnical' THEN FG='Very Good'  \nIF Midterm='Excellent' AND LG='Poor' AND ATT='Good' THEN FG='Very Good'  \nIF Midterm='Excellent' AND LG='Average' AND ATT='Good' THEN FG='Excellent'  \nIF Midterm='Excellent' AND LG='Average' AND ATT='Poor' THEN FG='Very Good'  \nIF Midterm='Very Good' LG='Good' AND HW='No' AND SEM='Good' AND SP='No' THEN FG='Very Good'  IF Midterm='Very Good' LG='Good' AND HW='No' AND SEM='Good' AND SP='No' AND Dep='Scientific  \nMathematics' THEN FG='Very Good'  \n\n6.", 
  "Conclusion  \nIn  this  paper,  decision  tree  method  is  used  on  student's  database to predict the student's performance on the basis of  student's  database.", 
  "We  use  some  attribute  were  collected  from  the  student's  database  to  predict  the  final  grade  of  student's.", 
  "This study will help the student's to improve the student's  performance, to identify those students which needed special  attention  to  reduce  failing  ration  and  taking  appropriate  action at right time."
 ]
}