{
 "document_id": "2965781421348501944", 
 "sentences": [
  "Rapport 18  \nPromoting and assessing  value creation in   communities and networks:  a conceptual framework  \nEtienne Wenger  Beverly Trayner  Maarten de Laat  \nThis publication is made possible with the financial support of the Dutch Ministry of Education,  Culture and Science.", 
  "Copyright 2011 Ruud de Moor Centrum  All rights reserved  Printed in the Netherlands  \nNo part of this publication may be reproduced, stored in or introduced into a retrieval system, or  transmitted, in any form, or by any means (electronic, mechanical, photocopying, recording, or  otherwise), without the prior permission of the publisher.", 
  "Requests for permission should be  directed to secretariaat.rdmc@ou.nl.", 
  "ISBN: 978 90 358 XXXX X  \nPrinted in The Netherlands.", 
  "Contents   \nForeword  \n1  Introduction  \n2  Communities and networks  \n2.1  Descriptions and distinctions  \n2.2  Two aspects of the social fabric of learning  \n2.3  Community and network as development processes  \n2.4  Complementarity of community and network structures  \n3  Framing narratives  \n3.1  Personal and collective narratives   \n3.2  Narratives as accounts and as aspirations  \n4  Cycles of value creation in networks and communities  \n4.1  Definitions  \n4.2  Reflecting on value creation: key questions  \n5  Measures of value creation for each cycle  \n6  Value-creation stories  \n6.1  Value-creation stories: a special genre of stories  \n7  Building a picture of value creation  \n7.1  Leveraging the complementarity of indicators and stories  \n7.2  Cumulative evidence  \n7.3   Value-creation matrix: combining stories and indicators  \n8  Toolkit: Telling stories about the value of communities and networks  \n8.1  The overall value narrative  \n\f8.2  Specific value-creation stories  \n9"
 ]
}