{
 "document_id": "3259417254673479373", 
 "sentences": [
  "\nThe Influence of School Administrators on Teacher Retention Decisions  \nDonald Boyd, Pamela Grossman, Marsha Ing, Hamilton Lankford, and James Wyckoff  \nDecember, 2009  \nWhen given the opportunity, many teachers choose to leave schools serving large  \nconcentrations of poor, low-performing and non-white students (Boyd et.", 
  "al., 2005; Hanushek,  \nKain, & Rivkin, 2004; Scafidi, Sjoquist, & Stinebrickner, 2005).", 
  "While a substantial research literature  \nhas documented this phenomenon, far less research effort has gone into understanding what  \nfeatures of the working conditions in these schools drive this relatively higher turnover rate (see  \nLoeb, Darling-Hammond and Luczak (2005) for an exception to this).", 
  "Excessive teacher turnover  \ncan be costly and detrimental to instructional cohesion in schools (National Commission on  \nTeaching and America\u2019s Future, 2003).", 
  "Consequently, many policies, such as mentoring programs  \nand retention bonuses, have aimed to stem teacher attrition, particularly at those schools that  \nexperience high teacher turnover.", 
  "Yet, without a better understanding of the reasons teachers leave,  \nthese approaches may not be as effective as they could be at reducing detrimental attrition.", 
  "This  \nstudy contributes to our understanding of teacher attrition by modeling the relationship between  \nteacher turnover and school contextual factors \u2013 including teachers\u2019 influence over school policy,  \nthe effectiveness of the school administration, staff relations, student behavior, safety, and facilities.", 
  "Using a unique dataset that combines longitudinal survey data with district administrative files, we  \nfind that school administration plays a particularly important role in teachers\u2019 career decisions.", 
  "In  \nwhat follows, we briefly review relevant prior research to motivate our study, describe our data and  \nmethods, and present the results.", 
  "The final section discusses the implications of these results,  \nlimitations of the study, and directions for future research.", 
  "Background and Motivation  \nAcross the United States, approximately half a million teachers leave their schools each year.", 
  "Only 16 percent of this teacher attrition at the school level can be attributed to retirement.", 
  "The  \nremaining 84 percent of the teacher turnover is due to teachers transferring between schools and  \nteachers leaving the profession entirely (Alliance for Excellent Education, 2008).", 
  "In New York City  \n\nalone, over 5,000 teachers left their schools in 2005 \u2013 with eight percent of teachers transferring to  \nanother school and ten percent leaving the New York City school system.", 
  "Recent literature has  \nbegun to investigate the complexities of teacher turnover - for example, distinguishing between  \npermanent and temporary exits from teaching; as well as making distinctions among transfers within  \ndistricts, transfers across districts, and exits from teaching all together (see DeAngelis & Preseley,  \n2007; Johnson, Berg, & Donaldson, 2005).", 
  "In general, previous teacher retention research has  \nfocused either on the relationship between turnover and teachers\u2019 own characteristics (i.e., what  \ntypes of teachers are more likely to leave) or between turnover and school characteristics (i.e., what  \ntypes of schools experience higher teacher turnover).", 
  "Teacher background characteristics and work experience consistently predict turnover.", 
  "For  \nexample, turnover is higher among young and old teachers compared to middle-aged ones (see  \nAllensworth, Ponisciak, & Mazzeo, 2009; Guarino, Santibanez, & Daley, 2006; Johnson, Berg, &  \nDonaldson, 2005); and among less experienced teachers compared to more experienced ones (see  \nIngersoll, 2001; Marvel, Lyter, Peltola, Strizek, & Morton, 2006).", 
  "The research linking teacher  \ngender, race or ethnicity to turnover is less consistent (see Allensworth, Ponisciak, & Mazzeo, 2009;  \nGuarino, Santibanez, and Daley, 2006; Johnson, Berg, and Donaldson, 2005).", 
  "Teachers\u2019 preparation  \nexperiences and pathways into teaching are also related to attrition behavior.", 
  "On average, teachers  \nfrom early-entry routes (such as Teach for America and the New York City Teaching Fellows) are  \nmore likely to leave than teachers from more traditional routes (Boyd et.", 
  "al., 2006).", 
  "Finally, teacher  \nquality measures have been linked with attrition behavior but in somewhat inconsistent ways.", 
  "Teachers with stronger qualifications as measured by their own test scores and the competitiveness  \nof the undergraduate institution from which they received degrees are more likely to leave teaching  \n(Boyd et.", 
  "al., 2005).", 
  "However, teachers who are more effective as measured by the test score gains  \n\nof the students in their classrooms are less likely to leave teaching (Boyd et.", 
  "al., 2007; Goldhaber,  \nGross, & Player, 2007; Hanushek, Kain, O\u2019Brien, & Rivkin, 2005).", 
  "Research on the relationship between teacher retention and school characteristics has  \nfocused primarily on measures of the school\u2019s student composition.", 
  "Schools with large  \nconcentrations of low-income, non-white, and low-achieving students are the most likely to  \nexperience high teacher turnover (Boyd et.", 
  "al., 2005; Carroll, Reichardt, Guarino, & Mejia, 2000;  \nHanushek, Kain, & Rivkin, 2004; Scafidi, Sjoquist, & Stinebrickner, 2005).", 
  "For example, in New  \nYork City, there is a 27 percent attrition rate of first year teachers in the lowest performing schools  \nas compared to 15 percent in the schools having the highest student achievement.", 
  "Some studies  \nhave examined the relationship between teacher turnover and school or district factors (see Buckley,  \nSchneider and Shang, 2005; Hirsh and Emerick, 2006).", 
  "Unlike the studies predicting turnover by  \nstudent composition cited above which utilize large, longitudinal datasets, most of these studies rely  \nupon surveys of teachers asking about their perceptions of working conditions and likelihood of  \nleaving.", 
  "This survey data likely produce less accurate models of teacher turnover because a teacher\u2019s  \nreport of working conditions could be affected by whether or not she or he plans to leave the  \n\nSome state databases are rich enough to model the relationship between teacher turnover  \nand certain school or district factors.", 
  "For example, Imazeki (2005) uses data from Wisconsin and  \nfinds that teacher retention is higher when salaries are higher.", 
  "Loeb, Darling-Hammond and Luczak  \n(2005) use data from California and find that, although schools' racial compositions and proportions  \nof low-income students predict teacher turnover, salaries and working conditions \u2013 including large  \nclass sizes, facilities problems, multi-track schools, and lack of textbooks \u2013 are strong and significant  \nfactors in predicting high rates of turnover.", 
  "In Chicago Public Schools, Allensworth, Ponisciak, and  \nMazzeo (2009) find that elementary schools with low student test scores retain a low proportion of  \n\ntheir teachers from year to year.", 
  "However, they go beyond student composition by including  \nmeasures of school working conditions, such as teacher reports of how well they work with their  \nprincipal, parents and other teachers.", 
  "The researchers find that these school working conditions help  \nexplain much of the variability in teacher retention decisions.", 
  "The researchers use administrative  \nrecords from over 50,000 teachers and survey responses from a sample of teachers and students.", 
  "Ladd (2009) uses administrative and survey data on North Carolina schools.", 
  "She finds that  \nteachers' perceptions of school leadership, measured through school-level averages of responses to  \nschool climate surveys, are most predictive of teachers' intentions to remain in the school or to find  \nalternative jobs.", 
  "Ladd\u2019s (2009) finding is in keeping with other research that also finds effects of  \nschool leadership.", 
  "In a meta-analysis of 70 empirical studies, Waters, Marzano, and McNulty (2003)  \nfind the average effect size of school leadership, broadly defined, on student achievement to be  \napproximately 0.25.", 
  "The school leadership effects in the studies they reviewed operated via a variety  \nof mechanisms -  including building a sense of community, establishing school routines, providing  \nteachers with necessary resources, and advocating for the school to stakeholders.", 
  "Leithwood,  \nSeashore Louis, Anderson & Wahlstrom (2004) and Hallinger (2005) similarly conduct reviews of  \nthe literature on how school leadership impacts schools and conclude that leaders tend to impact  \nstudent learning through their influence on school staff and structures.", 
  "The Schools and Staffing Surveys (SASS) and related Teacher Follow-Up Surveys (TFS)  \nfrom the National Center for Education Statistics also provide opportunities to model actual teacher  \nturnover using measures of school context that are richer than those typically found in state  \nadministrative databases.", 
  "Using these data, Ingersoll (2001) finds that teacher attrition is higher in  \nschools with low salaries, poor support from school administration, student discipline problems, and  \nlimited faculty input into school decision-making, even after controlling for student composition,  \nschool level, and school location.", 
  "Grissom (2008) analyzes more recent SASS and TFS data and  \n\nfinds evidence that principal leadership, an orderly schooling environment, greater classroom  \nautonomy, and increased professional development predict lower teacher turnover after controlling  \nfor student and teacher demographics.", 
  "The advantage of the SASS/TFS data is that they are  \nnationally representative.", 
  "The disadvantage is the potential for common source bias that arises from  \nthe use of survey data gathered from the same teachers that are observed staying or leaving their  \nschools a year later.", 
  "As an example of common source bias, some teachers might systematically  \nrespond more positively or negatively to all items compared to other teachers in the same situation.", 
  "A correlation between teachers' responses to two items might then be driven not by the underlying  \nrelationship between these two items, but by the separate overall positive or negative outlook that  \nthe teacher has.", 
  "This study does not relate teacher retention to teacher effectiveness but extends prior  \nresearch by using data on all schools and teachers in the New York City public school district to  \nuncover the relationship between school working conditions and teacher attrition.", 
  "A survey of first  \nyear teachers in the spring of 2005, a follow-up survey of those same teachers a year later, and  \nmatched district administrative data allow us to link teachers\u2019 assessments of working conditions to  \ntheir own career trajectories as well as the retention behavior of all other teachers in their schools.", 
  "Less-satisfied teachers may report worse working conditions, even if other teachers in the same  \ncontext would not assess the conditions as poor.", 
  "We are able to account for this potential common  \nsource bias by examining the career paths of other teachers in the same school, instead of just the  \ncareer decisions of the teachers reporting on the working conditions.", 
  "There is a potential drawback  \nof this approach because the source of our information on working conditions stems only from first  \nyear teachers.", 
  "To the extent that the working conditions experienced by first year teachers differ  \nfrom those experienced by other teachers, first year teacher responses to the survey will be  \ninaccurate measures of the working conditions faced by more experienced teachers.", 
  "We run models  \n\nboth with teachers' own assessments and with other teachers' assessments in order to provide all the  \navailable information.", 
  "In addition, we are able to triangulate these findings with surveys of teachers  \nwho recently left teaching in NYC asking them what factors were important in their decision to  \nleave.", 
  "In these analyses, we address the following research questions:  \n1.", 
  "What are first year teachers\u2019 perceptions of school contextual factors?", 
  "2.", 
  "What is the relationship between school contextual factors and teacher attrition?", 
  "a.", 
  "How are first year teachers\u2019 assessments of school contextual factors related to their own  \nretention decisions after accounting for other measured school and teacher characteristics?", 
  "b.", 
  "How do first year teachers\u2019 assessments of school contextual factors predict the turnover  \ndecisions of other teachers in the same school?", 
  "3.", 
  "What aspects of the school context do former teachers report as being the most influential in their  \ndecisions to leave teaching?", 
  "Survey of First Year Teachers  \nIn the spring of 2005, we administered a survey to all first year teachers in New York City  \n(Teacher Policy Research, 2005).", 
  "All surveys for this project are available at  \nhttp://www.teacherpolicyresearch.org.", 
  "Based on administrative data on first year teachers for other  \nschool years before and after the 2004-2005 school year, we find that this sample of first year  \nteachers are similar to other cohorts of first year teachers in terms of demographic, background, and  \nretention decisions.", 
  "These characteristics are explained further below.", 
  "The survey was completed by  \n4,360 teachers (just over 70 percent response rate) and consisted of over three hundred questions  \ndivided into the following areas: preparation experiences, characteristics of the schools in which they  \nare teaching, teaching practices, and goals.", 
  "Participation in the survey was voluntary and took  \n\napproximately 25 minutes.", 
  "Participants received $25 after completing the survey.", 
  "We use the items  \nrelated to the characteristics of the schools in which they are teaching for this particular study.", 
  "These  \nitems were designed to measure six contextual factors: teacher influence, administration, staff  \nrelations, students, facilities, and safety.", 
  "More than half of the questions came directly from the  \nNational Center for Education Statistics Schools and Staffing Surveys (SASS).", 
  "We supplemented  \nthese questions based on the research literature (see for example, Allensworth, Ponisciak, & Mazzeo,  \n2009), researchers\u2019 prior experience in developing other surveys in the district (Boyd et.", 
  "al., 2006),  \nand through consultation with teachers and administrators in the district.", 
  "For example, the SASS  \nquestions on working conditions do not include measures of facilities.", 
  "Because district personnel  \nsuggested that this was an important factor to consider - particularly building temperature and the  \navailability of quiet space for teachers to work - we added questions on this dimension of work life.", 
  "Table 1 provides descriptive statistics for the individual survey items and the Cronbach\u2019s  \nalpha for the factors.", 
  "Each of the individual items, except those measuring safety, comes from  \nteachers\u2019 responses on a five-point scale.", 
  "The teacher influence factor has an alpha of 0.78 and  \ncomprises six elements.", 
  "On average teachers responded that they had the most influence in  \ndetermining the amount of homework assigned and the least in selecting textbooks and other  \ninstructional materials.", 
  "The administration factor has an alpha of 0.89 and includes seven elements,  \nwith administrators being rated highest on evaluating teachers\u2019 performances fairly and lowest on  \nconsulting staff before making decisions that affect them.", 
  "Administration, in this case, could include  \nnot only the principal but other administrators such as assistant principals.", 
  "The staff relations factor  \nhas an alpha of 0.77 and comprises five survey items.", 
  "The respondents are generally positive about  \nall aspects of their relationships with other staff members, being the most positive about getting  \ngood advice from other teachers in their school when they have a teaching problem.", 
  "The  \nstudentsfactor is also comprised of five elements and has an alpha of 0.68.", 
  "Of these, the teachers on  \n\naverage are most likely to feel that they get to know personally many students who are not in their  \nclass and the least likely to feel that their students receive a lot of support for learning outside of  \nschool.", 
  "The facilities factor, including six of the survey items, has an alpha of 0.72.", 
  "On average the  \nteachers are the most positive about having textbooks in their classrooms that are up to date and in  \ngood physical condition and the least positive about their school having quiet spaces for teachers to  \nwork when they are not teaching.", 
  "Since the safety factor includes only two dichotomous survey  \nitems, a factor score was not calculated.", 
  "Instead, the safety variable represents the sum of the items.", 
  "Thirty percent of the first year teachers surveyed report that a student from their school has  \nthreatened to injure them, and 16 percent state that a student has physically attacked them.", 
  "Follow-Up Surveys  \nThe concerns and views of first year teachers might differ from more experienced teachers  \nso in the spring of 2006, we administered two follow-up surveys.", 
  "The first was a survey for those  \nteachers who completed the first year survey who remained in teaching for a second year (Teacher  \nPolicy Research, 2007a).", 
  "In this follow-up survey, teachers were asked about their teaching  \nexperience, their views concerning those experiences, and their future plans.", 
  "In this study, we focus  \non items from the follow-up survey that asked teachers who had at some point considered leaving  \ntheir first teaching position in NYC about the factors that caused them to consider leaving and their  \ndissatisfaction with different aspects of teaching, such as teaching assignments and school facilities.", 
  "The survey had a 72 percent response rate (n=1,587).", 
  "A second follow-up survey about reasons for  \nleaving teaching was administered to all teachers who left teaching in New York City after the 2004- \n2005 school year (Teacher Policy Research, 2007b).", 
  "The response rate on this survey was 61 percent  \n(n=368).", 
  "We describe responses on these surveys to two sets of questions, one asking teachers about  \nthe factors influencing their decisions to leave and another asking them the degree to which their  \ndissatisfaction with different aspects of teaching influenced their retention decisions.", 
  "Similar to the  \n\ndevelopment and validation process for the survey of first year teachers, both of these follow-up  \nsurveys are based on the Schools and Staffing Surveys, on the research literature, on prior  \nexperiences, and on consultation with school district personnel.", 
  "Administrative Data on Teachers and Schools  \nWe matched survey responses to administrative data provided by the New York City  \nDepartment of Education (NYCDOE) and New York State Education Department (NYSED) using  \nunique teacher identification numbers.", 
  "The administrative data include information on the teachers  \nand the student demographics at their schools.", 
  "The data on teachers include demographic (gender,  \nethnicity, age), background (initial pathway into teaching and certification exam scores), and  \nretention data from NYCDOE and NYSED.", 
  "We define teachers\u2019 initial pathway into teaching using  \nfive categories: college recommended, temporary license, New York City Teaching Fellows  \n(NYCTF), Teach for America (TFA), and other.", 
  "NYCTF and TFA are early-entry or alternative  \nroutes into teaching.", 
  "A temporary license pathway indicates that the individual failed to complete  \none or more requirements for a teaching certificate but was allowed to teach under the temporary  \nlicense provisions, whereby a school district can request NYSED to allow a specific individual to  \nteach in a specific school for a temporary period.", 
  "The other category includes all other pathways to  \nteaching, such as internship certificates and those with certification through reciprocity agreements  \nwith other states.", 
  "As part of New York State certification requirements, teachers must pass the Liberal Arts  \nand Science Test (LAST), which consists of a multiple-choice component and written component,  \nintended to \u201cmeasure knowledge and skills in the liberal arts and sciences, in teaching theory and  \npractice, and in the content area of the certificate title\u201d (NYSED, 2008).", 
  "There are five subareas  \nwithin the LAST multiple-choice component: scientific, mathematical, and technological processes;  \nhistorical and social scientific awareness; artistic expression and humanities; communication and  \n\nresearch skills; and written analysis and expression.", 
  "The written component requires test takers to  \nprepare a written response to an assigned topic which is judged on focus and unity; appropriateness;  \nreason and organization; support and development; structure and conventions (Pearson Education,  \n2006).", 
  "We use scores on the LAST exam and whether teachers passed the multiple-choice and  \nwritten component on their first attempt in the analyses.", 
  "Table 2 provides descriptive statistics for the analysis variables for schools and for first year  \nteachers.", 
  "(Descriptive statistics on all NYC teachers are available upon request.)", 
  "Three quarters of  \nthe first year teachers are female, 12 percent black, ten percent Hispanic and 70 percent white.", 
  "They  \nare 30 years of age, on average, and 91 percent passed their general knowledge certification exam on  \ntheir first attempt.", 
  "Approximately 40 percent entered teaching through a traditional education  \nprogram while another approximately 40 percent entered the profession through one of the two  \nlarge early entry programs, NYCTF and TFA.", 
  "On average, the schools where these first year  \nteachers work serve just over 70 percent students eligible for subsidized lunch, 36 percent black  \nstudents, and 41 percent Hispanic students.", 
  "Using data on job assignments, we are able to create measures of teacher attrition, our  \ndependent variable in the analyses below.", 
  "Table 2 shows that 80 percent of first year teachers who  \nresponded to our survey remained in the same school the following year, while ten percent changed  \nschools within NYC and nine percent left teaching in NYC.", 
  "The same statistics for the full sample  \nof NYC teachers (not shown in the table) are 82 percent staying in the same school, eight percent  \nswitching schools, and ten percent leaving the district.", 
  "We use multinomial logistic regression to estimate the relationship between teacher and  \nschool characteristics and teacher retention decisions.", 
  "The dependent variable is a three-level  \n\nmeasure indicating whether in the following school year, the teacher (1) stayed at the same school,  \n(2) transferred to another school within New York City, or (3) left New York City schools.", 
  "The  \nmodels control for teacher background characteristics including initial pathway into teaching,  \ngender, ethnicity, age, whether they passed the LAST exam on their first attempt, and their score on  \nthe LAST exam.", 
  "The models also include controls for school characteristics that might affect teacher  \nretention \u2013 the proportion of students eligible for subsidized lunch, student ethnicity, grade level,  \nand enrollment.", 
  "After controlling for these teacher and school characteristics, we explore whether  \nthe school contextual factors are predictive of teacher retention decisions.", 
  "Our variables of interest are the six school contextual factors (teacher influence,  \nadministration, staff relations, students, facilities, and safety) derived from the survey of first year  \nteachers.", 
  "We look at the contribution of each factor separately and then simultaneously include all  \nsix factors in the models.", 
  "In the first set of analyses, we model the relationship between first year  \nteachers\u2019 assessments of these school factors and their own retention a year later.", 
  "We then use first  \nyear teachers\u2019 survey responses aggregated at the school-level to model the retention of all teachers  \nin New York City who did not fill out the survey.", 
  "In other words, we use the evaluations of school  \nworking conditions by one set of teachers (first year teachers) to predict the retention of other  \nteachers at that school.", 
  "As discussed above, in this way we remove the part of reporting error by  \nfirst year teachers that reflects individual satisfaction with teaching.", 
  "Finally, we run a further check  \non the relationship between school context and teacher attrition by examining teacher responses on  \nthe follow-up surveys.", 
  "Using basic descriptive statistics we assess teachers\u2019 responses to questions  \naddressing why they left or why they considered leaving the school that they were teaching in during  \nthe spring of their first year of teaching in New York City.", 
  "Teachers\u2019 Assessments of School Contextual Factors  \nAs described above and in Table 1, we use first year teachers\u2019 survey responses to create six  \nmeasures of school contextual factors: teacher influence, administration, staff relations, students,  \nfacilities, and safety.", 
  "Each factor has a mean of zero and a standard deviation of one and is the  \nproduct of a principal components factor analysis that analyzes the total variance for each factor and  \nnot the common variance.", 
  "Table 3 reports the correlations among the factors aggregated to the  \nschool level to create school-level averages.", 
  "Not surprisingly, schools with more positive working  \nconditions on one dimension, also tend to have more positive working conditions on the other  \ndimensions.", 
  "The administration factor is particularly highly correlated with both the students and  \nfacilities factors.", 
  "Table 4 gives the correlation between each of these measures and school characteristics.", 
  "Each of the school characteristics is measured as a percentile within the distribution of all schools in  \nthe city that serve the same or similar grade range (elementary, middle, or high school).", 
  "We use the  \nwithin-level percentiles because of differences in the distribution of students across schools.", 
  "We do  \nnot want to confound school level with student attributes in the interpretation of the correlations.", 
  "By using the within-level percentiles we take out the differences across levels and focus on the  \nrelationship between the school contextual factors and school characteristics within each of the  \n\nAlmost completely across the board, schools with a lower proportion of students eligible for  \nsubsidized lunch demonstrate strong teacher-reported working conditions.", 
  "High schools are an  \nexception to this pattern; however the percent of students eligible for subsidized lunch is an  \ninaccurate proxy for poverty in high schools because the stigma associated with participating in this  \nopt-in program might be greater in high schools compared to elementary and middle schools.", 
  "Generally, a similar pattern holds for schools as measured by the percent of black students and  \n\nHispanic students \u2013 the greater the percentage of black or Hispanic students at a school, the lower  \nthe average ratings of working conditions across the six factors.", 
  "There are a few exceptions where  \nthe relationship between student ethnicity and perceived working conditions are not significant, such  \nas the proportion of black students and teacher influence in middle schools, however the prevalence  \nof common trends is striking.", 
  "Significant relationships between school context factors and  \nenrollment are less prevalent.", 
  "Not surprisingly, larger elementary, middle and high schools tend to  \nhave less teacher influence.", 
  "Elementary schools with more students tend to have poorer facilities,  \naccording to the first year teachers surveyed.", 
  "Surprisingly, larger elementary schools appear to have  \nmore positive safety ratings.", 
  "With the exception of teacher influence, the school context measures  \ndo not have a strong relationship with school size at the middle and high school levels.", 
  "School Contextual Factors and Teacher Retention  \nWe use multinomial logistic regression to examine the relationship between the six school  \ncontextual factors and teacher retention decisions.", 
  "Table 5 presents the results for first year teachers  \nwith and without school contextual factors but including teacher characteristics and student  \ndemographics.", 
  "Table 6 includes the estimates with each factor entered separately and a full model  \nwith all factors entered together.", 
  "We present both sets of results because of the relatively high  \ncorrelation among the measures of school context.", 
  "Conceptually, the effects of these school context  \nfactors are not independent.", 
  "For example, we might expect that effective principals are able to  \nmaintain a safe school environment.", 
  "While conceptually there are concerns about a lack of  \nindependence, we statistically checked for multicollinearity among the school context factors by  \nlooking at how the odds of leaving change when all of the context measures are one standard  \ndeviation above, at or below the mean.", 
  "Odds were calculated as compared to a white, female teacher  \nof average age who passed the LAST exam with an average LAST score and came from a college  \nrecommended route who teaches at a school with the mean percentage of students receiving free  \n\nlunch, mean percent African American students, mean percent Hispanic students, and mean school  \nenrollment.", 
  "We find no differences in the odds for one standard deviation above or below the mean  \nand conclude that while multicollinearity may be a conceptual concern, it is not a statistical problem.", 
  "Both tables report the results as relative risk ratios, the odds of transferring or quitting relative to the  \nodds of remaining in the same school.", 
  "The base model with only teacher characteristics and student demographics shows that,  \nconsistent with prior research, teachers are more likely to leave schools with a higher proportion of  \nblack and Hispanic students, both to transfer and to leave the district.", 
  "New York City Teaching  \nFellows are more likely to transfer across schools than teachers from other routes, and teachers who  \npassed the teacher certification exam on their first attempt are far more likely to leave teaching in  \nNYC than those who failed on their first attempt.", 
  "Older teachers are also more likely to transfer to  \nother schools and to leave teaching.", 
  "The second set of columns in Table 5 show that once we  \ncontrol for school context factors (presented in Table 6) the coefficients on the proportion of black  \nstudents and on the proportion of Hispanic students drop meaningfully in magnitude.", 
  "In addition,  \nthe point estimates are no longer statistically distinguishable from one (no effect) for the Hispanic- \nstudent concentration and are only distinguishable from one for the black-student concentration for  \nleaving New York City schools, not for transferring across schools.", 
  "Table 6 presents the results for specifications in which the six school context factors are  \nadded to the model, first separately and then simultaneously.", 
  "All of the variables in Table 5 are  \nincluded in the models reported in Table 6 but the relative risk ratios associated with these variables  \nare omitted for brevity.", 
  "When we add each school contextual factor separately to this model, we find  \nthat all of the factors except safety significantly predict teachers\u2019 retention decisions.", 
  "More  \nspecifically, in these estimates we find the effect of respondents\u2019 perceptions of teachers\u2019 influence is  \nrelated to decisions of the respondent to transfer but not to leave teaching in New York City; while  \n\ntheir perceptions of administration, staff relations, students, and facilities are related to both their  \ndecisions to transfer and to leave teaching.", 
  "In all cases, the relationships are negative \u2013 that is, the  \nmore positively the teachers perceive these school contextual factors, the less likely they are to  \ntransfer to another school or to leave teaching altogether.", 
  "In the full model, including all six school contextual factors and the controls, the  \nadministration factor is the only one that significantly predicts teacher retention decisions after  \ncontrolling for other school and teacher characteristics.", 
  "Teachers who have less positive perceptions  \nof their school administrators are more likely to transfer to another school and to leave teaching in  \nNYC.", 
  "A standard deviation increase in a teacher\u2019s assessment of the administration decreases his or  \nher likelihood of transferring by approximately 44 percent relative to staying in the same school and  \ndecreases his or her likelihood of leaving teaching in NYC by approximately 28 percent relative to  \nstaying in the same school.", 
  "We use the coefficients in this model to predict the probability of a  \nteacher transferring under different working conditions.", 
  "For example, we estimate that if all the  \nworking conditions measures were average, a white, female teacher, from a college recommended  \nroute in a school with average student composition would have a 7.6 percent probability of leaving  \nand a 10.0 percent probability of transferring.", 
  "If the working conditions measures were one standard  \ndeviation above average, these probabilities would drop to 4.1 percent and 6.7 percent; whereas if  \nthe working conditions measures were one standard deviation below average, these probabilities  \nwould increase to 13.5 percent and 14.8 percent.", 
  "Working conditions, and especially administrative  \nsupport, account for large differences in attrition rates.", 
  "To separate the effects of these school contextual factors from teacher characteristics, we  \nalso predict the retention of all other teachers at the school using the perceptions of the first year  \nteachers.", 
  "More specifically, we use a school-level average for each factor based on the first year  \nteachers\u2019 survey responses to predict teacher retention decision for all teachers at the school  \n\nexcluding the first year teacher respondents.", 
  "Table 7 presents these results and shows that, similar to  \nour previous analyses, when each school contextual factor is included separately, administration,  \nstaff relations, students, and facilities factors significantly predict decisions to transfer and to leave  \nteaching in NYC.", 
  "The more positive first year teachers\u2019 assessments of these factors, the more likely  \nother teachers at the school are to stay.", 
  "Unlike the results for first year teachers, perceptions of  \nteacher influence significantly relate to decisions to leave teaching but not to transfer within NYC,  \nand perceptions of safety relate to transferring but not leaving.", 
  "In the model including all school  \ncontext factors and controls, teacher influence is somewhat surprisingly positively associated with  \nteachers\u2019 decisions to transfer across schools.", 
  "However, here again, administration emerges as the  \nstrongest predictor of retention relative to both transferring and leaving.", 
  "Teachers\u2019 Stated Reasons for Leaving or Considering Leaving  \nThe analyses presented above demonstrates that a teacher\u2019s reporting of working conditions  \npredicts his or her own attrition in the following year as well as the attrition of other teachers in the  \nschool.", 
  "The support of administrators emerges as a particularly important factor in retention  \ndecisions.", 
  "While this type of longitudinal analysis reduces potential biases resulting from self-reports  \nof working conditions linked to concurrent self-reports of satisfaction or plans for the future \u2013 data  \nthat many previous studies have used (see for example Ingersoll, 2001; Johnson & Birkeland, 2003)  \n\u2013 it is worth comparing these results to teachers\u2019 direct answers when asked why they left or why  \nthey considered leaving.", 
  "In surveys during the fall of 2005, we asked former teachers (who had left teaching after  \ntheir first year, 2004-05) why they left, and we asked current teachers (now in their second year of  \nteaching) who indicated that they considered leaving their school about factors that led them to  \nconsider leaving.", 
  "Each group of teachers was asked four questions.", 
  "The first asked them to indicate  \nhow important each of 12 factors was in their decision to leave their 2004-2005 NYC teaching  \n\nposition using a five-point scale ranging from not important to extremely important.", 
  "(These factors  \nare listed in Figure 1.)", 
  "The second asked them to choose the one factor from this list that was their  \nmost important consideration.", 
  "The third question asked them to indicate how important their  \ndissatisfaction with each of 12 aspects of their job was in their decision to leave the NYC school  \nwhere they taught in 2004-2005.", 
  "(These aspects are listed in Figure 2.)", 
  "Again, they were asked to rate  \neach using a five-point scale ranging from not important to extremely important.", 
  "The fourth  \nquestion was a follow-up to the third, asking them to choose the one aspect from this list that they  \nconsidered the most important in their decision to leave.", 
  "Dissatisfaction with job is the main factor that teachers cite for leaving or considering  \nleaving.", 
  "Figure 1 shows that for both sets of teachers dissatisfaction with their jobs is by far the  \nmost important factor with over 30 percent of both groups citing it as the most important reason  \nfor leaving or considering leaving.", 
  "A fair number of former teachers also report the most important  \nfactor in their leaving was because they moved (living in a different place), because of other family  \nor personal reasons, and because of other attractive job opportunities.", 
  "These factors were not as  \nimportant considerations for teachers who were still teaching but had considered leaving.", 
  "The next  \nset of questions provides further insights into this job dissatisfaction factor, unpacking which  \naspects of their job were particularly dissatisfying and influential in their decisions to leave.", 
  "Each set of teachers was asked what aspect of their job most influenced their decision to  \nleave or consider leaving.", 
  "Figure 2 presents these results and the dominance of dissatisfaction with  \nadministrative support is striking.", 
  "Hardly any teachers cited dissatisfaction with colleagues,  \nautonomy over the classroom, school facilities, respect from students and/or parents, ability to help  \nstudents, emphasis on student testing, school safety, teaching assignment, teaching philosophy, or  \ndistrict policies as the primary reason for leaving or considering leaving.", 
  "While a bit over 15 percent  \nof both groups reported dissatisfaction with student behavior as the most important factor  \n\ninfluencing their decision to leave their school, well over 40 percent of both groups identified  \ndissatisfaction with the administration as the most important factor.", 
  "Other questions in the survey of former teachers also shed light on the importance of  \nadministrative support.", 
  "In one question (not presented in the figures), former teachers on average  \nindicated that they currently receive much more recognition and support from their administrators  \nor managers than they had as teachers.", 
  "Another set of questions asked the former teachers about the  \nbehaviors of their former principal.", 
  "Less than ten percent found their principal to be exceptional in  \ncommunicating respect or appreciation for teachers, encouraging teachers to change teaching  \nmethods if students were not doing well, working with teaching staff to solve school or  \ndepartmental problems, encouraging staff to use student assessment results in planning curriculum  \nand instruction, or working to develop broad agreement among teaching staff about the school\u2019s  \nmission.", 
  "Additionally, almost 20 percent of the former teachers reported that their principals never  \nworked with staff to meet curriculum standards, and 30 percent stated their principals did not  \nencourage professional collaboration among teachers.", 
  "Administration emerged as the main factor in  \nteacher attrition in these surveys, just as it did in the analysis of actual attrition behavior above.", 
  "Discussion  \nOverall teacher attrition may not be substantially higher than attrition from other  \nprofessions (Henke, Zahn, & Carroll, 2001).", 
  "However, attrition at some schools is very high; high  \nenough to disrupt instructional cohesion and likely disadvantage students.", 
  "Prior research has shown  \nclearly that these high-turnover schools are likely to serve large populations of low-performing, non- \nwhite, and low-income students, just the students likely to be most in need of a consistent and  \nsupportive school experience (Boyd et.", 
  "al., 2005; Carroll, Reichardt, Guarino, & Mejia, 2000;  \nHanushek, Kain, & Rivkin, 2004; Scafidi, Sjoquist, & Stinebrickner, 2005).", 
  "While this previous  \n\nresearch has identified the problem, it has done less to clarify why there is higher turnover at these  \nschools and to identify fruitful avenues for reform.", 
  "There are indications that working conditions, aside from those directly resulting from  \nstudent composition, affect teachers\u2019 career decisions.", 
  "A relatively large literature has used cross- \nsectional data to link teachers\u2019 self-reports of school working conditions to measures of their own  \nsatisfaction and plans for the future.", 
  "This approach has the potential bias that less satisfied teachers  \nwill misrepresent school working conditions and consequently the correlations between working  \nconditions and satisfaction will reflect only reporting bias and not true working conditions.", 
  "A set of  \nstudies using the Schools and Staffing Surveys have estimated the relationship between self-reported  \nworking conditions and attrition (see Grissom, 2008; Ingersoll, 2001) but even there, lack of controls  \nfor inaccurate self-reporting may bias the findings.", 
  "This study uses first year teachers\u2019 reports of working conditions to assess the effect of  \nworking conditions on the turnover behavior of other teachers in the school.", 
  "Since the reporting  \nteachers and the teachers for whom we model turnover are not the same, we reduce the problem of  \nself-reporting bias that is correlated with career decisions.", 
  "We also triangulate our findings with  \nteachers\u2019 own reports of why they left or considered leaving in a follow-up survey.", 
  "While we address  \nmultiple measures of school context \u2013 including  teachers\u2019 influence over school policy, the  \neffectiveness of the school administration, staff relations, student behavior, facilities, and safety \u2013 the  \nresults of both analyses point to the importance of working conditions and particularly of  \nadministrative support in teacher retention.", 
  "The importance of administration and school leadership is not surprising.", 
  "A substantial  \nresearch literature provides evidence that school leaders matter for teachers and students.", 
  "While  \nonly a small body of research links principals directly to student achievement (Branch, Hanushek &  \nRivkin, 2009; Hallinger & Heck, 1996), a much larger research base documents principals' effects on  \n\nschool operations, through motivating teachers and students, identifying and articulating vision and  \ngoals, developing high performance expectations, fostering communication, allocating resources,  \nand developing organizational structures to support instruction and learning (Knapp, Copland,  \nPlecki & Portin, 2006; Lee, Bryk and Smith, 1993; Leithwood, Louis, Anderson & Wahlstrom,  \n2004).", 
  "Principals also affect the instructional quality of schools through the recruitment,  \ndevelopment, and retention of teachers (Harris, Rutledge, Ingle & Thompson, 2006).", 
  "It is also not surprising that working conditions explain at least part of the higher attrition of  \nteachers serving non-white, low-performing, and low-income students.", 
  "First, school leaders are  \nsubject to many of the same labor market dynamics as teachers.", 
  "Horng, Kalogrides, and Loeb (2009)  \nfind for example that principals express preferences for schools with higher performing students and  \nlower concentrations of students in poverty and that principals, like teachers, move towards these  \nmore desirable schools when given the opportunity.", 
  "In addition, the job of principal is likely to be  \nmore difficult in these difficult-to-staff schools with higher teacher turnover and greater  \naccountability pressures.", 
  "Thus schools with high proportions of low-income, non-white and low- \nperforming students tend to have principals who are in less demand, such as new principals (Boyd  \net.", 
  "al., 2009).", 
  "In many ways the importance of working conditions separate from student-body  \ncharacteristics is good news from a policy perspective, since it is the job of schools to serve all  \nstudents but other working conditions are amenable to policy change.", 
  "This study suggests that  \npolicies aimed at improving school administration may be effective at reducing teacher turnover.", 
  "How to improve school leadership is a more difficult question.", 
  "Current reforms aim to recruit high- \npotential leaders, provide apprenticeship experiences for prospective leaders, and to provide  \nsupports for principals while in the job.", 
  "Improving administrative support in high turnover schools  \n\nin particular may require both more effective leaders, overall, and incentives (not necessarily  \nmonetary) so that administrative positions in these schools become more appealing.", 
  "This study is clearly just a step in understanding the role of administration and of school  \ncontext, more generally, in teacher career decisions.", 
  "It is imperfect in many ways.", 
  "In particular,  \nwhile we provide evidence that the school administration is an important factor in teacher retention  \ndecisions, our data do not provide enough richness about the role of administration to determine  \nhow or why administrative support affects teachers, nor do they allow us to identify clear policy  \nlevers for reform.", 
  "For example, one of the survey items asked teachers to rate the statement: \u201cThe  \nschool administration\u2019s behavior toward the staff is supportive and encouraging.\u201d Perhaps they  \nconsider \u201csupportive and encouraging\u201d administrators ones who promptly respond to teachers\u2019  \nrequests for classroom supplies or maybe its ones who effectively handle student discipline issues.", 
  "Additionally, what teachers consider \u201csupportive and encouraging\u201d may vary \u2013 for one teacher it  \nmay be being generally left alone and trusted with autonomy; for another it may be administrators  \nwho frequently visit the classroom and provide feedback on instruction.", 
  "Follow-up studies are necessary to investigate why administrative support is important to  \nteachers and what particularly the administration does or does not do which influences a teacher to  \nstay or leave.", 
  "There is also a need to investigate other school contextual factors not included in this  \nstudy which are likely to be important to teachers \u2013 such as teachers\u2019 opportunities for collaboration,  \nstaff development, teacher autonomy, and school neighborhood characteristics.", 
  "In addition, this  \nstudy does not address the relationship between teacher retention decisions and teacher quality.", 
  "Future research that allows for the investigation of this link will contribute to a better understanding  \nof the factors that influence teacher career decisions."
 ]
}