{
 "document_id": "4809722884418928542", 
 "sentences": [
  "Performance Screens for School Improvement:  \nThe Case of Teacher Tenure Reform in New York City  \nSusanna Loeb  Stanford University  \nJames Wyckoff  \nUniversity of Virginia  \nLuke C. Miller  \nUniversity of Virginia  \nOctober 2014  \nAbstract  Tenure is intended to protect teachers with demonstrated teaching skills against  arbitrary or capricious dismissal.", 
  "Critics of typical tenure processes argue that tenure  assessments are superficial and rarely discern whether teachers in fact have the  requisite teaching skills.", 
  "A recent reform of the tenure process in New York City  provides an unusual opportunity to learn about the role of tenure in teachers\u2019 career  outcomes.", 
  "We find the reform led to many fewer teachers receiving tenure.", 
  "Those  not receiving tenure typically had their probationary periods extended to allow them  an opportunity to demonstrate teaching effectiveness.", 
  "These \u201cextended\u201d teachers  were much more likely to leave their schools and be replaced by a teacher who was  judged to be more effective.", 
  "Thanks to Joanna Cannon, Anne-Marie Hoxie and Keely Alexander at the New York  City Department of Education for providing the data employed in this paper and for  answering questions about the NYCDOE tenure policy.", 
  "We benefited from  comments by Arthur Mckee, Doug Harris and three anonymous reviewers on earlier  drafts of this paper.", 
  "We appreciate financial support from the National Center for  the Analysis of Longitudinal Data in Education Research (CALDER).", 
  "CALDER is  supported by IES Grant R305A060018.", 
  "The views expressed in the paper are solely  those of the authors.", 
  "Any errors are attributable to the authors.", 
  "\u201cTenure marks a new phase in a teacher\u2019s career and a new commitment by our schools to  those who receive it.", 
  "Unfortunately, over the years tenure has become an expectation more  than an honor.", 
  "While we have made progress, we still are not doing enough to set a high  bar for all teachers, recognize excellent teachers, or withhold tenure from all of those who  have not earned it.", 
  "And a loose tenure system isn\u2019t good for anyone\u2014it hurts students, it  disrespects successful teachers, and it leaves those who are not up to the difficult job to  struggle.\u201d \u2014New York City School\u2019s Chancellor Klein, 2009.", 
  "Introduction  \nTeacher tenure has been controversial since the first tenure provisions were  \nenacted over a century ago.", 
  "Proponents typically argue that tenure prevents teacher  \ndismissal for political purposes or due to capricious decisions by administrators or  \npoliticians.", 
  "Tenure could guard against dismissal of more experienced, higher paid  \nteachers during periods of tight budgets when school leaders may be more focused  \non reducing costs while meeting class size requirements than they are on student  \nlearning.", 
  "Tenure does not require schools or districts to retain ineffective teachers  \nbut instead provides a due process mechanism to dismiss tenured teachers for cause.", 
  "Critics, however, argue that the costs of due process do, in practice, lead districts to  \nretain ineffective teachers and as a result tenure not only allows poor teachers to stay  \nin the classroom but also reduces the incentive for teachers to be as effective as they  \ncould be.", 
  "They argue that the due process mechanisms for removing teachers with  \ntenure are so burdensome that they rarely are pursued.", 
  "With the availability of large-scale student performance measures linked over  \ntime has come clear evidence that teachers vary substantially in their effectiveness at  \n\fimproving student test performance1 and that these differences can have meaningful  \neffects on students in both the short run and the long run (Chetty, Friedman, &  \nRockoff, 2014; Rivkin, Hanushek, & Kain, 2005; Rockoff, 2004).", 
  "At least partially as  \na result, education reforms in the US recently are focusing on improving the quality  \nof teaching through human resource policies such as improved evaluation systems  \nand differentiated pay.2 Given the controversial nature of teacher tenure, it is not  \nsurprising that interest also has increased in changing teacher tenure provisions so  \nthat the due process is less onerous and so that school leaders have greater control  \nover their workforce.", 
  "Yet, the evidence on which to base reform decisions is scarce.", 
  "We know little about what types of tenure provisions improve the quality of teaching  \nand what types do not.", 
  "Similarly, we know little about how long the probationary  \nperiod prior to tenure should be, if there is tenure, in order for school systems to  \naccurately assess teachers\u2019 effectiveness so that they can make well informed  \ndecisions about tenure.", 
  "Part of the reason that we have little evidence on the effects of tenure is that  \nuntil recently tenure laws have been relatively stable over time and similar, though  \nnot the same, across states.", 
  "New Jersey passed the nation\u2019s first teacher tenure law in  \n1909.", 
  "Over the next several decades other states adopted similar laws: New York in  \n1917, California in 1921, and Michigan, Pennsylvania, and Wisconsin in 1937.", 
  "The  \u00a0\u00a0\u00a0\u00a0\u00a0\u00a0\u00a0\u00a0\u00a0\u00a0\u00a0\u00a0\u00a0\u00a0\u00a0\u00a0\u00a0\u00a0\u00a0\u00a0\u00a0\u00a0\u00a0\u00a0\u00a0\u00a0\u00a0\u00a0\u00a0\u00a0\u00a0\u00a0\u00a0\u00a0\u00a0\u00a0\u00a0\u00a0\u00a0\u00a0\u00a0\u00a0\u00a0\u00a0\u00a0\u00a0\u00a0\u00a0\u00a0\u00a0\u00a0\u00a0\u00a0\u00a0\u00a0\u00a0\u00a0\u00a0\u00a0\u00a0 1 The research literature on teacher value-added as valid and reliable measures of teacher effectiveness  is not yet settled, as some argue that these measures may be biased (see for example, Rothstein, 2009).", 
  "2 Rockoff, Staiger, Kane, & Taylor (2012) examine how increased information can improve teacher  performance and the composition of the teaching workforce.", 
  "Rothstein (forthcoming) examines how  the supply of teachers matters for improving teacher effectiveness in the context of tenure decisions.", 
  "state statutes use a variety of synonyms for tenure: continuing contract or service,  \npermanent status, career status, and post-probationary status.", 
  "Regardless of the  \nterminology, these laws have three main components: tenure requirements, reasons  \nfor dismissal, and a process for appeals.", 
  "The first specifies the length of the  \nprobationary period after which teachers are eligible for tenure.", 
  "Employers can  \ndismiss a non-tenured teacher at any time for any reason so long as the decision is  \nneither arbitrary or capricious nor discriminatory, but tenured teachers can only be  \ndismissed for the reasons provided in the law.", 
  "The third component details the  \nappeals process a dismissed tenured teacher can pursue in an effort to be reinstated.", 
  "Of the 48 states in which public elementary and secondary teachers are awarded  \ntenure, the minimum probationary period exceeds three years in 11 states (National  \nCouncil on Teacher Quality, 2012).", 
  "In most states it is three years, although in a few  \nstates, such as California, teachers typically receive tenure with fewer than three years  \nof experience.", 
  "Tenure laws in the US have been the focus of significant legislative action in  \nstatehouses across the country since the beginning of the 21st Century.", 
  "In 2000,  \nGeorgia eliminated due process rights for teachers hired after 1 July 2000, but  \nreinstated these rights three years later.", 
  "Florida eliminated teacher tenure in 2011.", 
  "That same year Idaho enacted a law that would have eliminated teacher tenure had it  \nnot been repealed by voters the following year.", 
  "Voters in South Dakota turned back  \nan effort to repeal a 2012 law thereby allowing a law eliminating tenure after 1 July  \n\f2016 to take effect.", 
  "North Carolina\u2019s governor signed a bill into law last year that  \neliminates teacher tenure by 2018.", 
  "Though almost all states currently grant tenure,  \nmore than half now require meaningful evaluation during the tenure review process.", 
  "As an example, in 2009 only four states used student test performance as a criterion  \nfor tenure; by 2012, 20 states did and 25 states require multiple categories for  \nteachers in their evaluation, not just satisfactory and unsatisfactory (National Council  \non Teacher Quality, 2012).", 
  "The debates around teacher tenure have taken on a new intensity as the locus  \nfor those debates has shifted to the courthouse.", 
  "The 2014 court ruling in Vergara v.  \nCalifornia found elements of California\u2019s tenure provisions to be unconstitutional  \nsetting California on a course to eliminate teacher tenure unless the state\u2019s appeal is  \nsuccessful.", 
  "Similar cases are being brought in other states, but it remains unknown  \nwhether strategies to eliminate tenure will ultimately be successful and whether  \nrevisions to tenure policies can achieve the key goals of reformers.", 
  "A recent reform by the NYCDOE provides an unusual opportunity to learn  \nabout the role of tenure in teachers\u2019 career outcomes including both strategic  \nretention on the district side and choice-based retention stemming from teachers\u2019  \ndecisions.", 
  "While not nearly as provocative as the elimination of tenure, modest  \nreforms to the tenure process may produce many of the outcomes raised by plaintiffs  \nin Vergara and other court cases.", 
  "Knowing more about the role of better  \ninformation or longer probationary periods in the composition and effectiveness of  \n\fthe teacher workforce could substantially enlighten the discussion over tenure.", 
  "In  \nwhat follows, we start by describing the New York City reform.", 
  "We then use data  \nfrom NYCDOE and the New York State Education Department (NYSED) to  \nprovide initial evidence on the magnitude of responses to the reform, concluding  \nwith a discussion of the results.", 
  "We find that the NYCDOE tenure reforms extended  \nthe probationary periods of teachers judged to be less effective and that these  \n\u201cextended\u201d teachers were substantially more likely than other teachers to leave their  \nschools.", 
  "Their likely replacements were typically more effective as judged by their  \nprincipals and as measured by value-added.", 
  "These changes disproportionately  \nbenefited schools with larger percentages of black students.", 
  "The Teacher Tenure Process in New York City  \nThe criterion for tenure in New York City is that a teacher possesses  \n\u201csignificant professional skill and a meaningful, positive impact on student learning.\u201d  \nThis criterion is not new.", 
  "However, prior to academic year (AY) 2009-10 the tenure  \nprocess in New York City was similar to that in many other large urban districts.", 
  "The  \nreceipt of tenure had become an expectation for nearly all teachers and frequently  \nwas based on little evidence of accomplishment.", 
  "In 2007-08 and 2008-09, well into  \nthe period of accountability reforms, 94 percent of all eligible teachers who stood for   \ntenure decision were approved for tenure.3   \n\u00a0\u00a0\u00a0\u00a0\u00a0\u00a0\u00a0\u00a0\u00a0\u00a0\u00a0\u00a0\u00a0\u00a0\u00a0\u00a0\u00a0\u00a0\u00a0\u00a0\u00a0\u00a0\u00a0\u00a0\u00a0\u00a0\u00a0\u00a0\u00a0\u00a0\u00a0\u00a0\u00a0\u00a0\u00a0\u00a0\u00a0\u00a0\u00a0\u00a0\u00a0\u00a0\u00a0\u00a0\u00a0\u00a0\u00a0\u00a0\u00a0\u00a0\u00a0\u00a0\u00a0\u00a0\u00a0\u00a0\u00a0\u00a0\u00a0\u00a0 3 As is true elsewhere, a portion of probationary teachers leave NYCDOE prior to a tenure decision.", 
  "Some of these teachers are being \u201ccounseled out\u201d and likely would not have been approved for tenure  \n\fBeginning in 2009-10, New York City changed the tenure review process,  \ninfusing more information and increasing the responsibility and accountability of  \nprincipals to insure that teachers met challenging performance standards.", 
  "Tenure  \ndecisions in 2009-10 were informed by sources of information that had been  \navailable previously: classroom observations, evaluations of teacher work products  \nincluding lesson plans, and the annual rating sheet that principals completed giving  \nteachers a Satisfactory, Doubtful, or Unsatisfactory rating.", 
  "In addition, tenure  \ndecisions in 2009-10 included new student learning measures from the Teacher Data  \nReports (which included teacher value-added), in-class assessments aligned with the  \nNew York State standards, and other evidence of student progress (NYCDOE,  \n\nAs in previous years, principals sent recommendations to the superintendent  \nabout whether a teacher should be denied tenure, have their probationary period  \n\u00a0\u00a0\u00a0\u00a0\u00a0\u00a0\u00a0\u00a0\u00a0\u00a0\u00a0\u00a0\u00a0\u00a0\u00a0\u00a0\u00a0\u00a0\u00a0\u00a0\u00a0\u00a0\u00a0\u00a0\u00a0\u00a0\u00a0\u00a0\u00a0\u00a0\u00a0\u00a0\u00a0\u00a0\u00a0\u00a0\u00a0\u00a0\u00a0\u00a0\u00a0\u00a0\u00a0\u00a0\u00a0\u00a0\u00a0\u00a0\u00a0\u00a0\u00a0\u00a0\u00a0\u00a0\u00a0\u00a0\u00a0\u00a0\u00a0\u00a0\u00a0\u00a0\u00a0\u00a0\u00a0\u00a0\u00a0\u00a0\u00a0\u00a0\u00a0\u00a0\u00a0\u00a0\u00a0\u00a0\u00a0\u00a0\u00a0\u00a0\u00a0\u00a0\u00a0\u00a0\u00a0\u00a0\u00a0\u00a0\u00a0\u00a0\u00a0\u00a0\u00a0\u00a0\u00a0\u00a0\u00a0\u00a0\u00a0\u00a0\u00a0\u00a0\u00a0\u00a0\u00a0\u00a0\u00a0\u00a0\u00a0\u00a0\u00a0\u00a0\u00a0\u00a0\u00a0\u00a0\u00a0\u00a0\u00a0\u00a0\u00a0\u00a0\u00a0\u00a0\u00a0\u00a0\u00a0\u00a0\u00a0\u00a0\u00a0\u00a0\u00a0\u00a0\u00a0\u00a0\u00a0\u00a0\u00a0\u00a0\u00a0\u00a0\u00a0\u00a0\u00a0\u00a0\u00a0\u00a0\u00a0\u00a0\u00a0\u00a0\u00a0\u00a0\u00a0\u00a0\u00a0\u00a0\u00a0\u00a0\u00a0\u00a0 if they had completed the tenure review process.", 
  "We have no way of credibly identifying the extent of  this practice or their potential tenure outcomes.", 
  "However, we get a rough sense of the effect of this  attrition on tenure approval rates by comparing the value-added of teachers who exit prior to a tenure  decision to those who remain.", 
  "Using the distribution of value-added of teachers with the same level of  teaching experience who persist to a tenure decision, we identify the value-added score of the teacher  at the 6th percentile (the percentile implied by a 94 percent tenure approval rate).", 
  "We then calculate the  percentage of leaving teachers whose value-added score falls below that score.", 
  "As might be expected  based on prior research, we find that teachers who exit during their first two years have somewhat  lower value-added than their cohort colleagues who remain (Boyd et al., 2008; Goldhaber et al., 2011),  but no more than 8 percent of leavers fall below the cutoff score, suggesting that 92 percent of the  teachers who exit prior to a tenure decision would have been granted tenure pre-reform.", 
  "Given that  70 percent of teachers in our sample persist to a tenure decision, the net effect on tenure approval  rates is very small, resulting in an approval rate greater than 93 percent.", 
  "This result is at best an  approximation.", 
  "Value-added is a noisy measure, so our estimates should not be viewed as precise.", 
  "Principals were probably unaware of teacher value-added and thus counseling out decisions were  made employing other measures unavailable to us.", 
  "However, research suggests that even in the  absence of value-added data principals identify most of the same low-performing teachers as does a  value-added metric (Jacob and Lefgren, 2008).", 
  "extended or be granted tenure, but starting in 2009-10 principals had to provide a  \nrationale for this decision if the evidence available at the district level suggested  \neither a strong case to approve or deny tenure and this information ran counter to  \nthe principal\u2019s recommendation.", 
  "The district provided principals with tenure  \nguidance for teachers for whom there was evidence that performance was  \nparticularly strong or weak.", 
  "For a teacher whose value-added results had been in the  \nlowest 50 percent over the past two years (with a 95 percent confidence interval),  \nwho had previously received an Unsatisfactory annual rating, or whose tenure  \ndecision had previously been extended, the principal received guidance from the  \ndistrict that the teacher should be considered to have \u201ctenure in doubt\u201d.", 
  "A principal  \nrecommendation to extend or approve tenure for these teachers required a  \nsupporting rationale for the superintendent to consider in his or her review.", 
  "The  \nprincipal received guidance of \u201ctenure likely\u201d for a teacher whose value-added results  \nhad been in the highest 50 percent over the past two years (with a 95 percent  \nconfidence interval).", 
  "Principals recommending denying tenure or extending the  \nprobationary period for these teachers similarly needed to provide supporting  \nevidence to the superintendent (NYCDOE, 2009).", 
  "The process introduced in 2009-10 remained in place in 2010-11 with some  \nnotable changes (NYCDOE, 2010).", 
  "New in 2010-11, principals were asked to  \nevaluate all teachers up for a tenure decision based a four-point effectiveness rating  \nscale (Highly Effective, Effective, Developing, and Ineffective) as described in the  \n\fdistrict-developed Effectiveness Framework.4 As in the prior year, the evidence for  \nthese ratings came from measures of the teacher\u2019s impact on student learning such as  \nvalue-added measures from the Teacher Data Reports, student work products, and  \ntests aligned to the New York State standards.", 
  "Principals also could use evidence  \nfrom measures of instructional practice coming from their own classroom  \nobservations, teacher work products, and the annual rating sheet that principals  \ncomplete for each teacher.5 In addition to these sources of information, which were  \navailable in the prior year as well, principals in 2010-11 gained information about  \nprofessional contributions from surveys of students and parents, from measures of  \nattendance, from colleague feedback, and from work products related to the  \nComprehensive Educational Plan for each school.", 
  "In contrast to 2009-10, principals  \nin 2010-11 no longer received \u201ctenure likely\u201d or \u201ctenure in doubt\u201d guidance from the  \ndistrict but rather were given flags indicating a \u201clow value add\u201d teacher as an \u201cArea  \nof Concern\u201d and a \u201chigh value add\u201d teacher as a \u201cNotable Performance\u201d.", 
  "Low and  \nhigh value-added scores were defined as in the previous year.", 
  "Other problematic  \nteacher behaviors flagged as Areas of Concern included: low attendance (defined as  \nexceeding 20 days in the previous two fiscal years), an Unsatisfactory or Doubtful  \n\u00a0\u00a0\u00a0\u00a0\u00a0\u00a0\u00a0\u00a0\u00a0\u00a0\u00a0\u00a0\u00a0\u00a0\u00a0\u00a0\u00a0\u00a0\u00a0\u00a0\u00a0\u00a0\u00a0\u00a0\u00a0\u00a0\u00a0\u00a0\u00a0\u00a0\u00a0\u00a0\u00a0\u00a0\u00a0\u00a0\u00a0\u00a0\u00a0\u00a0\u00a0\u00a0\u00a0\u00a0\u00a0\u00a0\u00a0\u00a0\u00a0\u00a0\u00a0\u00a0\u00a0\u00a0\u00a0\u00a0\u00a0\u00a0\u00a0\u00a0 4 These effectiveness ratings are distinct from the ratings built into the new statewide teacher  evaluation system which was not implemented until 3 years later in 2013-14.", 
  "Although they use the  same ratings scale, both the evidence synthesized and the relative weight assigned to the evidence  differs between the two.", 
  "5 These sources of evidence were employed in 2009-10 tenure decisions but they were not aggregated  in the effectiveness ratings.", 
  "rating on a prior Annual Review Sheet, having been previously extended, having  \nbeen previously excessed or currently in the Absent Teacher Reserve pool.6   \nThe tenure review process for 2011-12 was very similar to that in 2010-11,  \nbut with two important changes.", 
  "As before, teachers were evaluated on their impact  \non student learning, instructional practice, and professional contributions.", 
  "Principals  \nwere provided guidance as to the expected (though not required) alignment between  \nthe effectiveness ratings they determined using the Effectiveness Framework and  \ntheir tenure recommendations: Highly Effective and Effective ratings were evidence  \nin favor of granting tenure; a Developing rating, evidence for an extension; and an  \nIneffective rating, evidence for denying tenure.", 
  "Additionally, responsibility for  \nproducing teacher value-added estimates shifted from the district to the NYSED  \nbeginning with 2010-11 and no measures were available for principals to incorporate  \nthem into their 2011-12 tenure decisions (NYCDOE, 2011).", 
  "The state-provided value-added estimates did inform principals\u2019 2012-13  \nrecommendations.", 
  "Teachers received a growth score (0-20) that corresponded to a  \nHEDI rating (Highly Effective, Effective, Developing, and Ineffective).", 
  "No explicit  \nguidance was provided to principals as to how to incorporate these growth ratings  \ninto their tenure recommendations.", 
  "They were only told these ratings were a source  \nof evidence for a teacher\u2019s impact on student learning.", 
  "6 The Absent Teacher Reserve pool is composed of teachers who previously taught in NYCDOE but  who currently don\u2019t have a permanent teaching assignments.", 
  "These teachers continue to be paid and  can be called upon to teach if vacancies arise.", 
  "Screening Employees to Improve Quality   \nHow might we expect principals and teachers to respond to the New York  \nCity tenure policy changes?", 
  "Consider a principal who aims to improve the quality of  \ninstruction in her school in the short run.", 
  "Principals are likely to have this goal for  \nnumerous reasons, including the high rate of principal mobility in urban school  \ndistricts (Beteille, Kalogrides, and Loeb, 2012), the substantial accountability pressure  \non principals, and the principal training and selection mechanisms in place in NYC.7  \nTo be more specific, we assume that quality of instruction (cid:4666)(cid:1851)(cid:3046)(cid:3047)(cid:4667) in school s in time t  is a function of the underlying quality of the teachers (cid:4666)(cid:1846)(cid:3046)(cid:3047)(cid:4667), of some form of  investment (cid:4666)(cid:1835)(cid:3046)(cid:3047)(cid:4667) that teachers make to improve their performance and the  performance of their peers, and of other aspects of the school (cid:4666)(cid:1841)(cid:3046)(cid:3047)(cid:4667).", 
  "(cid:1851)(cid:3046)(cid:3047)(cid:3404)(cid:1869)(cid:4666)(cid:1846)(cid:3046)(cid:3047),(cid:1835)(cid:3046)(cid:3047),(cid:1841)(cid:3046)(cid:3047)(cid:4667)  \nA principal will choose to deny, extend, or grant tenure to teachers in order  \nto maximize school quality.", 
  "However, a priori it is not clear how their choice of  \ntenure for a given teacher will affect who teaches in the school, nor how it will affect  \nteachers\u2019 investment in their work.", 
  "These dynamics depend upon how teachers  \nrespond to the decisions both about themselves and about other teachers in the  \nschool.", 
  "If teachers do not change their choices in response to tenure decisions then  \nthe principal\u2019s decision is straightforward \u2013 deny teachers whom they want to leave  \u00a0\u00a0\u00a0\u00a0\u00a0\u00a0\u00a0\u00a0\u00a0\u00a0\u00a0\u00a0\u00a0\u00a0\u00a0\u00a0\u00a0\u00a0\u00a0\u00a0\u00a0\u00a0\u00a0\u00a0\u00a0\u00a0\u00a0\u00a0\u00a0\u00a0\u00a0\u00a0\u00a0\u00a0\u00a0\u00a0\u00a0\u00a0\u00a0\u00a0\u00a0\u00a0\u00a0\u00a0\u00a0\u00a0\u00a0\u00a0\u00a0\u00a0\u00a0\u00a0\u00a0\u00a0\u00a0\u00a0\u00a0\u00a0\u00a0\u00a0 7 See Corcoran, Schwartz and Weinstein (2009) as well as descriptions of accountability in NYC at   http://schools.nyc.gov/Accountability/tools/accountability/default.htm   \n\fthe school and extend all other teachers.", 
  "There would be no reason to recommend  \ntenure for any teacher since this decision limits the principal\u2019s future actions and  \nprovides no benefits in the present.", 
  "However, there are reasons to believe that teachers do care about tenure.", 
  "As  \nan example, Brunner and Imazeki (2010) find that districts with longer probationary  \nperiods compensate teachers more, other things equal, indicating that teachers value  \nshorter probationary periods and are willing to accept somewhat reduced  \ncompensation in return.", 
  "This finding is consistent with evidence from other  \noccupations that jobs with greater risk \u2013 greater physical risk, or greater risk of  \nunemployment, or less predictable salaries \u2013 have to pay more in order to attract the  \nsame quality workers (Feinberg, 1981).", 
  "These results lead us to assume that, in  \ndeciding whether or not to stay in a job, teachers value job stability and thus care  \nabout whether or not they have tenure.", 
  "Teachers are also likely to value being recognized for strong performance as  \nwell as simply gaining utility from strong performance itself (Kalleberg, 1977).", 
  "Evaluation systems that differentiate among employees are likely to increase the  \nsatisfaction of teachers who perform well and may increase their willingness to stay  \nin the school.", 
  "For those, on the border line of a positive review, this evaluation may  \nalso increase their interest in investing in their own improvement and the  \nimprovement of their peers.", 
  "The same differentiation is likely to have negative  \n\fconsequences for the satisfaction of teachers who perform worse on the evaluations,  \nperhaps decreasing their interest in staying and investing.", 
  "Finally, teachers care about the pecuniary and non-pecuniary job attributes  \nthat informed their rationale for becoming a teacher (Flyer and Rosen, 1997).", 
  "Some  \nof these characteristics \u2013 in particular, the climate of the school such as the attitudes  \nof teachers and their willingness to support other teachers in the school \u2013 may  \nchange as a result of the implementation of tenure reform in each school, thereby  \nserving as a mediator for the reform\u2019s impact on instructional quality.", 
  "For some  \nteachers, the benefits of being a teacher far outweigh those of alternative  \noccupations, while for others the choice was less clear.", 
  "Learning to become an effective teacher is complicated and dependent not  \nonly on the teacher\u2019s ability and motivation but also on prior preparation and the  \nopportunities, culture, and support they receive in their school.", 
  "As a result,  \nidentifying teachers as approved, extended, or denied for tenure inevitably means  \nthat each category contains a heterogeneous grouping of teachers who find  \nthemselves in that group for a variety of reasons.", 
  "Increasing the rigor of  \nperformance screens is intended to reduce this heterogeneity so that teachers  \napproved for tenure are effective.", 
  "However, like human resources management in  \nany profession, this is not an exact science, implying that misidentification occurs  \nand that some teachers not approved for tenure could have been approved if the  \nmeasures were more nuanced or their schools more conducive to their growth.", 
  "In shaping the quality of teaching in their schools, principals\u2019 tenure  \nrecommendations are likely informed by their perceptions of how teachers will  \nrespond to tenure outcomes and on the effect of teacher turnover on student  \nachievement (Ronfeldt, Loeb, & Wyckoff, 2013).", 
  "Are teachers more likely to  \nimprove or leave their school in response to being extended?", 
  "Given the dramatic  \neffect of NYCDOE tenure reform on the percentage of teachers extended, in this  \npaper we focus on the retention decisions of extended teachers.", 
  "However, the  \nreform could well influence other teacher decisions.", 
  "For example, does the reform  \naffect whether individuals are attracted to teaching in New York or how much  \ninvestment teachers make in their teaching effectiveness?", 
  "Does it influence the  \nretention decisions of teachers who are approved for tenure?", 
  "Conceptually, tenure  \nreform could influence each of these directly or through changes in the school  \nlearning environment.", 
  "These decisions are potentially important but in this paper we  \nfocus solely on the effects of tenure reform on teacher retention due to data  \nlimitations.", 
  "Consider those teachers who would have received tenure pre-reform but are  \nextended post-reform.", 
  "These teachers now receive negative signals about their  \nteaching with an increased potential of being denied tenure.", 
  "Each of these increases  \ntheir likelihood of leave teaching, particularly at their current school.", 
  "However, for  \nsome teachers who are extended the appeal of teaching will be high enough to lead  \nthem to choose to stay in teaching.", 
  "For this subgroup, an increase in investment may  \n\fincrease their probability of future recognition and receipt of tenure.", 
  "This group may  \nincrease investment as a result of reforms if they assess that this increase will likely  \nlead to tenure in the future.", 
  "Understanding the potential effects of tenure reform on  \nteacher behavior, principals will be more likely to extend teachers who are not  \nperforming well if they believe they can hire more effective teachers.", 
  "Because school  \nprincipals play a central role in the process and because the teacher workforce differs  \nacross schools, we might expect the changes to differ across schools.", 
  "In keeping with  \nthese potential effects, we address the following three research question in this  \n\n1.", 
  "Tenure Decisions \u2013 How did tenure rates change following reform?", 
  "2.", 
  "Workforce Composition \u2013 Of teachers who become eligible for tenure, how  \ndid the composition of those continuing to teach in NYC change following  \n\n3.", 
  "School Differences \u2013 How have schools varied in their tenure decisions and  \nthe subsequent behaviors of their teachers?", 
  "In order to assess the effects of NYCDOE tenure reforms, we must  \naccurately identify teachers eligible for tenure, as well as other teachers potentially  \naffected by the changes.", 
  "The Tenure Notification System (TNS) tracked the tenure  \nreview process for all probationary teachers in New York City public schools  \nbetween 2007-08 and 2012-13.", 
  "Each school year, the district made tenure decisions  \n\ffor teachers whose probationary period was scheduled to conclude between  \nNovember 1st of the current school year and October 31st of the following school  \nyear.", 
  "The probationary periods for the 2009-10 cohort, for example, concluded  \nbetween November 1, 2009 and October 31, 2010.", 
  "The TNS provided principals  \nwith a list of teachers at their school eligible for tenure as well as all official guidance  \nconcerning each teacher\u2019s job performance prior to the current year (e.g., prior  \nUnsatisfactory annual performance ratings, low attendance, value-added  \nclassification, etc.).", 
  "Principals enter their preliminary and final ratings and  \nrecommendations into the TNS and district superintendents make and record final  \ntenure decisions in the system.", 
  "We assembled additional information on all teachers, not just those in the  \nTNS, from a variety of sources.", 
  "NYCDOE provides basic teacher demographic  \ncharacteristics, the value-added calculations for 2008-09 and 2009-10, the state\u2019s  \nvalue-added calculations for 2011-12, and annual performance ratings used in the  \ntenure review process.", 
  "We identify teachers\u2019 pathways into the teaching profession  \nfrom state certification records and rosters for the New York City Teaching Fellows  \nprogram and Teach for America corps members in the New York City region.", 
  "State  \ncertification files provide scores on certification exams.", 
  "From the College Board we  \nobtain teachers\u2019 SAT scores for those teachers who attended a New York public  \nschool from 1980 to 2008 or a New York private school from 1980 to 2001.", 
  "Characteristics of the schools in which teachers teach (e.g., race/ethnicity,  \n\ffree/reduced-price lunch eligibility, AYP status, etc.)", 
  "come from the annual state- \nlevel School Report Cards database and Institutional Master Files and the federal  \nCommon Core of Data.", 
  "Finally, leveraging data from the NYCDOE Teacher Data Initiative, we  \nobserve characteristics of the students taught by specific teachers of grades 4  \nthrough 8 mathematics and English language arts (ELA) including demographic and  \nachievement information.", 
  "We use these data to estimate our own value-added  \nmeasures of teacher effectiveness using the residuals-based approach described in the  \ntechnical appendix that controls for individual student, classroom, and school  \ncharacteristics.8 Currently, 2010-11 is the final year for which we can calculate these  \nestimates.", 
  "Just over three quarters of the teachers in our post-reform sample are female,  \napproximately 18 percent are black, and 17 percent are Hispanic.", 
  "They have average  \nmath and verbal SAT scores of approximately 500 points each.", 
  "Approximately half  \nof the teachers entered teaching through traditional teacher preparation programs  \nthat recommended certification, while 22 percent came through the Teaching  \nFellows Program, the largest early-entry route serving New York City.", 
  "These  \nteachers work at schools where 44 percent of students are Hispanic students and 31  \n\u00a0\u00a0\u00a0\u00a0\u00a0\u00a0\u00a0\u00a0\u00a0\u00a0\u00a0\u00a0\u00a0\u00a0\u00a0\u00a0\u00a0\u00a0\u00a0\u00a0\u00a0\u00a0\u00a0\u00a0\u00a0\u00a0\u00a0\u00a0\u00a0\u00a0\u00a0\u00a0\u00a0\u00a0\u00a0\u00a0\u00a0\u00a0\u00a0\u00a0\u00a0\u00a0\u00a0\u00a0\u00a0\u00a0\u00a0\u00a0\u00a0\u00a0\u00a0\u00a0\u00a0\u00a0\u00a0\u00a0\u00a0\u00a0\u00a0\u00a0 8 We employ our own value-added estimates rather than those estimated by NYCDOE primarily  because NYCDOE estimates are not available for all of the years of our analysis and because we  employ estimates that have been adjusted for measurement error through an empirical Bayes  shrinkage approach.", 
  "percent are black, with 67 percent eligible for subsidized lunch (see appendix Table  \n\nRecall that principals complete an Annual Rating Sheet for each teacher.", 
  "Just  \n2.3 percent of teachers in our sample received an Unsatisfactory rating and one tenth  \nof one percent of teachers received a Doubtful rating, with the remaining 97.6  \npercent receiving a Satisfactory rating.", 
  "On the four-point effectiveness rating scale  \nassigned by their principals, most teachers received either a Developing (29 percent)  \nor an Effective (41 percent) rating, while 17 percent received Highly Effective and  \ntwo percent received Ineffective ratings.", 
  "Principals provided no effectiveness rating  \nfor 11 percent of teachers.", 
  "Eight percent of teachers had what the district classified  \nas low attendance (more than 20 absences over prior two years), and 12 percent had  \nlow value-added.", 
  "Tenure Decisions  \nAs described in Figure 1, 94 percent of teachers were approved for tenure  \nduring AY 2007-08 and 2008-09, the two years prior to the introduction of the  \npolicy.", 
  "The approval rate dropped to 89 percent in the first year of the policy (2009- \n\f10) and averaged 56 percent in the three subsequent years.9 Virtually all of the  \ndecrease in the tenure approval rate resulted in an increase in the percentage of  \nteachers whose probationary periods were extended, which averaged less than 4  \npercent prior to the policy, but 41 percent in 2010-11 through 2012-13.", 
  "The  \npercentage of teachers denied tenure increased marginally following the introduction  \nof the new tenure review process from an average of two percent pre-policy to three  \npercent post-policy.", 
  "Principals have played an important role in the determination of tenure  \ndecisions.", 
  "Principal effectiveness ratings of teachers using the Effectiveness  \nFramework are highly predictive of tenure outcomes under the new policy.", 
  "Ninety- \nfour percent of teachers rated Highly Effective and 83 percent of those rated  \nEffective were approved for tenure.", 
  "In contrast, less than two percent of those rated  \nDeveloping and less than one percent of those rated Ineffective were approved.", 
  "The  \nvast majority (97 percent) of teachers rated Developing were extended, while the vast  \nmajority (81 percent) of those rated Ineffective were denied tenure.", 
  "Given that  \nalmost all teachers were approved for tenure prior to the reform, many teachers who  \n\u00a0\u00a0\u00a0\u00a0\u00a0\u00a0\u00a0\u00a0\u00a0\u00a0\u00a0\u00a0\u00a0\u00a0\u00a0\u00a0\u00a0\u00a0\u00a0\u00a0\u00a0\u00a0\u00a0\u00a0\u00a0\u00a0\u00a0\u00a0\u00a0\u00a0\u00a0\u00a0\u00a0\u00a0\u00a0\u00a0\u00a0\u00a0\u00a0\u00a0\u00a0\u00a0\u00a0\u00a0\u00a0\u00a0\u00a0\u00a0\u00a0\u00a0\u00a0\u00a0\u00a0\u00a0\u00a0\u00a0\u00a0\u00a0\u00a0\u00a0 9 Given the new policy, it is reasonable to wonder whether teachers voluntarily exited at higher rates  prior to a tenure decision, thus understating the potential effects of the policy.", 
  "We do not know the  rationale for teacher attrition and thus cannot assess this question directly.", 
  "However, because we have  value-added for teachers in tested grades and subjects prior to tenure decisions, both before and after  the tenure reform, we can explore whether the reform induced a change in attrition with respect to  value-added.", 
  "As shown in appendix Table A2, of the two years for which we have post-reform value- added data and for the first two years of a teacher\u2019s probationary period the only significant pre- versus-post-reform difference we see is for first-year teachers in 2010.", 
  "In that case, the value-added of  probationary teachers who exit post-reform is lower than that of probationary teachers leaving pre- reform, suggesting the pre-versus-post-reform change in the percentage of teachers approved for  tenure would have been even larger if these teachers had remained to stand for tenure.", 
  "would have been approved prior to the reform received a different outcome under  \nthe new system.", 
  "Tenure decisions also correspond with other teacher performance measures.", 
  "For teachers in tested grades and subjects, value-added estimates track tenure  \ndecisions.", 
  "Teachers denied tenure have math value-added estimates that are a full  \nstandard deviation in teacher effectiveness lower than those approved for tenure.", 
  "On  \naverage, extended teachers are 13 percent of a standard deviation in student  \nachievement less effective than the average teacher and 38 percent of a standard  \ndeviation less effective than those who are approved.", 
  "Value-added differences in  \nELA are smaller but demonstrate the same pattern.", 
  "Similarly, extended teachers are  \nfar more likely to have had prior Unsatisfactory or Doubtful annual performance  \nratings and to have had low attendance than are teachers approved for tenure (see  \nappendix Table A3).", 
  "Overall, the reforms dramatically reduced the percentage of teachers who  \nreceived tenure, but because most teachers who became eligible for tenure were  \nextended and not dismissed it is unclear a priori whether the reform meaningfully  \naltered the workforce.", 
  "Workforce Composition  \nChanges in the tenure process can affect the quality of teaching by denying  \ntenure to less effective teachers.", 
  "As discussed, denied teachers had lower value-added  \n\fin both math and ELA than teachers who were extended or approved.", 
  "However,  \neven under the new policies, few teachers are dismissed.", 
  "Larger changes in the  \nworkforce instead may come from changes in voluntary turnover, particularly of  \nteachers who are extended.", 
  "Extended teachers may voluntarily exit from New York City schools,  \ncreating vacancies which can be filled by more effective teachers.", 
  "We find some  \nevidence of this phenomenon.", 
  "Extended teachers were more likely to transfer to  \nother New York City schools and exit teaching in New York City public schools  \naltogether in the year following their decision than teachers who were approved for  \ntenure.", 
  "Ninety percent of approved teachers return to their schools, while only 75  \npercent of extended teachers did so.", 
  "Being extended appears to meaningfully increase the likelihood of transfers  \nand exits as extended teachers are more likely to leave even after controlling for  \nteacher and school characteristics.", 
  "Table 1 shows regressions with controls for the  \nfinal principal effectiveness rating of the teachers and includes school fixed effects,  \nallowing us to examine the effect of being extended on teacher transfer and exit  \nbehavior for teachers in the same schools with equivalent principal ratings.", 
  "The  \nprobability of transferring increases by 9 percentage points if the teacher had been  \nextended rather than approved.", 
  "This represents a 50 percent increase in the probability  \nof transferring following a tenure decision.", 
  "Similarly, extended teachers exit NYC  \npublic schools at a rate that is 4 percentage points higher than approved teachers,  \n\fholding other factors constant.", 
  "This represents a 66 percent increase in the probability  \nof exiting.", 
  "These results provide suggestive evidence that the new tenure process is  \nhaving an effect on the composition of the teaching workforce even without  \nsubstantially increasing the percentage of teachers directly denied tenure.", 
  "However,  \nwe cannot rule out that other factors correlated with a teacher\u2019s Extended status may  \naccount for the increases in transfer and exit rates.", 
  "Among extended teachers, those who remain in the same school have  \nsomewhat different measured attributes than those who transfer or exit the system.", 
  "Teachers with higher academic qualifications, such as teacher certification exam  \nscores, are less likely to stay in the same school than to exit.", 
  "Extended teachers  \nentering through alternative routes such as the New York City Teaching Fellows  \nprogram or Teach for America are less likely to remain in the same school than  \nteachers entering through college recommended programs.", 
  "In contrast, the average  \nvalue-added estimates of extended teachers who remain in the same school are  \nhigher than those who do not, but the sample sizes are smaller for these measures  \nand the differences are not statistically significant at traditional levels (see appendix  \nTable A4).", 
  "The voluntary attrition of these less effective teachers would benefit students  \nonly if they are replaced by relatively more effective teachers.", 
  "We explore this  \nquestion by comparing the effectiveness of teachers who were extended and left  \n\fschools in 2010-11 or 2011-12 with teachers hired at these schools.10 Unfortunately,  \nteacher effectiveness measures for teachers hired at these schools in 2011-12 and  \n2012-13 (actual replacements) are unavailable.", 
  "Rather we employ the effectiveness of  \nteachers hired at these schools in 2008-09 and 2009-10.11 As might be inferred from  \nthe previous analysis, the extended leavers will be less effective than the average of  \nteachers hired in their cohorts (extended teachers are less effective than those  \napproved and extended leavers are less effective than extended teachers who  \nremain).", 
  "This analysis differs somewhat in that we include all hires, including within  \ndistrict transfers, new hires with tenure, and those who exited prior to a tenure  \ndecision.", 
  "Also our model compares extended leavers to the attributes of new hires  \nsolely in their school, which could make a difference as extended leavers tend to be  \nconcentrated in a more limited group of schools.", 
  "Finally, we develop a second  \nreplacement group composed of teachers hired from 2006-07 through 2009-10.", 
  "It is certainly conceivable that the tenure reforms might change the labor  \nmarket for new teachers, and that actual replacements might be less effective than  \nthose hired prior to reforms as they may be concerned that they, too, might be more  \n\u00a0\u00a0\u00a0\u00a0\u00a0\u00a0\u00a0\u00a0\u00a0\u00a0\u00a0\u00a0\u00a0\u00a0\u00a0\u00a0\u00a0\u00a0\u00a0\u00a0\u00a0\u00a0\u00a0\u00a0\u00a0\u00a0\u00a0\u00a0\u00a0\u00a0\u00a0\u00a0\u00a0\u00a0\u00a0\u00a0\u00a0\u00a0\u00a0\u00a0\u00a0\u00a0\u00a0\u00a0\u00a0\u00a0\u00a0\u00a0\u00a0\u00a0\u00a0\u00a0\u00a0\u00a0\u00a0\u00a0\u00a0\u00a0\u00a0\u00a0 10 Teachers who were hired include both those new to teaching and teachers who transferred from  other schools.", 
  "11 The vast majority of teachers with tenure decisions in 2010-11 and 2011-12 began their  probationary periods in 2008-09 or 2009-10.", 
  "We therefore are comparing the extended leavers to  other teachers hired under similar circumstances to themselves.", 
  "We are making the assumption that  the teachers hired in 2009 and 2010 at the schools where an extended teacher left in 2010-11 or 2011- 12 have measured effectiveness similar to those teachers hired at these schools in 2011-12 and 2012- 13.", 
  "We have also created a replacement comparison group of teachers by examining teachers who  were hired at these schools from 2006-07 through 2009-10.", 
  "The proxy replacements include  information on principal effectiveness ratings for all teachers who persist to a tenure decision and  value added data for all teachers who began teaching at these schools during 2009 or 2010.    \n\flikely to be extended.", 
  "However, the reverse is also true, especially in schools with  \nextended teachers, where effective teachers might find the improvement in the  \neffectiveness of peers an attraction.", 
  "As a result, the use of proxy replacements should  \nbe viewed as an approximation.", 
  "For each school with an extended leaver, we  \ncompare the average effectiveness of extended leavers with that of their proxy  \nreplacements, and then average these within school differences across all such  \nschools.", 
  "In this way we examine the difference in teacher effectiveness between  \nextended leavers and proxy replacements in the typical school.", 
  "As shown in Table 2, there are substantial differences in the effectiveness of  \nextended leavers and their proxy replacements.", 
  "For example, there are 45 percentage  \npoints fewer teachers rated as Highly Effective or Effective among all extended  \nleavers than their proxy replacements (14 percentage points Highly Effective and 31  \npercentage points Effective).", 
  "Estimated value-added in ELA is 20 percent of a  \nstandard deviation higher among the proxy replacements than the extended leavers.12  \nAlthough proxy replacement teachers are estimated to outperform extended leavers  \nin math value-added, this difference is not statistically significant at traditional  \nsignificance levels, due primarily to relatively few observations (N=158).", 
  "12 Employing the sample of teachers entering schools between 2006-07 and 2009-10 as the proxy  replacement comparison group, we estimate the percentage of teachers rated highly effective or  effective is 44 percentage points higher for the proxy replacements than the extended leavers.", 
  "Estimated value-added is 13 percent of a standard deviation higher in ELA and 14 percent of standard  deviation higher in math, which are both significant at the 0.06 level.", 
  "From a principal\u2019s perspective, these are large effects relative to almost any  \nother intervention they might contemplate.", 
  "For example, many principals rightly  \nprivilege experience when hiring teachers as the value-added of a teacher with six  \nyears of experience is estimated to be up to 15 percent of a standard deviation higher  \nthan a novice teacher (Atteberry, Loeb, & Wyckoff, 2013).", 
  "Extending the  \nprobationary period of teachers with insufficient skills to be approved for tenure and  \nthereby nudging some teachers to leave the school who are then replaced with a new  \nteacher has an effect on teacher effectiveness about the same as the gains of hiring a  \nteacher with six years of experience rather than a novice.", 
  "School Differences  \nWhile implementation of the policy may have varied across schools, most  \nschools experienced a substantial change in the percentage of teachers who were  \napproved for tenure under the new policy.", 
  "More than 70 percent of schools granted  \ntenure to fewer than 80 percent of their teachers following the introduction of the  \npolicy as shown in Figure 2.", 
  "While a cluster of schools approved 100 percent of  \neligible teachers, most schools approved far less, with another large cluster of  \nschools with between 50 and 70 percent approval.", 
  "The variation in approval rates seen in Figure 2 corresponds to some school  \ncharacteristics, particularly average student attributes, as shown in Table 3.", 
  "On  \naverage, teachers approved for tenure work in schools in which the percentage of  \n\fwhite students is more than 50 percent greater than schools where teachers\u2019  \nprobation is extended.", 
  "Black students experience the reverse.", 
  "In schools where  \nteachers are approved for tenure, black students comprise 27 percent of all students,  \nbut they comprise 35 percent of students in schools where teachers\u2019 probation is  \nextended.", 
  "The achievement of students in schools where teachers receive tenure is  \n15 percent of a standard deviation better in math and 13 percent of a standard  \ndeviation better in ELA than the average achievement in schools where teachers are  \nextended.", 
  "Given the strong link between principal effectiveness ratings and tenure  \ndecisions shown above, it is not surprising that the pattern of differences in school  \nattributes across principal effectiveness ratings mirror the differences across tenure  \noutcomes as shown in Table 3.", 
  "For example, the average Highly Effective teacher  \nworks in schools where the percentage of white students is twice as large as it is for  \nthe average Ineffective teacher.", 
  "The average Ineffective teacher is located in a school  \nwith 65 percent more black students than their average Highly Effective colleague.", 
  "As is also shown in Table 3, the average Ineffective teacher is located in a school  \nwhere the ELA performance of students is more than a quarter of standard deviation  \nlower and more than 30 percent of a standard deviation lower in math than that of  \nthe average Highly Effective  teacher.", 
  "This suggests that replacing Ineffective and  \ndeveloping teachers with a teacher whose performance is closer to the average would  \n\fdisproportionately improve the quality of teaching in schools with higher percentages  \nof black students.", 
  "To examine the types of schools most affected by the tenure reforms, we  \nestimated the relationship between school characteristics and tenure decisions in a  \nmultivariate framework controlling for teacher performance measures.", 
  "When we  \nestimate a model that includes only the attributes of the students in the school, the  \npercentage of students who are black is the only measure that is associated with the  \nlikelihood of being extended.", 
  "This relationship may exist for a variety of reasons,  \nincluding the differential effectiveness of teachers initially assigned to schools with  \nhigh percentages of black students, as well a lack of mentoring and leadership that  \nsupport the growth of teachers in such schools.", 
  "When teacher attributes are added to  \nthe model, they dominate the determination of whether a teacher is extended.", 
  "The  \nestimate for the percent of black students drops substantially in magnitude such that  \na 1 standard deviation increase in the percentage of black students (26.4 percentage  \npoints) is estimated to increase the likelihood of a teacher being extended by just  \nover 1 percent (see appendix Table A5).", 
  "Thus, the likelihood of teachers being  \nextended is much greater in schools with larger percentages of black students, but  \nthe differential primarily results from these schools having more teachers judged to  \nbe Ineffective and Developing.", 
  "Discussion   \nTeacher tenure has been a hotly debated issue for decades, but there is  \nsurprisingly little research that documents the effects of various tenure policies.", 
  "This  \npaper examines an unusual change in the tenure policy in New York City as a step  \ntoward providing evidence to support the design of teacher workforce policies.", 
  "We  \nbelieve this evidence has important implications for the current debate regarding  \nreforms to the tenure process.", 
  "Our analysis documents substantial changes in tenure decisions following the  \nNYC reforms.", 
  "While almost all eligible teachers received tenure prior to the change,  \nafter the reforms a large share of teachers instead had their probationary periods  \nextended to provide more opportunity for them to demonstrate the skills necessary  \nfor effective teaching and for district decision makers to better assess teachers\u2019  \nperformance.", 
  "Not surprisingly, low-performing and less qualified teachers were more  \nlikely to be extended.", 
  "Teachers in schools with disproportionate shares of black and  \nlow-performing students also were more likely to be extended.", 
  "Our analyses provide  \nsome evidence that this differential reflects a uneven distribution of less effective  \nteachers, which is consistent with recent research (Isenberg, Max, Gleason,  \nPotamites, Santillano, Hock, & Hansen, 2013; Sass, Hannaway, Xu, Figlio, & Feng,  \n2012), although we cannot rule out differential application of tenure rules.", 
  "Finally, we  \nfound evidence that the new tenure policy resulted in additional voluntary attrition of  \nteachers who were extended, as well as additional involuntary dismissal of the small  \n\fshare of teachers who were denied tenure.", 
  "Among extended teachers, those with  \nlower effectiveness, as measured by principals\u2019 ratings, but higher qualifications (e.g.", 
  "SAT scores) were more likely to leave, potentially further strengthening the teacher  \nworkforce.", 
  "Extended teachers who leave their schools are less effective as measured  \nby principal ratings and value-added estimates than are those likely to replace them.", 
  "Because teachers with poor effectiveness ratings are more likely to be in schools with  \nhigher percentages of black students, these schools are most affected by the policy  \nchange and most likely to see attrition of these less effective teachers as a result of  \nthe reforms.", 
  "These schools on average were able to hire more effective teachers to  \nfill these vacancies.", 
  "New York City\u2019s reforms to the tenure process are still in their early stages  \nand much remains to be learned Learning to become an effective teacher is  \ncomplicated and dependent on many factors, some of which are out of the control  \nof teachers.", 
  "Our results suggest large effects but provide only preliminary evidence  \nbecause we have not fully ruled out the effects of other factors that may have been at  \nplay in the district simultaneously.", 
  "Nor do we understand mechanisms by which  \nsome teachers succeed and others choose to leave.", 
  "In addition our findings should  \nbe viewed as a short run response to the NYCDOE tenure reform.", 
  "The long run  \nimplications are unclear, but could potentially be less salient if: extended teachers  \ncome to understand they will not be denied tenure, replacement teachers are not  \nmore effective, or the overall applicant pool of new teachers is depressed as a result  \n\fof tenure reform.", 
  "Finally, many extended teachers transfer to other NYCDOE  \nschools.", 
  "What are the circumstances of these transfers and what is the performance  \nof these teachers following their transfer?", 
  "With additional data a causal analysis will  \nbe more feasible and we can address many of these questions.", 
  "While the direct  \neffects of the tenure reforms are felt by teachers facing tenure decisions, the labeling  \nof teachers and increased likelihood of receiving an extension may induce other  \nteachers in the same school, subject, and/or grade to reassess their positions.", 
  "These  \nprocesses may encourage principals to reassign teachers across grades and subjects or  \nto reallocate responsibilities in other ways.", 
  "Changes in human resource practices including new hiring and evaluation  \npolicies have been hallmarks of many recent reforms.", 
  "While the tenure process has  \nbeen the subject of continual debate, reforms have been slower and less sustained in  \nthis area.", 
  "In part as a result, research on tenure policies and variety of possible  \napproaches to probationary periods and screening is sparse.", 
  "Nearly all districts grant  \nsome form of tenure based at least in theory on teachers demonstrating proficiency.", 
  "Yet many districts do only cursory evaluation during the tenure process.", 
  "As such,  \nadopting tenure reform similar to that presented here may be comparatively easy  \nrelative to other much discussed human resource policies that require more  \ncontroversial policy changes."
 ]
}