{
 "document_id": "4865927425484835002", 
 "sentences": [
  "High Educ DOI 10.1007/s10734-012-9546-z \nCommunity-university engagement: the Philippi CityLab in Cape Town and the challenge of collaboration across boundaries \nMercy Brown-Luthango \n\u00d3 Springer Science+Business Media B.V. 2012 \nAbstract Debates about the role of the university in society have been going on for many decades.", 
  "There have been several calls for a more \u2018\u2018engaged\u2019\u2019 form of scholarship which applies itself consciously to the pursuit of applied knowledge which can contribute towards solving some of the most pressing societal challenges.", 
  "Closer collaboration between uni- versities and community groups has been identi\ufb01ed as a central component of this form of scholarship.", 
  "This paper interrogates the literature on the role of universities in society, with a speci\ufb01c focus on university-community partnerships, and discusses the experience of the Philippi CityLab in Cape Town, South Africa to shed some light on the complexities, challenges and rewards of university-community interactions.", 
  "The case of the Philippi CityLab con\ufb01rms many of the pre-requisites for \u2018\u2018successful\u2019\u2019 collaboration between uni- versities and communities as identi\ufb01ed in the literature.", 
  "The paper argues that the ideal of a more engaged scholarship is certainly worth pursuing and that there is no doubt that South African universities do have a role to play in terms of working with communities to \ufb01nd workable solutions to the myriad of development challenges which they face.", 
  "However, the experience of the Philippi CityLab also shows that stakeholders should not be na\u0131\u00a8ve about the time, effort and investment which these kinds of engagements require and the dif\ufb01culty of establishing, maintaining and sustaining genuine, mutually bene\ufb01cial university-com- munity collaborations.", 
  "Furthermore, a truly engaged scholarship requires a signi\ufb01cant transformation of the institutional context within universities in order to not only facilitate and support, but also reward research which seek closer collaboration between universities and communities.", 
  "Keywords Community-university collaboration \u0001 Scholarship of engagement \u0001 Boundary work \u0001 New forms of scholarship \u0001 Applied research \nM. Brown-Luthango (&) African Centre for Cities, University of Cape Town, Room 2.08.1, Engeo Building, Rondebosch, 7701 Cape Town, South Africa e-mail: mercy.brown-luthango@uct.ac.za \n\n\fHigh Educ \nIntroduction \nDebates about the role of the university in society have been going on for many decades, especially in the North, where some have lamented what they perceive as a shift in the mission of universities away from service to the production of scienti\ufb01c knowledge which does not speak to broader societal challenges.", 
  "There have been several calls for a more \u2018\u2018engaged\u2019\u2019 form of scholarship which applies itself consciously to the pursuit of applied knowledge which can contribute towards solving some of the most pressing social prob- lems (Boyer 1990; Schon 1995; Checkoway1991, 1997, 2000; Baum 2000; Bender 2008; Creighton 2006).", 
  "Higher education institutions in South Africa are also increasingly being called upon to establish links with constituencies outside of their context in order to respond to South Africa\u2019s pressing socio-economic challenges.", 
  "This is especially evident in higher education policy initiatives like the National Commission on Higher Education, the 1997 White Paper on Higher Education and the White Paper on Science and Technology.", 
  "South African higher education institutions face a dual challenge of becoming more internationally competitive in terms of research outputs whilst at the same time working collaboratively with industry, government and community partners in order to develop effective responses to growing inequality and poverty in post-Apartheid South Africa.", 
  "While acknowledging the importance of a more engaged form of scholarship and the critical need for more context-sensitive and applied research in South Africa the main questions that this paper concerns itself with are: \u2022 What are the pre-requisites for meaningful university-community collaboration in the \nSouth African context?", 
  "\u2022 Are universities in South Africa geared for more socially responsive research which \n\nrequires closer collaboration between universities and communities?", 
  "Is it possible to achieve a genuine shift in the role of communities in university-based research from that of research subjects to equal partners in the production of knowledge?", 
  "The paper attempts to address the above-mentioned research questions through a critical re\ufb02ection on the Philippi CityLab process, part of the African Centre for Cities (ACC) at the University of Cape Town.", 
  "The conclusions drawn from the Philippi CityLab case are based on the re\ufb02ections of the Philippi CityLab Coordinator who has been involved in the process over a period of 3 years.", 
  "In addition, the opinions of some of the more regular participants in the process were also gathered through a short questionnaire.", 
  "This was not an exhaustive research process, but the idea was to get a sense of how some of the participants felt about their involvement in the Philippi CityLab and the usefulness (or not) of the CityLab process.", 
  "By focusing on the Philippi CityLab, the paper hopes to contribute to the international body of literature on the subject of university-community relations and more importantly, to add to the growing South African debate about the contribution that higher education institutions can make towards addressing the country\u2019s development challenges.", 
  "It must be stated from the onset that the aim of this paper is not to present the Philippi CityLab as a model or best practice example of university-community collabo- ration, but rather to shed light on the complexities and dif\ufb01culties in establishing mutually bene\ufb01cial partnerships between universities and communities.", 
  "The Philippi CityLab case also con\ufb01rms many of the pre-requisites for successful university-community engagement referred to in the literature.", 
  "The Philippi CityLab forms part of the ACC\u2019s CityLab programme.", 
  "The ACC was established in 2007 and provides a platform for interdisciplinary research on urban issues, \n\n\fHigh Educ \nboth theoretical and applied, across the University of Cape Town.", 
  "The CityLab programme was initiated in 2008 as an interdisciplinary applied research programme for learning from the unique experience of Cape Town.", 
  "The programme, which receives funding from the Mistra Urban Futures network, the Provincial Government of the Western Cape (Depart- ment of Human Settlements) and the City of Cape Town, has a dedicated, university-based research focus on the city.", 
  "The idea is to collaborate with key urban managers and the organised sector of civil society as knowledge producers, with the speci\ufb01c intent of fos- tering re\ufb02ective policy and practice in the city region.", 
  "The CityLab programme consists of 6 individual CityLabs, including two that are area-based; one focusing on the Central City and the other on Philippi, a low-income settlement in Cape Town.", 
  "The four thematic CityLabs are concerned with urban \ufb02ooding, the relationship between urban health and the built environment, urban ecology and climate change.1 Each CityLab runs for a period of between 18 and 24 months and as a \ufb01nal output produce a form of publication which might include either a book or a special issue in a journal.", 
  "The area of Philippi was chosen for a number of reasons.", 
  "Philippi is a relatively well- located low-income settlement in Cape Town and combines a signi\ufb01cant concentration of opportunity as well as considerable challenges which makes it an interesting case for exploring the pre-requites for creating sustainable human settlements in South Africa.", 
  "It also became evident that there are a number of ongoing university-based research projects and other government and civil-society driven initiatives in Philippi and that it would be a useful exercise to bring these actors together to discuss and debate these different initia- tives.", 
  "In contrast to some of the other CityLabs, the Philippi CityLab consciously sought to involve community-based organisations (CBOs) in the CityLab process by pursuing partnerships with non-governmental organisations that are based in Philippi and work closely with a range of CBOs.", 
  "The Philippi CityLab process sheds light on the complexities involved in a credible crossing of the boundaries between knowledge and practice.", 
  "It also seeks to contribute towards \ufb01lling a gap in the South African literature on these kinds of initiatives.", 
  "Whereas much of the literature talks about the importance of closer collaboration between higher education institutions and those beyond the academy, there is very little by way of practical examples of university-based programmes or projects which have attempted to do so.", 
  "The case of the Philippi CityLab con\ufb01rms many of the pre-requisites for success identi\ufb01ed in the literature which include the importance of relationship building in order to bridge institutional barriers.", 
  "Given the speci\ufb01c local context, it is also important for all the stakeholders involved to buy into the goals as well as the anticipated outcomes and bene\ufb01ts of the planned collaboration in order to avoid unrealistic expectations which could result in disappointment, mistrust and a souring of university-community relations if expectations are not met.", 
  "In order for community partners to become equal partners in any university- community collaboration, rather than mere research subjects, it is important that com- munity partners are actively involved in each stage of the process.", 
  "This means that the aims, mode of operating and anticipated outcomes and bene\ufb01ts of the planned collabo- ration are carefully negotiated upfront and crucially, that research projects are jointly conceived and driven by both partners and not only by the needs of the university partner.", 
  "In re\ufb02ecting on the challenges of closer collaboration between university and the broader community based on the Philippi CityLab experience, the author concurs with the senti- ment expressed by much of the international and South African-based literature that a \n1 African Centre for Cities \u2018\u2018Integrated Sustainable Human Settlements Research/CityLab Concept Note, February 2008 and Overview of the African Centre for Cities\u2019\u2019 CityLab, 4 October 2010. \n\n\ftransformation of the institutional culture in higher education institutions is required in order to achieve genuine and mutually bene\ufb01cial university-community collaborations.", 
  "High Educ \nLiterature review \nA broader notion of scholarship\u2014the role of the modern university in society \nThe debate about the university\u2019s role in society intensi\ufb01ed after the Second World War when \u2018\u2018scienti\ufb01c rationality\u2019\u2019 with its emphasis on knowledge production through scienti\ufb01c research and experimentation took root (Boyer 1990; 12).", 
  "One of the seminal works on the topic is Boyer\u2019s book entitled \u2018\u2018Scholarship Reconsidered: Priorities of the Professorate 1990\u2019\u2019.", 
  "Here Boyer argues that universities should play a more active role in addressing social issues like poverty and inequality and appeals for a broader conception of schol- arship beyond the scholarship of discovery to include a scholarship of integration (inter- disciplinary forms of research collaboration, making connections across disciplines), a scholarship of application (the application of knowledge to pressing social challenges) and a scholarship of teaching.", 
  "The scholarship of discovery still dominates in most research universities and continues to be deemed a more legitimate form of scholarship.", 
  "The whole academic system, in fact, is geared towards recognition and advancement of the scholar- ship of discovery, while other forms of scholarship receive very little attention and are often devalued.", 
  "This results in the \u2018\u2018ivory tower\u2019\u2019 syndrome and the production of knowledge which does not respond to contemporary social problems.", 
  "In \u2018\u2018The Scholarship of Engagement\u2019\u2019 (1996), Boyer calls upon academics to gear their scholarship towards \ufb01nding solutions to pressing social challenges; \u2018\u2018the academy must become a more vig- orous partner in the search for answers to our most pressing social, civic, economic and moral problems\u2019\u2019.", 
  "He argues for a greater emphasis on \u2018\u2018service\u2019\u2019 in the university and laments the shift away from service and practicality in the mission of most institutions of higher learning a century ago to that of scienti\ufb01c knowledge production, which in his view results in the disengagement of academia from society, so that higher education becomes a private bene\ufb01t rather than a public good.", 
  "The importance of a more engaged form of scholarship and a closing of the gap between knowledge and practice have received attention from a number of other scholars (Schon 1995; Checkoway 1991, 1997, 2000; Baum 2000; Bender 2008; Creighton 2006).", 
  "Some argue that integration of research and practice would, contrary to widely held assumptions in academia, actually enrich the quality and relevance of research, because \u2018\u2018knowledge is in our action\u2019\u2019 (Schon 1995).", 
  "The debate about the role of universities and other higher education institutions in society is very relevant in the South African context where rising inequality, poverty, violence and social unrest necessitate new and innovative approaches to deal with socio-economic challenges.", 
  "In South Africa, the debate about a new form of scholarship has been heavily in\ufb02uenced by Gibbons\u2019 concept of Mode 1 versus Mode 2 knowledge production.", 
  "In his widely recognised work \u2018\u2018The New production of Knowledge.", 
  "The Dynamics of Science and Research in Contemporary Societies\u2019\u2019 (1994) Gibbons, while not disregarding the impor- tance of Mode 1 knowledge production, appeals for a new form of knowledge production which is trans-disciplinary, application-oriented, socially accountable, re\ufb02exive and con- text-sensitive, in other words \u2018\u2018knowledge has to be produced in the context of application involving a much broader range of perspectives\u2019\u2019 (Gibbons 2000; 159).", 
  "Mode 2 knowledge production requires stronger collaboration between academia and a host of other actors, including practitioners, policy-makers and community-based actors.", 
  "This Mode 2 \n\n\fHigh Educ \nknowledge production, it is argued, can complement Mode 1 knowledge production which is scienti\ufb01c, academic in nature and more strongly discipline-based (Waghid 2002).", 
  "Gibbons\u2019 work has had a particularly strong impact on higher education policy in South Africa.", 
  "In fact it is stated that \u2018\u2018higher education policy makers have seen in Mode 2 knowledge production, the promise of a solution to the dual problems facing South African higher education: the need for skilled graduates for national reconstruction and global competitiveness and the need for a transformed and equitable higher education system\u2019\u2019 (Winberg 2006; 160).", 
  "Gibbons\u2019 ideas have therefore been incorporated into higher edu- cation policy processes and documents, such as the National Commission on Higher Education, the White Paper on Higher Education and the White Paper on Science and Technology (Jansen 2002).", 
  "The in\ufb02uence of Gibbons\u2019 Mode 1 and Mode 2 knowledge production thesis is particularly evident in the following excerpts from the 1997 Education White Paper 3 entitled \u2018\u2018A Programme for the Transformation of Higher Education\u2019\u2019.", 
  "2.85 The accountability processes that \ufb02ow from the changing nature of the research enterprise are much wider than those associated with traditional research in the higher education system.", 
  "The outcomes of research are not only measured by tra- ditional tools such as peer-reviews, but also by a broader range of indicators such as national development needs, industrial innovation and community development.", 
  "2.86 In South Africa today, therefore, the research system faces two main challenges.", 
  "It must redress past inequalities and strengthen and diversify research capacity.", 
  "It must also keep abreast with the emerging global trends, especially, the development of participatory and applications-driven research addressing critical national needs, which requires collaboration between knowledge producers, knowledge interpreters and knowledge managers and implementers.", 
  "The policy intention is very clear, but have these ideas been as enthusiastically implemented by higher education institutions in South Africa?", 
  "In interrogating this question, Jansen argues that although there has been some shift in research universities in South Africa towards Mode 2 knowledge production, this has been \u2018\u2018small and uneven\u2019\u2019 (2002; 514).", 
  "The author argues that the institutional arrangements in South African uni- versities, including the institutional culture, appetite amongst academics for collaboration with non-academic knowledge producers, and the academic reward and incentive structure militate against a more aggressive adoption and implementation of Gibbons\u2019 ideas.", 
  "Bender (2008) also acknowledges that the launch of the 1997 Education White Paper sparked a shift in the way that universities view collaboration with external bodies, particularly communities, and notes that the terminology used to describe this kind of interaction has changed from \u2018\u2018community service or academically based community service\u2019\u2019 to \u2018\u2018com- munity engagement\u2019\u2019.", 
  "However, she suggests that \u2018\u2018in practice there is still a perception that community engagement and service are merely add-on, nice-to-have, philanthropic activities\u2019\u2019 and that community engagement still does not receive the same attention or recognition as research or teaching (Bender 2008; 83).", 
  "Waghid appeals for a closer integration between scienti\ufb01c, discipline-based knowledge and application-based knowledge in South African and argues that \u2018\u2018community service initiatives must integrate theoretical, disciplinary based knowledge with practical, prob- lem-oriented and transdisciplinary knowledge to become more responsive and relevant to current social, economic, political and environmental problems\u2019\u2019 (2002; 477).", 
  "So in fact what is required is not for academically sound and scienti\ufb01cally rigorous research to be replaced, but rather for it to be more strongly rooted in real-world social dilemmas.", 
  "High Educ \nRe\ufb02ecting on the state of service learning in South Africa, McMillan (2009) and Old\ufb01eld (2008) call for a closer and more critical interrogation of service learning2 in South African universities.", 
  "Mcmillan (2009) argues that service learning needs to be understood as boundary work and that the ultimate goal of crossing boundaries between university and community, knowledge and practice should be a collaborative pursuit of social justice.", 
  "Old\ufb01eld drawing on her own experience of involving students in service learning projects in low-income communities on the Cape Flats,3 questions the widely held assumption in service learning literature that both the university and communities bene\ufb01t equally from these types of collaborations.", 
  "She argues that university-community part- nerships are embedded in unequal power relationships between individuals, organisations and these impact greatly on who bene\ufb01ts and how much each party bene\ufb01ts (Old\ufb01eld \nThe ideal of a scholarship of engagement is certainly commendable, especially in the South African context, given the challenges of international competitiveness coupled with socio-economic exclusion of the majority of the population.", 
  "Universities clearly have a role to play in terms of innovative and socially responsive research to confront these challenges, but how easy is it to attain this ideal in reality?", 
  "Prerequisites and challenges for successful university-community partnerships \nThe literature identi\ufb01es a number of challenges involved in university-community col- laborations and highlights several important pre-requisites for success.", 
  "The most dif\ufb01cult challenge is to de\ufb01ne exactly what is meant by the \u2018\u2018community\u2019\u2019, as this is a much-used, contested term.", 
  "In this context, Bender de\ufb01nes community or communities as \u2018\u2018speci\ufb01c local collective interest groups that participate or could potentially participate in the community service activities of a higher education institution\u2019\u2019 (2008; 86).", 
  "Baum recom- mends that \u2018\u2018a university that aims to form a partnership with a community must not only decide whom it means by the community, but also \ufb01nd concurrence on that view by community members\u2019\u2019 (2000; 237).", 
  "In this paper, the term refers to local communities, which can include a neighbourhood or speci\ufb01c groupings within a neighbourhood.", 
  "In a thesis exploring indicators of community-university engagement from the per- spective of communities, Creighton (2006) \ufb01nds that although there is an interest in greater collaboration with communities in academic institutions, most of these initiatives are conceived and driven from the perspective of faculty and students rather than that of communities, with the result that communities often do not feel that they derive real bene\ufb01t from such partnerships.", 
  "Another issue which tends to bedevil collaboration between communities and univer- sities is a difference in cultures, including \u2018\u2018customary mode of work, commitment to social change and socio-political positions\u2019\u2019 (Dewar and Isaac 1998; 336).", 
  "It is argued that given the different power relations between communities and university researchers a change in attitude is required where community partners are viewed as equals and not simply as research subjects, and the expertise and knowledge brought by communities need to be acknowledged and valued (May\ufb01eld et al.", 
  "1999; Bringle and Hatcher 2002).", 
  "2 Service-learning requires university students to participate in community projects in exchange for course 3 The Cape Flats consist of a number of township areas in Cape Town established during Apartheid as a result of forced removals of black and coloured people from areas designated for the white population.", 
  "High Educ \nCommunities need to be actively involved in each step of the research process, from identifying research issues, design of the research, data collection, analysis of the research results, to writing as well as policy processes which might \ufb02ow from the research (May- \ufb01eld et al.", 
  "1999; 869; Checkoway 2001; Maurrasse 2002).", 
  "Academic researchers who want to pursue this kind of engagement must also take cognisance of the time that is typically needed for successful community-university partnerships to develop.", 
  "Central to partnership is the building of a relationship of trust between a community and its university partner and a sharing of resources (Ostrander 2004).", 
  "Baum argues that the purpose and goals of the collaboration must be clear, speci\ufb01c and realistic from the outset (2000; 236).", 
  "For uni- versity-community collaborations to be signi\ufb01cant, \u2018\u2018community groups need to derive bene\ufb01ts that directly enable them to address issues of concern to them\u2019\u2019 (Marullo and Edwards 2000; 896).", 
  "Another crucial ingredient for institutionalising and sustaining community-university engagement is to link the university\u2019s interaction with a community to the generation of new knowledge (Ostrander 2004).", 
  "The next part of this paper will re\ufb02ect on university-community partnerships, speci\ufb01cally the challenges and requirements for success with reference to the Philippi CityLab process.", 
  "The Philippi CityLab \nPhilippi\u2014the place \nPhilippi is a low-income settlement on the Cape Flats in Cape Town.", 
  "According to the 2001 Census, the latest available data, the population of Philippi stood at 110,000 in 2001, compared to an overall Cape Town population of 2.9 million at the time.", 
  "The history of Philippi has been heavily in\ufb02uenced by developments in the city, country and sub-conti- nent more widely, particularly political developments in its surrounding neighbourhoods.", 
  "During the early 1990\u2019s, Philippi became an \u2018\u2018apartheid battleground\u2019\u2019, with contestations over housing development and allocation to black Africans who for a long time had not been allowed to settle or catered for in urban areas.4 Today, the population of Philippi consists of a number of disparate groups who settled in the locality at different times and through very different processes.", 
  "As a settlement, Philippi presents both potential and a range of challenges.", 
  "It is stra- tegically located in close proximity to transport nodes and economic opportunities, such as the Cape Town International airport, the Philippi Industrial Area and the Philippi Horti- cultural Area.", 
  "Yet the area still faces serious development challenges in the form of poverty, unemployment, food insecurity, overcrowding, crime and exposure to environ- mental hazards such as \ufb02ooding and \ufb01re.5 Given the concentration of both opportunity and challenge in Philippi, it seems a relevant case for further exploration into the question of what is required from different role-players to create safe, economically viable and sus- tainable human settlements and was therefore chosen as the focus of one of the African Centre for Cities\u2019 area-based CityLabs.", 
  "In contrast to some of the other CityLabs, the \n4 For a more detailed account of the historical development of Philippi, see Adlard (2008) \u2018\u2018An introduction to Philippi\u2019\u2019.", 
  "Unpublished paper.", 
  "5 See Anderson (2009) \u2018\u2018Philippi Community Pro\ufb01le\u2014Final Report\u2019\u2019, South African Education and Envi- ronment Project (SAEP) and Erasmus and Mans (2005) \u2018\u2018Philippi Transformation Research Project\u2019\u2019 The Unit for Religion and Development Research and Transformation Africa, University of Stellenbosch, South Africa for a detailed demographic pro\ufb01le of Philippi.", 
  "High Educ \nPhilippi CityLab consciously sought to involve community-based organisations (CBOs) in the CityLab process by pursuing partnerships with non-governmental organisations that are based in Philippi and work closely with a range of CBOs.", 
  "History and method of the Philippi CityLab process \nThe Philippi CityLab has been running for 3 years at the time of writing.", 
  "It must be stressed that the development of the Philippi CityLab process was in contrary to what much of the literature advises in terms of the principles of successful and mutually bene\ufb01cial university-community partnerships.", 
  "The Philippi CityLab is therefore not presented as a model for university-community collaboration, but rather to draw attention to the com- plexities involved in attempts to work across these boundaries and to reiterate the importance of the principles alluded to in the literature.", 
  "Community members were not involved in the initial conceptualisation and design of the CityLab and were not given an opportunity to de\ufb01ne their needs or what the objectives and outcomes of the CityLab process would be in relation to these.", 
  "Subsequent attempts to involve potential community partners were thus hollow and ineffective as community members did not have any ownership of the process.", 
  "At the beginning there was a question about which format and structure the CityLab would adopt, in particular whether it would get involved in devel- opment projects on the ground or aim to provide a \u2018\u2018neutral space\u2019\u2019 for engagement between different role-players.", 
  "The CityLab Coordinator decided that not only did the Philippi CityLab have limited capacity to carry out physical, action-oriented projects on the ground, it was not clear if this was the core business of a university-based research organisation.", 
  "It emerged that there are a number of research projects as well as government and civil society-led initiatives in Philippi, but those involved were often not aware of each other\u2019s efforts.", 
  "This has inhibited coordinated approaches to building knowledge about the opportunities and challenges in Philippi for the bene\ufb01t of all those working there, thereby undermining the effectiveness of attempts to address the challenges.", 
  "Therefore, the second option was chosen.", 
  "Initially, therefore, the Philippi CityLab was conceived as a forum where role-players like academics, government of\ufb01cials and civil society organisations like NGOs and CBOs based in Philippi, could share knowledge and debate issues in order to develop some collective understanding of development processes in low-income settlements such as Philippi.", 
  "The Coordinator hoped that the interaction would eventually lead to the identi- \ufb01cation of additional and collaborative activities.", 
  "Prior to the start of the Philippi CityLab process, the Coordinator had a series of one-on one meetings with university-based researchers doing research in Philippi as well as the director of an urban design consul- tancy who has been involved in Philippi for a number of years.", 
  "The idea was to get their input into how the CityLab process could be structured as well as get proposals for seminar themes and topics.", 
  "Community partners were not included in this process, because at the time the Coordinator did not yet have a \ufb01rm grasp of the level of community-based organisation in Philippi or which organisations to consult.", 
  "The Philippi CityLab was therefore essentially a university conceived and driven process.", 
  "A series of thirteen exploratory seminars were held in which academics and other role- players working in Philippi were given an opportunity to present their work.", 
  "Presentations were made on a range of topics (refer to Table 1).", 
  "The seminars and \ufb01eld trips were attended by participants from different sectors, with the majority being academics and post-graduate students (See Fig.", 
  "1).", 
  "High Educ \nTable 1 List of seminar topics and \ufb01eld trips \n1) Historical overview of the development of Philippi \n2) Community risk assessment and disaster mitigation in informal settlements \n3) Field trip to different housing settlements and projects in Philippi \n4) Food security in Philippi \n5) Water on the cape \ufb02ats: people, ecology, and opportunity \n6) Community-Led development \n7) Infrastructure upgrades in Philippi with a particular focus on the upgrade of the soccer stadium in \nPhilippi in preparation for the 2010 FIFA World Cup \n8) Boundary work\u2014what happens when the university meets the community?", 
  "9) The Philippi CityLab participated in the Philippi Hothouse which was organised by the Urban Matters \nprogramme \n10) Beyond city improvement districts to community improvement districts \n11) The City of Cape Town\u2019s draft spatial development framework and implications for Philippi \n12) Informal recycling and the role it can play in improving livelihoods whilst addressing environmental \n\n13) Violence prevention through urban upgrade (VPUU) \n14) Field trip to the Tsoga Centre in Samora Machel, Philippi \n15) Philippi from the inside out\u2014community connections\u2019 integrated community development pilot \n\n16) Regulatory strategies and competition in the informal recycling sector: the dark \ufb01ght in a cut-throat \n\nFig.", 
  "1 Breakdown of citylab seminar attendance by sector \n\n\fTable 2 Frequency of citylab seminar attendance by different sectors \n\nNumber of seminars attended \nGovernment (22 participants) \nIndustry (25 participants) \nNGO (33 participants) \nUniversity of Cape Town (59 participants) \nOther research (7 participants) \n?", 
  "(13 participants) \nHigh Educ \nAverage attendance per seminar ranged between \ufb01fteen and twenty participants, but different individuals participated in the meetings from month to month, depending on the topic or the speaker and few attended on a regular basis (see Table 2).", 
  "Given the format and purpose of the Philippi CityLab, this was not unexpected.", 
  "However, attendance at meetings declined somewhat during the year and of particular concern was the lack of representation of community based and non-governmental organizations working in the area as it was considered important for community groupings to participate.", 
  "In year two, a few changes were made to the structure of the Philippi CityLab seminar programme.", 
  "Firstly, the Coordinator felt that in order to have a more meaningful and focussed seminar programme, the meetings and presentations needed to be organised around a speci\ufb01c theme or conceptual framework.", 
  "The seminar programme for the second year, including topics and speakers, was therefore more consciously designed around the theme of \u2018\u2018integrated community development\u2019\u2019.", 
  "This theoretical framework seemed appropriate, as one of the key lessons from the \ufb01rst year\u2019s seminar programme and other activities was that there is no lack of development initiatives in Philippi, but a need for better coordination and integration between different initiatives.", 
  "The integrated community development framework considers how communities, in partnership with other role-players like the state, private sector and academia can address their own development needs.", 
  "It also seeks to address development challenges in a holistic and integrated manner, rather than focussing on sector-based interventions.", 
  "Secondly, the Coordinator felt that in order to improve the involvement of local civil society organisations, it would be important to establish relationships and rapport between the CityLab and non-governmental organisations in Philippi.", 
  "The CityLab Coordinator therefore embarked on a concerted drive to participate in the activities of the Urban Matters6 initiative and establish a working relationship with an NGO which provides organisational development support to a range of community-based organisations in Philippi and another NGO involved in a skills development and job creation project that aims to uplift the community in and around Samora Machel7 through environmentally sustainable job-creation activities.", 
  "The Philippi CityLab Coordinator met with the \n6 The Urban Matters programme was initiated in 2008 as an initiative of Catholic Organisation for Relief and Development Aid (CORDAID) and Philippi was identi\ufb01ed as the core focus of the programme.", 
  "Urban Matters uses a multi-stakeholder collaborative approach to neighbourhood development in order to develop innovative, replicable and practical shared solutions to address infrastructural and social issues in poor neighbourhoods.", 
  "The Urban Matters initiative was also implemented in Kisumu, Kenya and San Salvador in El Salvador.", 
  "7 Samora Machel is an area in Philippi.", 
  "High Educ \nmanagement teams of these organisations in order to establish such a working relationship and had follow-up discussions and meetings with members of the programme staff on a regular basis.", 
  "The Coordinator also participated in a number of the programme activities which these organisations were engaged in at the time.", 
  "However, as is the case with many initiatives in Philippi, the Urban Matters programme experienced some dif\ufb01culty and went through a period of restructuring which delayed the progress and the achievement of the Urban Matters programme goals in Philippi.", 
  "The skills development and job creation project which was based in Samora Machel has since been abandoned.", 
  "These develop- ments did have some impact on attempts by the Philippi CityLab to establish more meaningful community-university partnerships.", 
  "However this does not change the fact that the initial process of establishing the Philippi CityLab was \ufb02awed particularly in terms of bringing community partners on board and establishing mutually satisfactory and bene\ufb01- cial university-community collaboration.", 
  "Re\ufb02ections and lessons learned \nThe \ufb01ndings and lessons gleaned from the Philippi CityLab process are based on the Coordinator\u2019s perceptions of the process as well as responses from a few of the regular participants in the process.", 
  "In writing about the Coordinator\u2019s perceptions and experiences, this paper draws on the work of those scholars who acknowledge the role of re\ufb02exivity and the importance of the \u2018\u2018voice\u2019\u2019 of the researcher or practitioner in qualitative research (Hasselkus 2003; Etherington 2004; Greenaway 2010; Pillow; 2003).", 
  "This is what is referred to as the \u2018\u2018authorial presence\u2019\u2019 and represents the positioning of authors in relations to their research (Hasselkus 2003; 7).", 
  "While cautioning against self-indulgence on the part of the researcher, it is argued that a process of re\ufb02ection should be deemed an important part of the research process itself as it could improve the validity of research outputs.", 
  "According to Etherington \u2018\u2018qualitative research may be rigorously valid when the researcher\u2019s process is transparent and used as part of the data\u2019\u2019 (2004; 49).", 
  "Greenaway argues that re\ufb02exivity, which refers to a critical re\ufb02ection on the researcher\u2019s journey and how his/her ideas, perceptions, questions and decisions have in\ufb02uenced the research process, provides a \u2018\u2018sort of quality assurance check\u2019\u2019 within research (2010; 1).", 
  "Pillow de\ufb01nes re\ufb02exivity as a \u2018\u2018continuing mode of self-analysis and political awareness\u2019\u2019 (2003; 178) or a \u2018\u2018turning back on oneself, a process of self-reference\u2019\u2019 (Davies 1999 in Pillow 2003; 178).", 
  "It is within this spirit that this paper is based mainly on a re\ufb02ection of the Philippi Coordinator\u2019s journey in trying to shape a process which would allow for co- production of knowledge and closer collaboration between university researchers and the Philippi community as an important partner in the process.", 
  "A short questionnaire was also e-mailed to individuals who participated on a more regular basis in the seminar programme to get their perspectives on the Philippi CityLab process.", 
  "Participants were selected on the basis of how often they attended the Philippi CityLab seminar series and those who attended three of more of the seminars over the 2 year period were contacted.", 
  "At the end a total of seven \u2018\u2018regular\u2019\u2019 participants, including representatives from non-governmental organisations, the Urban Matters programme, researchers at UCT and one government of\ufb01cial, were contacted.", 
  "It is important to stress that this was not intended to be an exhaustive or representative survey of participants\u2019 opinions, but rather to get a sense of how some of the participants perceived the process.", 
  "Participants were asked the following questions: \n\n\fHigh Educ \n1.", 
  "Why did you attend the Philippi CityLab meetings?", 
  "2.", 
  "Were your expectations met?", 
  "3.", 
  "Did you \ufb01nd the meetings useful in terms of the engagement with issues pertaining to \nPhilippi, meeting/networking with people from other sectors, etc.?", 
  "4.", 
  "Do you have any comments/suggestions for how the Philippi CityLab space can be \nimproved to make it more useful to you and your sector?", 
  "5.", 
  "Would you continue to attend the Philippi CityLab meetings in future?", 
  "The \ufb01rst lesson which emanates from the Philippi CityLab experience, in relation to the \ufb01rst research question concerning the pre-requisites for effective university-com- munity collaboration, is the importance of relationship-building, as suggested by Bringle and Hatcher.", 
  "The nature of the intended relationship with the Philippi \u2018\u2018community\u2019\u2019 was not clearly speci\ufb01ed from the outset, there was no involvement of community members or groups in the conceptualisation of the CityLab or the setting of aims and objectives, and there was certainly no negotiation upfront between the different parties with respect to the potential risks and bene\ufb01ts for each party, as recommended (Bringle and Hatcher 2002).", 
  "This is one of the biggest shortcomings of the project and had a signi\ufb01cant impact on the participation of community-based organisations in the Philippi CityLab pro- gramme.", 
  "In the end, the Philippi CityLab process was really only designed to bene\ufb01t the university partners and the gap between the university and the community was never bridged, in effect, no crossing of boundaries occurred.", 
  "A process aimed at satisfying the needs and expectations of both university and community would have invested more time, effort and the necessary resources to build relationships based on trust by taking time to better understand the speci\ufb01c context in Philippi, the role-players involved and their needs.", 
  "During the \ufb01rst year of the programme, as noted above, the aim was to provide a space for exchange of knowledge and experience between different role-players in the hope that this would spark further collaborative relationships between these different parties.", 
  "In terms of this goal, the CityLab seems to have satis\ufb01ed at least some of those who par- ticipated in its activities as it provided them with a rich source of information about the place, its potential and the challenges it faces from a range of different perspectives (see quotes below).", 
  "I went to CityLab to learn more about the different aspects relevant for Philippi\u2019s development; it gave a great overview of all the different aspects that come into city planning (looking at the environmental perspective, the water issue, city planning, and social development).", 
  "My other main reason was to learn about what is happening and going on in Philippi, which is important for us to know as stakeholders in Philippi.", 
  "It was also good to increase networks and contacts, especially because everyone present has an interest in Philippi so there is already a commonality.", 
  "(Former co-ordinator of the Urban Matters programme) \nThe Philippi lab meetings offered a good opportunity to network with others inter- ested an involved in Philippi; also it was a useful forum to learn more about Philippi and people/orgs working in Philippi.", 
  "(University researcher) \nAt \ufb01rst it was a recommendation to understand, network and liaise with potential stakeholders in the Urban Matters initiative.", 
  "As a research (scholar) though, I felt that linking with UCT and Philippi CityLab was just another possibility to widen views on reaching out to developmental practitioners and researchers, at the same [time] \n\n\fHigh Educ \nlinking with people who have a same interest in uplifting the community of Philippi.", 
  "The short term expectation of meeting people with interest on Philippi was met.", 
  "(Community development facilitator) \nAs the Philippi CityLab programme had a time-span of 2 years, it was quite clear that what could be achieved in terms of building solid and concrete collaboration between the CityLab, a university-based programme, and the community of Philippi was limited.", 
  "Being mindful of the time and resources required to initiate, develop, implement and sustain community projects, as well as the demands of academia, as noted in Section three, the CityLab Coordinator was careful not to not raise unrealistic expectations amongst par- ticipants about the Philippi CityLab\u2019s involvement in such initiatives.", 
  "In addition, it is clear that boundary work and conducting the type of engaged research that can produce appropriate responses to speci\ufb01c social problems, as proposed by Boyer and other advo- cates, is hugely challenging.", 
  "It would require a signi\ufb01cant investment of time, commit- ment, energy, \ufb01nancial resources and institutional adjustment on both sides.", 
  "Recognition of the limits on the time and resources available within the CityLab had a very signi\ufb01cant impact on its eventual shape and function.", 
  "In relation to the second research question then about whether universities in South Africa are geared towards socially responsive research which requires closer collaboration between universities and communities, the author, based on the experiences of the Philippi CityLab, concurs with scholars like Jansen (2002) and Bender (2008) who argue for a transformation of the institutional context in univer- sities to facilitate mutually bene\ufb01cial and sustainable community engagement.", 
  "Dewar and Isaac as well as other scholars\u2019 suggestion that university-community engagement should be community-driven is also applicable.", 
  "Any applied, practical research project emanating from the Philippi CityLab would have had to be initiated by a community grouping in Philippi and the aims, goals, outcomes and terms of engagement would have had to be clearly de\ufb01ned and negotiated upfront.", 
  "An important pre-requisite for such an initiative is an already well-organised, uni\ufb01ed and capacitated community.", 
  "This pre-condition does not currently exist in Philippi, which is one of the reasons why despite the area\u2019s potential, many initiatives fail to take off and others are not easily sustained.", 
  "The particular development context in Philippi is also an important consideration.", 
  "It is a low-income settlement facing a host of development challenges.", 
  "Many of the area\u2019s inhabitants face a daily struggle to meet their most basic needs for food, decent shelter and health.", 
  "This is coupled with a general fragmentation and weakness of civil society, which is not peculiar to Philippi, but is characteristic of most of South African society following the democratic transition.", 
  "Communities are therefore reluctant to get involved in any project that does not deliver real, tangible bene\ufb01ts in terms of improving their livelihoods and meeting their basic daily needs.", 
  "This is not to blame the community for the lack of participation in the CityLab, but merely to reiterate the point that a much more concerted effort and commitment by university partners is required to involve communities in an authentic way so that they experience a sense of co-ownership in a process which they feel would bene\ufb01t them in a way that is acceptable to them rather than a situation where they feel like they are being exploited.", 
  "This was not achieved in the case of the Philippi CitiLab which resulted in some participants feeling that the university partners were the only ones bene\ufb01ting at the expense of the community (see quotes below).", 
  "The short term expectation of meeting people with interest on Philippi was met however the larger objective of this being useful to the community of Philippi appeared for me as a pie in the sky.", 
  "Researchers seemed interested in taking what \n\n\fHigh Educ \nthey could and responding to their immediate needs of research and supervisory requirements and I did not feel or see the giving back into the community.", 
  "It was as if there is a give and take where the community continues to ask \u2018when are we going to be paid for being the guinea pigs for this never ending research?\u2019 The mistrust created by the un-communicated interdependence of the giving and taking leaves a huge gap for development practitioners, who need to convince the communities what bene\ufb01t the interaction is in the end.", 
  "My current judgment is that researchers from UCT and other institutions feed on the community without giving back \u2018enough\u2019 to create a \u2018symbiotic\u2019 exchange or sus- tainable give and take that is balanced (Community development facilitator, part of the Urban Matters programme).", 
  "In answering the third research question, the paper concludes that it is possible to achieve an genuine shift in the role of communities in university-based research from that of research subjects to equal partners in the production of knowledge only when com- munities are involved in every stage of the research process, where their needs and expectations carry equal weight to those of researchers and when they feel that they receive tangible bene\ufb01ts from their participation in the research.", 
  "In the end, \nthe programme did achieve its initial aim of providing a space for engagement for different role-players, but failed to generate meaningful university-com- munity collaboration.", 
  "The intention is to capture the knowledge shared during the seminars in a volume on Philippi and to make it available to a wider audience.", 
  "The volume will include chapters written by academics, of\ufb01cials and one of the NGOs involved and will trace the history of Philippi in terms of its development as a settlement as well as its economic development.", 
  "Contributors will also discuss and analyse civil society responses to the challenges facing Philippi as well as government-driven initiatives in the area in order to arrive at some understanding of the pre-conditions for the development of thriving, integrated human settlements.", 
  "A range of interviews will be conducted with the leadership of some of the community-based groupings in Philippi to ensure that their views are also captured in the publication.", 
  "Although focussed on Philippi, it is hoped that the volume will be of interest to a wider audience and that the lessons of the Philippi CityLab will be applicable to other low-income settlements in Cape Town, South Africa and the global \nConclusion \nMuch of the international and national literature reviewed in this paper advocates a more engaged form of scholarship, but it does not seem to give adequate consideration to the complexities involved in an authentic crossing of the boundaries between knowledge and practice.", 
  "In re\ufb02ecting back on the three central questions which this paper attempted to address; the author concurs with other scholars (Bender 2008; Jansen 2002; Waghid 2002) who argue that a signi\ufb01cant transformation is needed in the institutional environment of higher education institutions in South Africa to allow socially responsive research to \ufb02ourish.", 
  "A \ufb01rst step in this direction would be more open and transparent debate within higher education institutions in South Africa about the current barriers to this form of collaboration which include the institutional culture, reward systems, modes of work, dissemination of research, time and resource allocations, etc.", 
  "Secondly, the case of the \n\n\fHigh Educ \nAfrican Centre for Cities\u2019 Philippi CityLab con\ufb01rms many of the pre-requisites for success identi\ufb01ed in the literature.", 
  "These include the importance of relationship building, clear speci\ufb01cation of the aims, intended outcomes, risks and potential bene\ufb01ts of the planned engagement from the outset and the need for all the stakeholders involved to understand these.", 
  "Another important pre-condition is an already well-organised and empowered community to engage with.", 
  "Thirdly, in order to achieve an authentic shift in the role of communities in university-based research from that of research subjects to equal partners in the production of knowledge, community partners need to be actively engaged in every phase of the research process and their needs and aspirations should be as important as those of the university partner.", 
  "Finally, the paper argues that the ideal of a more engaged scholarship is certainly worth pursuing and that there is no doubt that South African universities do have a role to play in terms of working with communities to \ufb01nd workable solutions to the myriad of development challenges which they face.", 
  "However, the expe- rience of the Philippi CityLab shows that stakeholders should not be na\u0131\u00a8ve about the time, effort and investment which these kinds of engagements require and the dif\ufb01culty of establishing, maintaining and sustaining genuine, mutually bene\ufb01cial university-commu- nity collaboration.", 
  "Acknowledgments This article is based on work undertaken as part of the work of the Philippi CityLab, which forms part of the CityLab programme of the African Centre for Cities at the University of Cape Town.", 
  "The African Centre for Cities\u2019 CityLab programme is funded through the Mistra Urban Futures network (which is funded by Mistra the Foundation for Strategic Environmental Research and the Swedish Inter- national Development Cooperation Agency), the Provincial Government of the Western Cape (Department of Human Settlements) and the City of Cape Town."
 ]
}