{
 "document_id": "5564812143826936266", 
 "sentences": [
  "Digital Natives As Preservice Teachers:  What Technology Preparation Is  \nThis study focused on \u201cdigital natives\u201d as preservice teachers to examine  their beliefs, attitudes, and technology experiences and expertise, identify  the strengths and weaknesses in their technology knowledge and skills,  and explore what technology preparation was needed to prepare them to  integrate technology in their future classrooms.", 
  "Results reveal that (a) the  digital-native preservice teachers reported strong positive beliefs in technol- ogy, yet moderate confidence and reserved attitude in using technology; (b)  the majority (80%) of them spent the most time on social-communication  activities, and only about 10% of them spent the most time on learning- related activities; (c) they were very proficient with basic technologies  but were not familiar with more advanced technologies; (d) the scope of  their use of Web 2.0 technologies was limited to mainly social-networking  Web sites, and they lacked the experiences and expertise in using Web 2.0  technologies with great potential for classroom application; and (e) they  lacked experiences and expertise in using classroom technologies, especially  assistive technologies.", 
  "The results suggest that, growing up with technology,  digital natives as preservice teachers are savvy with basic technologies and  social-communication technologies.", 
  "However, their technology proficiency  is limited by both the narrow scope and the lack of depth of their technol- ogy activities.", 
  "Systematic technology preparation is needed to help them  learn more advanced technologies, classroom technologies, and assistive  technologies, and more important, to help them make the connections  between technology and teaching and to help them make the transition  from digital-native students to digital-native teachers.", 
  "Introduction \nSince Prensky (2001a) first used the term digital natives to describe the  \nyounger generation who has grown up with technology, that term,  along with several other popular phrases such as the \u201cNet generation\u201d  (Oblinger & Oblinger, 2005; Tapscott, 1998) and \u201cGeneration M(edia)/ (ultitasker)\u201d (Rideout, Foehr, & Roberts, 2005), has been widely used  to differentiate the younger generation from their parents and teachers.", 
  "Because they have grown up with digital technology\u2014first computers,  then the Internet and other ubiquitous information and communication  devices such as game consoles, cell phones, PDAs, and iPods\u2014digital na- tives are considered to be more comfortable with digital technology than  previous generations.", 
  "Educators have pointed out that digital natives use  technology differently and learn differently from their parents and teach- ers (e.g., Beck & Wade, 2004; DeDe, 2005; Gee, 2003; McHale, 2005;  Oblinger & Oblinger, 2005; Powell, 2007; Prensky, 2001b; 2006b).", 
  "Almost all studies and survey reports on digital natives focus on digital  natives as students, especially K\u201312 students (e.g., Stearns, 2006; Wood,  2006; Zevenbergen & Logan, 2008).", 
  "Rarely has research examined digital  natives as teachers or preservice teachers.", 
  "Teachers, as a large group of  \nindividuals at different technology proficiency levels and at different ages,  have been defined as the other side of the divide\u2014the digital immigrants  who speak the technology language with attitudes and accents (e.g.,  Prensky, 2001a; 2001b; 2006a).", 
  "However, we must recognize that the first generation of digital na- tives, defined by Prensky as \u201cK through college\u201d students several years ago  (Prensky, 2001a) or as young people born after 1980 (Bennett, Maton, &  Kervin, 2008), includes not only K\u201312 students, but also young people  who are in their late teens and 20s.", 
  "They have entered the workforce  (Rainie, 2006), and many have entered the field of education as teachers  or preservice teachers (Dutt-Doner, Allen, & Corcoran, 2005).", 
  "It is time  to review the first generation of digital natives as they enter college and  choose teacher education programs.", 
  "As digital natives who are supposed  to be enthusiastic users of technology and who are often \u201csetting trends  of technology use both in school and at home\u201d (Rideout et al., 2005), are  they equipped with the technology knowledge and skills for their future  teaching tasks?", 
  "Is technology integration preparation still necessary in  teacher education programs?", 
  "This study examines the beliefs, attitudes, and technology experi- ences and expertise of a group of 2007 intake freshmen\u2014digital natives,  based on their age\u2014enrolled in teacher education programs in a large  northeastern university; identifies the strengths and weaknesses in their  technology knowledge and skills; and explores whether or not technology  preparation is still needed to prepare them to integrate technology in their  future classrooms, and, if so, what preparation is needed.", 
  "Literature Review Teacher technology preparation has consistently been emphasized in  technology policies and reports in the last two decades as \u201cthe single most  important step\u201d toward integrating technology into education (Culp,  Honey, & Mandinach, 2003; Groth, Dunlap, & Kidd, 2007; National  Council for Accreditation of Teacher Education, 1997; The CEO Forum  on Education and Technology, 1999; U.S. Department of Education,  1996; 2000).", 
  "Specific projects and grants have been dedicated to improv- ing teacher technology preparation.", 
  "For example, the U.S. Department  of Education\u2019s Preparing Tomorrow\u2019s Teachers to Use Technology (PT3)  program has spent $275 million and awarded 441 grants since 1999 (U.S.  Department of Education, n.d.).", 
  "Similarly, besides hardware, teacher  technology professional development remains the most common top  priority for educational technology spending in most states (Education  Week, 2005).", 
  "Most technology preparation programs focus on two major aspects:  technical skills and positive attitude (Zhao, Pugh, Sheldon, & Byers,  2002).", 
  "The rationale for focusing on these two components is related to  teachers being digital immigrants: First, teachers do not have the technol- ogy knowledge, skills, and experiences that are necessary for teaching with  \nVolume 25 / Number 3 Spring 2009  \n  Journal of Computing in Teacher Education  \nFigure 1: Time Spent on Computers Every Day \ntechnology because they did not grow up with technology and were not  taught with technology (National Council for Accreditation of Teacher  Education,  1997;  Office  of Technology  Assessment,  1995;  Prensky,  2001a; Rosenthal, 1999).", 
  "Second, teachers often hold negative attitudes  and are skeptical about the use of technology for teaching (Bahr, Shaha,  Fransworth, Lewis, & Benson, 2004).", 
  "The image of teachers in relation  to technology has not been very positive.", 
  "In the early days, teachers were  compared to Luddites in the industrial revolution who destroyed machines  (Bryson & Castell, 1998; Conway & Zhao, 2003).", 
  "Research in the first  decade of technology integration into schools also emphasized teacher  computer anxiety (e.g., Harris & Grandgenet, 1996; Marcoulides, 1989;  McInerney, McInerney, & Sinclair 1994; Paivi, 1992).", 
  "Later, teachers  were more commonly described as gatekeepers because they decided what  technologies may enter the classroom and whether and how they could be  used (Cuban, 1986; Noble, 1996).", 
  "In general, teachers are characterized  as reluctant and unwilling to use new technologies (Eteokleous, 2008;  MacMillan, Liu, & Timmons, 1997).", 
  "Prensky (2001a; 2001b) suggests that when the digital natives take over  the teaching profession, using digital technologies to teach in classrooms  will cease to be a problem.", 
  "In fact, most of the existing literature, espe- cially a number of national survey reports, has painted a very optimistic  and promising image of the digital natives (e.g., NetDay, 2006; Prensky,  2006a; Rainie, 2006; Rideout et al., 2005; Tapscott, 1998).", 
  "The digital  natives are viewed as innovative users of available technology and eager  adopters of new technology (Rideout et al., 2005); They are using more  kinds of technology and increasingly more sophisticated technology, at  an increasingly earlier age (Kaiser Family Foundation, 2003), and they  are using technology more regularly (NetDay, 2006).", 
  "It is estimated that  the average time this generation spends on all types of media every week  is equivalent to a full-time job (Rideout et al., 2005).", 
  "The digital natives  also use the Internet more frequently and at an increasingly younger age.", 
  "The UCLA Internet Project Year Three report (UCLA Center for Com- munication Policy, 2003) shows that Internet usage is highest among  those between 12 and 18 (97% online), followed by those aged 19\u201324  (87%).", 
  "Today a typical 21-year-old has, on average, exchanged 250,000  emails, instant messages, and phone text messages; and has spent 5,000  hours playing digital games, 10,000 hours using a cell phone, and 3,500  hours online (Rainie, 2006b).", 
  "It is believed that their digital experiences have changed not only the  ways today\u2019s young people communicate, socialize, and entertain, but  also fundamentally altered how they approach learning (DeDe, 2005;  Prensky, 2006b).", 
  "They are technology savvy, confident in the positive value  of technology, and reliant upon technology as an \u201cessential and preferred  component of every aspect of their lives\u201d (U.S. Department of Education,  2004, p. 19).", 
  "They are multitaskers, often working on two or more tasks  using two or more technology devices simultaneously (Rideout et al, 2005;  \nShifrin, 2006, p. 450).", 
  "To them there is no clear distinction between play  and learning.", 
  "They have been learning from playing and have been play- ing while learning.", 
  "They are not passive consumers of information, but  have taken on multiple roles in the digital world, becoming \u201cproducers,  collaborators, researchers, and publishers\u201d (Stead, 2006, p. 6).", 
  "\u201cGrowing  up digital\u201d (Tapscott, 1998), they are natural participants in the digital  world, and they are shaping and creating it.", 
  "In some schools, technology-savvy students provide technology sup- port to their teachers, motivate their teachers to integrate technology into  classrooms, and even become technology instructors to their teachers  (e.g., Hruskocy, Cennamo, Ertmer, & Johnson, 2000; Tapscott, 1998;  Waters, 2008).", 
  "For example, the GenYES project focuses on teacher  technology professional development facilitated by students.", 
  "Students  who participated in this project work with teachers to help teachers in- tegrate technology into their lessons and to provide technology support  to teachers (Generation YES, n.d.).", 
  "Given the fact that digital natives, as students, are already playing an  active role in using technology in classrooms, it seems reasonable to expect  them to be more ready to use technology for teaching as preservice teachers  than previous generations of teachers\u2014the digital immigrants.", 
  "However, some researchers point out that the digital natives may  not be as technology savvy as expected.", 
  "For example, Cameron (2005)  reports that many first-year college students in an Australia university  are surprisingly ill prepared to work with technology, even for programs  with a vocational focus on using digital tools.", 
  "Although they meet many  of the expectations in many areas, they are \u201cstill not the complete Digital  Natives we are waiting for\u201d because of the low penetration of some digital  devices, their resistance to online learning, and their unfamiliarity with  some technology areas.", 
  "Similarly, based on a survey of more than 4,373  freshmen and sophomores from 13 U.S. higher education institutions,  Kvavik, Caruso, and Morgan (2004) find that students\u2019 technology use  varies greatly.", 
  "Among the digital natives they also find many reluctant or  skeptical technology users.", 
  "Although a majority (93.4%) of these students  own personal computers, a significant proportion of them have lower  technology skills than expected.", 
  "A few more recent studies suggest that there might not be such a dis- tinct boundary between the digital natives and the digital immigrants in  terms of technology use.", 
  "For example, based on classroom observations  and survey data from more than 2000 participants in Canada, Guo,  Dobson, and Petrina (2008) report no significant digital divide between  digital native and immigrant users.", 
  "Another study that examined the ex- pectations, use, and instructional impact of e-mail between faculty (digital  immigrants) and students (digital natives) but did not find significant dif- ferences between these two groups (Weiss & Hanson-Baldauf, 2008).", 
  "Furthermore, being able to use technology does not necessarily mean  being  able  to  use  technology  critically,  wisely,  or  meaningfully.", 
  "The  digital generation often falls short in demonstrating the fundamental  understanding of digital media (Heverly, 2008).", 
  "Students\u2019 superficially  competent use of technology often conceals the narrow scope of the ac- tivities, the ineffectiveness of online searches, and the lack of exploration,  and this use is often curtailed by the lack of interest in information and  poor skills in searching and evaluating information (Livingstone, 2008,  p.103\u2013106).", 
  "Researchers also find that children have difficulty judging  the legitimacy of information (Eastin, Yang, & Nathanson, 2006).", 
  "Based  on a thorough review of existing literature, Bennett, Maton & Kervin  (2008) argue that the digital native versus digital immigrant divide and  the call for fundamental change in education to accommodate the new  generation\u2019s changed learning style lacks empirical evidence and is an  \u201cacademic moral panic.\u201d Guo and colleagues (2008) further point out  that this divide might be misleading and distracting education researchers  from more careful consideration of the diversity of ICT users and the  nuances of their ICT competencies.", 
  "Journal of Computing in Teacher Education  \n  Volume 25 / Number 3  Spring 2009 \n\fExisting literature has presented a mixed and often conflicting image  of the digital natives.", 
  "Researchers call for a closer scrutiny of the so-called  digital natives to gain a much deeper understanding of their technology  practices, proficiencies, and the interaction of technology and their learn- ing (Lohnes & Kinzer, 2007).", 
  "This study focuses on preservice teachers to examine the assumptions  about their beliefs, attitudes, and technology experiences and expertise as  digital natives.", 
  "More importantly, this study aims to identify the strengths  and weaknesses in preservice teachers\u2019 technology knowledge and skills,  and explore what technology preparation is needed to prepare them to  integrate technology in their future classrooms.", 
  "Participants were the 2007 intake freshmen in teacher education programs  at a large northeastern university.", 
  "The author collected data through a  technology survey administered in October 2007.", 
  "At the time of this  survey, the participants had little classroom teaching experience.", 
  "The survey included the following sections:  General technology use information, such as ownership of technology  devices, time spent on computers, and other technology activities.", 
  "Ques- tions in this section were multiple-choice questions.", 
  "Attitudes and beliefs toward technology.", 
  "This section included a series  of statements about technology.", 
  "Participants were asked to rate their  degree of agreement on a scale of 1\u20135 with 1 being \u201cstrongly disagree\u201d  and 5 being \u201cstrongly agree.\u201d \nProficiency in 51 specific common technologies and interest in learning  these technologies.", 
  "Students rated their proficiency on these technologies  on a scale of 1\u20135 with 1 being \u201cbeginner\u201d and 5 being \u201cexpert.\u201d Detailed  description was given for each category.", 
  "For example, being a \u201cbeginner\u201d  means having little to no skills, and being an \u201cexpert\u201d means being able  to teach others how to use and create/customize the application, or to  teach others how to perform the task.", 
  "Experiences and opinions on using technology in education.", 
  "This sec- tion included two open-ended questions.", 
  "Participants were asked to state  their understanding of, experiences with, and opinions about technology  integration in K\u201312 classrooms.", 
  "The survey was piloted with three preservice teachers enrolled in the  same school of education.", 
  "The main goal of this pilot survey was to test  the appropriateness of the survey items, identify any misunderstanding  in the language, and seek comments on the scope of preservice teachers\u2019  technology activities.", 
  "Based on feedback and comments from the pilot  survey, a few minor revisions were made to the survey.", 
  "The finalized sur- vey was administered to 70 students, and valid responses were collected  from 55 participants.", 
  "Among the 55 participants, 9 were male and 46  were female.", 
  "The difficulty level of these 51 technologies in section 3 was rated  by four people: two educational technology faculty members and two  technology support staff members in the teacher education program.", 
  "The difficulty level was rated on a scale of 1-3 with 1 meaning \u201cbasic,\u201d  2 being \u201cintermediate,\u201d and 3 being \u201cadvanced.\u201d Each person rated the  technologies independently.", 
  "An average rating was obtained for each  technology by taking the mean of the ratings.", 
  "Based on the ratings, these  51 technologies were grouped in four categories:  \nBasic technologies (difficulty level 1\u20131.25).", 
  "This category included 11  most commonly used technologies such as using e-mail, word processing,  and surfing the Web.", 
  "Lower  intermediate  technologies  (difficulty  level  1.5\u20131.75).", 
  "This  category included 15 technologies such as desktop publishing and using  presentation software.", 
  "Upper intermediate technologies (difficulty level 2\u20132.25).", 
  "This category  included 17 technologies such as using a Web-based course management  system and using handheld computing devices.", 
  "Table 1: Beliefs, Confidence, and Interest in Technology \nComputers are generally reliable.", 
  "Technologies can help me teach better.", 
  "Technologies can help my students learn  I do well with computer technologies.", 
  "I can solve most of the problems when my  computer doesn\u2019t work.", 
  "I am interested in computers and related  technologies.", 
  "I am interested in learning new technologies.", 
  "I am interested in learning technologies that  will help me teach in the future.", 
  "Strongly  \nDisagree/ Strongly  \nAdvanced technologies (difficulty level 2.5\u20133).", 
  "This category included  eight technologies such as editing audio files, video-conferencing, and  designing Web pages.", 
  "The author analyzed the data using frequency analysis, descriptive  analysis, and correlation analysis.", 
  "Qualitative data obtained from the  open-ended question were analyzed and categorized according to the  research questions.", 
  "This section describes this group of digital native preservice teachers\u2019  attitudes and beliefs about technology and their regular technology use,  examines their technology proficiency, and discusses the strengths and  weaknesses of their technology competencies.", 
  "Technology Access Almost all (96.4%) of the preservice teachers surveyed reported that they  started using computers before sixth grade, and nearly half of them (49%)  started using computers in kindergarten or before the end of third grade.", 
  "All participants reported that they owned at least one personal computer  and one cell phone.", 
  "Almost all participants (94.5%) owned one iPod or  other mp3 player, and more than half (54.4%) owned four or more of the  five technology devices surveyed (personal computer, cell phone, iPod or  mp3 player, game console, and PDA).", 
  "In terms of the access to technology,  this group of preservice teachers fit in the image of digital natives.", 
  "Time Spent on Computers Preservice  teachers  who  participated  in  this  study  were  asked  how  much time they spent on computers every day.", 
  "As shown in Figure 1,  all participants worked with computers on a daily basis.", 
  "Approximately  10% of them spent less than 2 hours a day on computers, and about  14% of them spent more than 4 hours a day on computers.", 
  "Overall,  most participants spent 2\u20134 hours on computers every day.", 
  "As expected  from the digital natives, they spent a considerable amount of time using  technology every day.", 
  "Strong Positive Beliefs, Moderate Confidence, Moderate  Participants were asked to rate their degree of agreement on a series of  statements about beliefs, confidence, and interest in technology.", 
  "Table  1 shows the percentage of participants who reported that they \u201cstrongly  agree/agree,\u201d were \u201cneutral\u201d, and \u201cstrongly disagree/disagree\u201d with each  \nVolume 25 / Number 3 Spring 2009  \n  Journal of Computing in Teacher Education  \n\n\f% of participants \nTable 2: Internet Activities that Participants Spent the Most Time on  Every Day Internet Activity Social networking (e.g., Facebook, Myspace, etc.)", 
  "Online chatting Searching information for my study (e.g., preview, review,  homework)  Sending and receiving emails Searching information for other practical purposes (e.g.,  weather, health, etc.)", 
  "Reading news to know what\u2019s going on in this country Surfing online for fun (reading novels, stories,  entertainment) \nNote: Activities with zero percentage were omitted to save space.", 
  "Table 3: Correlations Between Technology Proficiency, Interest in  Learning, and Technology Difficulty Level \nProficiency \n\nPearson Correlation Sig.", 
  "(2-tailed) Pearson Correlation Sig.", 
  "(2-tailed) \n\nDifficulty \n* Correlation is significant at the 0.01 level (2-tailed).", 
  "statement.", 
  "Five scales were combined into three scales to make presenting  the results possible.", 
  "Strong beliefs.", 
  "As shown in Table 1, in general, participants reported  strong positive beliefs about technology.", 
  "They trusted the reliability of  computers (92.9%).", 
  "They believed that technologies can help them teach  better (82.8%) and help their students learn better (79.3%).", 
  "None of the  participants reported negative beliefs about technology.", 
  "The strong beliefs were also reflected in their responses to the open- ended questions.", 
  "As expected from digital natives, they considered tech- nology as \u201can essential part of our daily lives\u201d and \u201ca necessity in society,\u201d  and therefore agree that \u201cit seems crazy to live without technology.\u201d They  believed that technology \u201cis a way to help all types of learners learn.\u201d  \nOne participant stated: \nIt is amazing how much our computers and other tech- nology can do for us, it has become hard to imagine life  without a computer and Internet, or cell phone.", 
  "With  technology being such a huge part of our lives, it is im- perative to use it in the classroom.", 
  "Moderate confidence.", 
  "However, their confidence in using technology  was not as strong as what would be expected from the digital natives.", 
  "As  shown in Table 1, about half (48.2%) of participants felt that they did  well with computer technologies.", 
  "One third of them reported they were  \u201cneutral\u201d about this statement, and 22.5% of them did not think that they  did well with computer technologies.", 
  "Their confidence was even lower  with their ability to solve computer problems.", 
  "Only 13.8% felt confident  that they could solve most of the problems with their computers.", 
  "Overall there was much variation in terms of confidence in using  computers.", 
  "As  some  researchers  suggested,  there  was  often  greater  variation within the same generation than between generations (DeDe,  \nFigure 2: Student Technology Proficiency and Interest in Learning \n2005).", 
  "We cannot assume that this generation of preservice teachers is  a homogeneous group with the same technology experiences.", 
  "Growing  up in a digital age does not necessarily mean that every child had equal  access to the digital technologies.", 
  "One preservice teacher reported that  technology \u201cis something I never experienced as a young child growing  up, and nowadays in our fast-paced and ever-changing world of technol- ogy I often feel lost and confused because I really struggle with computers  and other devices.\u201d \nModerate interest.", 
  "Participants also reported only moderate inter- est in technology.", 
  "Although more than half (54.5%) of them agreed or  strongly agreed with the statement \u201cI am interested in computers and  related technologies,\u201d nearly half (45.5%) of them were neutral to this  statement.", 
  "To them, technology was more a fact of life than something  to like or dislike.", 
  "A similar pattern was found in participants\u2019 attitudes toward learning  new technologies.", 
  "More than half (58.6%) of participants were interested  or strongly interested in learning new technologies, nearly one third  (31%) were neutral to this statement, and 10.4% reported they were not  interested in learning new technologies.", 
  "However, when it came to learning technologies that would help  them teach in the future, all (100%) participants reported interest or  strong interest.", 
  "Reserved Attitude Although the digital-native preservice teachers reported strong positive  beliefs about the potential of technology to help them teach and to help  their students learn, they had some reservations about using technology  in classrooms.", 
  "First, the digital-native preservice teachers believed that  new technology was an indispensable part of their lives, but they also  valued the importance of traditional technologies and traditional ways  of learning and believed that technology should not replace everything.", 
  "For example, several participants commented on the importance of the  library and stated that they believed that \u201cpeople need to be familiar with  searching the Web, but also searching the library,\u201d and that \u201cpeople still  need to have basic skills and be able to communicate face to face without  relying on a computer.\u201d  \nSecond, the digital native preservice teachers were concerned with  computer dependency and believed that technology should be used in  moderation.", 
  "One participant worried that students \u201ccould possibly rely  too heavily on technology, that everyday tasks may seem unimaginable  without the technology that they have become adapted to.\u201d Another  participant believed that \u201ctechnology should be used as a helpful tool  but not something that people depend on.\u201d  \n\n  Journal of Computing in Teacher Education  \n  Volume 25 / Number 3  Spring 2009 \n\fTable 4: Proficiency in Web 2.0 Technologies \nTable 5: Proficiency in Classroom Technologies \nProficiency \n\n% of Participants  who are experts \n% of Participants with  little to no experience \nWeb 2.0 Technologies Maintaining social- networking site  Developing wiki Publishing pictures Publishing audio files Publishing video files Video conferencing Developing Web pages \nThird, the digital-native preservice teachers were aware of the compli- cated issues around integrating technology into classrooms.", 
  "Participants  commented that integrating technology into classrooms had \u201cboth its  plusses and minuses\u201d and was \u201ca double-edged sword\u201d because technology  could help students learn better but also could be \u201cextremely distracting  to students and can become a cause for children not to want to learn.\u201d  They recognized that technology itself could be a problem; one participant  commented, \u201cTechnology can also fail at crucial times, and a back-up  plan is necessary.\u201d  \nIn addition, the digital-native preservice teachers believed that stu- dents\u2019 age should be considered when using technology in classrooms.", 
  "To them, integrating technology in classrooms was essential but should  occur \u201ccarefully, and only in certain situations\u201d and should be limited in  lower grades because, as one participant commented, \u201cThere are other  basic skills that are acquired in elementary school that should be more  focused on, rather than technology.\u201d Similarly, another participant wrote,  \u201cFor younger students, I think technology use should be more limited  because they are learning to express themselves in a variety of ways, so  if the emphasis is on technology, they may never get the chance to fully  develop their creativity or explore everything to figure out what exactly  it is that they enjoy.\u201d \nInternet Activities: Most Time Spent on Social- Communication Activities Participants were asked what Internet activities they spent the most time  on every day.", 
  "As shown in Table 2, social-communication activities were  the most popular online activities.", 
  "Nearly 80% of the participants spent  the most time online every day on social-communication activities; 41.4%  of participants spent the most time online on social-networking Web sites  such as Facebook and MySpace, 27.6% spent the most time online chat- ting with friends, and 10.3% spent the most time on e-mails.", 
  "Another  10.3% spent the most time searching for information for their studies.", 
  "Self-Reported Technology Literacy: Strong in Simple  Technologies, Weak in Advanced Technologies Figure 2 illustrates two lines and their relationship.", 
  "The line on the top  is the digital native preservice teachers\u2019 self-reported proficiency with 51  different technologies, divided into four categories based on the difficulty  level (as explained in the Methods section).", 
  "As shown in Figure 2, partici- pants reported the highest proficiency in the easiest technologies such as  using e-mail, word processing, and surfing the Internet.", 
  "As the difficulty  level of the technology increased, the proficiency decreased.", 
  "This result  suggested that participants were savvy with basic technologies but were  not proficient with more advanced technologies.", 
  "Classroom Technologies Using hand-held and other scientific digital  Using interactive whiteboard Using idea processors  Using software specific to content in areas  you plan to teach Using augmentative systems to help persons  with disabilities communicate Using assistive technology to help persons  with disabilities learn \nProficiency \nBeginners  \nThe second line illustrated participants\u2019 interest in learning technolo- gies at different difficulty levels.", 
  "A general trend was that they were more  interested in learning more advanced technologies.", 
  "However, it was also  evident that the overall interest was low (under 2.5 out of 5).", 
  "A correlation analysis was conducted to identify the relationship  between participants\u2019 technology proficiency, their interest in learning  different technologies, and technology difficulty level.", 
  "As shown in Table  3, participants\u2019 proficiency in a specific technology was significantly nega- tively correlated to the difficulty level of this technology, and participants\u2019  interest in learning a technology was significantly positively correlated to  the difficulty level of this technology.", 
  "These results suggested that although this group of the digital native  preservice teachers was very proficient with easy-to-use basic technologies,  they lacked the experiences and expertise to work with more advanced  technologies.", 
  "Limited Scope of the Use of Web 2.0 Technologies With the widespread use of social-networking Web sites, data-sharing  Web sites, blogs, podcasting and wikis, Web 2.0 technologies have be- come popular among young people and are making the Internet \u201cmore  important than ever, with exciting new applications and sites popping  up with surprising regularity\u201d (O\u2019Reily, 2005).", 
  "It is believed that young  people today are using these emerging technologies to build communities,  create media, and share their works (Stead, 2006).", 
  "All the digital native preservice teachers who participated in this study  maintained one or more social-networking profiles, and many of them  spent the most time on social-networking Web sites.", 
  "However, as shown  in Table 4, their use of the Web 2.0 technologies seemed to be limited to  social-networking Web sites only.", 
  "Many of them lacked the experiences or  expertise in using some of the Web 2.0 technologies with great potential  for classroom application, such as wikis, blogs, and podcasts.", 
  "About one  third (32.7%) of the participants had little to no experience with blog- ging, 40% had little to no experiences with wikis, and the percentage of  participants with little to no experience with publishing audio files and  videos was 36.4% and 29.1%, respectively.", 
  "Limited Proficiency in Teaching-Related Technologies In addition, the digital native preservice teachers lacked experiences and  expertise in using classroom technologies such as interactive whiteboards,  idea processors, content-related technology, and assistive technologies.", 
  "As shown in Table 5, among these technologies, participants showed the  least experiences with assistive technologies and the highest interest in  learning these technologies (3.5 out of 5, compared to an average interest  level at 2.12 out of 5).", 
  "Volume 25 / Number 3 Spring 2009  \n  Journal of Computing in Teacher Education  \n\n\fBorn around 1989, this generation of digital-native preservice teachers  witnessed a dramatic increase in the access to computers and the Internet  in schools throughout their K\u201312 years.", 
  "In 1994, when participants of  this study were in kindergarten, only 3% of public school classrooms had  access to the Internet.", 
  "By 2005, when they were in high school, every  3.8 students had access to one instructional computer and nearly 100%  of instructional rooms had access to the Internet (National Center for  Education Statistics [NCES], 2006, p. 4).", 
  "However, as researchers have  repeatedly pointed out, increased access to technology does not mean  increased use of technology in classrooms (e.g., Brzycki & Dudt, 2005;  Cuban, 1999; Lei, Conway, & Zhao, 2008; Zhao & Frank, 2003).", 
  "Although this generation of digital-native preservice teachers has been  using technology on their own and outside of school (Education Week,  2007; Levin & Arafeh, 2002) during their K\u201312 schooling, their teachers  have not been using much technology to teach (Education Week, 2005;  2007).", 
  "It is therefore not surprising that they do not have much experience  with subject-specific technologies and learning-centered technologies.", 
  "As  a participant noted, she did not know \u201call the possibilities that exist to  incorporate technology in the classroom.\u201d Conclusions and Implications This study examined the technology-related aspects of the digital na- tives as preservice teachers.", 
  "Specifically, we surveyed the digital natives  about their beliefs, attitudes, confidence, and interest in technology  and evaluated their strengths and weakness in technology by examining  their proficiency along 51 commonly used technologies at four difficulty  levels.", 
  "This section recaps the findings and discusses the implications for  practice and research.", 
  "Strong Positive Beliefs yet Reserved Attitudes Toward  Integrating Technology in Classrooms  The digital-native preservice teachers in this study reported strong and  positive beliefs about technology.", 
  "They viewed technology as an indis- pensable component of their daily lives, and they strongly believed in the  potential of technology to help teaching and learning.", 
  "Yet their attitudes  toward integrating technology in classrooms, especially in their future  classrooms, were somewhat reserved.", 
  "Their reserved attitudes, on the one  hand, showed that they had a mature understanding of the complexity of  technology integration in schools, but on the other hand, revealed that  they might not be active users of technology in their own teaching.", 
  "Proficient Use of Technology Within a Limited Scope The participants were very proficient with the use of technology for social- communication activities.", 
  "The majority of them spent the most time on  social-networking Web sites and other social-communication activities.", 
  "The scope of their use of Web 2.0 technologies was also limited to mainly  social-networking Web sites.", 
  "They lacked the experiences and expertise in  using Web 2.0 technologies with great potential for classroom application,  such as blogging and wikis.", 
  "Proficient with Basic Technologies yet Lacking Experience  with Advanced Technologies  As digital natives, the participants spent a considerable amount of time on  computers every day.", 
  "They were very proficient with basic technologies,  especially those for social-communication purposes.", 
  "They reported lower  proficiency with more difficult technologies and the lowest proficiency  with the most advanced technologies.", 
  "Lacking Experience and Expertise in Classroom  Technologies Most participants did not have experiences with subject-specific tech- nologies, and they knew even less about technologies that could help  students with special needs.", 
  "Although they had access to technology in  \ntheir K\u201312 schooling, they were not commonly taught with technology.", 
  "They did not have much opportunity to learn from their teachers how  technology could be used to facilitate subject learning.", 
  "They recognized  the importance of subject-related technologies and showed strong interest  in learning technologies that could help them teach subject matter.", 
  "In summary, these findings suggest that, although digital natives as  preservice teachers use technology extensively, their use of technology  has been mainly focused on and related to their social-communication  activities and their learning activities as students.", 
  "As preservice teachers,  they lack the knowledge, skills, and experiences to integrate technology  into classrooms to help them teach and to help their students learn, even  though they fully recognize the importance of doing so.", 
  "Considering the fact that the preservice teachers who participated in  this study were in the first year of their teacher education programs, with  little classroom teaching experience, it was not surprising to find that  they did not have the knowledge and skills to integrate technology into  teaching.", 
  "However, findings from this study warn of potential pitfalls of  assuming that digital natives as preservice teachers will naturally integrate  technology into classroom teaching.", 
  "Although this generation of preservice  teachers has grown up in a digital age and they have been using more  technology for their learning as students than previous generations, they  have not been exposed to different ideas about teaching with technology  due to the slow adoption of technology in classrooms in the last two  decades.", 
  "They might be considered digital-native students, but they are  not yet digital-native preservice teachers.", 
  "It is the responsibility of teacher education programs to help them  make the transition from digital-native students to digital-native teach- ers who can use technology in meaningful ways in classrooms.", 
  "Findings  from this study suggest that technology preparation programs in teacher  education should pay more attention to the following aspects:  \nExpose preservice teachers to a variety of technologies that can be used  to support different teaching and learning activities.", 
  "As students, their  experiences with technology have been mainly focused on a small scope  of  activities  such  as  social  networking  and  Internet  surfing.", 
  "Teacher  technology preparation programs need to help them gain knowledge  and experiences with a wider range of technologies and more advanced  technologies that can support their future role as teachers, and help them  understand that technology can be used as a media not only for expres- sion and communication, but also for inquiry and construction (Bruce  & Levin, 1997).", 
  "Enriched experiences with a variety of technologies can  also help them build stronger confidence in using technology.", 
  "Emphasize subject-specific technology.", 
  "As digital natives, most pre- service teachers have sufficient expertise with generic technologies but  are not familiar with subject-specific technologies.", 
  "Teacher technology  preparation programs need to emphasize the use of subject-specific tech- nologies to help preservice teachers integrate technologies that can help  them teach subject content.", 
  "Include assistive technology as an important component of teacher  technology preparation programs.", 
  "Most preservice teachers have no ex- periences with assistive technology.", 
  "Since the passage of IDEA of 1999  and the No Child Left Behind Act, more students with special needs have  been spending their schools days in regular classrooms.", 
  "\u201cThe overall trend  indicates a progressive increase of least restrictive environment place- ments for students with disabilities\u201d (U.S. Department of Education,  2002).", 
  "Teachers in regular classrooms need to be prepared to use and  recommend assistive technologies to help students with special needs  learn (Nelson, 2006).", 
  "Help preservice teachers understand the enabling conditions for tech- nology use.", 
  "Preservice teachers understand the complexity of technology  use in schools and know that there are barriers to technology integration.", 
  "This understanding may deter them from trying to use technology in  their classrooms.", 
  "To prepare them to face the challenges and remove the  \n\n  Journal of Computing in Teacher Education  \n  Volume 25 / Number 3  Spring 2009 \n\f12, 2009, from http://educ.ubc.ca/faculty/bryson/gentech/  Luddites.html   \nBrzycki, D., & Dudt, K. (2005).", 
  "Overcoming barriers to tech- nology use in teacher preparation programs.", 
  "Journal of Technology  and Teacher Education, 13(4), 619\u2013641.", 
  "Cameron, D. (2005, December).", 
  "The net generation goes to  \nuniversity?", 
  "Paper presented at the Journalism Education Association  Conference, Surfers Paradise, Queensland, Australia.", 
  "CEO Forum on Education and Technology.", 
  "(1999).", 
  "Professional  \ndevelopment: A link to better learning.", 
  "The CEO Forum School  Technology and Readiness Report\u2014Year Two.", 
  "Washington, D.C. Conway, P. & Zhao, Y.", 
  "(2003).", 
  "From Luddites to designers:  Portraits of teachers and technology in political documents.", 
  "In  Zhao, Y.", 
  "(Ed.", 
  "), What should teachers know about technology: Perspec- tives and practices.", 
  "Greenwich, CT: Information Age Publishing.", 
  "pp.", 
  "Cuban, L. (1986).", 
  "Teachers and machines: The classroom use of  \ntechnology since 1920.", 
  "New York: Teachers College Press.", 
  "Cuban, L. (1999).", 
  "The technology puzzle.", 
  "Education Week,  4, August, 47, 68.", 
  "Retrieved on February 12, 2009, from www.", 
  "edweek.org/ew/vol-18/43cuban.h18 \nCulp, K., M., Honey, M., & Mandinach, E. (2003) A retrospec- tive on twenty years of education technology policy.", 
  "U.S. Department  of Education, Office of Educational Technology.", 
  "Retrieved on Feb- ruary 12, 2009, from http://www.ed.gov/rschstat/eval/tech/20years.", 
  "Dede, C. (2005).", 
  "Planning for neomillennial learning styles:  \nImplications for investments in faculty and technology.", 
  "In D.  Oblinger & J. Oblinger (Eds.", 
  "), Educating the Net Generation (pp.", 
  "15.1\u201315.22).", 
  "Boulder, CO: EDUCAUSE.", 
  "Retrieved August 31,  2008, from http://www.educause.edu/educatingthenetgen  \nDutt-Doner, K., Allen, S. M., & Corcoran, D. (2005).", 
  "Trans- \nforming student learning by preparing the next generation of teach- ers for type II technology integration.", 
  "Computers in the Schools,  22(3/4), 63\u201375.", 
  "Eastin, M. S., Yang, M. S., & Nathanson, A. I.", 
  "(2006).", 
  "Chil- dren of the net: An empirical exploration into the evaluation of  Internet content.", 
  "Journal of Broadcasting & Electronic Media, 50(2),  211\u2013220.", 
  "Education Week.", 
  "(2005).", 
  "Technology counts 2005: Elec- tronic transfer: Moving technology dollars to new directions.", 
  "Retrieved September 10, 2008, from http://www.edweek.org/ew/ articles/2005/05/05/35tracking.h24.html  \nEducation Week.", 
  "(2007).", 
  "Technology counts 2007.", 
  "Retrieved  \nSeptember 10, 2008, from http://www.edweek.org/media/ew/ tc/2007/tc07_press_release.pdf  \nErtmer, P. A., Conklin, D., Lewandowski, J., Osika, E., Selo,  \nM., & Wignall, E. (2003).", 
  "Increasing preservice teachers?", 
  "Capacity  for technology integration through the use of electronic models.", 
  "Teacher Education Quarterly, 30(1), 95\u2013112.", 
  "Eteokleous, N. (2008).", 
  "Evaluating computer technology  \nintegration in a centralized school system.", 
  "Computers & Education,  51(2), 669\u2013686.", 
  "Gee, J. P. (2003).", 
  "What video games have to teach us about learn- \ning and literacy.", 
  "New York: Palgrave Macmillan.", 
  "barriers to technology use, it is important to help them understand the  enabling conditions of technology integration, and know how to locate  resources and where to find help when needed.", 
  "Help preservice teachers make meaningful connections between technol- ogy and teaching.", 
  "Technology skills alone cannot guarantee the effective  use of technology in the classroom (Ertmer et al., 2003).", 
  "Meaningful tech- nology integration is more of a pedagogical endeavor than a technological  one (Dutt-Doner et al., 2005).", 
  "Preservice teachers, digital natives or not,  need to develop a systematic understanding of the technology, subject  matter, pedagogy, and how theses aspects work together (Mishra & Kolher,  2006; Zhao, 2003).", 
  "As pointed out by Mishra and Kolher (2006), for  meaningful technology integration to happen, a teacher needs to develop  a sound understanding of pedagogical content knowledge (PCK), techno- logical content knowledge (TCK), technological pedagogical knowledge  (TPK), and all three taken together as technological pedagogical content  knowledge (TPCK).", 
  "To help preservice teachers integrate technology into  teaching in meaningful ways, technology cannot be taught as a separate  and independent domain.", 
  "Instead, teacher education programs need  to help preservice teachers understand how technology intersects with  content and with pedagogy and make connections between technology,  content, and pedagogy.", 
  "In addition, it is critical to note the variation within the digital-native  generation.", 
  "With the current media coverage on the technology use  of young people, it is easy to paint a monolithic portrait of the young  generation as technology savvy and technology enthusiastic.", 
  "However,  having been born in the digital age does not necessarily mean that they  are natural digital natives.", 
  "Within the generation, there are people who  indeed grow up with technologies, are proficient in using technologies,  and feel confident with technologies, but there are also people who did  not start using technology at an early age, do not know much about  technology, and are less confident in using technology.", 
  "We cannot take a  simplistic view of this generation and ignore the within-group variation  and individuality.", 
  "The large variation with the digital-native generation  also calls for actions to narrow the persistent \u201cdigital divide\u201d that has  created inequity in the access to opportunities for all young people to  benefit from modern technologies.", 
  "Acknowledgments The author would like to thank Liangyue Lu, doctoral student in the  Department of Instructional Design, Development, and Evaluation at  Syracuse University, for her essential assistance with the data collection  for this study."
 ]
}