{
 "document_id": "6472405689462170651", 
 "sentences": [
  "\nInternational Journal of Education & the Arts  \nMargaret Macintyre Latta  University of Nebraska-Lincoln, U.S.A.  \nChristine Marm\u00e9 Thompson   Pennsylvania State University, U.S.A.  ISSN 1529-8094  \nAugust 1, 2011  \n\nhttp://www.ijea.org/  \nVolume 12 Number 9  \nAn Investigation of Early Childhood Teacher Self-Efficacy Beliefs   \nin the Teaching of Arts Education  \nSusanne Garvis  Donna Pendergast  \nGriffith University, Australia  \nCitation: Garvis, S. & Pendergast, D. (2011).", 
  "An investigation of early childhood  teacher self-efficacy beliefs in the teaching of arts education.", 
  "International Journal  of Education & the Arts, 12(9).", 
  "Retrieved [date] from http://www.ijea.org/v12n9/.", 
  "Abstract  The self-efficacy beliefs teachers hold about their ability to teach subjects shapes their  competence  in  teaching.", 
  "Teacher  self-efficacy  is  defined  as  teacher  beliefs  in  their  ability to perform a teaching task.", 
  "If teachers have strong teacher self-efficacy in the  teaching of arts education, they are more likely to incorporate arts in the classroom.", 
  "Alternatively,  if  teachers  have  weak  teacher  self-efficacy  in  the  teaching  of  arts  education they are less likely to include aspects of the arts in their curriculum.", 
  "Little is  known  about  teacher  self-efficacy  beliefs  towards  arts  education  in  early  childhood  education.", 
  "Since  arts  education  is  an  important  element  in  the  curriculum  of  any  classroom - including all early childhood classrooms - investigation of the beliefs that  shape teacher practice is desirable.", 
  "In  2010,  a  survey  was  distributed  using  convenience  sampling  to  early  childhood  teachers throughout Queensland.", 
  "There were 21 respondents, representing a response  rate of 27%.", 
  "Each completed an adapted version of the Teachers\u2019 Sense of Efficacy  \n\nIJEA Vol.", 
  "12 No.", 
  "9 - http://www.ijea.org/v12n9/    \nScale for Arts Education.", 
  "Perceived competence towards each of the five arts strands  (dance, drama, media, visual arts and music) were compared to perceived competence  in maths and English.", 
  "The number of hours taught in each of the arts strands was also  investigated.", 
  "Findings  suggest  all  of  the  respondent  early  childhood  teachers  had  greater perceived competence for teaching maths and English compared to any of the  arts  strands.", 
  "Some  early  childhood  teachers  did  not  engage  with  some  of  the  arts  strands  (particularly  drama,  dance,  media)  in  their  daily  classrooms.", 
  "These  findings  provide glimpses of the current day-to-day running of early childhood classrooms and  the role of arts education in the current climate of policy reform and accountability.", 
  "Introduction: Arts Education   \nEarly childhood teachers are responsible for the delivery of integrated arts education as part of  the core curriculum in the early years.", 
  "In Australia, Arts Education is a Key Learning Area  endorsed initially by the Hobart Declaration (Ministerial Council on Education, Employment,  Training and Youth Affairs, 1988) and more recently in the National Education and the Arts  Statement  (Ministerial  Council  on  Education,  Employment,  Training  and  Youth  Affairs,  2005), which acknowledged that arts experiences enhanced all phases of schooling.", 
  "The arts  also appear in phase two of the National Curriculum (Australian Curriculum, Assessment and  Reporting Authority, 2010) designed for all Australian students.", 
  "It is argued that all students,  irrespective of their location, socio-economic status or ability should have equal opportunities  to participate in arts-rich schooling systems (Ministerial Council on Education, Employment,  Training and Youth Affairs, 2005).", 
  "School-based arts experiences should be diverse, based on  models  of  effective  practice,  and  embedded  from  the  early  years  through  to  graduation  in  order  to  unlock  the  creative  potential  of  young  people  (Ministerial  Council  on  Education,  Employment, Training and Youth Affairs, 2005).", 
  "In order to foster this crucial change in arts  education,  the  Statement  acknowledges  the  necessity  to  foster  the  skills  and  knowledge  of  teachers  to  teach  arts  education.", 
  "Building  on  from  the  Adelaide  Declaration  on  National  Goals for Schooling in the Twenty-First Century (1999), this statement was designed to foster  a culture of creativity and innovation in Australian schools.", 
  "It acknowledged that an education  rich  in  the  creative  arts  maximises  opportunities  for  learners  to  engage  with  innovative  thinkers and learners, emphasizing not only creativity and innovation, but also the values of  broad cultural understandings and social harmony that the arts can engender.", 
  "This is similar to  UNESCO\u2019s Road Map for Arts Education (2006), with arts considered a necessity for skill  development in the 21st century, allowing nations to develop the human resources necessary to  tap  their  cultural  capital.", 
  "It  can  therefore  be  argued  that  arts  education  is  an  essential  component of a comprehensive education, requiring highly skilled teachers to achieve quality  arts integration (Andrews, 2004).", 
  "Garvis & Pendergast: An Exploration  \n\nEarly  childhood  teacher  education  is  also  shaped  by  recent  policy  documents  that  shape  learning and development in Australia for children aged 0-5 years.", 
  "The Early Years Learning  Framework (Department of Education, Employment and Workplace Relations, 2009) is part  of  the  reform  agenda  for  early  childhood  to  ensure  delivery  of  nationally  consistent  and  quality early childhood education across sectors and jurisdictions.", 
  "The Framework describes  the principles, practices and outcomes essential to support young children\u2019s learning.", 
  "Within  each state of Australia, early childhood curriculum is different, depending on the age of the  child,  access  to  registered  teachers  prior  to  formal  schooling  and  current  essential  learning  statements.", 
  "In  the  state  of  Queensland  (where  this  research  takes  place)  there  is  the  Queensland  Kindergarten  Learning  Guideline  (Queensland  Studies  Authority,  2009),  Early  Years  Curriculum  Guidelines  (2006),  Year  One  Learning  Statements  (Queensland  Studies  Authority (2010) and the Essential Learning Statements (2007).", 
  "In all of these documents, the  arts are suggested as an important learning area for young children.", 
  "Teacher Self-Efficacy  \nTeacher  self-efficacy  beliefs  about  their  capacity  to  deliver  arts  education  shapes  their  perceived competence in teaching the arts, which in turn impacts on the degree and nature of  inclusion of arts in the curriculum.", 
  "If teachers have strong self-efficacy for arts education they  are  more  likely  to  include  integrated  arts  in  the  classroom.", 
  "Alternatively,  if  teachers  have  weak teacher self-efficacy for arts education they are less likely to teach the arts across all five  strands.", 
  "However, little is known about teacher self-efficacy beliefs towards arts education in  early  childhood  education  and  hence  the  probability  of  competence  in  the  delivery  of  arts  education.", 
  "Given  that  arts  education  is  a  core  element  in  any  early  childhood  classroom,  investigation of the beliefs that shape teacher practice is necessary.", 
  "Traditionally,  teacher  efficacy  was  defined  as  a  \u2018teacher\u2019s  beliefs  in  their  ability  to  affect  student performance (Berman & McLaughlin, 1977; Armor et al., 1976), with this definition  later expanded to \u2018the expectation of the teacher of his/her ability to promote desirable results  of  involvement  and  learning  in  students,  even  those  who  are  conflictive  or  who  lack  motivation\u2019 (Guskey & Passaro, 1994).These definitions overlook the role of teacher\u2019s work  and context in efficacy beliefs.", 
  "Dellinger et al.", 
  "(2007) assert that the construct of teacher self- efficacy provides a focus on the role played by teacher\u2019s beliefs in their ability to perform the  wide variety of teaching tasks required in different contexts.", 
  "They define teacher self-efficacy  as  \u201ca  teacher\u2019s  individual  belief  in  their  capability  to  perform  specific  teaching  tasks  at  a  specified level of quality in a given specified situation\u201d (Dellinger et al., 2007, p.2).", 
  "From this  perspective, while teacher efficacy focuses on successfully achieving student performances,  teacher  self-efficacy  focuses  on  successfully  achieving  a  specific  task.", 
  "Dellinger  et  al.\u2019s  (2007)  definition  is  more  closely  aligned  to  Bandura\u2019s  (1997)  definition  of  perceived  self  \nIJEA Vol.", 
  "12 No.", 
  "9 - http://www.ijea.org/v12n9/    \n\nefficacy,  creating  the  construct  that  self-efficacy  beliefs  of  teaching  capabilities  create  powerful influences on the overall effectiveness of the teacher with students.", 
  "The construct of teacher self-efficacy is grounded within self-efficacy theory, emphasising  that people can exercise influence over what they do (Bandura, 2006).", 
  "Self-efficacy is defined  as \u201cbeliefs in one\u2019s capabilities to organise and execute the courses of action required to  produce given attainments\u201d (Bandura, 1997, p.3).", 
  "Self-efficacy theory is one of only a few  conceptualisations of human control that describe a distinction between competence and  contingency, used as a future oriented judgment.", 
  "People use efficacy beliefs to guide their  lives by being self-organising, proactive, self-regulating and self-reflecting (Bandura, 2006).", 
  "This means that people may regulate their own behaviour through motivation, thought  processes, affective states and actions or changing environmental conditions based around  their efficacy beliefs.", 
  "Perceived self-efficacy provides guidelines for enabling people to  exercise some influence over how they live their lives.", 
  "Effective functioning requires skills as well as the efficacy belief to use them well (Bandura,  1997).", 
  "They affect performance both directly and by influencing intentions.", 
  "Moreover, they  are not considered a stable character trait of an individual, but rather an active and learned  system of beliefs in context (Bandura, 1997).", 
  "Self-efficacy beliefs influence thought patterns  and emotions that enable actions in which people can pursue goals, rebound from setbacks  and exercise some control over events that affect their lives (Bandura, 1997).", 
  "It is accepted that confidence, motivation and self-knowledge inform a teacher\u2019s self-efficacy  beliefs  system.", 
  "These  beliefs  operate  as  a  key  factor  in  a  generative  system  of  human  competence (Bandura, 1997), leading to the assumption that they are powerful influences on  the  overall  teachers\u2019  effectiveness  with  students:  The  higher  the  sense  of  self-efficacy,  the  greater the perseverance and the higher the chance that the pursued activity will be performed  successfully.", 
  "Moreover,  teachers\u2019  beliefs  in  their  efficacy  \u201caffect  their  general  orientation  toward  the  educational  process  as  well  as  their  specific  instructional  activities\u201d  (Bandura,  1997, p.241).", 
  "Teachers who do not expect to be successful with certain students are less likely  to put forth effort into planning and teaching, even if they know of strategies that could help  students.", 
  "Self-efficacy theory is constructed within Bandura\u2019s social cognitive theory (1986), based on  several assumptions that concern the reciprocal nature of influence among personal,  behavioural and environmental factors, the relationship of learning to motivation and the  enactive and vicarious courses of behavioural change.", 
  "This process is described by Bandura  (1986, p.18) as the framework of triadic reciprocality where:  \nGarvis & Pendergast: An Exploration  \nIn  the  social  cognitive  view  people  are  neither  driven  by  inner  forces  nor  automatically  shaped  and  controlled  by  external  stimuli.", 
  "Rather,  human  functioning  is  explained  in  terms  of  a  model  of  triadic  reciprocality  in  which  behavior, cognitive and personal factors and environmental events all operate as  interacting determinants of each other.", 
  "In this transactional view of self and society, the three events influence one another bi- directionally.", 
  "The relationship between individuals and their social environment is seen as  reciprocally deterministic, not independent (Bandura, 1986).", 
  "However, reciprocity does not  mean that the three sets of interacting determinants are of equal strength, but rather they vary  for different activities and different circumstances (Bandura, 1997).", 
  "As such, causal factors  need time to exert their influence.", 
  "Due to this time lag, if it possible to develop an  understanding of how different segments of reciprocal causation operate (Bandura, 1997).", 
  "An understanding of the significance of Bandura\u2019s (1986) social cognitive theory in  understanding socio-structural theories and psychological theories is important, especially  within the realms of teacher behaviour.", 
  "Socio-structural and psychological theories are often  viewed as rival conceptions of human behaviour, representing different levels of causation.", 
  "Bandura (1997) suggests such a view is dualistic, where human behavior cannot be  understood in terms of social structural factors of psychological factors.", 
  "Rather a complete  understanding is necessary that focuses on an integrated causual perspective where social  influences operate through self-processes that produce actions.", 
  "Thus, individuals through  exercising self-influence are partially contributing to what they do.", 
  "Social cognitive theory  treats socio-structural and personal determinants as interacting co-factors within a unified  casual structure.", 
  "Teacher self-efficacy forms within the beginning years of teaching and according to theory,  once developed, is resistant to change (Bandura, 1997).", 
  "During this beginning phase, teachers  create their own self-knowledge through their efficacy beliefs as they reflect on teaching arts.", 
  "Subsequently, efficacy beliefs determine how environmental opportunities and impediments  are  perceived  (Bandura,  2006a).", 
  "Teachers  therefore  set  goals,  anticipate  outcomes  and  monitor their actions as they reflect on their personal efficacy when teaching the arts.", 
  "Teacher self-efficacy is considered situation specific (Bandura, 1997).", 
  "Some researchers have  attempted  to  explore  particular  curriculum  areas  to  define  the  context  by  modifying  the  Gibson  and  Dembo  instrument  for  self-efficacy.", 
  "Curriculum  areas  explored  include science  teacher self-efficacy (Riggs and Enochs, 1990), classroom management (Emmer & Hickman,  1990) and nutrition (Brenowitz & Tuttle, 2003).", 
  "Teacher self-efficacy research in individual subject domains influences teacher behaviour in  the classroom.", 
  "Research suggests that in science teacher self-efficacy, beginning teachers who  \nIJEA Vol.", 
  "12 No.", 
  "9 - http://www.ijea.org/v12n9/    \n\nfelt lacking in content knowledge tended to avoid teaching topics they did not know well for  fear  they  would  be  asked  questions  by  their  students  they  could  not  answer  (Rice  &  Roychoudhury, 2003; Tosun, 2000).", 
  "Furthermore, pre-service teachers lacking in confidence  in  the  teaching  of  science  deemphasized  or  avoided  teaching  science,  or  taught  using  transmissive as opposed to inquiry methods (Plourde, 2002).", 
  "These findings highlight the low  level  of  pedagogical  variety  used  by  the  teacher  if  low  self-efficacy  for  that  teaching  area  exists.", 
  "Few studies in Australia have investigated the impact of teacher self-efficacy on the overall  effectiveness of the teacher with arts education.", 
  "For generalist primary teachers, Garvis and  Pendergast  (2010)  found  that  in  a  study  of  201  beginning  teachers,  self-efficacy  for  arts  subjects  was  lower  compared  to  maths  and  English.", 
  "Garvis  (2010)  has  also  found  that  generalist  middle  years  teachers  who  do  not  feel  confident  or  capable  of  teaching  arts  education had low levels of teacher self-efficacy for the arts.", 
  "Rather, generalist middle years  teachers  would  generally  prefer  a  specialist  teacher  to  undertake  the  role.", 
  "Teachers  in  this  study  also  had  difficulty  defining  the  nature  and  purpose  of  arts  education.", 
  "As  yet,  limited  research  has  been  conducted  exploring  early  childhood  teacher  self-efficacy  for  arts  education.", 
  "The Study  \nBased  on  the  theory  and  research  presented,  the  purpose  of  this  study  was  to  investigate  perceived  levels  of  early  childhood  teachers\u2019  self-efficacy  in  the  teaching  of  arts  education  (dance, drama, music, visual arts and media) compared to the teaching of English and Maths.", 
  "The  focus  of  the  study  was  to  provide  a  level  of  measurement  of  teacher  self-efficacy  to  determine if current beliefs for arts education were strong or weak.", 
  "Current levels of teacher  self-efficacy  would  help  determine  teacher  effectiveness  in  the  classroom  with  each  of  the  subjects measured.", 
  "This study also collected data about the number of hours each of the arts  strands  was  taught  on  a  weekly  basis  to  identify  relationships  between  self-efficacy  and  education delivery.", 
  "Methods: Respondents  Twenty-one early childhood teachers completed an adapted version of the Teachers\u2019 Sense of  Efficacy Scale (Tschannen-Moran & Woolfolk Hoy, 2001).", 
  "All respondents were female and  located throughout Queensland, Australia.", 
  "Respondents were aged between 21 and 45+ years.", 
  "Ethical  approval  was  gained  for  this  project  with  all  considerations  followed.", 
  "Convenient  sampling was used to select participants.", 
  "Respondents were contacted via advertisement of the  project  through  professional  teacher  organisations  (3  early  childhood  organisations  were  contacted)  and  also  emailing  school  administration/s  across  Queensland.", 
  "Out  of  78  emails  \nGarvis & Pendergast: An Exploration  \n\nsent,  21  teachers  returned  responses,  producing  a  response  rate  of  27%.", 
  "This  convenience  sampling method does not purport to produce findings that are generalisable across the entire  population.", 
  "However, it does provide an insight into a sample of early childhood educators  that will be useful in developing further research in this area.", 
  "Instrument  The  survey was  adapted  to  the  context  of  arts  education  within  the  Queensland  curriculum  that has five strands: dance, drama, media, music and visual arts, as well as English and maths  to allow comparison.", 
  "Participants were asked to rank their teacher self-efficacy on a nine point  Likert scale where 1 = nothing and 9 = great deal.", 
  "Sample items include the following:  \nWhen teaching dance:  \n\n\u2022  To what extent can you provide an alternative explanation or example of the arts when  \nstudents are confused?", 
  "\u2022  How well can you implement alternative arts strategies in your classroom?", 
  "\u2022  How much can you do to manage disruptive behaviour in the classroom?", 
  "\u2022  How well can you keep a few problem students from ruining an entire arts lesson?", 
  "\u2022  How much can you do to motivate students who show low interest in the arts?", 
  "\u2022  How much can you do to help your student\u2019s value learning in the arts?", 
  "The  survey  also  included  information  about  early  childhood  teachers  time  given  to  the  teaching of the arts and current perceived content knowledge of each of the arts compared to  maths and English.", 
  "These were included to provide a greater understanding of current teacher  practice and perceived content knowledge about subject areas.", 
  "Content knowledge appears to  be an important contributor to science teacher self-efficacy (Rice and Roychoudhury, 2003;  Tosun, 2000).", 
  "This study was intended to look at content knowledge in arts education.", 
  "The  full  teacher  self-efficacy  scale  has  been  reported  with  reliabilities  of  0.92  to  0.95  (Woolfolk Hoy, Hoy & Kurz, 2008).", 
  "In this study, reliability was reported at 0.86, which is  acceptable for the purposes of reporting this as a valid study.", 
  "However, due to the limited  sample size, it was impossible to conduct correlational and multiple regression analysis.", 
  "Findings   \nDemographics  Respondents were located in city (43%), suburban (47%) and rural (10%) settings.", 
  "The range  of  teaching  experience  was  from  2  years  to  37  years  as  an  early  childhood  teacher.", 
  "Respondents  taught  in  pre-preparatory  (5%),  preparatory  (33%),  Year  1  (33%),  Years  2  \nIJEA Vol.", 
  "12 No.", 
  "9 - http://www.ijea.org/v12n9/    \n\n(14.5%)  and  Year  3  (14.5%).", 
  "They  also  held  various  qualifications  that  enabled  them  to  become registered early childhood teachers.", 
  "Qualifications included a Bachelor of Education  (Primary)  (61%),  Graduate  Diploma  (Primary)  (14%),  Bachelor  of  Education  (Early  Childhood) (10%), Graduate Diploma of Early Childhood (10%) and a Diploma of Teaching  in Early Childhood (5%).", 
  "Weekly Hours for Arts Education  Respondents were asked to rank the number of hours children were exposed to the arts each  week.", 
  "Findings suggest that a large proportion of children in early childhood classrooms had  no  exposure  to  dance  (95%),  drama  (90%)  and  media  (85%)  (refer  to  Table  1).", 
  "Music  appeared the most taught strand of the arts, followed by visual arts.", 
  "Table 1: Arts exposure per week  \n2-3 hours  \n4-5 hours  \nMore than 5  \nContent Knowledge  Respondents also ranked their perceived current levels of content knowledge for each of the  arts areas, maths and English.", 
  "Participants were asked to rank current content knowledge on a  five point scale; VL (very low), L (low), M (medium), H (high), and VH (very high).", 
  "The  respondents  reported  that  they  had  stronger  content  knowledge  for  English  and  maths  compared to the arts strands.", 
  "Forty-eight percent of respondents ranked their music content  knowledge as very low, 61% ranked their dance content knowledge as very low, 52% ranked  their drama content knowledge as very low, 67% ranked their media content knowledge as  very low and 48% of respondents ranked their visual arts content knowledge as very low.", 
  "This  is shown in Table 2.", 
  "Garvis & Pendergast: An Exploration  \nTable 2: Content knowledge for subjects  \nTeacher Self-efficacy   Respondents also rated their overall teacher self-efficacy for each of the different subjects on  a  9  point  Likert  scale.", 
  "Results  are  presented  in  Figure  1.", 
  "English  (6.81)  and  maths  (6.81)  produced  the  highest  mean  for  teacher  self-efficacy,  followed  by  a  large  gap  to  visual  arts  (4.86), music (4.39), dance (4.21) and drama (4.19).", 
  "Media (3.98) had the lowest mean for  teacher self-efficacy.", 
  "0123456789 \nMean Level of Teacher Self-Efficacy for  \nEach Subject \nMedia DramaDance Music Visual  \nEnglishMaths \nIJEA Vol.", 
  "12 No.", 
  "9 - http://www.ijea.org/v12n9/    \nFigure 1: Mean level of teacher self-efficacy for each subject.", 
  "Discussion  \nThis study sheds light on early childhood teacher self-efficacy in the five strands of the arts,  along with maths and English.", 
  "Self-efficacy is known to have considerable impact on teacher  effectiveness.", 
  "If early childhood teachers have stronger teacher self-efficacy for a subject they  are more likely to be motivated to teach that subject and persist with students in that subject.", 
  "Strong teacher self-efficacy has also been consistently related to teacher behaviour, student  attitudes and student achievement.", 
  "Although  this  study  is  relatively  small  in  scale,  it  has  revealed  a  consistent  pattern  of  responses.", 
  "This study has shown that the overall mean for teacher self-efficacy for each of the  arts strands was lower than teacher self-efficacy for both English and maths.", 
  "Within the arts  strands, early childhood teachers also had a higher self-efficacy score for teaching visual arts,  followed by music, compared to the remaining strands, with media scoring the lowest on the  self-efficacy scale.", 
  "The study also revealed that not all of the five strands are incorporated in  the  regular  weekly  teaching  of  the  arts,  with  music  and  visual  arts  the  most  likely  to  be  included.", 
  "Dance was the least included of the strands.", 
  "It is interesting to note that the two  strands included in the curriculum on a weekly basis the most often also had the highest self- efficacy scores.", 
  "Content knowledge for each of the arts strands appeared low compared to content knowledge  for English and maths.", 
  "Content knowledge is an important source of teacher self-efficacy.", 
  "If  teachers have stronger content knowledge in subject areas, they are more likely to engage in  teaching the subject in the classroom.", 
  "In this study, nearly half of all participants concluded  their content knowledge was very low for each of the arts strands.", 
  "The  majority  of  the  early  childhood  teachers  in  this  study  were  beyond  the  early  phase  of  teaching (first three years of teaching).", 
  "If, as the literature tells us, teacher self-efficacy beliefs  are  shaped  during  the  beginning  phase  of  teaching  and  resistant  to  change  thereafter,  the  participant\u2019s teacher self-efficacy for each of the subject domains will only vary slightly.", 
  "In  theory, the respondents in this study will have the same teacher self-efficacy beliefs for each  of the subject domains for the rest of their teaching career unless they encounter a shock in  their belief system.", 
  "Bandura  (1977)  suggested  it  was  fruitful  for  teachers  to  slightly  overestimate  their  actual  teaching skills as their motivation to expend effort and to persist in the face of setbacks will  help them to make the most of the skills and capabilities they do possess.", 
  "For English and  maths, this suggests that the participants in this study may expend greater persistence for these  particular subjects in the face of possible setbacks.", 
  "Garvis & Pendergast: An Exploration  \n\nThe standards teachers hold for what constitutes good teaching also influences teacher self- efficacy (Bandura, 1977; Tschannen-Moran et al, 1988).", 
  "From this study it could be deduced  that  early  childhood  teachers  considered  English  and  maths  to  be  more  important  for  constituting \u2018good teaching\u2019 compared to the arts.", 
  "Teaching beliefs of good teaching may also  influence the number of hours given to teaching a particular subject during the week.", 
  "While  this  study  did  not  test  this  relationship  statistically,  it  can  be  predicted  that  if  teachers  had  lower beliefs about the importance of the arts in the classroom, they would spend less time  teaching the arts.", 
  "A  major  limitation  impacting  on  the  findings  is  the  self-reporting  style  of  data  collection,  which is fundamental to the survey style employed in this study.", 
  "Actual observations of the  early childhood teachers, as well as qualitative data in the forms of interviews and field notes  has the potential to enrich the understanding of the early childhood teachers.", 
  "Self-selection is  another possible limitation of the results for this study.", 
  "It is possible that the early childhood  teachers who volunteered for involvement in the study were more efficacious than their peers  for  some  subjects.", 
  "Nevertheless,  this  study  provides  a  rare  insight  into  the  personal  self- efficacy beliefs of early childhood teachers.", 
  "Implications.", 
  "This  study  begins  to  highlight  the  importance  of  understanding  teacher  self- efficacy for subjects domains in the early years classroom.", 
  "In the early years classroom, all  subjects are supposed to be given equal positions and suitable time allocations and considered  key learning areas (see Melbourne Declaration, 2008).", 
  "If teachers have greater self-perceived  competence towards certain subjects, they are more likely to expend motivation and time in  teaching that content area.", 
  "A hierarchy of subjects may exist based on the teacher beliefs of  what constitutes \u2018good teaching\u2019.", 
  "As teachers typically work in isolation from other adults in  the  classroom,  there  is  little  opportunity  for  beliefs  to  be  critiqued  and  reviewed  by  other  \nThis study also raises questions about the learning of the arts in teacher education and current  professional development opportunities.", 
  "For teachers to have strong teacher self-efficacy for  the  teaching  of  the  arts,  they  must  have  positive  sources  to  inform  beliefs  during  teacher  education.", 
  "The support of positive beliefs should continue into the teaching profession with  ongoing  professional  development.", 
  "Greater  focus  is  necessary  on  teacher  education  and  professional development.", 
  "This study also highlights the importance to establish the ways teacher self-efficacy for the  arts  can  be  augmented  and  supported  throughout  a  teacher\u2019s  career.", 
  "This  might  include  a  greater focus on in-service professional development that spans beyond a day.", 
  "While teacher  beliefs may be resistant to change once developed, a shock would create a re-evaluation of  \nIJEA Vol.", 
  "12 No.", 
  "9 - http://www.ijea.org/v12n9/    \n\nperceived capability in the arts.", 
  "Such reality shocks are achieved by sustained engagement and  reflection  on  the  importance  of  the  arts  for  children.", 
  "Thus,  change  in  perceived  capability  about the arts requires time for early childhood teachers to develop the knowledge and skills  in each of the arts domains.", 
  "Greater focus on the arts is also needed in teacher preparation to  ensure beginning teachers exit teacher education with the necessary arts knowledge and skills.", 
  "It  is  important  that  arts  knowledge  and  skill  is  supported  and  developed  beyond  teacher  education, throughout a teacher\u2019s careers.", 
  "The results in this small study invite further exploration into the antecedents of confirmatory  and disconfirming beliefs of early childhood teachers\u2019 self-efficacy for arts education.", 
  "More  research into early childhood teacher self-efficacy in different contexts and subject domains  would  be  of  great  value  as  we  learn  how  to  better  train  and  facilitate  teachers  for  their  complex teaching tasks.", 
  "Greater  longitudinal  designs  are  necessary  that  allow  researchers  to  observe  periods  of  stability and flux of teachers\u2019 self-efficacy beliefs during teacher training and the beginning  phase of teaching to see how beliefs are shaped.", 
  "Some of these studies are starting to appear  (Tschannen-Moran & Woolfolk Hoy, 2007), but from a more generalised perspective of the  teaching context.", 
  "Greater research is also needed into self-efficacy beliefs at different career  stages  (including  mid  and  experienced  stages  within  teaching)  within  subject  domains,  especially the arts.", 
  "Teacher self-efficacy beliefs are an important motivational construct for teacher behaviour in  the  classroom.", 
  "It  is  a  small  idea  with  big  impact  on  teacher  practice.", 
  "If  we  are  wanting  to  increase teacher effectiveness in individual subject domains to provide holistic development  for  children,  we  need  to  know  more  about  teacher  self-efficacy  beliefs  and  how  they  are  formed.", 
  "We need to focus on why some subjects such as the arts are lower, and how teachers  can be supported to be more effective in the teaching of the arts in the early years."
 ]
}