{
 "document_id": "7254884649237829583", 
 "sentences": [
  "The Urban Review, Vol.", 
  "35, No.", 
  "1, March 2003 (\u4277 2003) \nA System At Risk: College Outreach Programs and the Educational Neglect of Underachieving Latino High School Students \nPete P. Loza \nThis literature review examines the ways in which college and university outreach pro- grams  impact  Latino  (and  other  minorities)  high  school  students.", 
  "This  article  demon- strates that the outreach programs outlined do aid in closing the gap of college enroll- ment  for  Latinos.", 
  "However,  a  review  of  three  representative  programs\u2014AVID,  the University  of  California\u2019s  Early  Academic  Outreach  Program,  and  Upward  Bound\u2014re- veals that the Latino students who exhibit the most need are summarily excluded from participating in the programs, thus leaving them on the margins of the educational sys- tem.", 
  "One of the conclusions of this study is that the problem lies with the political nature of the programs, which causes them to have stringent eligibility criteria.", 
  "KEY WORDS: Latino education; outreach programs; educational equity.", 
  "It has been asserted that the \u201cgood life\u201d in U.S. society is had via a college education,  and  on  many  indicators  of  social  mobility  the  data  speak  for  them- selves.", 
  "College graduates with at least a bachelor\u2019s degree earn twice as much as does a high school graduate only (Vernez and Krop, 1999) and tend to have better  health  and  to  live  longer  (Perna  and  Swail,  1998,  as  cited  in  Swail  and Perna,  2002),  and  a  college  education  is  the  doorway  to  the  middle  class (Tierney  and  Hagedorn,  2002).", 
  "Yet,  a  college  or  university  education  is  not easily  accessible  to  all,  especially  to  poor  and  minority  students.", 
  "Regarding Latinos,  a  substantial  gap  in  college  and  university  enrollment  exists  when compared  to  their  white  counterparts.", 
  "For  example,  based  on  total  college  en- rollment, Latinos represent 8.6% of the U.S. college-going population as com- pared  to  73.2%  for  whites  (National  Center  for  Education  Statistics,  1999).", 
  "In addition, Latinos are more likely to attend a two-year college than either Afri- can-Americans or whites (NCES, 1999).", 
  "Pete  P.  Loza  is  an  English  language  development  specialist  at  Moreno  Valley  High  School.", 
  "Address  correspondence  to  Pete  P.  Loza,  12123  Cambridge  Court,  Moreno  Valley,  CA  92557; e-mail: petronilo\u565daol.com.", 
  "0042-0972/03/0300-0043/0 \u4277 2003 Human Sciences Press, Inc.", 
  "THE URBAN REVIEW \nDespite the persistence of the gap in Latino college enrollment, some strides have  been  made.", 
  "Between  1976  and  1996  the  representation  of  Latinos  in higher education grew 202% (White House Initiative on Educational Excellence for  Hispanic  Americans,  1999).", 
  "In  part,  this  increase  can  be  attributed  to  col- lege  and  university  outreach  programs  designed  to  increase  the  enrollment  of underrepresented groups, such as Latinos.", 
  "These programs, known collectively as early intervention, early outreach, or college access, are generally funded by either  state  or  federal  agencies  (although  there  exist  several  private,  nonprofit programs  as  well)  and  are  usually  housed  on  university,  college,  and  commu- nity college campuses (Fashola and Slavin, 2001; Swail and Perna, 2002).", 
  "Most  college  outreach  programs  fall  into  two  categories:  student-centered and  school-centered  (Gandara,  2002).", 
  "The  vast  majority  of  the  programs  are oriented toward the former, however.", 
  "That is, most programs identify a cohort of students from underrepresented groups based on set criteria and utilize a host of  strategies  and  interventions  to  get  them  ready  for  college.", 
  "The  strategies generally  include  individual  academic  tutoring,  college  visitations,  college counseling, and some type of parent component (Fashola and Slavin, 2001; Jun and Colyar, 2002).", 
  "The gist of a student-centered outreach program is to close any perceived academic gaps in the individual student.", 
  "School-centered  outreach  programs,  conversely,  attempt  to  restructure  and reform the school as a whole, so that all of its constituents will be prepared to undertake the rigors of a college or university program of study (Oakes, Rogers, Lipton, and Morrell, 2002).", 
  "Even  though,  as  stipulated  previously,  outreach  programs  have  been  instru- mental in paving the way for Latinos and other minorities to enroll in colleges and universities, the gap persists.", 
  "The questions are \u201cWho is eligible to partici- pate  in  these  outreach  programs?\u201d  \u201cBy  what  criteria  are  students  admitted?\u201d \u201cDo  they  include  all  Latinos  in  a  given  school,  including  those  considered  as being  underachieving/at-risk?\u201d  \u201cDo  they  admit  only  a  select  few  Latinos  (and other  minorities)  who  meet  a  rigid  acceptance  criteria?\u201d  \u201cWho  are  the  under- achievers, and what does it mean for a student to be thus labeled?\u201d \u201cWhat is the theoretical rationale for the existence of these programs?\u201d And \u201cHow are under- achieving Latino high school students served in schools if not by the outreach programs?\u201d  These  questions  frame  the  focus  of  this  study.", 
  "It  will  be  demon- strated  through  a  review  of  current  literature  and  three  representative  outreach programs  that  many  of  them  do  aid  in  closing  the  gap  for  some  Latinos  and other  minorities.", 
  "However,  due  to  the  rigidity  of  their  selection  criteria,  they exclude  many,  if  not  most,  Latino  high  school  students  who  exhibit  the  most need  (Gibson  and  Bejines,  2002).", 
  "In  addition,  it  will  also  be  shown  that  as  a result  of  the  stringent  acceptance  criteria  of  these  outreach  programs  under- representation  of  Latinos  and  other  minorities  will  persist  at  current  or  higher levels, leaving the gap potentially open perpetually.", 
  "A SYSTEM AT RISK \n\nDue  to  the  limitations  of  space  and  time,  the  current  study  will  focus  its review  of  three  large,  representative  college  outreach  programs:  Upward Bound,  Project  Advancement  via  Individual  Determination  (AVID),  and  the University  of  California\u2019s  Early  Academic  Outreach  Program  (EAOP).", 
  "These programs were selected based on the numbers of students they affect and their representative structures of delivery of services to middle and high school mi- nority  students  (Swail  and  Perna,  2002).", 
  "Each  of  the  programs  will  be  briefly described  and  their  eligibility  criteria  will  be  analyzed  to  ascertain  which  stu- dents  are  accepted  to  participate.", 
  "The  review  will  begin,  however,  with  back- ground information about \u201cunderachievers.\u201d \nTHE UNDERACHIEVERS \nThe  literature  is  replete  with  examinations  of  the  underachieving  or  at-risk student  (Cuban,  1989;  Donmoyer  and  Kos,  1993;  Goodman,  1999;  Kronick, 1997).", 
  "Rouche  and  Rouche  (1999)  identified  several  characteristics  that  most at-risk students share.", 
  "Among them are attributes related to grade retention and the  age  of  the  student,  involvement  in  behaviors  that  are  high-risk  for  school failure, teenage pregnancy, and a lack of parental involvement in the school life of the child.", 
  "Dryfoos (1990), too, outlined attributes that could place students at high  risk  for  school  failure.", 
  "Among  them  were  cited  peer  influence  and  the quality  of  the  neighborhood  where  individual  students  reside  as  contributing factors of school failure.", 
  "As compelling as it might be to identify individual and cultural characteris- tics of underachieving/at-risk students, other researchers view this approach as potentially  pathological  (Donmoyer  and  Kos,  1993;  Fine,  1991;  Goodman, 1999; Kronick, 1997; Richardson, 1989; Valencia and Black, 2002).", 
  "That is, the notion  of  attributing  personal  characteristics  to  individuals  as  indicators  of school  failure  is  an  allusion  to  earlier  models  of  cultural  deficit  (Valencia  and Solorzano, 1997).", 
  "As Richardson et al.", 
  "(1989) stated: \nUnfortunately, the decision to employ an epidemiological mode for the study of these problems  limit  educators\u2019  ways  of  thinking  about  these  phenomena.", 
  "Since  the  prob- lem is believed to be inherent in the student, the search for the cause is limited to the characteristics  of  the  students  themselves.", 
  "Characteristics  of  our  society  and  school are left unexamined.", 
  "(p. 6) \nWhen school failure is endemic in a particular group (e.g., Latinos or Afri- can-Americans)  in  a  given  school,  the  more  appropriate  response  would  be  to initiate a school-centered program of intervention (Gandara, 2002; Oakes et al., 2002).", 
  "Here,  structures,  systems,  and  processes  of  a  school  that  correlate  to educational  failure  for  a  given  group  are  analyzed  and  reformed  to  meet  the needs of all students.", 
  "Donmoyer and Kos (1993) asserted that \u201csuch approaches \n\nTHE URBAN REVIEW \n[student-centered only] lend to solutions that attempt to \u2018fix\u2019 (that is, remediate) the  child,  not  to  change  the  environment.", 
  "Not  surprisingly,  such  interventions .", 
  ".", 
  ".", 
  "fail or fade over time\u201d (p. x).", 
  "With respect to the programs outlined in the current paper, they all share a student-centered approach.", 
  "However, two of the three\u2014EAOP and AVID\u2014possess a school-centered component.", 
  "Whether  the  outreach  program  be  student-centered  or  school-centered,  it should  certainly  be  culturally  representative  of  the  students  and  families  it serves (Jun and Colyar, 2002).", 
  "Thus, the success of the program \u201chinges on the ability of a program to meet students\u2019 localized needs by affirming their culture and identity, rather than ignoring or rejecting it\u201d (Jun and Colyar, 2002, p. 206).", 
  "The absence of the cultural component would render a program irrelevant to the students and their families and would simply not work for them (Fernandez and Shu, 1988).", 
  "The three programs discussed in this article attempt to be culturally representative of the students and families that they work with.", 
  "THE THEORETICAL RATIONALE FOR COLLEGE OUTREACH PROGRAMS \nBecause  most  schools  are  institutions  that  are  structured  on  a  middle-class (or  higher)  orientation,  middle-class  families  and  their  children  understand  the cultural  and  social  nuances  (capital)  of  how  they  operate.", 
  "Cultural  capital  the- ory  posits  that  individuals  of  a  given  social  strata  transmit  cultural  values  and knowledge  in  accordance  with  their  social  standing  (Bourdieu,  1977).", 
  "Thus, middle-class students in a particular school enter the institution \u201cequipped\u201d with the necessary cultural and social capital needed to succeed.", 
  "The  privilege  and  power  that  the  middle  and  upper  classes  possess  allow them  to  establish  social  and  political  policies  which  favor  their  children (McLaren, 1994), while children of poor and minority families are in a constant state  of  having  to  learn  the  \u201crules\u201d  of  the  game.", 
  "Thus,  the  middle  and  upper classes are in a position to establish who gets what, or to formulate the rules of the meritocracy.", 
  "Because those in power set the standards for the meritocracy in a given society, they render the dominant culture as \u201cnormal.\u201d As Oakes et al.", 
  "(2002) noted, \u201cThe cultural capital of White and wealthy families masquerades as  meritorious  \u2018natural\u2019  ability,  rather  than  social  privilege\u201d  (p.  112).", 
  "Even though  the  charge  for  intervening  outreach  programs,  in  essence,  is  to  redis- tribute cultural and social capital so that admission to colleges and universities is  available  to  all  in  a  given  society,  privileged  groups  will  work  that  much harder  to  continue  to  give  leverage  to  members  of  their  social  group  (Oakes, 1985;  Oakes  et  al.,  2002;  Yonezawa,  Jones,  and  Mehan,  2002).", 
  "As  efforts  to democratize university admission policies for underrepresented students are ac- tualized,  powerful  parents  representing  middle-  and  upper-class  students  will simply  match  the  effort  and  raise  the  bar  in  their  children\u2019s  favor.", 
  "Thus,  those \n\fA SYSTEM AT RISK \n\nwho  define  merit  in  a  given  society  will  always  tilt  the  balance  their  way (Oakes et al., 2002).", 
  "While  all  schools  in  the  United  States  purport  to  be  democratic  institutions where  all  students  have  the  same  opportunities  to  acquire  enough  social  and cultural  capital  to  allow  them  to  attend  any  postsecondary  institution  of  their choice,  in  reality  not  all  schools  are  created  equal.", 
  "The  vast  social  and  eco- nomic  divisions  that  persist  within  U.S.  society  are  duly  transmitted  to  the schools (Bourdieu, 1977).", 
  "Functioning within the meritocracy is the process of social reproduction.", 
  "That is, the norms and everyday experiences of individuals at  a  given  social  stratum  are  reproduced  so  that  social  mobility  is  difficult  to realize  (Anyon,  1980;  Bourdieu,  1977;  Lareau,  1987).", 
  "Anyon  (1980),  in  her study of five socially disparate elementary schools, found: \nDiffering  curricular,  pedagogical,  and  pupil  evaluation  practices  emphasize  different cognitive and behavioral skills in each social setting and then contribute to the devel- opment  in  the  children  of  certain  potential  relationships  to  physical  and  symbolic capital, to authority, and to the process of work.", 
  "School experience, in the sample of schools discussed here, differed qualitatively by social class.", 
  "(p. 90) \nOther  researchers  have  documented  the  adverse  conditions  of  schools  lo- cated  in  poor  and  minority  communities,  both  physically  and  academically (Garcia,  2001;  Kozol,  1991,  1995).", 
  "This  socially  reproduced  circumstance  of poverty relegates those who live within its grip to a life of limited opportunities and  powerlessness  (Kozol,  1991).", 
  "Therefore,  university  and  college  outreach programs  exist  to  enable  poor  and  minority  students  to  add  to  their  personal social  and  cultural  capital,  and  to  cease  the  replication  of  social  reproduction (Delpit,  1995).", 
  "In  effect,  these  programs  should  serve  as  a  link  between  poor and  minority  communities  and  the  colleges  and  universities  that  serve  those communities (Gibson and Bejines, 2002; Oakes et al.", 
  "2002).", 
  "But how pervasive are  these  programs  in  helping  Latinos  (and  other  minorities)  gain  needed  cul- tural and social capital?", 
  "As asked previously, \u201cAre all Latinos who are in need of  the  services  that  such  programs  provide  selected  for  participation?\u201d  If  not, \u201cWhat  are  the  selection  criteria  for  participation  in  the  programs?\u201d  In  an  at- tempt  to  answer  these  questions,  a  description  of  the  three  representative  pro- grams and their admission policies ensues.", 
  "THE UNIVERSITY OF CALIFORNIA EARLY ACADEMIC OUTREACH PROGRAM \nThe  goal  of  the  Early  Academic  Outreach  Program  is  to \u201chelp  students  de- velop the skills needed to become eligible for the University of California upon high  school  graduation\u201d  (Early  Academic  Outreach  Program  informational booklet, 2001, p. 1).", 
  "Students are selected and served beginning in Grade 7, and \n\nTHE URBAN REVIEW \nthey  continue  to  receive  services  until  their  high  school  graduation.", 
  "Services provided  to  selected  students  include  academic  guidance  through  the  use  of university  mentors,  academic  monitoring,  the  development  of  academic  plans, academic tutoring, University of California campus tours, and a parent confer- ence.", 
  "The  parent  conference  is  the  vehicle  by  which  parents  of  participating students are informed about college entrance requirements, financial aid oppor- tunities, and career planning (EAOP informational booklet, 2001).", 
  "In addition to the aforementioned basic services provided to the participants, EAOP also offers four specialized programs: Mathematics Education and Goals Academy  (MEGA),  Parent  Academy  Towards  Higher  Success  (PATHS),  Ad- vanced  Institute  For  Math  (AIM),  and  Writing,  Reading,  Instruction  Through Education  (project  WRITE).", 
  "These  academies  are  designed  to  provide  partici- pating  students  with  an  in-depth  study  of  language  arts  and  math.", 
  "All  of  the student-centered academies offer a week-long residency at a University of Cali- fornia  campus  during  the  summer  (EAOP  informational  booklet,  2001).", 
  "How- ever, only participating students who meet a certain entrance criteria may apply to the academies.", 
  "For example, in the case of the AIM academy, only students who have completed precalculus \u201cand who are otherwise academically qualified are invited to apply\u201d for the program (EAOP informational booklet, 2001, p. 4).", 
  "The PATHS academy is open to all parents of participating students.", 
  "This par- ticular  academy  is  a  six-week  parent  education  course  where  parents  review topics  concerning  \u201cthe  public  school  system,  college  admission,  parental  sup- port,  and  community  resources\u201d  (EAOP  informational  booklet,  2001,  p.  4).", 
  "EAOP serves some 88,000 students at more than 600 high schools and middle schools throughout the state of California.", 
  "In order for a student to be eligible to participate in EAOP, he or she must meet the following criteria: \nbe currently enrolled in a school with an EAOP agreement on file (EAOP is usually established in poor, under-performing minority high schools) \n2) be motivated to pursue a college education [italics added] 3) be from an educationally and/or economically disadvantaged background 4) have  a  minimum  3.0  grade  point  average  in  academic  subjects  [italics \nadded] (EAOP informational booklet, 2001) \nUPWARD BOUND \nOne of several federally funded TRIO programs, Upward Bound is the larg- est and the oldest.", 
  "Primarily student-centered, it was initiated in 1967 to, \u201cmaxi- mize educational opportunities for low-income and first generation college stu- dents  through  direct  services  that  provide  access  to  education  and  encourage retention through the education pipeline\u201d (Upward Bound, 2001, p. 1).", 
  "Like  EAOP,  Upward  Bound  offers  an  array  of  services  for  its  participants, including  personal  and  academic  counseling,  career  exploration,  college  and \n\fA SYSTEM AT RISK \n\nuniversity  guidance  counseling,  financial  aid/scholarship  awareness,  and  test preparation (Upward Bound, 2001).", 
  "In addition, Upward Bound stipulates spe- cifically  that  one  of  its  goals  is  to  enhance  participants\u2019  cultural  awareness, leadership, and critical thinking skills.", 
  "Further, all students participate in a six- week summer residential or nonresidential program at a college campus.", 
  "Most programs are administered through a college or university (Moore, 1997).", 
  "The eligibility criteria for participation in Upward Bound include: \n\nfamily  income  must  be  under  150%  of  the  poverty  level,  and/or  students who are first-generation college students \n2) must have completed the eighth grade 3) must demonstrate a need for the program 4) must  demonstrate  the  potential  to  complete  a  four  year  college  education \n[italics added] (Upward Bound, 2001).", 
  "Furthermore,  students  with  a  history  of  behavioral  or  emotional  problems  are usually not eligible to participate in the program (Moore, 1997).", 
  "The  final  program  to  be  reviewed  is  Advancement  Via  Individual  Deter- mination  (AVID).", 
  "Like  the  former  programs  discussed,  AVID  is  primarily  a student-centered  outreach  program\u2014with  one  important  qualification.", 
  "AVID clusters students into classes that are taught by teachers who have been trained to  offer  their  students  lessons  in  a  variety  of  study  skills.", 
  "This  clustering  of students  impacts  the  curriculum  that  AVID  students  receive.", 
  "Participating schools are required to formulate a leadership team comprised of the principal, a  counselor,  the  AVID  teacher,  and  teachers  from  the  core  content  areas.", 
  "The team must attend a week-long training institute in San Diego, California, during the summer before implementing the program at the school site.", 
  "The lead AVID teacher  assumes  responsibility  for  coordinating  the  program,  which  includes fund-raising, the hiring of tutors, organizing field trips, and academic coaching.", 
  "In  addition,  several  college  campus  visitations  are  made  on  an  annual  basis.", 
  "AVID, too, offers workshops for parents (AVID, 2000).", 
  "AVID  offers  many  of  the  same  services  to  its  participants  as  the  former programs  described.", 
  "Students  receive  academic  tutoring,  college  advisement, personal counseling, and study skills instruction.", 
  "What is particularly effective with  AVID  is  its  use  of  teachers  and  staff  from  a  particular  school  site.", 
  "This helps  in  developing  meaningful  relationships  among  staff  and  students,  which enriches academic achievement for all concerned (AVID, 2000).", 
  "The eligibility criteria for students desiring to participate in AVID are \n\naverage  to  high  standardized  test  scores,  but  low  middle  and  high  school grades [italics added] \n\nTHE URBAN REVIEW \n2) good academic potential [italics added] 3) parental consent (AVID, 2000).", 
  "HIGH SCHOOL LATINO STUDENTS LEFT ON THE FRINGE \nOne  of  the  many  stated  goals  of  the  three  outreach  programs  discussed  in this study is to increase the representation of Latinos (and other minorities) in higher education.", 
  "A review of the limited studies done to gauge their effective- ness  indicates  that,  generally  speaking,  they  are  making  inroads  in  closing  the gap (see Mehan et al., 1996; Moore, 1997; Myers and Schirm, 1999; Quigley, 2002).", 
  "However,  a  comparison  of  eligibility  requirements  for  participation  in these  programs  and  the  numbers  and  academic  standing  of  Latino  students served demonstrates that many underachieving/at-risk Latino students in middle and  high  schools  are  not  being  served.", 
  "Given  the  structure  of  a  typical  high school in the United States, students who exhibit behaviors not consistent with those structures are summarily ostracized from the system (Fine, 1991; Garcia, 2001; Goodman, 1999).", 
  "As mentioned previously, those behaviors may include chronic  truancy,  low  grade-point  average  (1.0  or  below),  behavioral  problems, and  a  host  of  emotional  and  psychological  maladies  (Dryfoos,  1990;  Rouche and  Rouche,  1999).", 
  "Other  researchers  have  identified  issues  that  affect  Latino students  in  particular.", 
  "For  example,  Finn  (1997)  found  that  Latinos  who  were gang-affiliated were more likely to exhibit behaviors that placed them at risk of dropping out of school.", 
  "Garcia (2001), too, identified traits germane to Latinos that were obstacles to school success.", 
  "Among those issues identified by Garcia as placing Latino students at high risk for dropping out and not attending col- lege were being an English language learner (ELL); immigrant status; undocu- mented  immigrant  status,  whether  or  not  the  student  was  a  migrant;  and whether or not the student worked more than 20 hours per week, among others.", 
  "In a middle or high school where reform efforts have failed to develop struc- tures that include meeting the needs of underachieving Latino (and other minor- ity)  students,  many  researchers  have  described  this  neglect  as  contributing  to their  being  pushed  out  of  the  system  (Fine,  1991;  Goodman,  1999).", 
  "As  Fine (1991) noted concerning the inequities evident in many schools: \nDramatically different patterns of dropping out by social class, race, ethnicity, gender, and  disability  characterize  U.S.  public  schools.", 
  "The  patterns  stand  as  evidence  that the promise of equal opportunity is subverted institutionally by the guarantee of un- equal  educational  outcomes.", 
  "Students  who  begin  with  the  greatest  economic  disad- vantages receive the least enriching educations and end up with fewer, less valuable, and historically deflating diplomas.", 
  "(p. 26) \nThe  partnerships  between  the  university  and  secondary  schools  are  a  vital link  in  attempting  to  close  the  gap  between  Latinos  and  their  attendance  at institutions  of  higher  education  (Nora,  2002;  Swail  and  Perna,  2002).", 
  "These \n\fA SYSTEM AT RISK \n\nprograms provide their clients with many of the services that research has dem- onstrated are needed by Latinos (and other minorities) to overcome the factors that keep them from graduating from high school and attending college (Hage- dorn and Fogel, 2002; Oakes et al., 2002).", 
  "For example, such strategies as adult and peer mentoring, academic advisement, parent workshops, field trips to col- lege campuses, and personal counseling have been identified as being effective with  underachieving/at-risk  Latino  students  (Alva,  1991;  Gibson  and  Bejines, 2002;  Gonzalez  and  Padilla,  1997;  Hurtado  and  Gauvin,  1997).", 
  "Rather  than being  admitted  to  a  college  and  university  outreach  program,  many  under- achieving/at-risk Latino (and other minority and nonminority) students are sim- ply  placed  in  alternative  educational  programs  that  seek  to  remove  them  from the school environment (Goodman, 1999).", 
  "TRADITIONAL METHODS OF DEALING WITH UNDERACHIEVING/AT-RISK STUDENTS \nThe  label  at  risk  or  disaffected,  once  pinned  on  an  individual,  can  have  far reaching consequences.", 
  "Rather than attempt to intervene in a student\u2019s life, or to change the system so that the student\u2019s needs are met, the traditional method of dealing  with  those  students  is  to  \u201cremove  the  miscreants  and  troublemakers\u201d (Goodman,  1999,  p.  6).", 
  "Districts  have  a  variety  of  unique  ways  that  they  em- ploy to deal with so called at-risk students.", 
  "Rather than to implement interven- tions like the ones offered through the various college and university outreach programs,  they  create  little  enclaves  (either  on  or  off  campus)  that  summarily remove  the  students  from  the  general  population.", 
  "Most  of  these  removal  pro- grams are given names with ironic twists like opportunity program or success.", 
  "What they all share is the elimination of the student from the \u201cnormal\u201d popula- tion.", 
  "In  some  cases,  rather  than  to  place  these  students  in  a  removal  program, they are simply removed from the school through independent studies or place- ment in a continuation school (Goodman, 1999).", 
  "The  problem  with  many  of  these  removal  programs  is  that  they  are  micro- cosms of the broader school culture from which these students are removed\u2014a culture  in  which  these  students  initially  experienced  school  failure  (Goodman, 1999).", 
  "The  removal  programs  offer  very  few  of  the  services  that  are  provided by the college outreach programs.", 
  "In the absence of the kinds of interventions provided by the college outreach programs, and in the wake of so-called alter- native educational programs, the legacy of school failure for Latino (and other minority) students will persist (Gandara, 2002).", 
  "DISCUSSION \nCollege and university outreach programs have the potential to be a power- ful tool in helping underachieving/at-risk Latino students overcome the barriers \n\nTHE URBAN REVIEW \nthat place them at high risk for dropping out of high school and not attending a college  or  university.", 
  "Whether  student-  or  school-centered,  college  outreach programs  do  positively  impact  the  lives  of  their  Latino  participants  (Gandara, 1995, 2002; Oakes et al., 2002).", 
  "Therefore, accessibility to these programs for underachieving/at-risk students is paramount.", 
  "However, the review of the three representative  programs  in  this  study  reveals  that  many  Latinos  are  excluded from participating in the programs due to stringent acceptance criteria (Gibson and Bejines, 2002).", 
  "Furthermore, this study has demonstrated that when alterna- tive educational placements are suggested for underachieving/at-risk Latino stu- dents, they are relegated to removal-type programs (Goodman, 1999).", 
  "In addi- tion, this study has shown that outreach programs do help many Latinos obtain needed  social  and  cultural  capital  (Bourdieu,  1977;  Hagedorn  and  Tierney, 2002; Oakes et al., 2002).", 
  "Latinos and other minorities need to be included in the  conversation  about  who  determines  merit,  that  is,  who  will  get  what  and how (McLaren, 1994).", 
  "CONCLUSION \nIf  current  trends  continue,  Latinos  will  continue  to  lag  behind  in  college enrollments.", 
  "As was stated previously, high school and college completion im- pacts  earning  capability,  quality  of  life,  and  job  options  (Vernez  and  Krop, 1999).", 
  "The  multiplicity  of  negative  factors  that  Latinos  (and  other  minorities) face  in  attempting  to  secure  both  a  high  school  diploma  and  a  college  degree appear  at  times  insurmountable.", 
  "The  literature  has  demonstrated  that  such  is- sues  as  poverty,  immigration  status,  language  issues,  school-related  problems, and parental educational background all impact the lives of many Latinos (Gib- son and Bejines, 2002; Garcia, 2001; Tornatzky, Cutler, and Lee, 2002).", 
  "How- ever, the literature also reveals that with appropriate restructuring of the overall school program and the implementation of individual interventions the issues of social reproduction, cultural and social capital can be redressed (Hagedorn and Fogel, 2002; Jun and Colyar, 2002; Oakes et al., 2002).", 
  "College and university outreach  programs  represent  a  potentially  powerful  mechanism  in  helping  to close the gap of college enrollment for Latinos.", 
  "The  three  college  and  university  outreach  programs  discussed  here  have made considerable inroads in aiding Latinos and other minorities matriculate in both  community  colleges  and  four  year  institutions  (Mehan,  Villanueva,  Hub- bard, and Lintz, 1996; Moore, 1997; Myers and Schirm, 1999; Quigley, 2002).", 
  "However,  because  of  the  relative  rigidity  of  the  acceptance  criteria  for  these programs, they do not serve all Latinos who exhibit dire educational and other needs,  thus  leaving  many  to  flounder  on  the  periphery  of  our  educational  sys- tems.", 
  "The  underachieving/at-risk  Latino  student  requires  the  interventions  that \n\fA SYSTEM AT RISK \n\nthese programs offer, for example, adult and peer mentoring, personal counsel- ing, and academic counseling (Garcia, 2001).", 
  "The problem, in part, has to do with the politics surrounding these programs.", 
  "Politicians, in their never-ending quest for accountability, are interested in num- bers:  how  to  reap  the  most  benefits  from  the  dollars  they  allocate  to  these programs.", 
  "The  college  outreach  officials,  in  their  desire  to  keep  their  funding source,  are  pressured  to  deliver  the  numbers  of  students  going  on  to  college demanded by the politicians (Oakes et al., 2002).", 
  "Thus, the programs are pres- sured  into  accepting  those  students  with  the  best  chance  of  moving  on  to  a college or university, at the expense of the more needy Latino student (Gibson and Bejines, 2002).", 
  "In order to help rectify the current situation, the following measures are put \nforth as possible solutions to the problem: \nOne  recommendation  is  that  the  outreach  programs  that  are  currently  stu- dent-centered  need  to  broaden  their  eligibility  requirements  to  include  those students  who  exhibit  the  most  need  (the  negative  behaviors  discussed  previ- ously).", 
  "As  was  ascertained  through  the  review  of  the  eligibility  criteria  of  the three  programs,  they  all  require  students  to  meet  requirements  that  summarily exclude Latino students who have the greatest need.", 
  "Gibson and Bejines (2002) found  in  their  review  of  different  college  outreach  programs  that  most  are  ex- clusionary  and  accept  only  those  who  meet  rigid  criteria.", 
  "In  the  case  of  the three  programs  reviewed  for  this  study,  they  all  used  a  discourse  that  implies exclusion  (see  the  informational  booklets  for  AVID,  2000;  EAOP,  2001;  Up- ward  Bound,  2001).", 
  "For  example,  Upward  Bound  requires  students  to  have  a \u201cpotential\u201d  for  college  attendance  and  reserves  the  right  to  exclude  a  student based on behavioral and/or emotional problems (Moore, 1997; Upward Bound, 2001).", 
  "Many underachieving Latinos (especially those who might be gang-affil- iated) do not exhibit an overt potential for college attendance (Finn, 1997; Gar- cia 2001); therefore their participation in Upward Bound (and other programs) is negated (Donmoyer and Kos, 1993; Kronick, 1997; Swail and Perna, 2002).", 
  "With  respect  to  EAOP,  the  eligibility  criteria  require  students  to  have  a  \u201c3.0 GPA  in  academic  classes\u201d  (EAOP  informational  booklet,  2001,  p.  4).", 
  "Under- achieving  Latino  students  are  hard-pressed  to  meet  this  criterion,  hence  elim- inating  their  opportunity  to  benefit  from  the  program  (Gibson  and  Bejines, 2002; Garcia, 2001).", 
  "Any student who is achieving at the 3.0 GPA level is one that  could  very  well  make  it  to  college  without  outside  intervention  (Alva, \nAnother  recommendation  would  be  to  make  more  of  the  current  outreach programs  school-centered.", 
  "As  discussed  previously,  the  school-centered  meth- odology  attempts  to  restructure  and  reform  current  site  programs  so  that  the needs of all students are met (Gandara, 2002).", 
  "The programs discussed for this study  tend  to  be  student-centered.", 
  "However,  both  AVID  and  EAOP  possess \n\nTHE URBAN REVIEW \nschool-centered  components.", 
  "The  problem  is  that  the  restructuring  efforts  they prescribe  often  don\u2019t  involve  all  of  the  schools  that  they  work  with  or  they don\u2019t  extend  to  all  students  at  a  given  site  (AVID,  2000;  EAOP  informational booklet, 2001; Upward Bound, 2001).", 
  "Third, the interventions of college and university outreach programs need to begin to reach students at an earlier age.", 
  "Interventions beginning in high school may  come  too  late,  especially  if  a  student  exhibits  behaviors  that  place  her  or him at high risk for school failure.", 
  "Some researchers have suggested that inter- ventions should begin as early as the fourth grade (Nettles and Perna, 1997).", 
  "In  addition,  counseling  departments  in  a  given  school  need  to  collaborate intensely  with  college  outreach  programs,  so  that  appropriate  identification  of the  students  who  need  the  services  takes  place.", 
  "Given  the  responsibility  that counselors  have\u2014that  of  directing  students  into  particular  academic  paths\u2014 they  have  the  power  to  divert  a  student  into  a  more  academic  track  or  to  a remedial one (Gandara, 2002).", 
  "Fifth,  informing  parents  of  the  existence  of  college  outreach  programs  is essential.", 
  "They  need  to  be  made  aware  that  their  child\u2019s  participation  in  these programs  is  an  option  that  could  benefit  them.", 
  "A  recent  study  attempted  to measure  the  amount  of  \u201ccollege  knowledge\u201d  a  sample  of  Latino  parents  pos- sessed.", 
  "It revealed that most of the parents surveyed for the study lacked even a basic understanding of college entrance requirements, financial aid, and schol- arship  attainment  (Tornatzky,  Cutler,  and  Lee,  2002).", 
  "In  addition,  the  study determined that the lower the socioeconomic status of the parents, the lower the quantity of college knowledge.", 
  "Finally, reform efforts at a given school site should incorporate the inclusion of  a  variety  of  social  services.", 
  "Many  of  the  students  who  are  branded  under- achieving or at risk have issues apart from school or academics.", 
  "These students\u2019 lives  are  fraught  with  personal  issues  that  render  schooling  a  secondary  con- cern.", 
  "As such, social welfare services need to be prevalent on school sites.", 
  "As Knonick  (1997)  asserted,  \u201cIf  the  school  is  a  human  service  agency,  the  neces- sary parts of the human service system will be on site at the school.", 
  "This will facilitate  a  quicker  response  to  the  problems  and  increase  the  probability  of  a team approach in addressing the child\u2019s needs\u201d (p. 7).", 
  "As  a  result  of  the  aforementioned  political  climate\u2014and  if  the  above  mea- sures  are  not  taken\u2014it  appears  as  though  the  gap  will  remain.", 
  "Dropout  rates among  Latinos  (and  other  minorities)  will  continue  to  grow,  as  will  college nonmatriculation rates.", 
  "Part of the solution, of course, is for school districts and the university community to band together to form a political alliance that will counter the prevailing political environment.", 
  "As Oakes et al.", 
  "(2002) stated: \nA theory of political action around college access needs to inform attempts to instan- tiate new ideas about merit within college admissions.", 
  "Such change requires a wide- \n\fA SYSTEM AT RISK \n\nspread shift in public understandings of merit and college readiness.", 
  ".", 
  ".", 
  ".", 
  "Hence, what is  needed  is  a  politics  from  the  \u201cground  up\u201d  that  engages  multiple  constituencies  in reexamining the meaning of college readiness.", 
  "(p.119)"
 ]
}