{
 "document_id": "7389520894929889586", 
 "sentences": [
  "Examining Disparities in Mathematics Education: Achievement Gap or Opportunity Gap?", 
  "Author(s): Alfinio Flores Source: The High School Journal, Vol.", 
  "91, No.", 
  "1 (Oct. - Nov., 2007), pp.", 
  "29-42 Published by: University of North Carolina Press Stable URL: http://www.jstor.org/stable/40367921 .", 
  "Accessed: 10/12/2013 13:09 \nYour use of the JSTOR archive indicates your acceptance of the Terms & Conditions of Use, available at .", 
  "http://www.jstor.org/page/info/about/policies/terms.jsp \nJSTOR is a not-for-profit service that helps scholars, researchers, and students discover, use, and build upon a wide range of content in a trusted digital archive.", 
  "We use information technology and tools to increase productivity and facilitate new forms of scholarship.", 
  "For more information about JSTOR, please contact support@jstor.org.", 
  "University of North Carolina Press is collaborating with JSTOR to digitize, preserve and extend access to The High School Journal.", 
  "http://www.jstor.org  \nThis content downloaded from 98.176.112.184 on Tue, 10 Dec 2013 13:09:01 PM \nAll use subject to JSTOR Terms and Conditions \n\fExamining Disparities in  Mathematics Education:  Achievement Gap or  Opportunity Gap?", 
  "Alfinio Flores  University of Delaware  \nThe so-called achievement gap in mathemat-  ics is reframed as a problem of unequal oppor-  tunities to learn experienced by many low-  income students and many Latino and African  American students.", 
  "First, data are presented  showing striking and persistent differences on  standardized tests among students of different  ethnic groups, and socioeconomic levels.", 
  "Then  evidence is  presented demonstrating that  opportunities to learn mathematics are not  equally  distributed among all  students.", 
  "Specifically, data show that African American,  Latino, and low-income students are less like-  ly to have access to experienced and qualified  teachers, more likely to face low expectations,  and less likely to receive equitable per student  funding.", 
  "The final section discusses how  teachers and schools can provide more equi-  table opportunities to learn mathematics for  all students.", 
  "Finding a proper way to frame a problem gives  us not only a better understanding of it but also  impacts the ways in which we address the prob-  lem and make efforts to solve it.", 
  "For example, in  medicine it is important not only to address the  symptoms of a person's illness, but also to treat  the underlying cause.", 
  "When a child has a high  fever due to an infection, it is not enough to give  the child treatment to bring the temperature  down; it is crucial to give the child medicine to  combat the infection.", 
  "Likewise in education,  while it is important to recognize a symptom  such as low achievement, it is even more criti-  cal to understand and address its underlying  causes.", 
  "Changing the way in which the dispari-  ty of performance in mathematics among differ-  ent groups of students in our schools is framed  as a problem can lead to a productive investiga-  tion into understanding the causes for these dis-  parities and how to address them.", 
  "There are considerable differences in perform-  ance on national and state mathematics tests  between different groups of students, the most  commonly examined comparisons being by  ethnic group and income level.", 
  "Often the  unequal performance of Latino and African  American students compared to European  \n\u00a9 2007 The University of North Carolina Press  \n\nThis content downloaded from 98.176.112.184 on Tue, 10 Dec 2013 13:09:01 PM \nAll use subject to JSTOR Terms and Conditions \n\fThe High School Journal - October/November 2007   American students is described as an achieve-  ment gap.", 
  "It is not uncommon to see statements  like the following:  \nLatino, African American, and low-income stu-  dents are not as likely to have the same oppor-  tunities to learn in our schools as other groups.", 
  "Having identified inequitable opportunities, I  suggest ways in which teachers and schools can  provide better access to opportunities to learn  mathematics for all our students.", 
  "The Achievement Gaps  In this section, I present data that show signifi-  cant gaps in mathematics achievement that  have not closed considerably over the last three  decades.", 
  "By eighth-grade, 91%  of African-  American and 87% of Latino students are not  proficient in mathematics, as measured by the  National Assessment of Educational Progress  (NAEP).", 
  "This stands in stark contrast to the  lower proportions of Asian American (53%)  and White (63%) students who are not profi-  cient (Haycock, 2006).", 
  "In fact, 12th grade Latino  and African American students perform as well  as 8th grade White students on NAEP's mathe-  matics assessment (see Figure 1) (Wilkins et al.,  2006).", 
  "When assessing the depth of students'  understanding of mathematics, the disparity is  even greater than for multiple-choice items.", 
  "For  example, on the 2000 NAEP mathematics test  the average score of African American eighth-  grade students for multiple choice items was  72% of the average score of European American  students; for extended constructed-response  tasks the average score of African American stu-  dents was 32% of that of European American  students (Strutchens, Lubienski, McGraw, &  Westbrook, 2004, p. 279).", 
  "This gap in mathematics performance has been  very slow to close.", 
  "Despite some narrowing of  the gap in the 1970s and 1980s, since 1988 the  gap has widened somewhat or remained about  the same (Figure 2).", 
  "There is also a considerable  gap in test performance between students from  poor families and those from non-poor families.", 
  "Only 13% of students from poor families are at  the proficient or advanced levels compared to  38%  of students from non-poor families  (Wiener, 2006).", 
  "Students of color continue to lag behind  white students and some Asian students,  and the so-called academic achievement  gap still exists.", 
  "(A state superintendent of  public instruction, as quoted by Heffter,  Across the U.S.,  a  gap in  academic  achievement persists between minority  and disadvantaged students and their  white counterparts.", 
  "(National Governors'  Association, 2005)  \nWhat kind of images do we form about the stu-  dents who lag behind after reading such state-  ments?", 
  "What kind of assumptions, conscious or  subconscious, do we make about their capacity  for learning?", 
  "Do we ask why their performance  is worse?", 
  "Stopping with only an examination of  the symptoms often leads too easily to a focus  on student characteristics as the cause.", 
  "Blanket statements about the low performance  of certain groups of students in our schools  without mentioning the underlying causes may  reinforce prejudices and stereotypical images.", 
  "such prejudices are not uncom-  Unfortunately,  mon, with some authors even claiming that  Latino and African American students are less  teachable.", 
  "For example, Greene and Foster  (2004) state that being minority is a disadvan-  tage students bring to school and claim that as  the percentage of White (non-Hispanic) stu-  dents decreases in a school, the \"teachability  index\" decreases, too.", 
  "In developing a better understanding of the  problem of low achievement in mathematics, I  first present data that show striking and persist-  ent differences in performance on state and  national assessments between different groups  of students in our schools.", 
  "Following this  description of the symptom, I examine data  related to opportunities to learn in an effort to  better understand the underlying causes of the  \"achievement gap.\"", 
  "These data show that  \n\nThis content downloaded from 98.176.112.184 on Tue, 10 Dec 2013 13:09:01 PM \nAll use subject to JSTOR Terms and Conditions \nExamining Disparities in Mathematics Education  \n\nAfrican American and Latino 12th graders  do math at same level as White 8th  \nstudents  \nWhite 8th  \nNAEP Average Scale Score  ~^^~  African American  -  -  -  Latino 12th  \n12th graders  \n\nSource: Wilkins et ah, 2006.", 
  "\u00a9The Education Trust Used with permission.", 
  "Figure 1.", 
  "NAEP performance for different groups.", 
  "Scale score  \n* -  \u25a0\"   \n:309!312!312!313 J315  \n;2i  ;26 \\i7 \u0017  ;3i  \ni  i  i  i  \nI  i  I  I  I  \n1992  1996  \n;Q1Q White  ;28  Score gap  I285 African  America:  \n1978  1982  1986  1990  1994  \nSource: Perie, Moran, & Lutkus, 2005, p. 42  Figure 2.", 
  "Mathematics score gap between 12th grade White students and African American  \nstudents, 1978-2004.", 
  "This content downloaded from 98.176.112.184 on Tue, 10 Dec 2013 13:09:01 PM \nAll use subject to JSTOR Terms and Conditions \n\fThe High School Journal - October/November 2007   These data make clear that students from some  groups are not learning as much in our schools  as students from other groups.", 
  "This can often  lead people to jump to the conclusion that  group characteristics are to blame.", 
  "Researchers  have studied several aspects outside the school  system to try to explain the differences in  school achievement among various popula-  tions, such as  differences in  intelligence  (Jensen, 1969; Bodmer & Cavalli-Sforza, 1973),  poverty and deprivation (Guo, 1998), cultural  disadvantage and deprivation (Carter, 1970),  cultural and language discontinuities (Ogbu &  Matute-Bianchi, 1986), and the quality of the  family's life style (Clark, 1983).", 
  "I argue, howev-  er, that it is important to analyze the practice  and the structure of classrooms, schools, and  districts to seek responses to two important  questions: Why do such disparities in school  achievement exist?", 
  "and What are the causes of  these gaps?", 
  "The Opportunity Gaps  Shifting the frame from looking at measures of  educational outcomes to examining what stu-  dents actually experience in schools results in a  very different way of describing disparities  among students in schools.", 
  "This new frame  calls attention to the fact that African American  and Latino students are less likely than White  students to have teachers who emphasize high  quality mathematics instruction, and appropri-  ate use of resources.", 
  "For example, African  American and Latino students are less likely  than White students to have access to:  \u2022  teachers who emphasize reasoning and non-  \nroutine problem solving;  \nqualifications, is inequitably distributed by eth-  nic groups and economic class.", 
  "Classes in  schools serving mostly African American and  Latino students are twice as likely to be taught  by inexperienced teachers (with three years of  experience or less) as classes at schools where  there is a majority of White students (Wilkins et  al, 2006).", 
  "Classes in high poverty schools are  also more likely to have inexperienced teachers.", 
  "The percentage of inexperienced teachers in  low poverty schools is 11% whereas in high  poverty schools it is 20% (Mayer, Mullens, &  Moore, 2000).", 
  "Looking at teacher qualifications, the least pre-  pared teacher recruits are disproportionately  found in under-resourced, hard-to-staff  serving predominantly low-income and minor-  ity students in central cities and poor rural  areas.", 
  "Thus, students who most need highly  skilled teachers are least likely to have them,  further magnifying inequalities (Darling-  Hammond, 2001).", 
  "For example, in California,  the percentage of under-prepared teachers in  mathematics (who do not hold full credentials)  rises as the percentage of minority students  increases (see Figure 3) (Esch et al., 2005).", 
  "Out-of-field teaching - teachers who do not  have at least a minor in the subject area they  teach - has been a problem in mathematics for  quite some time, and improvement has been  slow.", 
  "More classes in high poverty schools are  taught by out-of-field teachers (34%) than in  low poverty schools (19%).", 
  "Classes in high  schools and middle schools with high percent-  ages of Latino and African- American students  are also more likely (29%) to be taught by teach-  ers who lack even a minor in the subject area  compared to schools with low percentages of  minority students (21%) (Jerald, 2002).", 
  "For core  academic classes taught by of out-of-field teach-  ers between 1994 and 2000, the percentages in  low-poverty and  low-minority schools  remained essentially unchanged.", 
  "However,  there was a significant increase in the percent-  ages of core academic classes taught by out-of-  field teachers, from 29.0% to 33.6% in high-  poverty schools, and from 24.5% to 29.2% in  high-minority  \nschools (Jerald, 2002).", 
  "\u2022  computers; and,  \u2022  teachers who use computers for simulations  \nand applications (Strutchens & Silver, 2000)  \nThe data that follow describe how African  American and Latino students are less likely to  have access to qualified and experienced teach-  ers, are more likely to face low expectations,  and are less likely to receive equitable per stu-  dent funding.", 
  "Access to Experienced and Qualified Teachers  Teacher quality, as measured by experience and  \n\nThis content downloaded from 98.176.112.184 on Tue, 10 Dec 2013 13:09:01 PM \nAll use subject to JSTOR Terms and Conditions \nExamining Disparities in Mathematics Education  \nFigure 3.", 
  "Percentage of mathematics teachers who are under-prepared versus schools'  \npercentage of minority students.", 
  "Opportunity to Benefit from High Expectations  for Achievement  While about 88% of teachers are White, more  than one-third of the students in the U.S. are  ethnically and culturally diverse (Ladson-  Billings, 2005).", 
  "In states like California and  Texas, and in many of the largest school dis-  tricts across the country, \"minority\" students  are now over 50% of the student population.", 
  "Often, students whose ethnic or cultural back-  ground differs from that of their teachers are put  in situations where the teacher assumes deficits  in the students, rather than locating and teach-  ing to their strengths, such as resilience, eager-  ness, energy, and creativity.", 
  "Teachers may  attribute the failure of a student to thrive intel-  lectually to a deficit in the student rather than a  deficit in their own teaching.", 
  "As a consequence,  teachers may be teaching less when they should  be teaching more (Delpit, 1992).", 
  "Linda Bol and  Robert Berry (2005) found that middle and high  school teachers were most likely to \"attribute  the achievement gap to student characteristics  such as differences in motivational levels, work  ethic, and family support\" (p. 32).", 
  "Many mathematics teachers fail to use the cul-  ture of African American students in instruc-  tion.", 
  "This can result in a school culture that is  \nalienating to many African American students  and inconsistent with their own cultural expe-  riences, dreams, hopes and struggles (Malloy,  1997).", 
  "The same could be said for many Latino  students.", 
  "As Lynne Getz (1997) points out, peo-  ple from different ethnic backgrounds may  experience an entirely different relationship  with the public schools.", 
  "While White students  may feel nurtured, enriched, and included,  Latinos may experience \"ostracism, alienation,  and neglect\" (Getz, p. ix).", 
  "Teachers' beliefs  about student capabilities and home environ-  ments can lead to a sense of helplessness on the  part of the teacher.", 
  "This helplessness can then  result in lower expectations, ineffective teach-  ing, and reinforced stereotypes (Irvine & York,  1993).", 
  "Low expectations lead in turn to fewer  opportunities for students to learn more chal-  lenging and advanced mathematics.", 
  "Different expectations for different students are  often reflected in the ways teachers teach and  test.", 
  "In the research of Madaus et al.", 
  "(1992), it  was found that teachers with at least 60%  African American or Latino students in their  classes were far more likely to spend classroom  time using multiple-choice testing and other  means of assessing low-level cognitive objec-  tives than teachers who had a majority of White  \nThis content downloaded from 98.176.112.184 on Tue, 10 Dec 2013 13:09:01 PM \nAll use subject to JSTOR Terms and Conditions \n\fThe High School Journal - October/November 2QQ7   students in their classrooms.", 
  "Teachers also may  not give all students the same type of feedback.", 
  "Raymond Buriel (1983) found that even after  controlling for socioeconomic status, achieve-  ment, and English proficiency, \"Mexican-  American children received less teacher affir-  mation following correct responses than their  Anglo-American classmates\" (p. 894).", 
  "Giving high grades for work that in other  schools would earn lower grades or would be  more appropriate for younger students is anoth-  er form in which low expectations are manifest.", 
  "A study by Abt Associates (1993) (as cited by  Haycock, 2006) found such a pattern correlated  to income levels (see Figure 4).", 
  "This practice  can have a devastating effect when a student  who has earned all As in mathematics in her  school has to compete with students from  schools with higher expectations and becomes  fully aware of the inadequacy of her academic  preparation.", 
  "Middle schools and junior high schools more  often place African American and Latino stu-  dents in remedial mathematics programs, so  they are more likely to learn fewer topics and  skills (Oakes, 1990, p. 161).", 
  "Unfortunately  not unusual to see African American and Latino  students placed in low tracks even in cases  where their standardized test scores or other  measures of talent are equal to or better than  their White  or  Asian  American peers  (Education Trust as cited by Love, 2002, p. 258).", 
  "Jeannie Oakes (1995) found that in San Jose  \"African-American and Latino students were  much less likely than white or Asian students  with the same test scores to be placed in accel-  erated courses\" (p. 686).", 
  "For example, only 56  percent of Latinos scoring between 90 and 99  NCEs (Normal Curve Equivalent) were placed  in accelerated classes, while 93 percent of  Whites and 97 percent of Asian Americans with  the same NCEs scores were admitted to these  \nFigure 4.", 
  "Students in poor schools receive As for work that would earn Cs in affluent  \nschools.", 
  "This content downloaded from 98.176.112.184 on Tue, 10 Dec 2013 13:09:01 PM \nAll use subject to JSTOR Terms and Conditions \n\fExamining Disparities in Mathematics Education  \n\nclasses (Oakes, 1995).", 
  "Susan Dauber, Karl  Alexander, and Doris Entwisle (1996) found  that African American sixth graders were \"more  likely to be in remedial than in regular mathe-  matics, even when academic history and edu-  cational expectations were controlled\" (p. 299).", 
  "Likewise, African American and Latino stu-  dents are less likely to be identified as capable  learners and placed in enriched or accelerated  programs.", 
  "For example, Maximino Plata,  William Masten and Jerry Trusty (1999) found  that teachers in a school with a mixed popula-  tion of students (Hispanic and Anglos) would  nominate Anglo students for gifted programs in  significantly higher proportions than Hispanic  students in all four areas (intelligence, leader-  ship, academic achievement and creativity),  and even Hispanic students who were nominat-  ed to gifted and talented programs were per-  ceived by teachers to have less potential than  their nominated Anglo peers.", 
  "This is not an iso-  lated case.", 
  "In 2000, 32% of White 8th-graders  were in what teachers considered high ability  classes, but only 16% of Latino and 16% of  African American 8th-graders were in such  classes (Strutchens, Lubienski, McGraw, &  Westbrook, 2004).", 
  "Consequently, African  American and Latino students have fewer  opportunities to learn high levels of mathemat-  ics than their White peers.", 
  "Enrollment of African American and Latino stu-  dents in 8th-grade courses that determine to a  great extent whether they will have the oppor-  tunity to take advanced mathematics (pre-cal-  culus and calculus) before they graduate from  high school is significantly lower than that of  European American students.", 
  "Only 49%  of  Latinos and 47% of African American students  have taken prealgebra or algebra in 8th grade  compared to 68% of European American stu-  dents (Strutchens et al., 2004).", 
  "Often African  American and Latino students are tracked out of  advanced mathematics courses based on false  assumptions.", 
  "Love (2002) quotes an urban high  school mathematics teacher:  \nWe thought we were tracking students in  or out of higher-level mathematics courses  by their ability.", 
  "Then we looked at the data  on student achievement on standardized  tests.", 
  "We learned that African American  and Latino students who scored as high as  white students were getting tracked out of  college-level courses, (p. 3)  \nOnly 22%  of Latino and 25%  of African-  American high school graduates were enrolled  in the college track courses at their high schools  (Wilkins et al., 2006).", 
  "In addition, track assign-  ment is not the only factor leading to differences  in course-taking.", 
  "At many schools with large  numbers of students from low socioeconomic  status backgrounds, even students in college  preparatory programs typically take fewer aca-  demic classes (Oakes, 1990).", 
  "This is a result of  the fact that not all schools offer the same num-  ber of options for advanced courses in mathe-  matics.", 
  "For instance, in California, regardless of  high school size, the number of Advanced  Placement courses decreases as the percentage  of African Americans and Latinos in the school  population increases (Oakes, Joseph, & Muir,  Opportunities to Receive Equitable per Student  In many places in the U.S., school funding is  based mainly on local property taxes.", 
  "Thus  schools in districts with a large number of well-  to-do people have more funds per student than  schools in districts with a large number of peo-  ple in poverty.", 
  "For example, the difference of  per-student expenditure in the City of New York  and other parts of the state was so big that the  state was sued to allocate funds for students in  more equitable ways.", 
  "Recently the state's high-  est court ruled that New York City should be  allocated at least $1.93 billion more per year.", 
  "Although this is far less than the $4.7 billion set  by a lower court (Herzenhorn, 2006), it is a clear  indication that the funds allocated for students  in the city were not sufficient.", 
  "This content downloaded from 98.176.112.184 on Tue, 10 Dec 2013 13:09:01 PM \nAll use subject to JSTOR Terms and Conditions \n\fThe High School Journal - October/November 2007   Additionally, in many places a large proportion  of African American and Latino students live in  districts with less funding available.", 
  "According  to NAEP data from 2000, only 3% of White 8th-  graders are in schools where more than 75% of  students qualify for free or reduced-price lunch,  whereas 34% of African American and 34% of  Latino 8th-graders are  in  such  schools.", 
  "Conversely, a higher percentage of White 8th-  graders attend schools with less poverty.", 
  "The  majority of White 8th-graders (64%) attend  schools with less than one quarter of the stu-  dents being eligible for free or reduced price  lunch, but only 15% of African American and  25% of Latino 8th-graders do so (Strutchens et  al., 2004 p. 281).", 
  "School districts that educate  the greatest number of African- American and  Latino students receive less local and state  money to educate them than the districts serv-  ing the fewest number of minority students  (Wilkins et al., 2006).", 
  "Students in schools with  \nfewer resources are not always aware of how  other schools provide better learning tools such  as up-to-date books, science laboratories, mate-  rials for experiments, and access to technology  within the classroom (Fine, Bloom, & Chajet,  Table 1 shows per student spending for two dis-  tricts in each of several metropolitan areas.", 
  "For  each district the percentage of students who are  African American or Hispanic, and the percent-  age of low-income students is also provided  (Kozol, 2005).", 
  "The pattern is unmistakable.", 
  "In  each metropolitan area, the higher the percent-  age of Latino and African American students,  the lower the per student spending.", 
  "In some  cases, the per student spending in a low-minor-  ity district is twice as much as in the district  with large numbers of African American or  Latino students.", 
  "School District  \nSpending per  \n\n% Hispanic +  \nAfrican American  \n\nMetropolitan  Chicago area  \nPhiladelphia  \nDetroit area  \nHighland Park and  Deerfield (HS)   Lower Merion   Philadelphia  Bloomfield Hills   \n\n$17,261   $12,825   \nMilwaukee area  Maple Dale - Indian  \nBoston area  \nHill (K-8)   Milwaukee  Lincoln (K-8)   Lawrence  New York City  Manhasset   Table 1.", 
  "Per student spending in several metropolitan areas 2002-2003.", 
  "Adapted from  \n$12,775   $22,311   \n\nNew York City  \nKozol, 2005, pp.", 
  "321-24.", 
  "This content downloaded from 98.176.112.184 on Tue, 10 Dec 2013 13:09:01 PM \nAll use subject to JSTOR Terms and Conditions \n\nOften, schools with more low-income students  and/or a large proportion of Latino or African  American students have problems retaining  highly qualified teachers.", 
  "Teacher pay plays a  role since  districts with fewer financial  resources are not able to compete with teachers'  salaries in wealthier districts.", 
  "Who would  blame a teacher who needs to care for her or his  family for moving to another school district  where the pay is better?", 
  "At the time the state of  New York was sued over inequitable funding  for education, the plaintiffs pointed out that the  starting salary for New York City teachers was  about 25% less than starting salaries in wealthy  suburban counties (Goodnough, 1999).", 
  "Furthermore, the problem of unequal funding  also exists within districts.", 
  "Schools with a larg-  er proportion of minority or low-income stu-  dents within the same district often also receive  less funding per student from the district in  terms of teacher pay.", 
  "For instance, in Baltimore  City Schools there are significant differences in  the real costs of teachers' salaries between  schools.", 
  "While the district average was $47,178,  in one school the average salary of the teachers  was only $37,618, and at another school the  average was more than $57,000 (Roza & Hill,  2004).", 
  "Thus, the teacher expenditure per stu-  dent is very different from school to school.", 
  "Consistently, high-poverty and low-performing  schools are staffed with teachers whose salaries  are lower than average.", 
  "This happens because  as more experienced teachers migrate from one  school to another they take their higher salaries  with them.", 
  "More experienced teachers tend to  migrate to schools with a larger proportion of  European American students, less poverty, and  better performance on state mandated tests  (Roza & Hill, 2004; Wiener, 2006).", 
  "Schools with  high needs are thus left with the least experi-  enced and least paid teachers.", 
  "This example is not an isolated incident.", 
  "In  many urban districts there are huge differences  in average salaries for teachers from one school  to another.", 
  "This inequity is not transparent due  to the fact that urban districts calculate school  budgets using average teacher costs.", 
  "Thus a  school with a staff consisting of mainly senior  teachers with higher salaries does not appear in  the official budget as receiving more money  \nExamining Disparities in Mathematics Education  than another school that is staffed mainly by  beginning teachers with lower salaries.", 
  "As a  result, the fact that teacher expenditure per stu-  dent is very different from school to school is  effectively masked.", 
  "Unfortunately the schools  that are shortchanged in this way typically have  a large proportion of children in poverty and  those that benefit from this budgeting system  have a larger proportion of wealthier students.", 
  "By using average costs for the school budgets,  districts hide the fact that they are taking away  from the poor to benefit the rich.", 
  "For many  years, federal programs that allocate funds that  are meant to supplement and not supplant have  ignored this practice.", 
  "Roza and Hill (2004) point  out, \"Current Title I legislation allows districts  to use average salary figures when comparing  expenditures among schools....", 
  "Districts were  henceforth allowed  to  maintain major  inequities in school funding, as long as these  were driven by teacher allocation\" (p. 212 and  By casting light on the inequities of opportuni-  ty faced by low income and African American  and Latino students - less access to experienced  and well qualified teachers, less access to high  teacher expectations, and less per student fund-  ing for their schools - the achievement gap is  better understood as  a  manifestation of an  underlying cause - the opportunity gap.", 
  "Any  viable solution to the problem of differential  achievement in mathematics must address  these inequities of opportunity.", 
  "The question  then becomes, what can be done to close these  gaps in opportunities?", 
  "Providing Equitable Opportunities  Actions within the Classroom  The  position of the National Council of  Teachers of Mathematics (NCTM) with respect  to closing the achievement gap is that all stu-  dents \"should have equitable and optimal  opportunities to learn mathematics free from  bias,\" and that \"all students need the opportu-  nity to learn challenging mathematics from a  well-qualified teacher who will make connec-  tions to the background, needs, and cultures of  all learners\" (NCTM, 2005).", 
  "The solution is thus  framed as opportunity to learn.", 
  "As a profession-  al organization of teachers, it is natural that  NCTM stresses the impact that effective teach-  \nThis content downloaded from 98.176.112.184 on Tue, 10 Dec 2013 13:09:01 PM \nAll use subject to JSTOR Terms and Conditions \n\fThe High School Journal - October/November 2007   ers can have.", 
  "Qualified teachers who are com-  mitted to the learning of their students are the  single most important factor for students' suc-  cess.", 
  "As can be documented by multiple exam-  ples, teachers can make a big difference.", 
  "Richard Kitchen (2007a) describes several  examples of schools that are consistently high  achieving, especially in mathematics, and that  serve low-income students from many different  ethnic backgrounds.", 
  "In these schools teachers  have high expectations and offer sustained sup-  port for academic excellence.", 
  "Teachers make  teaching and learning their priorities to support  high academic expectations; they provide sup-  plemental support for student learning; and  they regularly review basic skills learned in the  past.", 
  "These schools have a  great variety of  teaching resources to support their teaching;  and provide regular access to professional  development opportunities for their teachers  (Kitchen, 2007b).", 
  "These examples demonstrate  that there is nothing intrinsic to the students'  backgrounds or cultures that would prevent  them from achievement.", 
  "All they need are  opportunities to learn mathematics with quali-  fied and committed teachers supported by their  schools.", 
  "Marilyn Strutchens (2000, pp.", 
  "10-11) describes  a  series of effective strategies for teaching  African American students.", 
  "These strategies  would benefit students from all backgrounds,  but they are especially important for students  from groups that are underserved by traditional  school practices.", 
  "These strategies are:  \u2022  Help students develop a relational under-  \nstanding of concepts.", 
  "\u2022  Enable students to use mathematics as a tool  for examining issues related to race, ethnici-  ty, gender, and social class.", 
  "\u2022  Create classroom environments where stu-  dents are able to find and justify their solu-  tions, as well as question other students  about their responses to the same or different  questions.", 
  "However, all too often many of these techniques  are not present in classes with large numbers of  African American or Latino students, or in schools  with high numbers of low-income students.", 
  "Many African American students \"learn from  direct contact with teachers and peers and take  a  holistic, relational, and intuitive stance\"  (Malloy, 1997, p. 28).", 
  "Teachers need to expand  and use instructional materials and teaching  approaches that will benefit such students.", 
  "Teaching strategies that provide opportunities  for students to learn cooperatively rather than  competitively will allow students to use their  cultural background to  their advantage.", 
  "Through writing and oral presentations, stu-  dents can have opportunities to use their  unique ways of expression (Malloy, 1997).", 
  "Assigning homework, and expecting students  to do it can also have a positive effect.", 
  "There is  a  clear positive correlation between doing  homework and performance on the NAEP test.", 
  "The average scale score for students who never  do homework is 289, for students who some-  times do homework it is 296, and for students  who often do homework it is 312 (Perie, Moran,  and Lutkus, 2005).", 
  "Teachers need to be aware  that doing homework is important, but also be  aware of special circumstances that some of the  students face.", 
  "Some teachers meet both needs  by providing flexibility as to when the home-  work is due, but still expecting the work to be  Actions beyond the Classroom  Solving the problem of out-of-field teaching  needs action at the school and district levels.", 
  "Part of the problem is due in some places to a  shortage of qualified teachers in mathematics.", 
  "However, a considerable part of the problem,  about half, could be solved with the present  cadre of teachers by assigning teachers to teach  in their field of expertise (Jerald, 2002).", 
  "Students need the opportunity to take more  advanced level courses in mathematics.", 
  "Not  surprisingly, students who take more advanced  mathematics courses do better on tests (Figure  5).", 
  "However, participation in more advanced  mathematics courses in high school is uneven  among groups of different ethnic backgrounds  (Figure 6).", 
  "\u2022  Help students develop number sense.", 
  "\u2022  Express a deep belief in the capabilities of  \nstudents.", 
  "This content downloaded from 98.176.112.184 on Tue, 10 Dec 2013 13:09:01 PM \nAll use subject to JSTOR Terms and Conditions \nExamining Disparities in Mathematics Education  \nFigure 5.", 
  "Mathematics scores for students, age 17, by highest mathematics course  \ntaken, 2004  \nFigure 6.", 
  "Percentage of students, age 17, by race/ethnicity and highest mathematics  \ncourse taken, 2004  \n\nThis content downloaded from 98.176.112.184 on Tue, 10 Dec 2013 13:09:01 PM \nAll use subject to JSTOR Terms and Conditions \n\fThe High School Journal - October/November 2007   We need to encourage and expose students from  all backgrounds to opportunities to take more  advanced courses.", 
  "Jeannie Oakes (1990) reports  that girls and students from minority groups  usually receive less encouragement and have  fewer science- and math-related opportunities  both in school and out than do White males.", 
  "However, when girls and students from minori-  ty groups receive encouragement and are  exposed to opportunities, they show interest  and participate.", 
  "Thus, we may be able to  increase their participation in more advanced  courses with school conditions and focused  interventions that encourage students and pro-  vide them with opportunities to learn mathe-  matics and science (Oakes, 1990).", 
  "In their study of schools that were highly suc-  cessful educating students of poverty, especial-  ly in mathematics, Kitchen, DePree, Celedon-  Pattichis, & Binkerhoff (2007) identified three  salient characteristics they shared:  \n(a) high expectations and sustained support  for academic excellence, (b) challenging  mathematical content and high-level mathe-  matics instruction that focused on problem  solving and sense making (as opposed to rote  instruction), and (c) the importance of build-  ing relationships, (p. xiv)  \nOther studies have also found that relationships  with family, friends, and teachers are especially  important for students' academic success.", 
  "Sharon Whitehead (2006) conducted a  case  study of highly successful mathematics stu-  dents who came from a background of poverty.", 
  "From the perspective of these students, the  most important factors in their success were  relational in nature: high expectations, support,  and empowerment.", 
  "Actions beyond the School  In order to guarantee that the students with the  most needs have experienced and well-quali-  fied teachers requires action at the district, state,  and federal levels to rectify inequities in per  student funding, teacher assignment, student  placement in mathematics, and access to  advanced mathematics coursework.", 
  "There can  be no real equity of opportunity to learn as long  as the \"savage inequalities\" in our schools con-  tinue to exist (Kozol, 1991).", 
  "Final Comments  Often, inequalities in achievement are per-  ceived as the result of a hierarchy of compe-  tence.", 
  "When the very students who have been  given more opportunities to learn show higher  achievement than students provided fewer  opportunities to learn, they are perceived as  more capable or having more aptitude.", 
  "This  manner of talking about achievement gaps  without mentioning the opportunity gaps that  cause them invites a focus on the students who  lag behind and draws on deficit models to  \"explain\" low performance in terms of factors  such as cultural differences, poverty, low levels  of parental education, and so on.", 
  "Refraining the  problem in terms of opportunity gaps focuses  attention on examining the lack of access to the  very resources that contribute to the success of  more privileged students.", 
  "This focus clarifies  what actions need to be taken to guarantee that  all students do indeed have opportunities to  receive a  high quality education.", 
  "As many  examples across the nation show, when given  the opportunity, students from any cultural or  ethnic background and any socioeconomic  level can excel (Kitchen et al., 2007).", 
  "Elizabeth Cohen (2000) stresses that to address  equality of educational opportunity we need to  take into account both the big picture of the  social location of a classroom \"in relationship to  inequalities in the larger society and in the  organization of the school\" (p. 265), as well as  \"the experiences of students within schools and  classrooms\" (p. 265).", 
  "Of course, schools alone  cannot redress all the inequities in opportuni-  ties students face in society.", 
  "As Robert Evans  (2005) points out, schools can only be a part of  a solution, but schools must be part of the solu-  tion.", 
  "Inequities in society cannot be ameliorated  without the full participation of the schools and  a clear understanding of the problem."
 ]
}