{
 "document_id": "77ed483b056d4e5eaf3f2bb7195e7d22", 
 "sentences": [
  "I S S U E S & A N S W E R S \nR E L   2 0 11 \u2013 N o .", 
  "1 0 0 \nAt Edvance Research, Inc.", 
  "Applying an  on\u2011track indicator  for high school  graduation: adapting  the Consortium  on Chicago  School Research  indicator for five  Texas districts \n\fI S S U E S&ANSWERS \nR E L   2 011 \u2013 N o .", 
  "10 0 \nAt Edvance Research, Inc.", 
  "Applying an on\u2011track indicator for  \nhigh school graduation: adapting the  \nConsortium on Chicago School Research  \nindicator for five Texas districts \nJanuary 2011 \nPrepared by \nJenifer Hartman, Ed.D.", 
  "Regional Educational Laboratory-Southwest \nChuck Wilkins, Ph.D.", 
  "Regional Educational Laboratory-Southwest \nLois Gregory, M.A.", 
  "Regional Educational Laboratory-Southwest \nLaura Feagans Gould, Ph.D.  \nAcademy for Educational Development \nStephanie D\u2019Souza, B.A.", 
  "Academy for Educational Development \nAt Edvance Research, Inc.  \nIssues\t&\tAnswers\tis\tan\tongoing\tseries\tof\treports\tfrom\tshort-term\tFast\tResponse\tProjects\tconducted\tby\tthe\tregional\teduca- tional\tlaboratories\ton\tcurrent\teducation\tissues\tof\timportance\tat\tlocal,\tstate,\tand\tregional\tlevels.", 
  "Fast\tResponse\tProject\ttopics\t change\tto\treflect\tnew\tissues,\tas\tidentified\tthrough\tlab\toutreach\tand\u00a0requests\tfor\tassistance\tfrom\tpolicymakers\tand\teduca- tors\tat\tstate\tand\tlocal\tlevels\tand\tfrom\tcommunities,\tbusinesses,\tparents,\tfamilies,\tand\tyouth.", 
  "All\tIssues\t&\tAnswers\treports\t meet\tInstitute\tof\tEducation\tSciences\tstandards\tfor\tscientifically\tvalid\tresearch.", 
  "January\t2011\t \nThis\treport\twas\tprepared\tfor\tthe\tInstitute\tof\tEducation\tSciences\t(IES)\tunder\tContract\tED-06-CO-0017\tby\tRegional\tEduca- tional\tLaboratory\tSouthwest\tadministered\tby\tEdvance\tResearch.", 
  "The\tcontent\tof\tthe\tpublication\tdoes\tnot\tnecessarily\treflect\t the\tviews\tor\tpolicies\tof\tIES\tor\tthe\tU.S.\tDepartment\tof\tEducation\tnor\tdoes\tmention\tof\ttrade\tnames,\tcommercial\tproducts,\tor\t organizations\timply\tendorsement\tby\tthe\tU.S.\tGovernment.", 
  "This\treport\tis\tin\tthe\tpublic\tdomain.", 
  "While\tpermission\tto\treprint\tthis\tpublication\tis\tnot\tnecessary,\tit\tshould\tbe\tcited\tas:\t \nHartman,\tJ.,\tWilkins,\tC.,\tGregory,\tL.,\tGould,\tL.\tF.,\tand\tD\u2019Souza,\tS.\t(2011).", 
  "Applying an on\u00adtrack indicator for high school  graduation: adapting the Consortium on Chicago School Research indicator for five Texas districts.", 
  "(Issues\t&\tAnswers\tReport,\t REL\t2011\u2013No.", 
  "100).", 
  "Washington,\tDC:\tU.S.\tDepartment\tof\tEducation,\tInstitute\tof\tEducation\tSciences,\tNational\tCenter\tfor\t Education\tEvaluation\tand\tRegional\tAssistance,\tRegional\tEducational\tLaboratory\tSouthwest.", 
  "Retrieved\tfrom\thttp://ies.", 
  "ed.gov/ncee/edlabs.", 
  "This\treport\tis\tavailable\ton\tthe\tregional\teducational\tlaboratory\tweb\tsite\tat\thttp://ies.ed.gov/ncee/edlabs.", 
  "REL 2011\u2013No.", 
  "100  \nApplying an on\u2011track indicator for  high school graduation: adapting the  Consortium on Chicago School Research  indicator for five Texas districts  \n\noff-track \nindicator \ndistricts \n\ndistricts, graduation \nracial/ethnic \nFailure\tto\tgraduate\tfrom\thigh\tschool\tis\ta\twide- spread\tproblem\tin\tthe\tUnited\tStates.", 
  "Although\t reporting\tmethods\tvary,\tone\trecent\testimate\t indicates\tthat\t73.2\tpercent\tof\tgrade\t9\tpublic\t school\tstudents\tgraduate\twithin\tfour\tyears\t (Stillwell\tand\tHoffman\t2008)\tand\tthat\tgradu- ation\trates\tare\tlower\tin\tdistricts\twith\thigher\t proportions\tof\tminority\tand\teconomically\t disadvantaged\tstudents\t(Swanson\t2004,\t2009).", 
  "Despite\tvariations\tin\treporting\tmethods,\tthere\t is\tenough\tagreement\tacross\tdatasets\tto\tcon- clude\t\u201cwith\treasonable\tconfidence\tthat\troughly\t three\tof\tevery\t10\tstudents\tin\tthe\tUnited\tStates\t are\tnot\tgraduating\tfrom\thigh\tschool\ton\ttime\u201d\t (Belfield\tand\tLevin\t2007,\tp.\t6).", 
  "The\toverall\tgraduation\trate\tin\tTexas\tis\tsimilar,\t at\t72.5\tpercent\t(Stillwell\tand\tHoffman\t2008),\t \nand\tstate\tofficials\thave\tmade\tincreasing\tthe\t proportion\tof\tstudents\twho\tgraduate\tfrom\t high\tschool\ta\thigh\tpriority.", 
  "Several\tinitiatives\t have\tbeen\testablished\tto\tidentify\tstudents\t who\tmay\tbe\tat\trisk\tof\tnot\tgraduating\ton\ttime\t (within\tfour\tyears\tof\tentering\tgrade\t9\tfor\tthe\t first\ttime),\tso\tthat\tdistrict\tand\tschool\tperson- nel\tcan\tintervene\tearly\tenough\tto\tsupport\t students\tbefore\tthey\tdrop\tout\tor\tfall\ttoo\tfar\tbe- hind\tto\tgraduate\t(Bill\t&\tMelinda\tGates\tFoun- dation\t2009;\tTexas\tHigh\tSchool\tProject\tn.d.).", 
  "These\tinitiatives\treflect\tresearch\tthat\tfocuses\t on\tthe\tsystematic\tuse\tof\tindicators\tto\tidentify\t students\twho\tmay\tbe\tat\trisk\tof\tnot\tgraduating.", 
  "Researchers\tfrom\tthe\tConsortium\ton\tChicago\t School\tResearch\t(CCSR)\thave\tdeveloped\tan\t indicator\tusing\tdata\tfrom\ta\tstudent\u2019s\tgrade\t 9\tyear\t(Allensworth\tand\tEaston\t2005).", 
  "CCSR\t compared\tChicago\tPublic\tSchools\tstudents\u2019\t course\tperformance\tin\ttheir\tfirst\tyear\tof\thigh\t school\twith\ttheir\tgraduation\trates\tfour\tyears\t later\tand\tclassified\tstudents\tas\ton\ttrack\tfor\ton- time\tgraduation\tbased\ton\ttwo\tcriteria:\tearning\t enough\tcredits\tto\tbe\tpromoted\tto\tgrade\t10\tand\t having\tno\tmore\tthan\tone\tsemester\t\u201cF\u201d\tin\ta\t core\tcourse\t(English,\tmath,\tscience,\tand\tsocial\t studies).", 
  "Students\twho\tfailed\tto\tmeet\teither\tor\t both\tof\tthese\tbenchmarks\twere\tclassified\tas\toff\t track.", 
  "The\tCCSR\tresearchers\tfound\ton-track\t \nstatus\tat\tthe\tend\tof\tthe\tfirst\tyear\tof\thigh\tschool\t to\tbe\ta\tmore\tuseful\tindicator\tof\twhether\tChi cago\tPublic\tSchools\tstudents\tgraduated\tfrom\t high\tschool\tin\tfour\tyears\tthan\tother\tindica tors\texamined,\tsuch\tas\tgrade\t8\ttest\tscores\tand\t students\u2019\tbackground\tcharacteristics\t(Allen sworth\tand\tEaston\t2005).", 
  "The\tcurrent\tstudy\tapplies\tthe\tCCSR\ton-track\t indicator\tin\tfive\tschool\tdistricts\tacross\tTexas.", 
  "Participating\tdistricts\twere\tselected\ton\tthe\t basis\tof\tprior\tcollaboration\twith\tthe\tresearch ers\ton\tanother\tproject\tinvolving\tearly\twarning\t indicators;\tthe\tdistricts\tare\tnot\trepresentative\t of\tdistricts\tin\tTexas.", 
  "A\ttotal\tof\t12,662\tstu dents\twere\texamined.", 
  "The\tCCSR\tcriteria\tused\t to\tdetermine\ton-track\tstatus\twere\tmodified\t to\treflect\tthe\tnumber\tof\tcredits\trequired\tfor\t promotion\tto\tgrade\t10\tin\teach\tparticipating\t Texas\tdistrict\tduring\tthe\t2004/05\tacademic\t year.", 
  "Because\tgraduation\trates\tdiffer\tfor\tspe cific\tstudent\tsubgroups,\tsuch\tas\tracial/ethnic\t minorities\tand\teconomically\tdisadvantaged\t students,\tthe\tstudy\tsought\tto\tdetermine\thow\t accurately\tthis\ton-track\tindicator\tdifferentiates\t between\tall\tstudents\twho\tdo\tand\tthose\twho\tdo\t not\tgraduate\ton\ttime\tand\tbetween\tstudents\tin\t specific\tstudent\tsubgroups\twho\tdo\tand\tthose\t who\tdo\tnot\tgraduate\ton\ttime.", 
  "This\treport\tanswers\ttwo\tresearch\tquestions:\t \n\u2022\t How\tdo\tstudents\twho\tare\tclassified\tas\ton\t track\tand\tthose\twho\tare\tclassified\tas\toff\t track\tat\tthe\tend\tof\tgrade\t9\tdiffer\tin\ton- time\tgraduation\trates?", 
  "\u2022\t How\tdo\tstudents\tin\tspecific\tsubgroups\t who\tare\tclassified\tas\ton\ttrack\tand\tthose\t who\tare\tclassified\tas\toff\ttrack\tat\tthe\tend\tof\t grade\t9\tdiffer\tin\ton-time\tgraduation\trates?", 
  "The\tresults\tof\tthe\tstudy\tindicate\tthe\tfollowing:\t \nIn\tall\tfive\tdistricts,\ta\tmajority\tof\tfirst-time\t grade\t9\tstudents\twere\ton\ttrack\tfor\tgradu ation\tat\tthe\tend\tof\tgrade\t9.", 
  "On-track\trates\t ranged\tfrom\t61.2\tpercent\tto\t86.0\tpercent.", 
  "In\tall\tfive\tdistricts,\ton-time\tgraduation\t rates\twere\thigher\tfor\tstudents\twho\twere\ton\t track\tat\tthe\tend\tof\tgrade\t9\tthan\tfor\tstu dents\twho\twere\toff\ttrack.", 
  "In\tfour\tdistricts,\t the\tdifference\tbetween\ton-time\tgraduation\t rates\tfor\ton-track\tand\toff-track\tstudents\t was\t36.1\u201351.7\tpercentage\tpoints;\tthe\tfifth\t district\thad\ta\tdifference\tof\t18.4\tpercentage\t \n\u2022\t Across\tdistricts,\tvariability\tamong\tracial/\t \nethnic\tgroups\twas\tgreater\tfor\toff-track\t graduation\trates\tthan\tfor\ton-track\tgradua tion\trates.", 
  "For\tall\tracial/ethnic\tgroups,\tthe\t on-time\tgraduation\trate\twas\thigher\tfor\ton- track\tstudents\tthan\tfor\toff-track\tstudents.", 
  "This\tstudy\tis\ta\tfirst\tstep\tin\thelping\tlocal\t districts\tand\tthe\tTexas\tEducation\tAgency\t develop\tan\ton-track\tindicator\tthat\taccurately\t differentiates\tat\tthe\tend\tof\tgrade\t9\tbetween\t students\twho\tdo\tand\tthose\twho\tdo\tnot\tgradu ate\ton\ttime.", 
  "Across\tthe\tdistricts,\tthe\ton-track\t indicator\tdifferentiated\tbetween\tstudents\twho\t do\tand\tthose\twho\tdo\tnot\tgraduate\ton\ttime,\tas\t seen\tby\tthe\thigher\ton-time\tgraduation\trates\t for\ton-track\tstudents.", 
  "However,\tit\tdid\tnot\tdif ferentiate\tto\tthe\tsame\tdegree\tas\tthe\toriginal\t CCSR\ton-track\tindicator\tstudy\t(Allensworth\t and\tEaston\t2005).", 
  "That\tstudy\tfound\ta\tdifferen tial\tof\t59\tpercentage\tpoints\tbetween\ton-time\t graduation\trates\tof\ton-track\tand\toff-track\t students.", 
  "(Note\tthat\tthe\tminimum\tnumber\tof\t credits\trequired\tto\tgraduate\tis\t24\tfor\tChicago\t \n\fPublic\tSchools\tand\t22\tfor\tTexas\tschools;\t Chicago\tPublic\tSchools\tn.d.;\tTexas\tEducation\t Agency\t2008d.)", 
  "Further\tresearch\tis\tneeded\tto\tdetermine\t whether\talternative\ton-track\tindicators\twould\t result\tin\tgreater\tdifferentiation\tfor\tthese\t Texas\tdistricts.", 
  "The\tresearch\twould\tbe\tsimi- lar\tto\tthe\tindicator\tdevelopment\twork\tof\tthe\t CCSR\tin\tChicago\tPublic\tSchools\tthat\texplored\t other\tpossible\tvariables\tfor\tuse\tin\tan\ton-track\t indicator\t(attendance\tdata\tand\tstudents\u2019\tgrade\t 8\tacademic\tperformance;\tPonder\tn.d.).", 
  "The\t research\tcould\talso\tinvestigate\twhether\tdif- ferent\ton-track\tindicators\tare\tneeded\tin\tTexas\t districts\twith\tdifferent\tprofiles\tof\tstudent\tchar- acteristics\t(for\texample,\turban/rural\tdistricts\t or\tdistricts\twith\thigher/lower\tpercentages\tof\t \nstudents\tparticipating\tin\tfree\tor\treduced-price\t lunch\tprograms)\tto\tmore\taccurately\tdifferenti- ate\tbetween\tstudents\twho\tdo\tand\tthose\twho\t do\tnot\tgraduate\ton\ttime,\tor\twhether\ta\tsingle\t on-track\tindicator\tcould\tbe\tused\tacross\tTexas.", 
  "The\tstudy\thad\tseveral\tlimitations.", 
  "Districts\t were\tnot\trandomly\tselected\tand\tare\tnot\trep- resentative\tof\tall\tTexas\tdistricts.", 
  "The\tfindings\t could\tdiffer\tin\tdistricts\tthat\thave\tnot\tbeen\t involved\tin\tprevious\tindicator\twork\tor\thave\t different\tprofiles\tof\tstudent\tcharacteristics.", 
  "Also,\tonly\tone\tversion\tof\tan\ton-track\tindicator\t was\tused.", 
  "The\tdegree\tof\tdifferentiation\tcould\t change\tif\tother\tversions\tof\tan\ton-track\tindica- tor\twere\tused.", 
  "Table of conTenTS  \nTAble of ConTenTS  \nWhy\tthis\tstudy?", 
  "The\tConsortium\ton\tChicago\tSchool\tResearch\ton-track\tindicator\t The\tcurrent\tstudy\t \nFindings\t \n\nPercentage\tof\tstudents\twho\tare\ton\ttrack\tand\toff\ttrack\t Overall\ton-time\tgraduation\trates\t How\tdo\tstudents\tclassified\tas\ton\ttrack\tor\toff\ttrack\tat\tthe\tend\tof\tgrade\t9\tdiffer\tin\ton-time\tgraduation\trates?", 
  "How\tdo\tstudents\tin\tspecific\tsubgroups\twho\tare\tclassified\tas\ton\ttrack\tor\toff\ttrack\tat\tthe\tend\tof\tgrade\t9\tdiffer\tin\t \non-time\tgraduation\trates?", 
  "Conclusions\t Limitations\tof\tthe\tstudy\tand\tsuggestions\tfor\tfuture\tresearch\t \nStudy\tlimitations\t Suggestions\tfor\tfuture\tresearch\t Study\tmethodology\t \nStudy\tdata\tand\tanalysis\t \nOn-time\tgraduation\trates\tfor\tfirst-time\tgrade\t9\tstudents,\t2004/05\u20132007/08\t On-time\tgraduation\trates\tby\ton-track\tand\toff-track\tstatus,\t2004/05\u20132007/08\t \nAppendix\tA\t Appendix\tB\t District\tprofiles\t Appendix\tC\t Off-track\tanalysis"
 ]
}