{
 "document_id": "7829002780282260501", 
 "sentences": [
  "Secondary school teachers\u2019 attitudes towards and beliefs about  \nability grouping   \nRunning head: Teachers\u2019 beliefs about ability grouping  \nSusan Hallam and Judith Ireson,  Institute of Education, University of London  \nContact: Susan Hallam, Institute of Education, University of London, 20 Bedford  \nWay, London WC1H OAL  \nPhone 0207 612 6371  \nFax 0207 612 6766   \nE-mail s.hallam@ioe.ac.uk or shallam@globalnet.co.uk  \nSecondary school teachers\u2019 attitudes towards and beliefs about  \nability grouping   \nAbstract  \nBackground.", 
  "Internationally  and  historically  considerable  research  has  been  \nundertaken  regarding  the  attitudes  of  secondary  school  teachers  towards  different  \ntypes  of  ability  grouping.", 
  "There  has  been  no  recent  research  taking  account  of  the  \nchanging educational context in the UK.", 
  "Aims.", 
  "This  paper  aims  to  explore  secondary  school  teachers\u2019  attitudes  and  beliefs  \nabout  ability  grouping  taking  account  of  school  type,  gender,  experience  and  \nqualifications.", 
  "Sample.", 
  "The sample comprised over 1500 teachers from 45 schools divided into three  \ngroups based on their ability grouping practices in years 7-9.", 
  "The sample included all  \nthe lower school teachers of mathematics, science and English and a random sample  \nof teachers from other subjects in each school.", 
  "Methods.", 
  "Teachers  responded  to  a  questionnaire  which  explored  their  attitudes  \ntowards ability grouping through the use of rating scales and open ended questions.", 
  "Results.", 
  "The  findings  showed  that  the  teachers\u2019  beliefs  broadly  reflected  research  \nfindings  on  the  actual  effects  of  ability  grouping,  although  there  were  significant  \n\fdifferences  relating  to  the  type  of  school  they  taught  in  and  the  subject  that  they  \ntaught.", 
  "Separate  analysis  of  school  types  showed  that  length  of  time  teaching,  \nindividual  school  differences  and  teacher  qualifications  were  also  significant  \npredictors of attitudes.", 
  "Conclusions.", 
  "Teachers\u2019 beliefs about ability grouping are influenced by the type of  \ngroupings adopted in the school where they work, the subject that they teach, their  \nexperience and qualifications.", 
  "As pedagogical practices are known to be influenced by  \nbeliefs these findings have important implications for teacher training.", 
  "Secondary school teachers\u2019 attitudes towards and beliefs about  \nability grouping   \nIntroduction  \nEarlier studies of teachers' attitudes towards structured ability grouping in the USA  \n(NEA, 1968; McDermott, 1976; Wilson & Schmidts, 1978), Sweden (Husen and Boalt,  \n1967), the UK, (Daniels, 1961a, 1961b; Jackson, 1964, Barker-Lunn, 1970) and Israel  \n(Ministry of Education, 1965; Guttman et al, 1972) have revealed that teachers generally  \nhold positive attitudes towards teaching classes where pupils are grouped by ability,  \nalthough variations have been reported based on teachers' prior experience and the  \nsubject that they teach.", 
  "In the UK in the 1970s, when mixed-ability teaching was innovatory, teachers who had  \ndirect experience of it tended to hold more favourable attitudes towards it (Newbold,  \n1977; Reid et al, 1982).", 
  "The advantages of mixed ability teaching were seen largely in  \nsocial terms, while the disadvantage was perceived to be the difficulty of providing  \nappropriate work for pupils of high and low ability in the same class.", 
  "Those who were  \ncritical of mixed-ability teaching suggested that it failed to motivate and increase the  \nachievement of the highly able, although the less able were perceived to benefit.", 
  "Experienced teachers appeared to be more supportive of mixed ability teaching  \n(Clammer, 1985) but they often found it more difficult to put into practice than those  \nwho had been recently trained to adopt such practices (Reid et al., 1982).", 
  "Differences in teachers' attitudes towards mixed ability teaching have also been reported  \ndepending on the subject that they teach (Reid et al, 1982).", 
  "Humanities have tended to be  \nperceived as suitable for mixed ability teaching whereas mathematics and modern  \nforeign languages have tended to be perceived as inappropriate.", 
  "Scientists occupy a  \nmiddle position.", 
  "Those subjects where mixed ability teaching was perceived as  \nproblematic tended to require correct answers and a grasp of abstract concepts (Reid et  \nal., 1982).", 
  "Historically, teachers have indicated preferences for  teaching high ability groups  \n(Hargreaves, 1967; Lacey, 1970; Findlay & Bryan, 1975; Ball, 1981; Finley, 1984), in  \nsome cases competing against each other in order to be able to do so (Finley, 1984).", 
  "This may be because pupils in lower ability classes tend to have more negative attitudes  \ntowards school and often exhibit poor behaviour in the classroom which makes them  \nmore difficult to teach (Hargreaves, 1967; Schwartz, 1981; Finley, 1984; Taylor, 1993).", 
  "Certainly, teachers of high ability groups have tended to be more enthusiastic about  \nteaching (Rosenbaum, 1976) and have reported feeling more efficacious (Raudenbush,  \nRowan & Cheong, 1992).", 
  "However, this effect disappeared when the level of pupil  \nengagement was controlled.", 
  "Perhaps teachers find it difficult to generate interest in  \nlearning in pupils in lower ability groups and the resulting lack of engagement  \nundermines their sense of efficacy.", 
  "Other early research showed that teachers who  \nconsistently taught low ability groups tended to become demoralised over a period of  \ntime (Hargreaves, 1967; Finley, 1984).", 
  "Teachers' attitudes towards teaching low ability groups may have contributed to the  \nalienation of pupils in those groups.", 
  "Pupils from high ability groups tend to exhibit pro- \nsocial behaviour and it is this, rather than their academic achievement, which seems to  \nshape teachers' behaviour towards them (Hargreaves, 1967; Lacey, 1970; Ball, 1981;  \nFinley, 1984).", 
  "Teachers have also been shown to interact with high ability groups more  \nfrequently and positively than they do with low ability groups (Harlen and Malcolm,  \n1997; Sorenson and Hallinan, 1986; Gamoran and Berends, 1987).", 
  "However, in some  \nschools, presumably where the ethos is supportive of pupils of all abilities,  there is some  \nevidence that teachers of low stream students do view them positively (Burgess, 1983,  \n1984).", 
  "In the current UK educational context, where some teachers choose to specialise  \nin teaching those with special educational needs the situation may be different.", 
  "Much of the UK research cited above was undertaken when the educational system was  \nhighly selective; all pupils were assessed at age 11 and on the basis of their test  \nperformance either attended grammar or secondary modern schools.", 
  "In those schools the  \nmost commonly adopted system of pupil grouping was streaming, where pupils were put  \ninto classes on the basis of their overall ability.", 
  "When research demonstrated that  \nselection and streaming had little positive effect on academic performance and could be  \ndetrimental to the personal and social educational outcomes of some pupils (see Hallam  \nand Toutounji, 1997; Harlen and Malcolm, 1998; Sukhnandan and Lee, 1998, Ireson and  \nHallam, 1999 for reviews) the 11+ examination was largely abandoned and schools  \nmoved towards alternative forms of grouping pupils, banding, setting and mixed ability  \nteaching.", 
  "The aim of this research was to explore teachers\u2019 attitudes towards and beliefs  \nabout ability grouping within this changed educational context.", 
  "Methodology  \nA  stratified  sample  of  45  mixed  gender  secondary  comprehensive  schools  was  \nselected for the study, representing a range of grouping practices, intake and location  \nspreading  from  London  and  the  Southern  counties  of  England  to  East  Anglia  and  \nSouth Yorkshire.", 
  "The sample comprised three levels of ability grouping in the lower secondary school  \n(Years 7 to 9), with 15 schools at each level:  \n'Mixed  Ability  Schools'      predominantly  mixed  ability  classes  for  all  subjects,  with  \nsetting in no more than two subjects in Year 9.", 
  "'Partially Set Schools'    \nsetting  in  no  more  than  two  subjects  in  Year  7,  increasing  \nto a maximum of 4 subjects in Year 9.", 
  "'Set Schools'  \nstreaming, banding or setting in at least four subjects from  \nAll schools had received satisfactory inspection reports during the three years before  \nthe start of the project.", 
  "Steps were taken to balance the three groups of schools in  \nterms of their size and the social mix of their intake, using free school meals as an  \nindicator of social disadvantage.", 
  "The mixed ability schools had a slightly more  \nsocially disadvantaged intake than the Set Schools.", 
  "On average, the set schools were  \nslightly smaller than the other two groups.", 
  "There was good overlap across groups for  \nboth distributions.", 
  "Teacher data: All heads of department and all English, maths and science teachers of  \npupils  in  years  7,  8  and  9  and  a  sample  of  lower  school  teachers  of  other  subjects  \ncompleted  a  questionnaire.", 
  "The  questionnaire  explored  teachers'  attitudes  towards  \nability  grouping  and  their  perceptions  of  the  main  problems  in  teaching  ability  \ngrouped  and  mixed  ability  classes.", 
  "It  was  developed  from  the  findings  of  previous  \nresearch on teachers\u2019 attitudes towards ability  grouping.", 
  "A series of statements were  \ngenerated  and  piloted  with  a  group  of  teachers.", 
  "Those  which  were  reported  by  the  \nteachers  to  best  represent  their  views  and  which  discriminated  strongly  between  \ndifferent  attitudes  were  included  in  the  final  version  of  the  question.", 
  "The  statements  \nare set out in the tables of results.", 
  "Teachers responded on a five point rating scale to  \neach statement.", 
  "Open questions were also included which enabled teachers to express  \ntheir beliefs in their own words.", 
  "The sample : Data were collected from over 1500 secondary school teachers in the 45  \nsecondary comprehensive schools.", 
  "The questionnaires were completed during meetings  \nof staff which had been convened by the senior management team in each school.", 
  "This  \nensured a 100% response rate from teachers attending the meetings.", 
  "Twenty-three per  \ncent of the sample were between the ages of 20 to 29, 23% between 30 and 39, 35%  \nbetween 40 and 49 and 16% over 50.", 
  "Just over half of the sample were female (53%).", 
  "Most of the teachers were educated to degree level, 59% had a PGCE, 21% a Certificate  \nin Education and 13% a higher degree.", 
  "Findings  \n\fPerceived effects of different grouping systems on able children  \nIn the questionnaires teachers were asked to indicate the extent to which they agreed  \nwith a number of statements about the effects of ability grouping on more able pupils.", 
  "Table 1 provides details of the statements in the questionnaire and gives the overall  \nfrequency counts for all of the teachers in response to these statements.", 
  "It also  \nprovides a breakdown by type of school.", 
  "The responses showed that there was overall  \nagreement that setting ensures that brighter children make maximum progress and to a  \nlesser extent that setting prevents brighter children being inhibited by negative peer  \npressure.", 
  "There was much less agreement that bright children are held back in mixed  \nability classes.", 
  "There were significant differences in the responses to these questions  \nfrom teachers in each type of school.", 
  "Those in the set and partially set schools gave  \nresponses which demonstrated more positive attitudes towards ability grouping than  \nthose in schools where there was a greater proportion of mixed ability teaching.", 
  "Table 1 about here  \nIn response to the open questions, teachers volunteered their own views about the  \neffects of different types of ability grouping on able children.", 
  "Some illustrative  \nexamples are given below which are closely related to the first and third statements in  \nTable 1.", 
  "I have a few reservations about mixed ability teaching because the higher  \nability pupils are not stretched to their full potential.", 
  "However we do very  \n\fwell with the lower ability in the classroom.", 
  "(Science teacher, mixed  \nability school)    \nI would move towards more setting because it enables pupils\u2019 curriculum  \nneeds to be better matched, reduces brighter children being inhibited by  \npeer pressure or slower children having self esteem affected, increases  \nstudent (and teacher) motivation.", 
  "(Mathematics teacher, partially set  \nschool)   \nI have reservations about mixed ability practices.", 
  "One student in my tutor  \ngroup, a straight A student when he arrived in year 7, is now a school  \nrefuser because of bullying and negative peer attitudes towards him.", 
  "(Music teacher, mixed ability school)    \nPerceived effects of ability grouping on personal and social development   \nTable 2 gives a detailed account of the frequencies of the responses made in relation  \nto questionnaire statements relating to self-esteem, stigmatisation, children\u2019s  \nperceptions of their own ability, social adjustment and motivation.", 
  "There was overall  \ndisagreement with the statement that pupil self-esteem is unaffected by ability  \ngrouping but the responses to most statements were significantly differentiated by the  \ntype of school where the teacher worked.", 
  "Those working in schools where there were  \nmore mixed ability grouping procedures tended to view setting in a more negative  \nlight in relation to the social outcomes of education.", 
  "Table 2 about here  \nThe responses to the open questions supported the data from the rating scales.", 
  "Most  \nteachers were aware of the possible negative effects of highly structured ability  \ngrouping on self esteem and the way that mixed ability teaching might ameliorate  \nthem.", 
  "Illustrative examples are given below.", 
  "I believe that it is too early in year 7 to label pupils as bottom set.", 
  "This  \nwill have a negative effect on their self-esteem.", 
  "(Geography teacher, set  \nschool)    \nAll groups in this school are mixed ability.", 
  "The price paid for setting or  \nbanding is too high, i.e.", 
  "reduction in self-esteem, sink groups, fear of  \nfailure.", 
  "Students needs can be met successfully with good, well planned,  \ndifferentiated work with clear targets.", 
  "(Biology teacher, mixed ability  \nschool)    \nYears of experience have convinced me that this (mixed ability) is the  \nmost effective system academically, socially and personally.", 
  "High self- \nesteem is in my opinion at the heart of successful learning and living.", 
  "(English teacher, mixed ability school)    \nSome teachers highlighted the polarisation that could occur through the adoption of  \nrigid ability setting.", 
  "I have quite a lot of reservations about the current system (setting) as it  \nresults in social barriers and an ability class system within the school.", 
  "The  \nmore able pupils are seen as swots and squares and less able pupils are  \nseen as thickies, idiots, etc.", 
  "Stereotyping leads to low self-esteem in lower  \ngroupings and an air of arrogance with the able.", 
  "(Religious education  \nteacher, set school)    \nPerceived inequity of ability grouping   \nTable 3 displays the responses made by the teachers in relation to the equity of ability   \ngrouping structures.", 
  "Overall, there was a general tendency to disagree that setting  \nbenefited the more able pupils at the expense of the less able, that mixed ability  \nteaching in reality only benefited the average child  and that mixed ability teaching  \nbenefited the less able pupils academically at the expense of the more able.", 
  "There was  \nvery strong agreement that mixed ability classes provided the less able pupils with  \npositive models of achievement.", 
  "There were significant differences in responses to the  \nstatements between teachers working in schools adopting different ability grouping  \nstructures, particularly in relation to issues of opportunity and fairness.", 
  "Table 3 about here  \nPerceived effects of ability grouping on discipline and disaffection   \nTable 4 displays the responses to statements about the effects of different kinds of  \nability grouping on discipline and disaffection from school.", 
  "There was strong  \nagreement from teachers across all types of school that there were more discipline  \nproblems in the lower ability classes when setting procedures were adopted.", 
  "Opinion  \nwas divided as to whether there were more discipline problems in mixed ability  \nclasses.", 
  "Table 4 about here  \n In the responses to the open questions, teachers indicated that setting could have an  \nimpact on disaffection and several  suggested that mixed ability teaching could  \novercome this.", 
  "Mixed ability is best.", 
  "Pupils already know between them the ones with  \nlow and high ability.", 
  "Grouping them only serves to emphasise the lack of  \nability of those in the lower ability classes.", 
  "These pupils then become  \ndisaffected at a very early stage and  I would like to avoid or delay their  \ndisaffection to as late as possible.", 
  "(Mathematics teacher, mixed ability  \nschool)     \nI\u2019ve worked in several schools where there\u2019s heavy setting, ten sets, start  \nthe most able set 1 and the least able in 10.", 
  "Nobody wants to teach set 10,  \nwell probably sets 8, 9 and 10 don\u2019t feel very good about themselves at  \nall.", 
  "It often concentrates behaviour problems.", 
  "The kids tend to rattle  \n\n\faround in these groups of quite challenging youngsters for the whole of  \ntheir time, virtually from the minute they come into school and I think you  \nend up with a real problem about disaffection.", 
  "(English teacher, mixed  \nability school)   \nBeliefs about the effects of ability grouping on teaching   \nTeachers beliefs about the effects of ability grouping on their teaching are given in  \nTable 5.", 
  "There was no consensus  that setting leads to teachers ignoring the fact that a  \nclass always contains a range of abilities or that only very good teachers can teach  \nmixed ability classes successfully.", 
  "There was strong overall agreement that teaching  \nand classroom management are easier for the teacher when classes are set and that  \nsetting enables pupils\u2019 curriculum needs to be better matched, although there were  \nsignificant differences in responses from teachers working in schools adopting  \ndifferent grouping procedures.", 
  "Table 5 about here  \nSubject domains considered appropriate for mixed ability teaching    \nTeachers were asked which subjects they felt were suitable for teaching in mixed  \nability classes in years 7, 8 and 9, in years 7 and 8 only, in year 7 only or not at all.", 
  "Table 5 illustrates the responses.", 
  "English and humanities were the subjects considered  \nmost suitable for mixed ability teaching.", 
  "Those considered most unsuitable were  \n\fmathematics and modern foreign languages.", 
  "However, there was a tendency for those  \nteachers working in schools where mixed ability teaching was the grouping structure  \nin operation to support mixed ability teaching more than those in the schools with  \nmore setting.", 
  "Table 6 about here  \nFactors affecting attitudes to ability grouping   \nAn overall attitude to setting scale was created by summing responses to the  \nattitudinal statements described above.", 
  "Where necessary numerical responses were  \nreversed so that all responses were in a similar direction.", 
  "An overall high score  \nindicated a positive attitude towards setting.", 
  "The mean attitude to setting scores for teachers in the set and partially set schools  \nwere almost identical, 93.6 (SD = 16.4) (partially set) and 92.3 (SD = 15.1) (set).", 
  "The  \nmean for the mixed ability schools was much lower (84.6, SD = 18.5).", 
  "This difference  \nwas statistically significant (F = 37.02; df = 2,1348,  p = .0001).", 
  "There were no  \nsignificant gender or age differences in teachers\u2019 overall attitudes towards setting.", 
  "There were significant gender differences in response to only four statements.", 
  "These  \nwere very small and showed no consistent pattern.", 
  "Females agreed more strongly  \nthat setting stigmatised children perceived as less able (means: female 2.53, male 2.7;  \nt = 2.79, df = 1, 1454, p = .005 ).", 
  "There was stronger agreement among female  \nteachers that setting ensures that higher ability children make maximum progress  \n\fwhen setted (means: female 2.21, male 2.33; t = 2.1, df = 1,1463, p = .03).", 
  "Males  \nagreed more strongly that setting leads teachers to ignoring the range of abilities in the  \nclass (means: females 3.4, males 3.15; t = -4.3, df = 1, 1540, p = .0001) and that only  \nvery good teachers can teach mixed ability classes successfully (means: males 2.85,  \nfemales 3.0; t = -2.6, df = 1, 1534, p = .01 )    \nUsing the attitude to setting measure as the dependent variable, step wise multiple  \nregression was undertaken to establish which factors would best predict teachers\u2019  \nattitudes.", 
  "Two factors were found to be important.", 
  "The first was type of school, mixed  \nability, partially set or set, (standardised beta weight .225) the second was the subject  \ntaught (standardised beta weight .078).", 
  "This gave a multiple R of .239 accounting for  \nslightly more than 5% of the variance (F = 29.13, df = 2,962, p = .0001).", 
  "When multiple regression was undertaken for type of school separately, slightly  \ndifferent patterns emerged.", 
  "In the Set schools the significant predictors were the  \nindividual school (beta weight -.128) and the subject taught (beta weight .109) (R =  \n.167, F = %.14, df = 1,359, p = .006).", 
  "In the partially set schools length of time  \nteaching at the school was the only predictor ( beta weight .175) (R = .175, F = 9.36,  \ndf = 1,298, p = .002).", 
  "In the mixed ability schools the subject taught ( beta weight  \n.21), the length of time teaching at the school ( beta weight -.126) and whether the  \nteacher had a higher degree ( beta weight -.119) predicted attitude toward setting (R =  \n.274, F = 8.08, df = 1,300, p = .00001) The shorter time the teacher had been teaching  \nin a mixed ability school the more positive their attitudes towards setting.", 
  "In relation  \nto a higher level degree, e.g.", 
  "masters or doctoral qualification, the higher the level of  \n\fthe degree the less likely the teacher was to favour setting.", 
  "No significant differences  \nwere found in relation to gender or age.", 
  "Discussion   \nOverall, the teachers\u2019 beliefs reflected previous research findings relating to the actual  \neffects of ability grouping.", 
  "They believed that ability grouping enabled the more able  \npupils to maximise their attainment and insulated them from negative peer pressure.", 
  "Those of lower attainment were perceived as more likely to develop low self-esteem,  \nbecome alienated and as result exhibit more difficult behaviour when they were  \nplaced in structured ability groups.", 
  "Mixed ability teaching was seen to benefit not  \nonly the social adjustment of  the less able but of all children.", 
  "Despite this, there was  \nlittle overall agreement between teachers of the relative equity of the different systems  \nof grouping.", 
  "With regard to their own practice, teaching and classroom management  \nwere perceived to be easier with structured ability groupings as was meeting the  \ncurriculum needs of all pupils.", 
  "For teachers, there were considerable personal benefits  \nto be derived from the adoption of structured grouping procedures.", 
  "These shared beliefs were overlaid by differences relating to school type.", 
  "Teachers  \nemployed in schools which adopted high or moderate levels of setting expressed  \nbeliefs which were more positive toward structured ability grouping than teachers in  \nschools where a greater proportion of mixed ability teaching was undertaken.", 
  "These  \ndifferences were highly significant in relation to almost all the statements made.", 
  "Whether this indicates that teachers\u2019 views are influenced by their current working  \nenvironment or whether they search out an environment which is conducive to their  \n\fphilosophy of education cannot be established from the current analysis.", 
  "It is likely  \nthat there are complex interactions between the two.", 
  "There were also differences in the extent to which different subjects were perceived as  \nappropriate for mixed ability teaching.", 
  "Mathematics and modern foreign languages  \nwere perceived as requiring grouping based on attainment.", 
  "English and humanities  \nwere perceived as appropriate for mixed ability teaching.", 
  "The reasons for these  \ndifferences are likely to be related to the extent to which learning in these subjects is  \nperceived as linear and building directly on prior knowledge and the extent to which  \ndifferentiation can occur through learning outcomes rather than the setting of  \ndifferentiated tasks.", 
  "This is clearly an issue which requires further exploration.", 
  "When the analysis predicting attitudes towards ability grouping was undertaken  \nseparately for school type, individual schools emerged as influential in determining  \nthe attitudes of their staff.", 
  "School ethos seemed to be an important force in  \ndetermining teachers\u2019 beliefs.", 
  "This was further reinforced by the finding that teachers  \nwho had been teaching in mixed ability schools for relatively short periods of time  \nheld more positive attitudes towards ability grouping than longer established teachers.", 
  "However, schools were not the only influence on teachers\u2019 beliefs.", 
  "Those with a  \nhigher degree (Masters/PhD) in education, expressed more negative attitudes towards  \nability grouping than those with lower level qualifications.", 
  "Possibly greater  \nknowledge of the research literature played a part in shaping their views.", 
  "In addition,  \nthe variables considered in the analysis accounted for a relatively small proportion of  \nthe variation between teachers\u2019 beliefs regarding ability grouping.", 
  "This suggests that  \n\fmany of the influences on teachers\u2019 thinking about issues such as ability grouping are  \nexternal to their immediate working and professional environment.", 
  "What are the implications of these findings?", 
  "We know that teachers\u2019 beliefs affect  \ntheir teaching practices (Clark and Peterson, 1986; Carlgren et al., 1994).", 
  "We also  \nknow that different types of ability grouping have differential positive and negative  \neffects on academic, personal and social educational outcomes for different groups of  \npupils.", 
  "No single system offers equity.", 
  "However, the weaknesses of different systems  \ncan be ameliorated if schools and the staff in them are aware of the issues and take  \npositive steps to reduce their negative effects.", 
  "For instance, where mixed ability  \nteaching practices are adopted high quality differentiated materials which support the  \nteacher in providing work at an appropriate level need to be made available.", 
  "Teachers  \nalso need to reward effort rather than attainment, in order to reduce the stigmatisation  \nof able pupils.", 
  "In schools adopting setting, success in all curricular and extra- \ncurricular activities needs to be valued not only academic achievement.", 
  "Teachers  \nshould avoid making public comparisons between ability groups, value the progress  \nof all pupils and treat all groups with equal respect.", 
  "They need to be aware that the  \nmessages, verbal and nonverbal, that they convey to pupils about the extent to which  \nthey and their efforts are valued determine whether pupils perceive the school as  \nhaving a positive inclusive ethos.", 
  "Where this is not the case pupil alienation will  \nincrease leading to increased discipline difficulties.", 
  "The current emphasis in teacher  \neducation on preparing teachers to deliver the curriculum has led to a reduction in  \nopportunities to develop understanding of such issues.", 
  "In the long term this may be  \ncounterproductive for individual teachers and for the development of school  \nenvironments which support learning for all students.", 
  "Acknowledgements  \nThe authors would like to acknowledge the support given by the Economic and Social  \nScience Research Council in providing funding for this project.", 
  "They would also like  \nto thank the researchers on the project, Sarah Hack and Helen Clarke."
 ]
}