{
 "document_id": "7846602451320693124", 
 "sentences": [
  "DOCUMENT  !tESUME  \nTM  011  192  \nFirestone,  William  A.", 
  "Meaning  in  Method:  The  Rhetoric  of  Quantitative  and  Qualitative  Research.", 
  "Research  for  Better  Schools,  Inc.,  Philadelphia,  Reports  - Research/Technical  (143)  \nMFOl/PCUl  Plus  Postage.", 
  "Elementary  Secondary  Educativn;  Leadership;  Methods;  Outcomes  of  Education;  Principals;  *Qualitative  Research;  Research  Methodology;  *Rhetoric;  *Statistical  Analysis  \nED  292  816  \n\nINSTITUTION  \nPUB  DATE  PUB  TYPE  \nEDRS  PRICE  DESCRIPTORS  \nABSTRACT  \nThe  current  debate  about  quantitative  and  qualitative  \nresearch  methods  f~cuses  on  whether  tnere  is  a  necessary  connection  between  method-type  and  research  paradigm  that  makes  the  different  approaches  incompatible.", 
  "This  paper  argues  that  the  connection  is  not  so  much  logical  as  rhetorical.", 
  "Quantitative  methods  express  the  assumptions  of  a  positivist  paradigm,  which  holdf.", 
  "that  behavior  can  be  explained  through  objective  facts.", 
  "Design  and  instrumentation  persuade  by  showing  how  bias  and  error  are  eliminated.", 
  "Qualitative  methods  express  the  assumptions  of  a  phenomenolo9ical  paradigm,  which  presupposes  that  there  are  multiple  realities  that  are  socially  defined.", 
  "Rich  description  p~tsuades  by  showing  that  the  researcher  was  immersed  in  the  setting  and  giving  the  reader  enough  detail  to  make  sense  of  the  situation.", 
  "While  rhetorically  different,  the  results  of  the  two  methodologies  can  be  complementary.", 
  "An  analysis  of  two  studies  into  the  relationship  of  leadership  on  the  part  of  school  principals  to  organizational  outcome  indicates  that  there  is  an  aesthetic  connection  between  m~thod  types  and  paradigms,  and  it  suggests  some  salient  differences  distinguishing  qualitative  and  \u00b7quantitative  studies.", 
  "(Author/TJH)  \nReproductions  supplied  by  EDRS  are  the  best  that  can  be  made  \n**********************************************************'************  ***********************************************************************  \nfrom  the  original  document.", 
  "MEANING  IN  METHOD:  \n\nTHE  RFETORIC  OF  QUANTITATIVE  AND  QUALITATIVE  RESEARCH  \n\nWilliam  A.  Firestone  \n\u00b7\u00b7PERMIS310N  TO REPRODUCE  THIS  ~fERIAL He';,  BEEN  GRANTED  BY  \ne.l l~vt  Ne~V\u0006-e.  \nTO  THE  EDUCATIONAL RESOURCES  INFORMATION CENTER (ERIC)\u00b7\u00b7  \nUS  DEPARTMENT OF EDUCATION  \nOHICe  of  Educat\u2022onat ResearCh and Improvement EDUCATIONAL  RESOURCES IN<ORMATION  \nCENTER !ERIC.,) \nVr\"h\u2022S  document  haS  been  reproduced  as  1\"\\;~ce\u2022... ed  from  the  person  o\u00b7  organ\u2022zallon  \neng\u2022 natmg \u2022I  \n~  Mmor Changes  ha... e  been  made to tmprove  \nreproduCI1 0n  auat\u2022IY  \nPo\u2022nts olv\u2022ew or op\u2022n\u2022ons stated \u2022n th\u2022Sdocu  ment  do  not  necessartly  rePresent  Off\u2022C\u2022al  OE Rl  pos\u2022t\u2022on or  pOliCy  \nResearch  for  Better  Schools  \n444  North  Third  Street  Phi1a~P.1phia,  PA  19123  \nBEST  COPY  AVAILABLE  \n\fABSTRACT  \nThe  current  debate  about  quantitative  and  qualitative  methods  focuses  on  \nwhether  there  is  a  necessary  connection  between  \u00b7nethod-type  and  research  paradigm  that  makes  the  different  approaches  incompatible.", 
  "This  paper  argues  that  the  connection  is  not  so  much  logical  as  rhetorical.", 
  "Quantitative  methods  express  the  assumptions  of  a  positivist  paradigm  which  holds  that  behavi~r can  be  explained  through  objective  facts.", 
  "Design  and  instrum~ntation  persuade  by  showing  how  bias  and  error  are  eliminated.", 
  "Qualitative  methods  express  the  assumptions  of  a  phenomenological  paradigm  that  there  are  multiple  realities  which  racially  defined.", 
  "Rich  description  persuades  by  showing  that  the  researcher  was  immersed  in  the  setting  and  giving  the  reader  enough  detail  to  \"make  sense\"  of  the  situation.", 
  "While  rhetorically  different,  the  results  of  the  two  methodologies  can  be  complementary.", 
  "Examples  are  drawn  from  two  studies  using  different  methodologies  to  study  the  sa~e problem.", 
  "MEANING  IN  METHOD:  \n\nTHE  RHETORIC  OF  QUANTITATIVE  AND  QUALITATIVE  RESEARCHi  \n\nWith  the  growing  acceptance  of  qualitative  methods  in  education  (Shulman,  \n1981),  ~he debate  hzs  shifted  to  what  their  relationship  to  quantitative  \nmethods  should  be.", 
  "At  the  extremes  are  two  groups  (Ros~man & Wilson,  1985).", 
  "The  purists  (e.g.,  Smith  & Heshusius,  19e6;  Guba,  1978)  believe  that  the  two  \nmethod-types  are  based  on  paradigms  that  are  necessarily  in  conflict.", 
  "choosing  a  method,  the  researcher  makes  a  long-term  value  commitment  that  1s  \ndifficult  to  change.", 
  "Pragmatists  argue  that  there  is  no  necessar.y  logical  \nconnection  between  paradigm  and  method-types  (Reichardt  & Cook,  1979).", 
  "Method-types  are  more  collections  of  techniques  that  can  be  mixed  and  matched  \naLcording  to  the  specific  problem.", 
  "An  alternative  view  is  suggested  here,  namely  that  the  connection  between  \nmethod-type  and  paradigm  is  more  aesthetic  than  logical.", 
  "This  view  draws  upon  \nrecent  analyses  of  educational  and  sociai  science  research  shaped  by  the  study  \nof  the  arts  and  literary  criticism  (Eisner,  1981;  House,  1979;  Gusfield,  \n\n~,,,  suggestion  is  that  qualitative  and  quantitative  methods  can  be  \nviewed  as  rhetorical  devices.", 
  "As  such,  each  presents  a  different  view  of  the  \nphenomenon  studied  and  uses  diff~rent means  to  persuade  the  reader  of  the  \nvalidity  of  the  conclusions  drawn.", 
  "Yet,  they  are  not  antithetical.", 
  "They  \npresent  the  reader  with  different  kinds  of  information  and  can  be  used  to  \ntriangulate  to  gain  greater  confidence  in  one's  conclu~ions.", 
  "This  argument  is  \nadvanced  first  in  general  terms  and  then  illustrated  by  a  comparison  of  two  \nstudies  that  use  qualitative  and  quantttative  methods  to  address  the  same  \n\f\u00b7------ ------------------------~  \n\nPa~adigms and  Methods  \nThe  purists  assert  that  qualitative  and  quantitative  methods  are  based  in  \nparadigms  that  make  different  assumptions  about  the  social  world  and  about  how  \nscience  should  be  conducted  as  well  as  what  constitutes  legitimate  problerus,  \nsolutions,  and  criteria  of  \"proof\"  (Kuhn,  1970).", 
  "These  di:ferences  have  been  \ntreated  extensively,  and  there  is  considerable  agreement  on  what  they  are  (see  \nGuba,  1978).", 
  "Four  differences  are  most  relevant  for  this  analysis:  \n1.", 
  "Assumptions  about  the  world.", 
  "Quantitative  research  is  based  on  a  \npositivist  philosophy  which  assumes  that  there  are  social  facts  with  an  objective  reality  apart  from  the  beliefs  of  individuals-.-\u00ad Qualitative  research  is  rooted  in  a  phenomenological  paradigm  which  hulds  that  reality  is  socially  constructed  through  individual  or  collective  definitions  of  the  situation  (Taylor  & Bogdan,  1984).", 
  "2.", 
  "Purpose.", 
  "Quantitative  research  seeks  to  explain  the  causes  of  changes  \nin  social  facts,  primarily  through  objective  measurement  and  quantitative  analysis.", 
  "Qualitative  research  is  more  concerned  with  understanding  (Verstehen)  the  social  phenomenon  from  the  actors'  perspectives  through  participation  in  the  life  of  those  actors  (Taylor  & Bogdan,  1984).", 
  "3.", 
  "Approach.", 
  "The  quantitative  researcher  typically  employs  experimental  \nor  correlational  designs  to  reduce  error,  bias  and  other  noise  that  keeps  one  from  clearly  perceiving  social  facts  (Cronbach,  1975).", 
  "The  prototypical  qualitative  study  is  the  ethnography  which  helps  the  reader  understand  the  definitions  of  the  situation  of  those  studied  (Goodenough,  1971).", 
  "4.", 
  "Researcher  role.", 
  "The  ideal  quantitative  researcher  is  detached  to  avoid  bias.", 
  "The  qualitative  researcher  becomes  \"immersed\"  in  the  phenomenon  of  interest  (Powdermaker,  1966).", 
  "The  pragmatists  respond,  however,  that  the  relationship  between  method  \nand  philosophy  of  science  implied  by  the  idea  of  paradigm  is  neither  necessary  \nnor  logical.", 
  "Reichardt  and  Cook  (1979)  present  a  number  of  examples  that  \ncoPtradict  expectations  about  differences  between  method-types  that  supposedly  \nlink  them  to  paradigms.", 
  "For  instance,  quantitative  researchers  use  opinion  \npolling  to  understand  the  perspectives  of  others  and  often  immerse  themselves  \n\fin  the  situation  during  the  planning  and  pretesting  phases  of  their  studiP.s.", 
  "On  the  other  hand,  Sanday  (197Y)  links  ethnography--the  prototypical  \nqualitative  method--to  three  different  paradigms  in  anthropology.", 
  "While  the  \nsemiotic,  represented  by  the  work  of  Geertz  and  Goodenough,  approximates  the  \nphenomenological  paradigm  that  ed~Jcational  resear-:hers  associate  with  \nqualitative  methods,  it  has  also  been  used  to  furth.", 
  ";:- a  kind  of  behaviorism  \nthat  is  quite  close  to  the  positivist  paradigm.", 
  "If  the  connection  between  method-types  and  paradigms  is  not  logically  \nnecessary,  there  remains  a  correlation.", 
  "Quantitative  studies  are  typically  \nmore  positivistic  than  most  qualitative  research  (Reichardt  & Cook,  1979).", 
  "To  \nunderstand  why  that  is,  it  is  helpful  to  understand  some  of  the  rhetorical  \ndevices  of  research.", 
  "The  Rhetoric  of  Research  \nRhetoric  is  the  art  of  speaking  or  writing  effectively.", 
  "It  refers  \ngenerally  to  how  language  is  employed,  but  is  has  come  to  mean  the  insincere  \nor  even  manipultive  use  of  words.", 
  "Technically,  it  includes  the  arts  of  \npersuasion  and  decoration  or  elaboration  in  literature  (Frye,  1957).", 
  "As  such  \nit  is  ncrmally  considered  something  to  be  avoided  in  research  where  the  facts  \nare  supposed  to  \"speak  for  themselves.\"", 
  "Scientific  writing  is  a  \nstripped-down,  cool  style  that  avoids  ornamentation,  often  stating  conclusions  \nas  propositions  or  formulae.", 
  "Fo~s of  data  presentation  are  supposed  to  be  \ninterchangable.", 
  "That  is,  the  use  of  tables  as  opposed  to  charts  should  be  \nimmaterial.", 
  "There  is  also  a  standardization  of  form--the  theory-methods\u00ad \nfindings-conclusion  format--that  is  intended  to  Hmit  rhetorical  excess  \n(Eisner,  1981).", 
  "This  absence  of  style  turns  out  to  actually  be  a  rhe..torical  device  in  its  \nown  right  (Frye,  1957).", 
  "The  use  of  propositions,  for  instance,  is  a  means  to  \nempty  language  of  emotion  and  convince  the  reader  of  the  writer's  \ndisengagement  from  the  analysis.", 
  "If  one  of  the  threats  to  the  validity  of  a  \nconclusion  comes  from  the  writer's  own  biases,  as  is  considered  to  be  the  case  \nin  science,  then  any  technique  that  projects  a  lack  of  emotion  has  \nconsiderable  persuasive  power.", 
  "Thus,  language  does  serve  a  persuasive  \nfunction  in  research.", 
  "Elaboration  also  has  a  rol~  in  research.", 
  "Without  reference  to  some  \nlarger  field  of  meaning,  scientific  pro?ositions  make  no  sense.", 
  "The  words  of  \nevery  day  language  are  rich  in  mutliple  meanings.", 
  "Like  oth\u00b7~r  symbols,  their  \npower  ~offieS  from  the  combination  of  meanings  in  a  specific  setting  (Cohen,  \n1979).", 
  "Sci~ntific  language  ostensibly  strips  this  multiplicity  of  meaning  \nfrom  words  in  th~  interest  of  precision.", 
  "This  is  the  reason  why  common  terms  \nare  given  \"technical  meanings\"  for  scientific  purposes  (Durkheim,  1938).", 
  "However,  there  can  be  a  sort  of  subterfuge  in  this  process  (Polanyi  & Prosch,  \n1975).", 
  "While  on  the  surface,  meaning  is  reduced,  scientific  terms  must  rely  \non  their  suppressed  definitions  to  a~tract  the  reader's  interest  and  concern.", 
  "For  instance,  behaviorist  psychologists  study  only  a  a  limited  range  of  forms  \nof  learning.", 
  "However,  their  theories  are  valued  because  they  make  implicit  \nreference  to  a  wider  range  of  situations  that  is  suggested  by  the  term  \n\"learning.\"", 
  "Because  scientifj~  cerms  do  have  multiple  meanings,  the  \nresearcher  must  steer  to  reader's  attention  to  specific  ones.", 
  "This  is  the  \nwork  of  demonstrating  theoretical,  policy,  or  practical  relevance  of  the  \nresearch  that  is  accomplished  in  t~e introduction  and  the  conclusion  \n(Gusfield,  1976).", 
  "It  too  requir~s  rhetoric.", 
  "Recent  attempts  to  understand  the  rhetoric  of  research  have  proceeded  \nthrough  the  literary  criticism  of  specific  reports.", 
  "Gusfield  (1976)  presents  \na  mastei  ~ul  analysis  of  a  quantitative  study  of  driver3  arrested  for  drinking.", 
  "He  shows  how  the  study  projects  the  image  of  the  researcher  as  neutral,  \ndisengaged  analyst  (persuasion)  at  the  same  time  that  it  presents  a  heavily  \nval~e-laden interpretation  of  those  who  drink  and  drive  and  what  to  do  about  \nit  (elaboration  for  meaning).", 
  "House  (1979)  presents  a  similar  analysis  of  an  \nevaluation  of  an  Upward  Bound  program.", 
  "Most  analyses  focus  on  the  language  of  research  and  treat  the  data  \nthemselves  as  relatively  neutral.", 
  "Yet,  the  means  cf  data  collection,  the  \nresults  of  those  efforts,  and  the  conventions  about  how  to  treat  them  can  \ncombine  to  create  specific  strategies  for  persuasio~ and  project  particula=  \nimages  of  the  research  subject.", 
  "These  may  vary  systematical:y  between  \nquantitative  and  qualitative  studies.", 
  "To  explore  this  possibility,  1  turn  ~ow  \nto  a  comparlson  of  two  studies.", 
  "Two  Studies  \nThe  issue  studied  is  whether  leadership  makes  any  difference  in  \norganizational  outcomes.", 
  "This  issue  was  viewed  as  decided  for  schools  in  the  \n1960s  when  the  effect  of  family  background  was  found  to  be  so  strong  that  \nschool-specific  variables  seemed  to  pale  in  comparison  (see  Parelius  &  \nParelius,  1978).", 
  "Researchers  doubted  that  principals  could  have  any  \nsignificant  influence  on  student  learning  (Boocock,  1972).", 
  "The  effective  \nschools  research  which  points  to  the  importance  of  strong  principal  leadership  \nhas  :eraised  that  issue  (Edmonds,  1979).", 
  "\u00b7---------- ---------------------- \n-----------,  \nBoth  studie~  described  here  examine  the  relative  contributions  of  \nleadershlp  and  environment  to  organizational  performance.", 
  "The  quantitative  \nstudy  addresses  this  issue  by  defining  a  specific  set  of  variables  and  \nprocedures  for  measuring  them.", 
  "The  environmental  variable  is  th~  family  \nbackground  of  the  students  as  indicated  by  the  princpal's  report  of  the  \npercent  of  students  who  receive  free  lunches  (SES).", 
  "There  are  two  leadership  \nvariables:  centralizetion  of  influence  in  the  principal  as  opposed  to  \ndecentralization  to  the  teacher  (CNT)  and  the  extent  of  princpal  support  for  \ntaaching  (SPT).", 
  "The  outcome  of  interest  is  how  much  students  learn  tLRN).", 
  "The  initial  theory  assumes  th~t  the  extent  to  which  teachers  work  hard  and  try  \nto  teach  all  students  in  their  class  (TCH)  mediates  between  the  two  leadership  \nvariables  and  student  learning.", 
  "The  last  four  variables  (CNT,  SPT,  TCH,  and  \nLRN)  are  all  measured  throught  a  s~rvey of  teachers  in  the  school.", 
  "The  \nanalysis  is  guided  by  a  theoretical  model  which  proposes  that  levels  of  LRN  \nare  influenced  by  TCH,  SPT  and  CNT,  and  SES  and  that  leadership  is  influenced  \nby  SES.", 
  "Inforn~tion comes  from  a  national  sample  of  107  elementary  and  \nsecondary  schools  (details  of  procedures  are  provided  in  Firestone  & Wilson,  \n\nTwo  statistical  analyses  of  the  model  are  presented.", 
  "The  first sr.ows  \nthat  SES  has  three  times  as  much  influence  on  LRN  as  the  leadership  variables.", 
  "The  second  is  a  path  analysis  (Duncan,  1966)  which  verifies  the  existence  of  \nhypotehsized  relatio.", 
  "ships  between  variables.", 
  "It  shows  that  SES  has  a  strong  \ndirect  effect  on  LRN;  increasing  control  reduces  learning.", 
  "The  effect  ot  SPT  \nis  indirect.", 
  "Increasing  SPT  increases  TCH  which  in  turn  increase  LRN.", 
  "Together  the  two  analyses  suggest  that  leadership  does  influence  student  \nlearning  although  not  the  extent  that  the  environment  does.", 
  "A''&i#b\u00b7  '\"\"  \n\u2022J .", 
  "...", 
  "The  qualitative  study  was  part  of  a  larger  exploration  of  regional  \neducational  service  agencies  (RESAs),  those  agencies  located  micway  between  \nthe  state  and  local  district.", 
  "This  project  examined  their  contribution  to  \nresearch  use  in  schools  through  training  and  dissemination  activities.", 
  "The  \nstudy  focused  on  pairs  of  Intermediate  Units  (IUs)  in  Pennsylvaniu  and  \nEducation  Improvement  Centers  (EICs)  in  New  Jersey  that  were  k~own to  differ  \nin  the  amount  of  training  they  offered.", 
  "DatQ  were  collected  using  \nsemi-structured  interviews  with  agency  directors  and  administrators,  the  \ntraining  staff,  and  reprfsentatives  of  client  districts.", 
  "Interviews  with  state  \ndepartments  of  education  clarified  the  larger  political  context  in  which  these  \nagencies  operated  (see  Firestone  & Rossman,  1986  for  procedures).", 
  "All  the  \ninformation  on  each  agency  was  then  pulled  together  into  a  case  study.", 
  "By  \nexamining  each  case  and  comparing  pairs  of  cases  a  typ0logy  of  agency  \napproaches  to  their  task  and  explanativns  for  why  one  approach  was  selected  \nave=  another  were  developed.", 
  "This  use  of  a  variety  of  materials  and  a ..  \ninductive  approach  in  a  comparative  case  study  design  is  typical  of  a  fair  \namount  of  qualitative  ~olicy  research  (Herriott  & Firestone,  1983).", 
  "Exploration  of  the  pairs  of  cases  showed  that  environmental  constraints  \nwere  similar.", 
  "In  Pennsylvania,  for  instance,  state  L1w  ..vhich  gave  school  \nboards  control  of  IU  budgets  made  those  agencies  responsive  to  district  \nconcerns.", 
  "However,  the  districts  suffered  from  severe  financial  constraints  \n\nand  saw  those  agencies  as  competitors  for  funds.", 
  "Thls  concern  was  an  \nimportant  barrier  to  efforts  to  increas~:  ser' ices  by  seeking  grant~.", 
  "\\\u00b7lhile  \nenvir~nmental constrain~s were  similar,  the  orientatior.s  of  agency  leaders  \n\freflected  the  difference  in  approach.", 
  "The  director  of  the  high-service  \nentrepreneurial  IU  set  the  tone  for  his  agency  JY  aggressively  looking  tor  new  \nservicP.s  to  offer  and  new  sources  of  funds.", 
  "When  his  board  objected  :o  this  \napproach,  he  found  ways  to  better  justify  new  programs,  but  he  did  not  give  up  \nthe  search.", 
  "The  leaders  of  the  more  laissez-faire  IU  we:-e  more  defensive,  \nspending  relatively  more  time  justifying  their  budget  than  seeking  funds.", 
  "The  \ndirector  of  the  high  service  ag~ncy challenged  environmental  constraints,  but  \nhe  did  not  simply  \"cause\"  the  high-service  approach.", 
  "In  fact,  he  appeared  to  \nbe  chosen  because  he  reflected  high-service  orientations  preferred  by  a  key  \nconstituency  on  the  board  when  the  IU  was  founded.", 
  "His  contribution  was  \nimportant  but  did  not  provide  a  ,  \n'lete  explanation.", 
  "The  Studies  Compared  \nAn  examination  of  the  rhetorical  elements  of  those  studies  indicates  that  \nthey  use  quite  different  strategies  to  persuade  the  reader  of  the  validity  of  \nthe  analysis  and  that  they  project  different  assumptions  about  organizational  \nph~nomena.", 
  "An  important  by-product  of  these  differ~nces is  that  they  provide  \ncomplementary  information  to  the  readers.", 
  "Persuasion  \nThe  quantitative  study  persuades  by  deemphasizing  individ~el judgment  and  \nstressing  the  use  of  established  procedures.", 
  "While  the  language  of  hypothesis  \ntesting  is  avoided,  the  impression  is  given  that  the  whole  study  is  a  \ndisciplined  expl\u00b7..,ration  of  a  preexisting  conceptual  fram2work.", 
  "This  is  done  \nin  a  variety  of  ways.", 
  "At  the  most  obvious  level,  almost  as  mt\u2022ch  space  1s  \ngiven  to  describing  the  study's  methods  (four  page\")  as  the  ~\u00b7esults  (six  \npages,  including  table&).", 
  "The  methods  section  describes  the  study's  sample  in  \ni;...........~  \nl  roiif!!\"", 
  "a  paragraph.", 
  "The  rest  of  the  section  is  devoted  to  a  deta~led discussion  of  \nmeasurement  procedures.", 
  "Another  limitation  to  individual  discretion  is  the  \nuse  of  a  theoretical  model  to  guide  the  analysis.", 
  "This  model  is  provided  in  a  \npictorial  foli'l  in  the  introductory  theory  section,  and  criter.la  for  \ndetermining  when  a  hypothesized  relationship  is  deemed  to  be  supported  are  \ndescribed  in  the  results  section  section  and  justified  with  reference  to  \nprevious  methodological  rese~rch.", 
  "Thus,  the  text  gives  the  strong  impression  \nthat  exploratory  \"data  dredging\"  has  been  avoided.", 
  "In  this  case,  the  form  hides  part  of  the  story  because  there  was  an  \nexploratory  elentent  to  the  study.", 
  "The  study  was  triggered  by  the  finding  of  \nr.egative  associations  between  ~entralization and  student  outcomes  when  \nvalidity  analyses  were  done  for  a  manual  describing  the  survey  instrument.", 
  "We  \nviewed  this  finding  as  contradictory  to  the  effective  schools  research  which  \nargues  that  strong  leadership  promotes  actievemenc.", 
  "We  reasoned  further  that  \nif  this  finding  could  be  replicated  when  controlling  for  student  background,  \nit  would  be  an  important  contribution.", 
  "Reporting  this  personal  aspect  would  \nundercut  the  impression  the  paper  nc;v  gives  of  be..;.ng  a  detached  \"test\"  of  a  \n\nLess  attention  is  given  co  describing  procedures  and  how  individual  \njudgment  is  disciplined  in  the  qualitative  study.", 
  "The  ~tudy  is  presented  as  \nfrankly  exploratory.", 
  "The  strategy  is  one  of  comparing  pairs  of  agencies  known  \nto  be  different  in  order  to  discover  what  might  explain  those  differences.", 
  "That  search  is  not  describad  as  strongly  controlled  by  preexisting  t~eory.", 
  "There  is  no  preliminary  mode1.", 
  "Instearl,  reference  to  past  research  is  \nincorporated  into  the  presentation  of  findings.", 
  "The  methods  section  is  only  \n\ftwo  pages  long  while  the  results  take  over  twenty.", 
  "Abour  half  the  methods  \ndisc\\\u00b7~sion describes  the  agencies  selected  and  demonstrates  that  they  did  in  \nfact  differ  in  services  provided  since  the  reader  must  be  ronvinced  of  that  \nfact  t~ be  persuaded  of  the  value  of  what  follows.", 
  "While  analysis  procedures  are  not  described,  some  controls  stemming  f\u00b7 \u00b7om  \nthe  criteria  of  good  qualitative  analysis  were  used.", 
  "One  of  these  is  the  \nadmonition  to  search  for  competing  explanation  and  negative  evidence  \n(Campbell,  1979).", 
  "This  served  well  in  the  analysis  of  leader  contributions.", 
  "The  first  analysi~  showed  a  remarkable  si~ilarity hetween  the  values  profess~d  \nby  the  top  leaders  and  the  organizations'  approaches.", 
  "This  could  have  led  to  \nan  overestimate  of  leaders'  influence  on  those  approaches,  especially  where  \nthe  entrepreneurial  IU  maintained  its  approach  in  spite  of  ext2rnal  \nopposition.", 
  "However,  further  exploration  indicated  that  the  director  there  \nhad  been  selected  because  his  values  fit  the  interests  of  a  strong  \nconstituency.", 
  "Openness  to  this  possibility  helped  to  avoid  an  overestimate  of  \nleader  influence.", 
  "That  search  is  not  described  in  the  text,  in  large  measure  because  it  is  \nless  relevant  for  persuading  the  reader .", 
  "In  fact  two  very  different  \nstrategjes  are  used:  \nrich  depiction  and  strategic  comparison.", 
  "The  first  is  \nthe  hallmark  of  most  qualitative  research;  the  secona  is  required  by  the  \neffort  to  understand  differences  between  pairs  of  agencies.", 
  "Taken  together,  \nthese  approaches  pile  up  a  series  of  significant,  concrete  details  to  give  a  \nconvincir.g  depiction  of  each  agency  and  of  the  difference<>  between  them.", 
  "For  \ninstance,  several  different  kinds  of  data  were  used  to  show  tha:- Fa>:mland  IU  \nwas  more  entrepreneurial  than  Rural-Industrial.", 
  "These  included  telling  quotes  \nfrom  interviews,  a  description  of  agency  staffing  patterns,  and  excerpts  from  \ni.  W\u00a7ili!il  !P  !t:-.", 
  ";;.~  \u2022  \n\n\fagency  history  illustrating  the  entrepreneurial  orientation  in  action.", 
  "The  \ndetails  are  convincing  because  they  create  a  gestalt  that  makes  sense  to  the  \nreader.", 
  "This  is  a  process  Polanyi  and  Prosch  (1975)  describe  as  building  up  a  \nfocal  impression  out  ot  a  series  of  subsidiary  details.", 
  "It  depends  upon  the  \nactive  effort  of  the  reader  and  the  reader's  willingness  to  check  these  \ndetails  against  personal  experience.", 
  "In  sum,  the  persuasive  st~ategins of  the  two  kinds  of  research  are  very  \ndifferent.", 
  "The  quantitative  study  must  convince  the  reader  that  procedures  \nh~ve been  followed  faithfully  because  very  little  concrete  description  of  what  \nanyone  does  is  provided.", 
  "The  qualitative  study  provides  the  reader  with  a  \ndepiction  in  enough  detail  to  show  that  the  author's  conclusion  \"makes  sense.\"", 
  "For  that  reason,  discussion  of  procedure  is  not  emphasized.", 
  "Too  much  \nattention  to  procedure  can  get  in  the  way  of  the  narrative  line  wPich  attempts  \nto  build  a  concrete  impression  of  the  phenomenon  studies.", 
  "Assumptions  \nIn  addition  to  using  different  persuast  ~  strategies,  the  two  studies  \nmake  different  assumptions  about  the  world.", 
  "This  distinction  is  highlighted  \nwhen  one  focuses  on  how  each  handles  causation.", 
  "It  can  be  described  through  \nthree  dichotomies:  variables  vs.  actions,  hydraulic  determinism  vs.  limits  \nand  opportunities,  and  randomness  and  error  vs.  choice.", 
  "The  quantitative  study  portrays  a  world  of  variables  and  static  states.", 
  "The  text  refers  to  levels  of  centralization  o~ principal  support,  but  one  can  \nonly  infer  from  the  questionnaire  items  what  a  principal  does  to  centrdlize  or  \nhow  (s)he  provides  support.", 
  "By  contrast  the  qualitative  study  describes  \npeople  acting  in  events.", 
  "A director  tells  how  he  uses  hiring  interviews  to  \nencourage  staff  to  actively  sell  services  or  an  informar.t  tells  about  the  \n\fpolitical  battles  that  led  to  the  legislation  governing  IUs.", 
  "Even  the  \"state\"  \nof  entrepreneurialism  is  portrayed  through  a  dispute  between  an  agency's  board  \nand  its  top  leadership  over  how  actively  outside  funding  should  be  pursued.", 
  "The  quantitative  study  uses  a  hydraulic  image  of  determinism  as  if  \npressure  from  one  variable  changes  another.", 
  "Regression  ccefficients  indicate  \nhow  _:tuch  one  might  expect  the  dependent  variable  to  increase  for  a  given  \nchange  in  an  independent  variable.", 
  "The  effect  of  the  tables  is  reinforced  by  \nlanguage  about  the  \"per  cent  of  variance\"  in  one  variable  that  is  attributable  \nto  others.", 
  "The  implicit  imagery  is  of  a  system  of  interconnected  variables  \nwhere  pressure  from  one  forces  change  in  another.", 
  "The  abstraction  process  \nthat  directs  attention  from  the  total  situation  in  a  school  to  a  set  of  \n\"ariables  implies  an  almost  physical  connection  between  those  variables.", 
  "The  \nqualitative  study  presents  a  more  complex  view  of  a  world  in  which  there  are  \nlimits  and  opportunities  that  individuals  must  take  into  account  and  use.", 
  "These  include  the  IUs'  required  budget  approval  procedure  and  external  funding  \ncompetitions.", 
  "These  limits  and  opportunities  shape  action,  but  do  not  \ndetermine  it.", 
  "Finally,  the  two  studies  ~~ggest different  alternatives  to  causality.", 
  "The  quantitative  study  emphasizes  randomness  ana  error.", 
  "The  study  desirn,  \nespecially  the  sampling  procedure  and  instrumentation,  are  intended  to  reduce  \nthe  amount  of  error  in  the  study.", 
  "They  are  described  to  help  the  reader  \nassess  how  well  that  task  was  accomplished.", 
  "Once  as  much  error  is  eliminated  \nas  possible,  two  alternatives  remain--randomness  and  the  causal  forces  of  the  \nmeasured  variables--and  statistical  tests  are  used  to  choose  between  them.", 
  "The  alternative  to  causality  in  the  qualitative  study  is  choice.", 
  "Constraints  \nand  opportuoities  are  real  but  ambiguous.", 
  "Leaders  decide  how  to  respond  to  \n\fthem,  for  instance,  when  they  encourage  or  discourage  fund  seeking.", 
  "If their  \nchoice  violates  those  constraints,  there  will  be  a  response  that  requires  a  \nchange  of  strategy  (as  in  Farmland's  case)  or  even  organizational  demise  (as  \nin  the  New  Jersey  situation  not  discussed).", 
  "These  different  assumptions  do  not  stem  from  the  phenomenon  studied.", 
  "They  come  in  large  measure  from  the  way  the  researchers  collect  and  process  \ntheir  information.", 
  "These  steps  shape  the  nature  of  the  final  text  which  then  \nreinforces  those  assumptions  stylistically.", 
  "Complementari \n\nThe  differences  presented  above  give  qualitative  and  quantitative  studies  \ndifferent  descriptive  strengths.", 
  "The  quantitative  study  assesses  the  \nmagnitude  of  relationships  more  precisely.", 
  "One  can  say  rather  clearly  that  61  \npercent  of  the  variance  in  LRN  is  explained.", 
  "The  qualitative  study  concludes  \nwith  more  ambiguous  statements  like  \"strong  leadership  is  necessary,  but  not  \nsufficient  for  excellence.\"", 
  "The  other  advantage  of  the  quantitative  study  is  \nthat  it  shows  a  pattern  that  extends  across  a  large  number  of  situations.", 
  "fact,  the  conclusion  rests  on  showing  the  joint  association  of  variables  in  \nmany  settings.", 
  "The  use  of  many  sites  increases  confidence  in  the  generaliz\u00ad \nability  of  results  although  technically  generalizability  depends  upon  the  \nrandomness  and  representativeness  of  sample  selected.", 
  "The  trade-off  of  course  \nis  in  abstraction.", 
  "One's  confidence  in  the  conclusions  depends  on  one's  \ncomfort  with  the  way  variables  are  measured  and  relate  to  the  issues  of  \ninterest,  the  quality  of  the  sample,  and  the  general  design  of  the  study.", 
  "The  classi<.", 
  ":al  strengths  of  qualitative  methods  are  concrete  depiction  of  \ndetail,  portrayal  of  process  in  an  active  mode,  and  attention  to  the  perspec\u00ad \nttves  of  those  studied  (Patton,  1980).", 
  "These  strengths  help  to  overcome  the  \n\u00b7--\u00ad __________.....  \n\n\fabstraction  inherent  in  quantitative  studies.", 
  "These  advantages  appear  in  Lhis  \nqualitative  study  through  quotations  and  descriptions  that  illustrate  the  \nperspectives  of  staff,  leaders,  and  outside  clients.", 
  "However,  the  description  \nis  thinner  than  in  more  ethnographic  studies.", 
  "On  the  other  hand,  the  use  of  \nfour  cases  allows  for  some  comparison  in  order  to  identify  patterns  across  \nsituations.", 
  "It  also  gives  greater  confidence  that  conclusions  do  not  depend  \nupon  the  idiosyncracies  of  the  specific  situation  so  it  is  something  of  a  \nmixed  case.", 
  "Used  separately,  qualitative  and  quantitative  studies  provide  different  \nkinds  of  information.", 
  "When  focused  on  the  same  issue,  qualitative  and  \nquantitative  studies  can  triangulate--that  is,  use  different  methods  to  assess  \nthe  robustness  or  stability  of  findings  (Jick,  1979).", 
  "In  this  case  the  two  \nstudies  generally  corroborate  each  other.", 
  "The  quantitative  analysis  sho~s  \nthat  SES  has  the  strongest  impact  on  LRN,  but  the  leadership  variables  also  \nhave  an  undeniable  effect.", 
  "The  qualitative  study  shows  a  strong  congruence  \nbetwePn  leader  values  and  organizational  approach.", 
  "Leaders  can  even  challenge  \nthe  environment.", 
  "Yet,  it  is  also  clear  that  leaders  are  partly  chosen  for  \ntheir  values  and  have  their  greatest  effect  at  certain  critical  times  so  their  \ninfluence  is  limited.", 
  "In  the  main  the  two  studies  corroborate  each  other.", 
  "Conclusion  \nA  rhetorical  analysis  of  these  two  studies  of  the  sa1...:  topic  suggests  \nthat  there  is  an  aesthetic  connection  between  method-types  and  paradigms.", 
  "The  \nmethods  used  in  each  express  the  values  of  the  related  paradigm  about  what  the  \nworld  is  like  and  how  one  must  show  the  truth  of  an  argument.", 
  "The  methods  o(  \nquantitative  research,  indirect  perception  controlled  by  study  desig~ and  \n\finstrumentation,  voice  the  concerns  of  the  positivistic  paradigm  to  identify  \nobjective  social  facts  and  eliminate  error.", 
  "Quantitative  procedures  also  give  \nthe  impression  of  detachment  and  lack  of  bias.", 
  "The  whole  strategy  of  abstrac\u00ad \ntion  through  me:asurement  is  intended  to  apprehend  \"the  facts\"  without  distortion  \nby  irrelevant  detail.", 
  "Persuasion  depends  upon  showing  the  adequacy  of  one's  \nmethods  for  identifying  the  single,  undistorted  truth.", 
  "Qualitative  studies  devote  less  space  to  procedure  and  more  to  \ndescription  because  less  emphasis  is  placed  on  identifying  a  single  truth.", 
  "Through  presentation  of  numerous  specifics,  the  qualitative  account  shows  how  \nthe  concrete  facts  of  the  situation  fit  the  explanation  proposed.", 
  "The  \npersuasive  strategy  has  two  parts.", 
  "First,  the  reader  must  be  convinced  that  \nthe  researcher  has  become  immersed  enough  in  the  setting  to  know  it  well.", 
  "Second,  sufficient  concrete  detail  must  h~ provided  to  permit  comparison  with  \nthe  reader's  own  experience  to  see  if  the  findings  \"make  sense.\"", 
  "This  \nstrategy  fits  with  a  view  which  holds  that  bias  can  be  minimized  but  not  \neliminated  and  that  in  any  case  there  are  multiple  realities  that  are  socially  \nconstructed.", 
  "Quantitative  studies  also  project  very  different  assumptions  about  the  \nworld  from  qualitative  studies.", 
  "The  measurement  strategies  employed  portray  \nan  image  of  a  world  of  static  variables,  social  facts  that  are  linked  through  \nhydraulic  causal  connections.", 
  "Human  action  only  plays  a  role  to  the  extent  \nthat  it  can  be  \"measured.\"", 
  "Qualitative  studies  are  much  more  likely  to  \ndescribe  that  action  and  leave  room  for  interpretation  and  choice.", 
  "\"Causation\"  is  not  so  much  a  hydraulic  or  mechanical  process  as  the  \nconstraints  and  opportunities  that  shape  choice.", 
  "These  rhetorical  differences  in  method  do  not  negate  the  view  that  there  \nare  instrumental  reasons  for  choosing  particular  methods  in  specific  \nsituations  (Patton,  1980).", 
  "Each  method-type  does  provide  different  kinds  of  \ninformation.", 
  "Their  strengths  and  weaknesses  are  complementary.", 
  "Quantitative  \nstudies  assess  relationships  precisely  without  describing  how  conclusions  \napply  in  any  particular  context.", 
  "Qualitative  studies  show  the  connection  \nbetween  conclusion  and  situation  very  clearly  and  also  gives  a  strong  sense  of  \nprocess  but  they  lack  the  precision  of  quantitative  studies.", 
  "Thus,  each  can  \nmake  a  contribution  to  a  reader  who  is  concerned  about  the  subject  of  study  \nwithout  being  firmly  committed  to  either  paradigm.", 
  "Still,  choosing  methods  is  not  just  a  matter  u.  coming  at  a  single  truth  \nfrom  different  directions.", 
  "While  there  are  a  number  of  reasons  for  selecting  \na  metrodological  approach,  one's  decision  often  expresses  values  about  what  \nthe  world  is  like,  how  one  ought  to  understand  it,  and  what  the  most  important  \nthreats  to  that  understanding  are.", 
  "The  method  selected  encourages  one  to  deal  \nwith  research  issues  in  a  particular  way  and  to  advance  certain  kinds  of  \narguments  for  the  credibility  of  on~'s  conclusions.", 
  "These  nonlogical  \nmethodological  tendencies  fit  with  individual  stylistic  predilictions  as  well  \nas  the  philosophical  underpinnings  of  the  positivistic  and  phenomenological  \nparadigms  of  research.", 
  "ENDNOTES  \n\n1.", 
  "The  work  upon  which  this  publication  is  based  was  funded  by  the  Office  of  \nEducational  Research  and  Improvement  (OERI),  U.S.  Department  of  Education.", 
  "The  opiuions  expressed  in  this  publication  do  not  necessarily  reflect  the  \nposition  or  policy  of  the  OERI,  and  no  official  endorsement  by  the  OERI  \nshould  be  inferred.", 
  "Thanks  are  due  to  Bruce  Wilson  and  Robert  Herriott  \nfor  their  helpful  comments.", 
  "2.", 
  "Examples  are  taken  from  the  analysis  of  elem?ntary  schools.", 
  "A parallel  \nanalysis  of  secondary  schools  yields  substantially  similar  results.", 
  "3.", 
  "Examples  are  taken  primarily  from  the  comparison  of  IUs.", 
  "The  analysis  of  \nthe  EICs  in  New  Jersey  yielded  very  different  concrete  events,  but  the  \ncanclusions  of  the  analysis  were  very  similar.", 
  "Agency  names  are  \npseudonyms.", 
  "4.", 
  "Some  indication  that  the  differences  between  methods  are  not  as  sharp  as  \nthe  purists  claim  comes  from  the  observation  that  qualitative  methods  deal  \nwith  causality  at  all."
 ]
}