{
 "document_id": "8407477329050315721", 
 "sentences": [
  "American Academy of Political and Social Science \nFraming Responsibility for Political Issues Author(s): Shanto Iyengar Source: Annals of the American Academy of Political and Social Science, Vol.", 
  "546, The Media and Politics (Jul., 1996), pp.", 
  "59-70 Published by: Sage Publications, Inc. in association with the American Academy of Political and Social Science Stable URL: http://www.jstor.org/stable/1048170 Accessed: 21/03/2009 11:25 \nYour use of the JSTOR archive indicates your acceptance of JSTOR's Terms and Conditions of Use, available at http://www.jstor.org/page/info/about/policies/terms.jsp.", 
  "JSTOR's Terms and Conditions of Use provides, in part, that unless you have obtained prior permission, you may not download an entire issue of a journal or multiple copies of articles, and you may use content in the JSTOR archive only for your personal, non-commercial use.", 
  "Please contact the publisher regarding any further use of this work.", 
  "Publisher contact information may be obtained at http://www.jstor.org/action/showPublisher?publisherCode=sage.", 
  "Each copy of any part of a JSTOR transmission must contain the same copyright notice that appears on the screen or printed page of such transmission.", 
  "JSTOR is a not-for-profit organization founded in 1995 to build trusted digital archives for scholarship.", 
  "We work with the scholarly community to preserve their work and the materials they rely upon, and to build a common research platform that promotes the discovery and use of these resources.", 
  "For more information about JSTOR, please contact support@jstor.org.", 
  "Sage Publications, Inc. and American Academy of Political and Social Science are collaborating with JSTOR to digitize, preserve and extend access to Annals of the American Academy of Political and Social Science.", 
  "http://www.jstor.org \n\fANNALS,  AAPSS,  546,  July  1996  \nFraming Responsibility for Political Issues  \nBy  SHANTO  IYENGAR  \nABSTRACT: This  article  examines  the  influence  of television  news  on viewers'  attributions  of responsibility  for political  issues.", 
  "Televi-  sion's  systematic  reliance  on  episodic  as  opposed  to  thematic  depic-  tions  of political  life  elicits  individualistic  attributions  of responsibil-  ity  for  national  problems  such  as  poverty  and  terrorism.", 
  "These  attributions  emphasize  the  actions  of private  rather than  governmen-  tal  actors.", 
  "By  obscuring  the  connections  between  political  problems  and  the  actions  or  inactions  of  political  leaders,  television  news  the  accountability  of  trivializes  political  discourse  and  weakens  elected  officials.", 
  "Shanto  Iyengar  is professor  of political  science  and  communication  studies  at  the  University  of California,  Los Angeles.", 
  "His  principal  publications  include  News  That  Matters  (coauthored  with  D.  R.  Kinder);  Is  Anyone  Responsible?", 
  "How  Television  Frames Political Issues; Explorations in Political Psychology (coedited with William  J.  McGuire),  and  the  forthcoming  Going  Negative:  How  Political  Advertisements  Shrink  and  Polarize  the  Electorate  (coauthored  with  Stephen  Ansolabehere).", 
  "THE ANNALS OF THE AMERICAN ACADEMY  \nHE  concept  of  responsibility  an essential  building  block of all  From  the  de-  social  knowledge.", 
  "meanor  of one's next-door  neighbors  to  the  behavior  of elected  officials  in  the  nation's  capital,  people  spontane-  ously  attribute  responsibility  for the  behaviors  they  observe.", 
  "Attributions  of  responsibility  are  known  to  exert  over  a  broad  powerful  spectrum  of  interpersonal  and  so-  cial  attitudes.1  \ninfluence  \nThe  two  principal  types  of  attri-  to  causal  and  butions  correspond  treatment  responsibility.2  Causal  re-  sponsibility  concerns  the  origin  of  a  problem,  while  treatment  responsi-  bility  focuses  on who  or what  has  the  ability  to alleviate  the  problem.", 
  "Both  types  of  attributions  are  especially  relevant  for  understanding  political  life.", 
  "Why political  problems  occur and  recur  and  how  they  might  be  appro-  priately  \nremedied  are  perennial  \n1.", 
  "The psychological evidence is reviewed  in David J. Schneider, Albert H. Hastorf, and  Phoebe C. Ellsworth, Person Perception (Read-  ing,  MA: Addison-Wesley,  1979);  Phillip  Brickman et al., \"Models of Helping and Cop-  ing,\"  American  Psychologist,  vol.", 
  "37  (1982);  James R. Bettman and Barton A. Weitz, \"At-  tributions in the Board Room: Causal Reason-  ing in Corporate Annual  Reports,\"Administra-  tive  Science  Quarterly,  vol.", 
  "28  (1983);  James  Lemkau, F. B. Bryant, and Phillip Brickman,  \"Client Commitment in the Helping Relation-  ship,\"  in Basic  Processes  in Helping  Relation-  ships, ed.", 
  "T. A.", 
  "Mills (New York: Aldine, 1982);  Valerie  S.  Folkes,  \"Consumer Reactions to  Product Failure: An Attributional Analysis,\"  Journal  of Consumer Research,  vol.", 
  "10 (1984).", 
  "2.", 
  "Alan I. Abramowitz, David Lanoue, and  Subha Ramesh, \"Economic Conditions, Causal  Attributions, and Political Evaluations in the  1984 Presidential Election,\" Journal of Poli-  tics, vol.", 
  "50 (1988); Shanto Iyengar, Is Anyone  Responsible?", 
  "How  Television  Frames  Political  Issues (Chicago: University of Chicago Press,  \nthemes  in political  campaigns.", 
  "Do the  poor  prefer  to  remain  wards  of  the  state  rather  than  to work for a living,  or are  they  victims  of circumstances  and  forces  beyond  their  control?", 
  "What  course  of action  is  likely  to  re-  duce  poverty,  and  who  are  the  per-  sons or institutions  with  the  ability  to  carry it  out?", 
  "economic-  \nThe  importance  of people's  causal  and  treatment  attributions  for  po-  litical  issues  has  not  been  lost  on  those  who  seek  public  office.", 
  "Since  voters  tend  to punish  or reward  poli-  ticians  depending  upon  the  state  of  national-especially  conditions,  incumbent  officials  from  the  president  on  down  are  quick  to  claim  responsibility  for  outcomes  deemed  favorable  and  disclaim  re-  sponsibility  for  events  or  decisions  with  negative  implications.3  The  in-  creasingly  partisan  and  vitriolic  de-  bates  over \"who really  did it\" have,  by  some  accounts,  contributed  to consid-  erable  public  disillusionment  with  political  leaders.4  \nHow  do people  decide  questions  of  responsibility?", 
  "The  dominant  para-  digm  treats  attributions  as  residues  of  political  socialization  and  accul-  3.", 
  "Morris  P  Fiorina,  Retrospective  Voting  in American  National  Elections  (New  Haven,  CT: Yale University Press, 1981); Douglas A.  Hibbs,  The American  Political  Economy  (Cam-  bridge, MA: Harvard University Press, 1987);  Stephen Ansolabehere, Shanto Iyengar, and  Adam Simon, \"Good News,  Bad  News,  and  Economic Voting\" (Paper delivered at the an-  nual meeting of the American Political Science  Association, San Francisco, 1990); Donald R.  Kinder and Roderick Kiewiet, \"Economic Dis-  content  and  Political  Behavior,\" American  Journal  of Political  Science,  vol.", 
  "23  (1979).", 
  "4.", 
  "Stephen  Ansolabehere  and  Shanto  Iyengar,  Going Negative:  How Political  Adver-  tisements  Shrink  and  Polarize  the  Electorate  (New York: Free Press, 1995).", 
  "FRAMING RESPONSIBILITY FOR POLITICAL ISSUES  \n\nturation.", 
  "In this  view, an individual's  political  ideology  or  worldview  pro-  vides  the  dominant  influence  over at-  tributions  of  responsibility.", 
  "Newt  Gingrich  holds  the  poor  responsible  for  poverty;  Bill  Clinton  attributes  to  societal  forces  and  responsibility  institutions.", 
  "In  short,  how  individu-  als  assign  responsibility  is  consid-  ered part  and parcel  of long-standing  political  predispositions.", 
  "While  the  influence  of  culture  or  ideology  on attribution  of responsibil-  ity  cannot  be denied,  there  is  consid-  erable  evidence  that  short-term  fac-  tors  are  just  as  important.", 
  "Beliefs  about who  or what  is responsible  are  likely  to  shift  depending  upon  the  in  which  information  environment  political  issues  and  events  are  pre-  sented.", 
  "Today, the  most  important  of  these  contextual  influences  is  televi-  sion  news.", 
  "FRAMING EFFECTS  OF NEWS COVERAGE  \nThe  concept  of  framing  refers  to  the  effects  of  presentation  on  judg-  ment  and choice.", 
  "In the psychological  literature,  it is well  known  that  indi-  viduals'  choices vary dramatically  de-  pending  upon  whether  the  options  are  presented  as  potential  gains  or  losses.", 
  "When  faced  with  prospects  that  are  presented  as  relative  gains  (such  as  winning  $1),  experimental  participants  exhibit  risk  aversion-  they  prefer  a  sure  gain  to  a gamble.", 
  "When  faced  with  a  prospective  loss,  however,  they  become  risk  seeking  and prefer to gamble  than  to accept  a  certain  loss.5  Analogous  framing  ef-  5.", 
  "Daniel Kahneman and Amos Tversky,  \"Choices, Values, and Frames,\" American Psy-  \nfects  have  been  obtained  by  public  opinion researchers  who elicit  diverg-  ing  responses  by  varying  the  form  and wording  of survey  questions.", 
  "For  the  stimulus  \"people  on  example,  welfare\" typically  elicits  more  disap-  proving and less  charitable  responses  than  the  stimulus  \"poor people.", 
  "\"6  \nin  the  presentation  \nGiven  the  widespread  presence  of  framing  effects  associated  with  word-  ing  shifts  choice problems  or opinion questions,  similar  effects  might  be  expected  with  media news  presentations.", 
  "Most  people  encounter  the  world  of public  affairs  through  the  language  of tele-  vision,  and  television  news  coverage  of political  issues  embodies  two  dis-  tinct  frames  or  modes  of  presenta-  tion: the  episodic  news  frame  and the  thematic  news  frame.", 
  "The  research  is  summarized  here  was  de-  signed  to  investigate  the  effects  of  these  alternative  frames  on viewers'  \nchologist, vol.", 
  "39  (1984); Amos Tversky and  Daniel Kahneman, \"Rational Choice and the  Framing  of Decisions,\" in Rational  Choice: The  Contrast  Between  Economics  and  Psychology,  ed.", 
  "Hillel Einhorn and Robin Hogarth (Chi-  cago: University  of  Chicago  Press,  1987);  George A. Quattrone and Amos Tversky, \"Con-  trasting Rational and Psychological Analyses  of Political  Choice,\"American  Political  Science  Review, vol.", 
  "82 (1988); Richard Thaler, \"The  Psychology and Economics Conference Hand-  book,\" in  Rational  Choice:  The  Contrast  Be-  tween Economics  and  Psychology,  ed.", 
  "Einhorn  and Hogarth.", 
  "6.", 
  "Tom Smith, \"That Which We Call Wel-  fare by Any Other Name Would Smell Sweeter:  An Analysis of the Impact of Question Wording  on  Response  Patterns,\"  Public  Opinion  Quar-  terly, vol.", 
  "51  (1987); Howard Schuman and  Stanley  Presser,  Questions  and  Answers  Attitude  Surveys:  Experiments  on  Question  Form,  Wording, and  Context (New  York: Aca-  demic Press, 1982).", 
  "THE ANNALS OF THE AMERICAN ACADEMY  \nattributions of responsibility for po-  litical issues.", 
  "The  episodic news  frame depicts  \nissues in terms of specific instances-  for example, a  terrorist bombing, a  homeless person, or a case of illegal  drug usage.", 
  "Episodic reports are es-  sentially  illustrations of issues.", 
  "The  thematic frame, by contrast, depicts  political issues more broadly and ab-  stractly by placing them in some ap-  propriate  context-historical,  geo-  graphical, or otherwise.", 
  "A thematic  report on poverty might present in-  formation about recent trends in the  rate of poverty and the areas with the  greatest concentration of poor people.", 
  "In  appearance, the  thematic  frame  takes  the  form  of  a  backgrounder  report featuring  a  series  of people  talking.", 
  "In  practice, of  course, few  news  reports  are  purely  episodic or the-  matic.", 
  "A close-up portrait of an unem-  ployed worker will invariably make  reference to the national rate of un-  employment.", 
  "Conversely,  a  news  story  about congressional efforts to  reform welfare  programs might  in-  clude an interview with a welfare re-  cipient.", 
  "Content analyses  of televi-  sion  news  coverage,  however,  suggests that in most cases one frame  or the other predominates.7  \nThe nature of television news and  the  increasingly competitive nature  of the news business have combined  to create a premium for episodic cov-  erage of political issues.", 
  "Episodic re-  ports tend to provide good pictures;  they  do not  require reporters with  subject-matter expertise; and, being  devoid of interpretive analysis, they  are less likely to be labeled as biased  7.", 
  "Iyengar, Is Anyone Responsible?", 
  "chap.", 
  "3.  \nby media critics.", 
  "Anumber of content-  analytic  studies  have  documented  the pervasiveness of episodic framing  in broadcast news.8  \nWith the  support of the  National  Science  Foundation,  I  was  able  to  carry out a series of experiments de-  signed to investigate how television's  reliance on episodic framing affects  the viewing public's understanding of  political issues.", 
  "The results  showed  that  episodic  framing  breeds  indi-  vidualistic as opposed to societal at-  tributions of responsibility; national  issues  are traced to  private actions  and motives rather than deep-seated  socioeconomic or political conditions.", 
  "Given  the  public's sustained  expo-  sure  to  episodic framing, these  re-  sults suggest that the ultimate effect  of television news is to protect elected  officials from policy failures  or con-  troversies and thus strengthen their  legitimacy.", 
  "RESEARCH METHODS  \nThe  experiments  were  aimed  at  two  sets  of  national  issues:  issues  concerning public order and  issues  concerning social  or  economic wel-  fare.", 
  "The former category consisted of  crime and  terrorism; the  latter  in-  cluded unemployment, poverty, and  racial  inequality.", 
  "These  five  issues  have been at the forefront of political  life in recent years and show no signs  of abatement.", 
  "In each experiment, media fram-  ing of the target issue  was manipu-  8.", 
  "Ibid.", 
  "; David L. Altheide, \"Format and  Symbol in Television Coverage of Terrorism in  the United States and Great Britain,\" Interna-  tional Studies Quarterly, vol.", 
  "31(1987); William  A. Gamson, \"News as Framing,\" American Be-  havioral Scientist, vol.", 
  "33 (1989).", 
  "FRAMING RESPONSIBILITY FOR POLITICAL ISSUES  \n\nlated so that some participants were  exposed to episodic news while others  watched  thematic  coverage.", 
  "To use  the  example  of  poverty, one  set  of  viewers watched a news report that  described the  financial  woes  of  an  unemployed autoworker in Ohio; oth-  ers watched a report that juxtaposed  the  national  unemployment  rate  with  the  size  of the  federal budget  deficit.", 
  "Since  participants were  ex-  posed to experimental conditions at  random and since the conditions dif-  fered only with respect to episodic or  thematic coverage of the target issue,  differences in viewers' responses be-  tween  conditions can be  treated  as  evidence of framing effects.9  \nParticipants  in  the  experiments  were residents  of the  Three Village  area  of  Suffolk  County, New  York,  who were recruited through newspa-  per  and  other forms of  advertising  that  offered payment of $10.", 
  "When  potential  subjects responded to  the  advertisement, they were screened to  exclude  noncitizens,  college  stu-  dents, and people under the age of 18.", 
  "Pooled  across  all  experiments,  the  participants  were  generally  repre-  sentative of the local area in terms of  their social background and political  orientation.10  \n9.", 
  "Of course, this is a probabilistic argu-  ment.", 
  "It  is  possible that  despite the  use  of  randomization, experimental conditions will  still differ in composition.", 
  "It is standard prac-  tice  in  experimental research to verify that  random assignment of participants achieves  the desired effect.", 
  "In none of the framing ex-  periments described here did the  conditions  differ  significantly  on  any  relevant  back-  ground characteristic.", 
  "10.", 
  "The nine  separate experiments were  administered between June 1985 and Septem-  ber 1987.", 
  "The number of individuals who par-  ticipated in each experiment ranged from 40  \nAll studies were conducted at the  Media Research Laboratory, an office  suite  located on the  campus of the  State  University  of  New  York at  Stony Brook.", 
  "When participants ar-  rived, they  were  informed that  the  study concerned selective perception  of television news and that they were  to watch a videotape of randomly se-  lected news stories broadcast by the  three major networks over the  past  six months.11 After receiving their in-  structions, participants completed a  short pretest questionnaire concern-  ing  their  personal background, de-  gree of attention to politics, and me-  dia habits and tastes.", 
  "In order to reduce the aura of the  research  laboratory,  participants  were  encouraged  to  come  with  a  friend, spouse, or coworker.", 
  "Typically,  participants watched  the  videotape  with someone they knew.", 
  "In addition,  the  viewing  environment  was  fur-  nished casually to resemble a typical  living room or family room, and par-  ticipants  could sip  coffee or browse  through newspapers and magazines.", 
  "Following completion of the  pre-  test, participants watched a twenty-  \nto 244.", 
  "While the  participants constituted a  reasonable approximation of Suffolk County,  New York, they were, in comparison with the  American  electorate,  more  affluent,  more  Catholic and more Jewish, more educated, and  more likely to have voted in the last election.", 
  "For further details on the sample participants,  see Iyengar, Is Anyone Responsible?", 
  "chap.", 
  "3.", 
  "11.", 
  "The instructions stated, \"Today televi-  sion news is the major source of information  for Americans.", 
  "This study is about how people  evaluate, understand, and interpret television  news stories.", 
  "We are particularly interested in  'selective  perception.'", 
  "Do  people's opinions  about politics and government influence how  they react to news?", 
  "Do Republicans and Demo-  crats really see the same news?\"", 
  "THE ANNALS OF THE AMERICAN ACADEMY  \n\nminute  videotape  included  seven  news  stories.", 
  "The  fourth  story  on the tape was the experimental  ma-  nipulation.", 
  "This  story  framed  the  in  either  issue  under  investigation  thematic  terms.", 
  "The  treatment  story was between  two and  three  minutes  in length.", 
  "or  episodic  \nOn  completion  of  the  videotape,  received  the  posttest  participants  questionnaire,  which  included  a bat-  tery  of open-ended  questions  probing  attributions  of causal  and treatment  for  the  target  and  responsibility  other political  issues.", 
  "Specifically,  in-  dividuals were asked, \"In your opinion,  what  are the most important causes  of  ?\"", 
  "They were then  asked, \"If you  were  asked  to suggest  ways  to reduce  __,  what  would you suggest?\"", 
  "Each  individual  was  allowed  to  answer  freely, without  prompting.", 
  "Up to four  separate  responses  were  coded  for  each  question.12 In  addition,  partici-  pants  completed  numerous  other  questions  concerning  their  attitudes  toward  groups,  political  leaders,  and  public policies.", 
  "Once participants  had  completed  the posttest,  they  were  de-  briefed  in full  and paid.l3  \nThe  experimental  \ndesign  de-  scribed  permits  estimation  of the  ef-  fects  of the treatment  story-episodic  \n12.", 
  "Although  \nthese  responses  were  un-  they  have  the  \nwieldy  and  coding  intensive,  advantage ofnonreactivity; unlike closed-ended  questions,  open-ended  questions  do  not  cue  respondents to think of particular causes or  treatments.", 
  "Two coders read each question-  naire  and classified  each response.", 
  "Despite  the  large  number of raw  categories,  inter-  coder agreement indicated acceptable levels  of reliability.", 
  "13.", 
  "The experimental procedures adhered  fully  to  the  American  Psychological  Associa-  tion's  guidelines  on the  conduct  of experimen-  tal  research.", 
  "or thematic-on  viewers' attributions.", 
  "However,  because  the  experimental  manipulations  were  based  on  actual  news  reports,  they  necessarily  differ  in  many  ways.", 
  "These  differences  were  minimized  by  editing  (using  studio-quality  equipment) the episodic  and thematic  versions  of the report so  as to maximize  the  similarity  of their  content.", 
  "For instance,  they  were  ed-  ited  to  be  of equal  length,  and  when  taken  from  the  same  network,  the  anchor's  lead-in  remarks  were  used  in  both  cases.14  \nIn  short,  the  design  used  here  is  subject to the usual  trade-off between  realism  and precision.", 
  "The  use  of ac-  tual  news  stories  created  extraneous  differences  between  the  different  news  frames.", 
  "By  constraining  treatment  stories  to  a high  degree  of  visual  and  semantic  similarity,  how-  ever, the  role of these  differences  was  minimized.", 
  "Responses  to the open-ended  attri-  bution  questions  were  plentiful.", 
  "On  average,  participants  nominated  two  causes  and  two  treatments  for  each  of the  five  issues.15  Causal  responsi-  bility  for  both  crime  and  terrorism  was  assigned  to the individual  perpe-  14.", 
  "To guard  against  the  possibility  of con-  founded  variables,  the  experimental  tests  of  framing  were  always  replicated  with  an  en-  tirely  different  set  of news  stories.", 
  "To the  de-  gree  that  the  observed  framing  effects  appear  across different  sets  of manipulations,  the pos-  sibility  that  idiosyncratic  differences  between  episodic  and  thematic  reports  are  at  work  is  minimized.", 
  "15.", 
  "Crime  elicited  the  largest  number  of  causal  and treatment attributions-2.7  and  because  of  its  2.1,  respectively-presumably  relatively  obtrusive  nature.", 
  "FRAMING RESPONSIBILITY FOR POLITICAL ISSUES  \n\ntrator (individualistic responsibility),  to a variety of societal conditions in-  cluding economic deprivation and po-  litical  oppression (societal responsi-  bility), or to the failure of the criminal  justice process to mete out adequate  retribution (punitive responsibility).", 
  "Some  50  percent  of  the  causal  re-  sponses referred to societal responsi-  bility; 36 percent suggested individu-  alistic  responsibility;  and  only  12  percent cited judicial leniency.", 
  "Treatment responsibility for crime  and  terrorism was  reserved  exclu-  sively  for  society  and  government  and took two forms-addressing  the  underlying  political  or  economic  grievances  (societal  treatment  re-  sponsibility) or imposing more severe  retaliation  and punishment  against  terrorists  and  criminals  (punitive  treatment responsibility).", 
  "Sixty per-  cent of the responses called for more  punitive policies, and 40 percent re-  ferred  to  economic  and  political  \nlarge.", 
  "Attribution  \nTurning to the issues of social wel-  fare,  causal  responsibility  was  as-  signed either to individuals or to so-  ciety  at  individual responsibility referred to  insufficient achievement motivation  or  inadequate  training  and  educa-  tion.", 
  "Attributions of societal respon-  sibility encompassed economic condi-  tions, such as the changing nature of  work; cultural and ideological values,  such  as  racial prejudice; and unre-  sponsive public policies, such as cuts  in  federal  social  welfare  programs.", 
  "For unemployment and racial inequal-  ity, societal causes outnumbered in-  dividual  causes  by  a  considerable  margin, but in the case of poverty, the  balance was relatively even.", 
  "Unlike  crime and terrorism, the  suggested  cures for issues  of social  welfare were  directed at  actions by  individuals  and the  collectivity (so-  cietal  responsibility).", 
  "Once  again,  poverty elicited an equal number of  individualistic and societal prescrip-  tions,  whereas  calls  for societal  ac-  tion far exceeded references to indi-  vidual  action in  the  cases  of racial  inequality and unemployment.", 
  "Rela-  tive  to  the  unemployed and  racial  minorities, poor people are thought to  have more control over their fates.", 
  "How did the  relative prominence  of individualistic and societal  attri-  butions change as a result of media  framing?", 
  "The most consistent fram-  ing effects were detected with news  coverage of  poverty  and  terrorism.", 
  "Less  clear-cut results,  in  which the  effects  of  framing  varied  with  the  subject matter of the news, were ob-  served with crime and racial inequal-  ity.", 
  "Finally, attributions of responsi-  bility for the issue of unemployment  were unaffected by the experimental  manipulations of framing.", 
  "Poverty and  terrorism  \nAttributions of responsibility  for  causal  and  treat-  poverty-both  ment-became  significantly more in-  dividualistic  when  news  coverage  was  episodic.", 
  "Conversely, thematic  coverage elicited  a  greater  prepon-  derance of  societal  attributions.", 
  "In  effect, news that dwells on particular  instances  of  poverty  encourages  viewers to blame the victim.", 
  "In  addition  to  these  significant  framing effects, viewers' attributions  of responsibility for poverty were also  sensitive to the specific categories of  \n\nTHE ANNALS OF THE AMERICAN ACADEMY  \npoor people depicted in the news.", 
  "In  one of the experiments, participants  were exposed to one of four different  episodic reports corresponding to dif-  ferent  groups of welfare recipients:  elderly  widows,  unemployed  male  workers, children, and single moth-  ers.", 
  "Within each of these  categories,  the treatment report varied the race  of the poor person.", 
  "Thus some partici-  pants watched a news report on hun-  gry  black  children,  while  others  watched the identical report, except  that the children shown were white.", 
  "The results of this more elaborate  study suggested that  attributions of  responsibility  for poverty were  not  only  contingent  upon  the  news  frame-in  the  sense  that  thematic  coverage made viewers more societal  in their reasoning, while episodic cov-  erage  had  the  opposite  effect-but  also sensitive to the particular class  of poor people encountered in the news.", 
  "The  class  that  elicited the  harshest  is, the most numer-  responses-that  ous  individualistic  attributions  of  cause  and  treatment-was  mothers.", 
  "In effect, compared with el-  derly widows,  children, and unem-  ployed males, single mothers are con-  sidered less deserving.", 
  "The  race  of  the  poor person  de-  picted in the news also proved to be a  meaningful  cue.", 
  "When viewers  en-  countered  black  poor people,  they  often argued in favor of individual as  opposed to societal treatment respon-  sibility.", 
  "Differences in  causal  attri-  bution associated with the race of the  poor person were in the  same direc-  tion, but failed to achieve statistical  significance.", 
  "These racial differences  were  especially  pronounced in  the  single-mother  condition, where  the  \nblack  mother  attracted  more  than  double the volume of individualistic  treatment  responses  of  her  white  counterpart.", 
  "Turning to the issue  of terrorism,  two  separate  experiments  yielded  evidence  of  significant  framing  ef-  fects.", 
  "When the news depicted terror-  ism in thematic terms-for  instance,  by noting recent changes in U.S. dip-  lomatic policy toward countries sus-  pected  of  fomenting  international  terrorism-viewers'causal  and treat-  ment attributions gravitated toward  societal factors.", 
  "When the  news  de-  picted a particular act of terrorism,  however, attributions became signifi-  cantly more individualistic and puni-  tive in  orientation.", 
  "The effects were  especially strong in the area of treat-  ment  responsibility; under  the  epi-  sodic framing of terrorism, the ratio  of punitive to societal treatment  at-  tributions was 3:1; under conditions of  thematic framing, the ratio was 1:1.", 
  "Crime and  \nracial  inequality  Unlike the experiments on poverty  and  terrorism,  where  the  framing  manipulation  independently  influ-  enced viewers' attributions, the stud-  ies  bearing on crime and racial in-  equality  yielded  more  ambiguous  and complex results.", 
  "For both issues,  the importance of the episodic versus  thematic  framing manipulation  de-  pended upon the particular subject-  matter focus of the news.", 
  "In the study  on crime, participants were exposed  to news coverage of violent crime (by  far the most common theme in televi-  sion news about crime), drug abuse,  or the workings of the  criminal jus-  \n\fFRAMING RESPONSIBILITY FOR POLITICAL ISSUES  \n\ntice process.", 
  "The violent-crime cate-  gory was subdivided into \"black\" and  \"white\" categories  depending upon  the race of the individuals depicted as  the perpetrators of criminal activity.16  The effects of framing in this  ex-  periment were weak and varied with  the subject matter of crime news.", 
  "The  episodic  conditions  were  charac-  terized by significantly higher levels  of individualistic causal attributions  than  the  thematic  conditions  only  when the report on crime concerned  white  violent  crime or the  criminal  justice process.", 
  "While  this  experiment  failed  to  generate  a  consistent  pattern  of  framing effects, it  did shed  further  light on the importance of racial cues  conveyed in news  coverage.", 
  "Societal  causes of crime were cited least fre-  quently-29  percent of all causal at-  tributions were societal-in  the black  crime condition.", 
  "In this  respect, the  black crime condition deviated  sig-  nificantly from the  three remaining  subject-matter conditions.", 
  "Not  only  did  news  about black  crime divert  attention from societal responsibility,  but it also highlighted individual re-  sponsibility.", 
  "More than 60 percent of  all causal attributions were directed  at individuals when the news reported  \n16.", 
  "The  \"black crime-episodic\" condition  described a violent gang-related confrontation  in  Los Angeles.", 
  "The \"black crime-thematic\"  condition described the extent of crime in in-  ner-city neighborhoods in several major cities.", 
  "The \"white crime-episodic\" condition focused  on  the  well-known shooting incident in  the  New  York City subway in  which  Bernhard  Goetz, a white passenger, shot at four black  teenagers who allegedly approached him in a  menacing  manner.", 
  "The  \"white crime-the-  matic\" condition detailed the growing impor-  tance of organized crime.", 
  "on  black violent  crime, which  was  double the comparable percentage in  the white-violent-crime condition.", 
  "The  experiment  featuring  racial  inequality as the target issue  incor-  porated three subject-matter catego-  ries, which corresponded to the pre-  vailing  themes  in  network  news  coverage of this  issue.", 
  "Participants  watched a news report on racial dis-  crimination against  blacks,  on  eco-  nomic inequality between whites and  blacks, or on affirmative action.", 
  "The  framing manipulation was  confined  to  the  affirmative  action  and  eco-  nomic inequality conditions.", 
  "The effects of framing were limited  to  news  coverage  of  economic  in-  equality.", 
  "In  the  case  of  affirmative  action, attributions of responsibility  were unaffected by framing; societal  attributions  of  responsibility  were  the  dominant responses in both the  episodic and the thematic conditions.", 
  "When the focus of the news was black  poverty, however, episodic  framing  significantly  increased  the  promi-  nence of individualistic attributions  and reduced the frequency of societal  attributions.", 
  "By  directing attention  to  a black poor person, the  episodic  report prompted a relative outpour-  ing of individualistic accounts of ra-  cial inequality in American society.", 
  "Unemployment  \nTwo separate studies were devoted  to unemployment.", 
  "In Study 1, two of  the three conditions represented the-  matic framing.", 
  "The news reports de-  scribed trends  in  the  recent unem-  ployment  rate  and  the  difficulties  facing the  U.S.  steel  industry.", 
  "The  episodic framing condition described  \n\nTHE ANNALS OF THE AMERICAN ACADEMY  \nthe  economic  difficulties  unemployed  white  male.", 
  "facing  an  \nIn  all  three  conditions,  \nbutions  of  societal  responsibility  overwhelmed  all  other  responses.", 
  "The  level  of  societal  responsibility  was  lowest  in  the  episodic  condition,  but  the  magnitude  of the  differences  was  trivial.", 
  "The second  effort to detect framing  effects  included  one  thematic  condi-  regional  differences  in  un-  two  episodic  con-  employment-and  ditions  on unemployed  autoworkers,  one of whom  was  black and the  other,  white.", 
  "Once  again,  no  significant  emerged.", 
  "Attri-  butions  of  responsibility  for  unem-  ployment  were  predominantly  socie-  tal  regardless  of  the  news  frame  or  the  race  of the  unemployed  worker.", 
  "Overall,  with  the  exception  of un-  employment,  the results  suggest  that  framing  does  shape  attri-  butions  of responsibility  for political  issues.17  Considering  the  relatively  minute  scope  of  the  experimental  manipulations  (a single  news  report)  and  the  fact  that  they  addressed  highly  visible  issues  with  which  the  participants  had  extensive  iarity,  it  is  notable  that  any  of  the  experimental  effects  proved  signifi-  cant.", 
  "In  general,  the  dominant  epi-  sodic  frame  used  by  television  news  increased  viewers'  reliance  on  indi-  vidualistic  or  nonsocietal  construc-  tions  of political  issues,  in  which  the  characteristics  or motives  of private  citizens  are the  most  relevant  causes  17.", 
  "The distinctiveness of unemployment  may  stem  from  the  unusually  high  level  of  prominence  accorded  the  issue  during  the  pe-  riod  of  this  research.", 
  "Thus  people  may  have  regarded  unemployment  as  a  particular  in-  stance  of national  economic  problems.", 
  "or cures.", 
  "Prior  efforts  to  explain  the  prominence  of  individualistic  attri-  in  the  public's  reasoning  about  political  issues  have  cited  mainstream  cultural  values  as  the  source.", 
  "However, the well-documented  tendency  of  Americans  to  consider  poor people,  minorities,  or those  who  break the law  as personally  responsi-  ble  for their  actions  may  be  due  not  only  to  cultural  norms  but  also  to  a  pattern  of television  news  coverage  in  which the spotlight  is directed  at poor  people,  criminals,  or terrorists.", 
  "Spillover  effects  \nTo this  point,  the  tests  of framing  have  been  confined  to  particular  is-  sue  areas.", 
  "It is possible  that  framing  effects  may  affect related  issues.", 
  "Epi-  sodic framing  of poverty, for instance,  may  carry  over  to  influence  attri-  butions  of  responsibility  for  unem-  ployment  or racial  inequality.", 
  "There  were  two  tests  of  spillover  effects.", 
  "The  first  concerned  the  degree  to  which  episodic  or thematic  framing  of  the target  issue  affects  attributions  of  responsibility  for a closely  related  is-  sue.", 
  "The  second  test  addressed  the  degree  to which  episodic  or thematic  framing  affects  the  consistency  of  viewers' attributions for related issues.", 
  "The  first  study  investigated  spill-  over between  poverty  and unemploy-  ment.", 
  "If  the  two  issues  are  psycho-  thematic  logically  framing  of poverty  should  strengthen  attribution  of  societal  responsibility  for  unemployment,  while  episodic  framing  of poverty  should  strengthen  attribution  of individual  responsibil-  ity  for  unemployment.", 
  "The  results  demonstrated  that,  with  one  excep-  \nconnected,  \n\fFRAMING RESPONSIBILITY FOR POLITICAL ISSUES  \n\ntion (thematic framing of poverty sig-  nificantly increased the  prominence  of societal causal attribution for un-  employment), the  manner in  which  the news framed poverty had no rele-  vance to individuals' understanding  of unemployment.", 
  "As a second test ofspillover, between-  issue  correlations between summary  measures of causal and treatment re-  sponsibility were computed.8l  \nThese correlations were small (.22  for causal responsibility and .26 for  treatment responsibility), suggesting  that individuals did not attribute re-  sponsibility consistently.", 
  "The level of  between-issue  consistency was  uni-  formly low in both episodic and the-  matic conditions.", 
  "The  second study  of spillover fo-  cused on crime and terrorism.", 
  "Of the  five different categories of causal and  treatment  attributions  (individual,  societal, and punitive causal respon-  sibility; societal  and punitive treat-  only  one  ment  responsibility),  showed traces  of spillover; episodic  framing of terrorism induced signifi-  cantly fewer societal treatment attri-  butions  for crime.", 
  "In  all  remaining  cases, the framing effects were issue  specific.", 
  "Unlike the earlier results on pov-  erty  and unemployment, this  study  showed  that  thematic  framing sig-  nificantly increased the  consistency  of  the  attributions  across  issues.", 
  "When  exposed to  episodic framing,  viewers tended to offer distinct attri-  butions  for  crime  and  terrorism;  when shown thematic coverage, their  \n18.", 
  "Each respondent's percentage of indi-  vidualistic attributions was  subtracted from  the percentage of societal attributions to arrive  at a net responsibility score.", 
  "attributions  became  more  conver-  gent, suggesting that they linked the  two issues.", 
  "All told, the  analyses  of  spillover showed that individuals tend  to exhibit little consistency across is-  sues when attributing responsibility  to individual, societal, or other fac-  tors.", 
  "People tend  to  consider issues  discretely rather than developing an  overarching schema for political re-  sponsibility.", 
  "Attribution of responsi-  bility is  domain specific rather than  general.", 
  "These data thus confirm the  classic findings of Lane and Converse  that political belief systems  are nar-  row rather than broad and that par-  ticular issue  publics exhibit distinct  opinion profiles.19  \nCONCLUSION  \nTwo sets  of  implications  can  be  drawn from the  media-framing ex-  periments.", 
  "First,  the  evidence  on  framing suggests  a circumstantially  bounded process of political reason-  ing in which attributions of responsi-  bility are buffeted about by the pre-  vailing  winds  of  news  coverage.", 
  "While core values such as individual-  ism  and  the  work ethic  encourage  citizens  to  hold  individuals  rather  than  society  responsible  for  issues  such as poverty or racial inequality,  exposure to thematic framing of is-  sues can and does override these dis-  positions.", 
  "Therefore, the  dominant  dispositional model of public opinion  and  political  behavior  that  grants  monopoly status  to  stable  personal  19.", 
  "Robert E. Lane, Political Ideology: Why  the Common Man Believes What He Does (New  York: Free Press,  1962); Philip E. Converse,  \"The Nature of Belief Systems in Mass Pub-  lics,\" in  Ideology and  Discontent, ed.", 
  "David  Apter (New York: Free Press, 1964).", 
  "THE ANNALS OF THE AMERICAN ACADEMY  \ninfluences-most  notably,  party  identification-must  be revised to al-  low for circumstantial influence.", 
  "In  addition to framing, the  news  shapes  attributions of responsibility  in other ways.", 
  "Racial cues in the news  proved significant in  shaping view-  ers' responses to crime and poverty.", 
  "It  is possible that by depicting African  Americans in the role of poor people  or perpetrators of criminal activity,  television  may  contribute to  a reaf-  firmation  of  old-fashioned  racial  prejudice.", 
  "That is, the frequent asso-  ciation  of  African  Americans  with  economic failure  and  violent  crime  encourages and justifies  the expres-  sion of racist attitudes.20  \nThe second set of implications con-  cerns the  dominance of the  episodic  frame in television news and the re-  sulting  distortions  in  the  political  process.", 
  "By reducing complex issues  to the level of anecdotal cases, episodic  framing leads viewers to attributions  that  shield  society and  government  from responsibility.", 
  "Confronted with  \n20.", 
  "For experimental evidence that demon-  strates this connection, see Franklin Gilliam,  Shanto Iyengar, and Adam Simon, \"The Inter-  section of Race, Crime and Television News\"  (Paper delivered at the annual meeting of the  Midwestern Political Science Association, Chi-  cago, 1995).", 
  "a parade of news  stories  describing  particular instances  of  national  is-  sues,  viewers  come to  focus on the  particular individuals or groups de-  picted in the news rather than histori-  cal,  social,  political,  or  other  such  structural factors.", 
  "Americans  are  not,  however, in-  trinsically  averse  to  structural  ac-  counts of responsibility for political  issues.", 
  "When  the  news  presents  a  general  frame  of  reference  for  na-  tional  problems, viewers' reasoning  about causal and treatment responsi-  bility shifts accordingly.", 
  "For example,  following  exposure  to  increases  in  malnutrition nationwide, poverty be-  comes a matter of inadequate govern-  mental action; confronted with news  about deteriorating economic condi-  tions in inner-city areas, individuals  cite increased economic opportunity  as the appropriate remedy for crime.", 
  "Because  the  public's  reasoning  about responsibility is susceptible to  framing effects and because the epi-  sodic frame is so predominant, televi-  sion news, in the final analysis, is  a  significant  resource  for  political  elites.", 
  "Instead  of  serving  as  a  re-  straining or monitoring force, televi-  sion  news  enables  incumbent  offi-  cials to distance themselves from any  rising  tide  of  disenchantment  over  the state of public affairs."
 ]
}