{
 "document_id": "8797169920277513093", 
 "sentences": [
  "econstorMake Your Publications Visible.A Service ofzbwLeibniz-InformationszentrumWirtschaftLeibniz Information Centrefor EconomicsGang, Ira N.; Schmillen, AchimWorking PaperSometimes, winners lose: Economic disparity andindigenization in KazakhstanIOS Working Papers, No.", 
  "345Provided in Cooperation with:Leibniz Institute for East and Southeast European Studies (IOS),RegensburgSuggested Citation: Gang, Ira N.; Schmillen, Achim (2014) : Sometimes, winners lose:Economic disparity and indigenization in Kazakhstan, IOS Working Papers, No.", 
  "345,http://nbn-resolving.de/urn:nbn:de:101:1-2014101419545This Version is available at:http://hdl.handle.net/10419/106623Standard-Nutzungsbedingungen:Die Dokumente auf EconStor d\u00fcrfen zu eigenen wissenschaftlichenZwecken und zum Privatgebrauch gespeichert und kopiert werden.Sie d\u00fcrfen die Dokumente nicht f\u00fcr \u00f6ffentliche oder kommerzielleZwecke vervielf\u00e4ltigen, \u00f6ffentlich ausstellen, \u00f6ffentlich zug\u00e4nglichmachen, vertreiben oder anderweitig nutzen.Sofern die Verfasser die Dokumente unter Open-Content-Lizenzen(insbesondere CC-Lizenzen) zur Verf\u00fcgung gestellt haben sollten,gelten abweichend von diesen Nutzungsbedingungen die in der dortgenannten Lizenz gew\u00e4hrten Nutzungsrechte.Terms of use:Documents in EconStor may be saved and copied for yourpersonal and scholarly purposes.You are not to copy documents for public or commercialpurposes, to exhibit the documents publicly, to make thempublicly available on the internet, or to distribute or otherwiseuse the documents in public.If the documents have been made available under an OpenContent Licence (especially Creative Commons Licences), youmay exercise further usage rights as specified in the indicatedlicence.www.econstor.eu\fArbeitsbereich \u00d6konomie  \nIOS Working Papers  \nNo.", 
  "345  October 2014  \nSometimes, Winners Lose: Economic Disparity and   Indigenization in Kazakhstan  \nIra N. Gang * and Achim Schmillen **  \n* Rutgers University; IZA; CReAM; Institute for East and Southeast European Studies ** The World  Bank;  Institute  for  East  and  Southeast  European  Studies.", 
  "Corresponding  author;  ad- dress:  Ira  Gang,  Rutgers  University,  75  Hamilton  Street,  New  Brunswick,  NJ  08901-1248,  USA; Fax: +1 (732) 932 7416; email: gang@economics.rutgers.edu.", 
  "Landshuter Stra\u00dfe 4  D-93047 Regensburg  Telefon: (09 41) 943 54-10  Telefax: (09 41) 943 54-27  E-Mail: info@ios-regensburg.de  Internet: www.ios-regensburg.de  \nContents  \nAbstract ..................................................................................................................... v  \n1   Introduction ........................................................................................................... 1  \n2   Background Information ....................................................................................... 4  \n3   Data, Variables and Analytical Strategy ............................................................... 7  \n4   Results ................................................................................................................ 12  \n5   Robustness ......................................................................................................... 24  \n6   Conclusions ........................................................................................................ 26"
 ]
}