{
 "document_id": "9934576896419763043", 
 "sentences": [
  "(cid:40)(cid:71)(cid:88)(cid:70)(cid:68)(cid:87)(cid:76)(cid:82)(cid:81)(cid:68)(cid:79)(cid:3)(cid:54)(cid:70)(cid:76)(cid:72)(cid:81)(cid:70)(cid:72)(cid:86)(cid:29)(cid:3)(cid:55)(cid:75)(cid:72)(cid:82)(cid:85)(cid:92)(cid:3)(cid:9)(cid:3)(cid:51)(cid:85)(cid:68)(cid:70)(cid:87)(cid:76)(cid:70)(cid:72)(cid:3)(cid:3)(cid:16)(cid:3)(cid:3)(cid:20)(cid:21)(cid:11)(cid:21)(cid:12)(cid:3)(cid:112)(cid:3)(cid:54)(cid:83)(cid:85)(cid:76)(cid:81)(cid:74)(cid:3)(cid:112)(cid:3)(cid:20)(cid:20)(cid:28)(cid:19)(cid:16)(cid:20)(cid:20)(cid:28)(cid:23) \n(cid:2) (cid:21)(cid:19)(cid:20)(cid:21)(cid:3)(cid:40)(cid:71)(cid:88)(cid:70)(cid:68)(cid:87)(cid:76)(cid:82)(cid:81)(cid:68)(cid:79)(cid:3)(cid:38)(cid:82)(cid:81)(cid:86)(cid:88)(cid:79)(cid:87)(cid:68)(cid:81)(cid:70)(cid:92)(cid:3)(cid:68)(cid:81)(cid:71)(cid:3)(cid:53)(cid:72)(cid:86)(cid:72)(cid:68)(cid:85)(cid:70)(cid:75)(cid:3)(cid:38)(cid:72)(cid:81)(cid:87)(cid:72)(cid:85) \n(cid:90)(cid:90)(cid:90)(cid:17)(cid:72)(cid:71)(cid:68)(cid:80)(cid:17)(cid:70)(cid:82)(cid:80)(cid:17)(cid:87)(cid:85)(cid:18)(cid:72)(cid:86)(cid:87)(cid:83) \nInvestigation of Fifth Grade Students\u2019 Mathematical  \nCalibration Skills \nG\u00f6khan \u00d6ZSOYa (cid:36)(cid:78)(cid:86)(cid:68)(cid:85)(cid:68)(cid:92)(cid:3)(cid:56)(cid:81)(cid:76)(cid:89)(cid:72)(cid:85)(cid:86)(cid:76)(cid:87)(cid:92) \n\n(cid:55)(cid:75)(cid:72)(cid:3)(cid:83)(cid:88)(cid:85)(cid:83)(cid:82)(cid:86)(cid:72)(cid:3)(cid:82)(cid:73)(cid:3)(cid:87)(cid:75)(cid:76)(cid:86)(cid:3)(cid:86)(cid:87)(cid:88)(cid:71)(cid:92)(cid:3)(cid:76)(cid:86)(cid:3)(cid:87)(cid:82)(cid:3)(cid:71)(cid:72)(cid:89)(cid:72)(cid:79)(cid:82)(cid:83)(cid:3)(cid:68)(cid:3)(cid:86)(cid:70)(cid:68)(cid:79)(cid:72)(cid:3)(cid:87)(cid:82)(cid:3)(cid:80)(cid:72)(cid:68)(cid:86)(cid:88)(cid:85)(cid:72)(cid:3)(cid:73)(cid:76)(cid:73)(cid:87)(cid:75)(cid:3)(cid:74)(cid:85)(cid:68)(cid:71)(cid:72)(cid:3)(cid:86)(cid:87)(cid:88)(cid:71)(cid:72)(cid:81)(cid:87)(cid:86)(cid:109)(cid:3)(cid:80)(cid:68)(cid:87)(cid:75)(cid:72)(cid:80)(cid:68)(cid:87)(cid:76)(cid:70)(cid:68)(cid:79)(cid:3)(cid:70)(cid:68)(cid:79)(cid:76)(cid:69)(cid:85)(cid:68)(cid:87)(cid:76)(cid:82)(cid:81)(cid:3)(cid:86)(cid:78)(cid:76)(cid:79)(cid:79)(cid:86)(cid:17)(cid:3) (cid:37)(cid:72)(cid:86)(cid:76)(cid:71)(cid:72)(cid:86)(cid:15)(cid:3)(cid:76)(cid:87)(cid:3)(cid:68)(cid:76)(cid:80)(cid:86)(cid:3)(cid:87)(cid:82)(cid:3)(cid:71)(cid:72)(cid:87)(cid:72)(cid:85)(cid:80)(cid:76)(cid:81)(cid:72)(cid:3)(cid:86)(cid:87)(cid:88)(cid:71)(cid:72)(cid:81)(cid:87)(cid:86)(cid:109)(cid:3)(cid:70)(cid:68)(cid:79)(cid:76)(cid:69)(cid:85)(cid:68)(cid:87)(cid:76)(cid:82)(cid:81)(cid:3)(cid:86)(cid:78)(cid:76)(cid:79)(cid:79)(cid:86)(cid:3)(cid:87)(cid:75)(cid:85)(cid:82)(cid:88)(cid:74)(cid:75)(cid:3)(cid:87)(cid:75)(cid:76)(cid:86)(cid:3)(cid:86)(cid:70)(cid:68)(cid:79)(cid:72)(cid:17)(cid:3)(cid:53)(cid:72)(cid:86)(cid:88)(cid:79)(cid:87)(cid:86)(cid:3)(cid:82)(cid:73)(cid:3)(cid:87)(cid:75)(cid:72)(cid:3)(cid:86)(cid:87)(cid:88)(cid:71)(cid:92)(cid:3)(cid:85)(cid:72)(cid:89)(cid:72)(cid:68)(cid:79)(cid:72)(cid:71)(cid:3)(cid:87)(cid:75)(cid:68)(cid:87)(cid:3) (cid:73)(cid:76)(cid:73)(cid:87)(cid:75)(cid:16)(cid:74)(cid:85)(cid:68)(cid:71)(cid:72)(cid:3)(cid:86)(cid:87)(cid:88)(cid:71)(cid:72)(cid:81)(cid:87)(cid:86)(cid:3)(cid:11)(cid:81)(cid:32)(cid:3)(cid:28)(cid:23)(cid:12)(cid:3)(cid:72)(cid:81)(cid:85)(cid:82)(cid:79)(cid:79)(cid:76)(cid:81)(cid:74)(cid:3)(cid:87)(cid:82)(cid:3)(cid:86)(cid:87)(cid:88)(cid:71)(cid:92)(cid:15)(cid:3)(cid:75)(cid:68)(cid:89)(cid:72)(cid:3)(cid:68)(cid:3)(cid:80)(cid:72)(cid:71)(cid:76)(cid:88)(cid:80)(cid:16)(cid:75)(cid:76)(cid:74)(cid:75)(cid:3)(cid:79)(cid:72)(cid:89)(cid:72)(cid:79)(cid:3)(cid:82)(cid:73)(cid:3)(cid:11)(cid:48)(cid:32)(cid:3)(cid:24)(cid:24)(cid:17)(cid:20)(cid:21)(cid:15)(cid:3)(cid:54)(cid:39)(cid:32)(cid:3)(cid:21)(cid:20)(cid:17)(cid:26)(cid:25)(cid:12)(cid:3)(cid:80)(cid:68)(cid:87)(cid:75)(cid:72)(cid:80)(cid:68)(cid:87)(cid:76)(cid:70)(cid:68)(cid:79)(cid:3) (cid:70)(cid:68)(cid:79)(cid:76)(cid:69)(cid:85)(cid:68)(cid:87)(cid:76)(cid:82)(cid:81)(cid:3)(cid:86)(cid:78)(cid:76)(cid:79)(cid:79)(cid:86)(cid:17)(cid:3)(cid:41)(cid:88)(cid:85)(cid:87)(cid:75)(cid:72)(cid:85)(cid:80)(cid:82)(cid:85)(cid:72)(cid:15)(cid:3)(cid:87)(cid:75)(cid:72)(cid:3)(cid:85)(cid:72)(cid:86)(cid:88)(cid:79)(cid:87)(cid:86)(cid:3)(cid:86)(cid:75)(cid:82)(cid:90)(cid:72)(cid:71)(cid:3)(cid:87)(cid:75)(cid:68)(cid:87)(cid:3)(cid:86)(cid:87)(cid:88)(cid:71)(cid:72)(cid:81)(cid:87)(cid:86)(cid:109)(cid:3)(cid:80)(cid:68)(cid:87)(cid:75)(cid:72)(cid:80)(cid:68)(cid:87)(cid:76)(cid:70)(cid:68)(cid:79)(cid:3)(cid:70)(cid:68)(cid:79)(cid:76)(cid:69)(cid:85)(cid:68)(cid:87)(cid:76)(cid:82)(cid:81)(cid:3)(cid:86)(cid:78)(cid:76)(cid:79)(cid:79)(cid:86)(cid:3)(cid:71)(cid:82)(cid:3)(cid:81)(cid:82)(cid:87)(cid:3)(cid:86)(cid:75)(cid:82)(cid:90)(cid:3) (cid:86)(cid:76)(cid:74)(cid:81)(cid:76)(cid:73)(cid:76)(cid:70)(cid:68)(cid:81)(cid:87)(cid:3)(cid:71)(cid:76)(cid:73)(cid:73)(cid:72)(cid:85)(cid:72)(cid:81)(cid:70)(cid:72)(cid:86)(cid:3)(cid:90)(cid:76)(cid:87)(cid:75)(cid:3)(cid:85)(cid:72)(cid:86)(cid:83)(cid:72)(cid:70)(cid:87)(cid:3)(cid:87)(cid:82)(cid:3)(cid:87)(cid:75)(cid:72)(cid:76)(cid:85)(cid:3)(cid:74)(cid:72)(cid:81)(cid:71)(cid:72)(cid:85)(cid:3)(cid:11)(cid:87)(cid:32)(cid:17)(cid:24)(cid:19)(cid:20)(cid:15)(cid:3)(cid:83)(cid:3)>(cid:3)(cid:17)(cid:19)(cid:20)(cid:12)(cid:17)(cid:3)(cid:43)(cid:82)(cid:90)(cid:72)(cid:89)(cid:72)(cid:85)(cid:15)(cid:3)(cid:86)(cid:87)(cid:88)(cid:71)(cid:72)(cid:81)(cid:87)(cid:86)(cid:109)(cid:3)(cid:70)(cid:68)(cid:79)(cid:76)(cid:69)(cid:85)(cid:68)(cid:87)(cid:76)(cid:82)(cid:81)(cid:3)(cid:86)(cid:78)(cid:76)(cid:79)(cid:79)(cid:86)(cid:3)(cid:86)(cid:75)(cid:82)(cid:90)(cid:3) (cid:86)(cid:76)(cid:74)(cid:81)(cid:76)(cid:73)(cid:76)(cid:70)(cid:68)(cid:81)(cid:87)(cid:3)(cid:71)(cid:76)(cid:73)(cid:73)(cid:72)(cid:85)(cid:72)(cid:81)(cid:70)(cid:72)(cid:86)(cid:3)(cid:90)(cid:75)(cid:72)(cid:81)(cid:3)(cid:70)(cid:82)(cid:81)(cid:86)(cid:76)(cid:71)(cid:72)(cid:85)(cid:76)(cid:81)(cid:74)(cid:3)(cid:87)(cid:75)(cid:72)(cid:76)(cid:85)(cid:3)(cid:79)(cid:72)(cid:89)(cid:72)(cid:79)(cid:3)(cid:82)(cid:73)(cid:3)(cid:80)(cid:68)(cid:87)(cid:75)(cid:72)(cid:80)(cid:68)(cid:87)(cid:76)(cid:70)(cid:86)(cid:3)(cid:68)(cid:70)(cid:75)(cid:76)(cid:72)(cid:89)(cid:72)(cid:80)(cid:72)(cid:81)(cid:87)(cid:3)(cid:11)(cid:41)(cid:11)(cid:21)(cid:16)(cid:28)(cid:20)(cid:12)(cid:32)(cid:25)(cid:28)(cid:17)(cid:23)(cid:25)(cid:15)(cid:3)(cid:83)(cid:3)<(cid:17)(cid:19)(cid:19)(cid:20)(cid:15)(cid:3)\u03b7(cid:21)(cid:32)(cid:17)(cid:25)(cid:19)(cid:12)(cid:17)(cid:3)(cid:3) (cid:44)(cid:81)(cid:3)(cid:68)(cid:71)(cid:71)(cid:76)(cid:87)(cid:76)(cid:82)(cid:81)(cid:15)(cid:3)(cid:68)(cid:3)(cid:83)(cid:82)(cid:86)(cid:76)(cid:87)(cid:76)(cid:89)(cid:72)(cid:3)(cid:68)(cid:81)(cid:71)(cid:3)(cid:86)(cid:76)(cid:74)(cid:81)(cid:76)(cid:73)(cid:76)(cid:70)(cid:68)(cid:81)(cid:87)(cid:3)(cid:85)(cid:72)(cid:79)(cid:68)(cid:87)(cid:76)(cid:82)(cid:81)(cid:86)(cid:75)(cid:76)(cid:83)(cid:3)(cid:90)(cid:68)(cid:86)(cid:3)(cid:73)(cid:82)(cid:88)(cid:81)(cid:71)(cid:3)(cid:69)(cid:72)(cid:87)(cid:90)(cid:72)(cid:72)(cid:81)(cid:3)(cid:86)(cid:87)(cid:88)(cid:71)(cid:72)(cid:81)(cid:87)(cid:86)(cid:109)(cid:3)(cid:80)(cid:68)(cid:87)(cid:75)(cid:72)(cid:80)(cid:68)(cid:87)(cid:76)(cid:70)(cid:68)(cid:79)(cid:3)(cid:70)(cid:68)(cid:79)(cid:76)(cid:69)(cid:85)(cid:68)(cid:87)(cid:76)(cid:82)(cid:81)(cid:3)(cid:86)(cid:78)(cid:76)(cid:79)(cid:79)(cid:86)(cid:3) (cid:68)(cid:81)(cid:71)(cid:3)(cid:87)(cid:75)(cid:72)(cid:76)(cid:85)(cid:3)(cid:80)(cid:68)(cid:87)(cid:75)(cid:72)(cid:80)(cid:68)(cid:87)(cid:76)(cid:70)(cid:86)(cid:3)(cid:68)(cid:70)(cid:75)(cid:76)(cid:72)(cid:89)(cid:72)(cid:80)(cid:72)(cid:81)(cid:87)(cid:3)(cid:11)(cid:85)(cid:3)(cid:32)(cid:17)(cid:27)(cid:24)(cid:15)(cid:3)(cid:83)(cid:3)<(cid:17)(cid:19)(cid:19)(cid:20)(cid:12)(cid:17) \n(cid:48)(cid:68)(cid:87)(cid:75)(cid:72)(cid:80)(cid:68)(cid:87)(cid:76)(cid:70)(cid:68)(cid:79)(cid:3)(cid:38)(cid:68)(cid:79)(cid:76)(cid:69)(cid:85)(cid:68)(cid:87)(cid:76)(cid:82)(cid:81)(cid:15)(cid:3)(cid:38)(cid:68)(cid:79)(cid:76)(cid:69)(cid:85)(cid:68)(cid:87)(cid:76)(cid:82)(cid:81)(cid:15)(cid:3)(cid:48)(cid:72)(cid:87)(cid:68)(cid:70)(cid:82)(cid:74)(cid:81)(cid:76)(cid:87)(cid:76)(cid:82)(cid:81)(cid:15)(cid:3)(cid:248)(cid:87)(cid:72)(cid:80)(cid:16)(cid:54)(cid:83)(cid:72)(cid:70)(cid:76)(cid:73)(cid:76)(cid:70)(cid:3)(cid:38)(cid:68)(cid:79)(cid:76)(cid:69)(cid:85)(cid:68)(cid:87)(cid:76)(cid:82)(cid:81)(cid:15)(cid:3)(cid:38)(cid:68)(cid:79)(cid:76)(cid:69)(cid:85)(cid:68)(cid:87)(cid:76)(cid:82)(cid:81)(cid:3)(cid:48)(cid:72)(cid:68)(cid:86)(cid:88)(cid:85)(cid:72)(cid:17) \nKey Words \nCal!brat!on, wh!ch !s one of the metacogn!t!ve  control sk!lls (Nelson & Narens, 1990), !s def!", 
  "ned as the accuracy of learners\u2019 percept!ons of  the!r own performance (P!eschl, 2009).", 
  "For th!s  reason, cal!brat!on !s cons!dered as a part of self- regulated learn!ng process and !t !s related w!th  mon!tor!ng  sk!lls  wh!ch  are  reported  among  metacogn!t!ve control sk!lls (Veenman, van Ho- ut-Wolters,  &  A&erbach,  2006).", 
  "Metacogn!t!n  refers  to  an  !nd!v!dual\u2019s  awareness  of  h!s  own  th!nk!ng process and h!s ab!l!ty to control these  processes (Flavel, 1979).", 
  "It !s observed that mo- dern  stud!es  d!scuss  the  metacogn!t!on  under  three  ma!n  facets:  Metacogn!t!ve  knowledge,  metacogn!t!ve control and metacogn!t!ve expe- \na G\u00f6khan \u00d6ZSOY, Ph.D.,(cid:3)(cid:76)(cid:86)(cid:3)(cid:90)(cid:82)(cid:85)(cid:78)(cid:76)(cid:81)(cid:74)(cid:3)(cid:68)(cid:86)(cid:3)(cid:68)(cid:81)(cid:3)(cid:68)(cid:86)(cid:86)(cid:76)(cid:86)(cid:87)(cid:68)(cid:81)(cid:87)(cid:3) (cid:83)(cid:85)(cid:82)(cid:73)(cid:72)(cid:86)(cid:86)(cid:82)(cid:85)(cid:3)(cid:68)(cid:87)(cid:3)(cid:56)(cid:81)(cid:76)(cid:89)(cid:72)(cid:85)(cid:86)(cid:76)(cid:87)(cid:92)(cid:3)(cid:82)(cid:73)(cid:3)(cid:36)(cid:78)(cid:86)(cid:68)(cid:85)(cid:68)(cid:92)(cid:15)(cid:3)(cid:76)(cid:81)(cid:3)(cid:87)(cid:75)(cid:72)(cid:3)(cid:39)(cid:72)(cid:83)(cid:68)(cid:85)(cid:87)(cid:16) (cid:80)(cid:72)(cid:81)(cid:87)(cid:3)(cid:82)(cid:73)(cid:3)(cid:40)(cid:79)(cid:72)(cid:80)(cid:72)(cid:81)(cid:87)(cid:68)(cid:85)(cid:92)(cid:3)(cid:40)(cid:71)(cid:88)(cid:70)(cid:68)(cid:87)(cid:76)(cid:82)(cid:81)(cid:17)(cid:3)(cid:43)(cid:72)(cid:3)(cid:86)(cid:83)(cid:72)(cid:70)(cid:76)(cid:68)(cid:79)(cid:16) (cid:76)(cid:93)(cid:72)(cid:86)(cid:3)(cid:76)(cid:81)(cid:3)(cid:80)(cid:72)(cid:87)(cid:68)(cid:70)(cid:82)(cid:74)(cid:81)(cid:76)(cid:87)(cid:76)(cid:82)(cid:81)(cid:15)(cid:3)(cid:80)(cid:68)(cid:87)(cid:75)(cid:72)(cid:80)(cid:68)(cid:87)(cid:76)(cid:70)(cid:68)(cid:79)(cid:3)(cid:83)(cid:85)(cid:82)(cid:69)(cid:79)(cid:72)(cid:80)(cid:3) (cid:86)(cid:82)(cid:79)(cid:89)(cid:76)(cid:81)(cid:74)(cid:3)(cid:68)(cid:81)(cid:71)(cid:3)(cid:72)(cid:79)(cid:72)(cid:80)(cid:72)(cid:81)(cid:87)(cid:68)(cid:85)(cid:92)(cid:3)(cid:80)(cid:68)(cid:87)(cid:75)(cid:72)(cid:80)(cid:68)(cid:87)(cid:76)(cid:70)(cid:86)(cid:3)(cid:72)(cid:71)(cid:88)(cid:70)(cid:68)(cid:87)(cid:76)(cid:82)(cid:81)(cid:17)(cid:3) (cid:38)(cid:82)(cid:85)(cid:85)(cid:72)(cid:86)(cid:83)(cid:82)(cid:81)(cid:71)(cid:72)(cid:81)(cid:70)(cid:72)(cid:29)(cid:3)(cid:36)(cid:86)(cid:86)(cid:76)(cid:86)(cid:87)(cid:17)(cid:3)(cid:51)(cid:85)(cid:82)(cid:73)(cid:17)(cid:3)(cid:42)(cid:192)(cid:78)(cid:75)(cid:68)(cid:81)(cid:3)(cid:164)(cid:93)(cid:86)(cid:82)(cid:92)(cid:15)(cid:3) (cid:56)(cid:81)(cid:76)(cid:89)(cid:72)(cid:85)(cid:86)(cid:76)(cid:87)(cid:92)(cid:3)(cid:82)(cid:73)(cid:3)(cid:36)(cid:78)(cid:86)(cid:68)(cid:85)(cid:68)(cid:92)(cid:15)(cid:3)(cid:41)(cid:68)(cid:70)(cid:88)(cid:79)(cid:87)(cid:92)(cid:3)(cid:82)(cid:73)(cid:3)(cid:40)(cid:71)(cid:88)(cid:70)(cid:68)(cid:87)(cid:76)(cid:82)(cid:81)(cid:15)(cid:3) (cid:39)(cid:72)(cid:83)(cid:68)(cid:85)(cid:87)(cid:80)(cid:72)(cid:81)(cid:87)(cid:3)(cid:82)(cid:73)(cid:3)(cid:40)(cid:79)(cid:72)(cid:80)(cid:72)(cid:81)(cid:87)(cid:68)(cid:85)(cid:92)(cid:3)(cid:40)(cid:71)(cid:88)(cid:70)(cid:68)(cid:87)(cid:76)(cid:82)(cid:81)(cid:15)(cid:3)(cid:25)(cid:27)(cid:20)(cid:19)(cid:19)(cid:3) (cid:46)(cid:68)(cid:80)(cid:83)(cid:88)(cid:86)(cid:3)(cid:36)(cid:78)(cid:86)(cid:68)(cid:85)(cid:68)(cid:92)(cid:15)(cid:3)(cid:55)(cid:88)(cid:85)(cid:78)(cid:72)(cid:92)(cid:17)(cid:3)(cid:40)(cid:16)(cid:80)(cid:68)(cid:76)(cid:79)(cid:29)(cid:3)(cid:74)(cid:82)(cid:93)(cid:86)(cid:82)(cid:92)(cid:35)(cid:74)(cid:80)(cid:68)(cid:76)(cid:79)(cid:17) (cid:70)(cid:82)(cid:80)(cid:3)(cid:51)(cid:75)(cid:82)(cid:81)(cid:72)(cid:29)(cid:3)(cid:14)(cid:28)(cid:19)(cid:3)(cid:22)(cid:27)(cid:21)(cid:3)(cid:21)(cid:27)(cid:27)(cid:3)(cid:21)(cid:21)(cid:24)(cid:24)(cid:17)(cid:3) \nr!ences (Desoete, 2009b; E\"l!des, 2008; Flavell;  Karably & Zabrucky, 2009).", 
  "To sum up, meta- cogn!t!ve knowledge def!", 
  "ve knowledge def nes, awareness of how  ve knowledge def!", 
  "an !nd!v!dual learns, awareness of methods and  strateg!es  wh!ch  are  e#ect#ect# !ve  for  learn!ng  pro- cess, awareness of select!ng useful !nformat!on  and strateg!es (Bembenutty, 2009; Flavell; Kra- marsk!, 2009; Sarac & Karakelle, 2012; Schraw &  Moshman, 1995; Varsar!, Batt!stell!, Cadamuro,  & Farnet!, 2009).", 
  "Metacogn!t!ve  control  sk!lls  cons!st  of  lead!ng  mental  operat!ons  !n  metacogn!t!ve  proces- ses and can be def!", 
  "ses and can be def!", 
  "ses and can be def ned as the ab!l!ty to use the  metacogn!t!ve knowledge strateg!cally !n order  to atta!n cogn!t!ve object!ves (\u00d6zsoy, Mem!\u015f, &  Temur, 2009).", 
  "%e l!terature focuses on four me- tacogn!t!ve control sk!lls (Brown, 1980; Desoete,  2009a; Desoete, Roeyers, & Buysee, 2001; Deso- ete, Roeyers, & Huylebroeck, 2006; Lucangel!", 
  "&  Cornold!, 1997; Schraw, 2009; Schraw & Mosh- man,  1995);  pred!ct!on,  plann!ng,  mon!tor!ng  and evaluat!on.", 
  "Cal!brat!on !nvolves mon!tor!ng and !t emerges  w!th the common use of pred!ct!on and evalua- \n\f\u00d6ZSOY(cid:3)(cid:18)(cid:3)(cid:44)(cid:81)(cid:89)(cid:72)(cid:86)(cid:87)(cid:76)(cid:74)(cid:68)(cid:87)(cid:76)(cid:82)(cid:81)(cid:3)(cid:82)(cid:73)(cid:3)(cid:41)(cid:76)(cid:73)(cid:87)(cid:75)(cid:3)(cid:42)(cid:85)(cid:68)(cid:71)(cid:72)(cid:3)(cid:54)(cid:87)(cid:88)(cid:71)(cid:72)(cid:81)(cid:87)(cid:86)(cid:109)(cid:3)(cid:48)(cid:68)(cid:87)(cid:75)(cid:72)(cid:80)(cid:68)(cid:87)(cid:76)(cid:70)(cid:68)(cid:79)(cid:3)(cid:38)(cid:68)(cid:79)(cid:76)(cid:69)(cid:85)(cid:68)(cid:87)(cid:76)(cid:82)(cid:81)(cid:3)(cid:54)(cid:78)(cid:76)(cid:79)(cid:79)(cid:86) \nt!on sk!lls wh!ch are metacogn!t!ve control sk!lls  (Desoete et al., 2001).", 
  "\"us, cal!brat!on clar!f!es  !nd!v!duals\u2019  awareness  of  the!r  own  cogn!t!ve  processes  such  as  what  they  know  and  do  not  know  or  what  they  do  and  do  not  do  (Stone,  2000).", 
  "\"!s k!nd of accurate mon!tor!ng !s con- s!dered as a prerequ!s!te for successful learn!ng  (L!n, Zabrucky, & Moore, 2002).", 
  "On the other  hand,  l!terature  reports  that  !nd!v!dual\u2019s  can  better mon!tor the!r own cogn!t!ve ab!l!t!es, and  thus better cal!brated, w!th !ncreas!ng age (Hor- gan, 1990; Johnson & Wellman, 1980).", 
  "Cal!bra- t!on, !s cons!dered as one of the developmental  changes  depend!ng  on  judgment  of  know!ng  (JOK) (Bembenutty, 2009; Cole, Mart!n, Peeke,  Seroczynsk!, & F!er, 1999).", 
  "Cal!brat!on !s the ac- curacy between one\u2019s own judgment about the  performance and h!s/her actual performance on  a task (Hacker, Bol, & Bahbahan!, 2008).", 
  "\"us,  to  measure  cal!brat!on,  !t  !s  preferred  to  com- pare the actual performance and the evaluat!on  of h!s own performance (L!n & Zabrucky, 1998;  Schraw  &  Moshman,  1995;  Tob!as  &  Everson,  1996; W!nn!e & Mu!s, 2011).", 
  "Measur!ng Cal!brat!on Prev!ous research stud!es show that fundamen- tally  two  d!#erent  approaches  have  been  used  to measure the ab!l!ty of cal!brat!on.", 
  "One part  of these approaches (Glenberg & Epste!n, 1985;  Glenberg, Sanock!, Epste!n & Morr!s, 1987), !n  order  to  measure  the  cal!brat!on,  a  correlat!on  calculat!on  between  student\u2019s  performance  on  a standard test and h!s level of understand!ng !s  used.", 
  "It !s assumed that the closer the correlat!on  to +1, the student !s closer to a perfect cal!brat!- on and v!ce versa.", 
  "On the other part, an !nstru- ment w!th four factors developed by Schraw, Po- tenza ve Nebels!ck-Gullet (1993) have been used  for cal!brat!on measurement.", 
  "\"!s approach, on  the one hand, calculates the accuracy between  the pred!cted and the real performance, on the  other hand, calculates the !nternal val!d!ty of the  !nstrument  w!th  b!-ser!al  correlat!on  and  the  alpha  coe#!c!ent  of  the  pred!cted  and  the  real  performance.", 
  "Accord!ng to Schraw (1995), the  most cons!stent values for the cal!brat!on level  !s obta!ned by the compar!son of the pred!cted  and  the  real  performance  values  obta!ned  for  each test !tems (!tem-spec!f!c cal!brat!on).", 
  "Total  cal!brat!on score can be obta!ned by calculat!ng  the avarege of each test !tem\u2019s cal!brat!on scores  (Ramdass, 2009).", 
  "In the present study, !tem-spe- c!f!c cal!brat!on !s used to develop mathemat!cal  cal!brat!on sk!lls !nstrument.", 
  "\"!s research study has ma!nly focus on two po- !nts.", 
  "F!rst of all, !t a!ms to develop an !nstrument  to determ!ne mathemat!cal cal!brat!on sk!lls and  secondly,  !t  a!ms  to  determ!ne  f!%h-grade  stu- dents\u2019 mathemat!cal cal!brat!on sk!lls us!ng th!s  !nstrument.", 
  "In  add!t!on,  students\u2019  cal!brat!on  sk!lls are compared w!th respect to the!r gender  and the!r mathemat!cs ach!evement levels.", 
  "\"e present study a!m!ng to determ!ne pr!mary  school  f!%h-grade  students\u2019  mathemat!cal  ca- l!brat!on sk!lls was carr!ed out through survey  method.", 
  "Survey method !s an approach wh!ch !s  used to descr!be the past and the current s!tuat!- on as !t !s (Karasar, 2000).", 
  "Part!c!pants \"e part!c!pants of the study cons!st of 93 f!%h- grade students (mean age 11.1, SD = .57) from a  publ!c pr!mary school !n Aksaray, wh!ch !s a me- d!um-s!zed c!ty !n Turkey.", 
  "Out of these students,  54% of them were g!rls and 46% of them were  boys  \"e  study  carr!ed  out  dur!ng  the  spr!ng  semester of 2011.", 
  "\"e part!c!pants of the study  selected through conven!ent sampl!ng model.", 
  "Mathemat!cal Cal!brat!on Instrument Mathemat!cal  Cal!brat!on  Instrument  wh!ch  !s  developed by the researcher !s used to determ!- ne students\u2019 cal!brat!on sk!lls.", 
  "Dur!ng the deve- lopment of the !nstrument, prev!ously used app- roaches chosen to measure metacogn!t!ve sk!lls  (pred!ct!on and mon!tor!ng) are followed (Cross  &\u00a0 Par!s, 1988;\u00a0 Desoete et al., 2001; Lucange- l!, Cornold!, & Tellar!n!, 1998).", 
  "\"e !nstrument  !ncludes  28  !tems  cover!ng  measurement  of  pred!ct!on sk!lls (14 !tems) and evaluat!on sk!lls  (14 !tems).", 
  "Pred!ct!on and evaluat!on !tems are  des!gned to be assoc!ated w!th each other (Ap- pend!x-1).", 
  "Mathemat!cal  operat!ons  and  problems  placed  !n the !nstrument are des!gned tak!ng !nto ac- count  the  relevant  ach!evements  stated  !n  Pr!- mary  School  Mathemat!cs  Curr!cula  (M!n!stry  of  Educat!on/M!ll!", 
  "E\u011f!t!m  Bakanl\u0131\u011f\u0131  [MEB],  2004).", 
  "P!lot study was conducted under the su- perv!s!on of the researcher w!th 158 f!%h-grade  students enroll!ng to two pr!mary publ!c schools  located !n the center of Aksaray.", 
  "\"e rel!ab!l!ty  of  the  !nstrument  was  calculated  as  r  =  .93  (p  \n\n\f< .001), us!ng Cronbach\u2019s Alpha.", 
  "On the other  hand, !n accordance w!th the data obta!ned from  the prel!m!nary appl!cat!on w!th 158 f!", 
  "\"h-grade  students, Kappa value !s calculated to determ!ne  the !nternal cons!stency of the !nstrument.", 
  "#e  results revealed that Kappa values of pred!ct!on  and  evaluat!on  !tems  change  between  .42  and  .68.", 
  "When  Kappa  values  for  all  !tems  are  exa- m!ned, !t !s poss!ble to say that the cons!stency  between the pred!ct!on and the evaluat!on !tems  range from med!um (.41-.60) to h!gh (.61-.80)  levels.", 
  "Kappa values for each !tem are presented  !n Append!x- 2.", 
  "Mathemat!cal Ach!evement Test Mathemat!cs Ach!evement Test (MAT) !s used  to  determ!ne  mathemat!cal  ach!evement  levels  of students.", 
  "#e MAT was developed by the rese- archer (\u00d6zsoy, 2011) and cons!sts of 30 mult!ple  cho!ce quest!ons.", 
  "It !ncludes numbers and ope- rat!ons,  geometry,  measurement,  and  stat!st!cs  quest!ons; cons!stently w!th the curr!cula (MEB,  2004).", 
  "#e max!mum and m!n!mum scores on  the mathemat!cs test could be 30 and 0, respec- t!vely.", 
  "#e val!d!ty of the quest!onna!re was as- sured by tak!ng the v!ews of three profess!onals  about  the  relevancy  of  each  !tem.", 
  "Cronbach\u2019s  alpha rel!ab!l!ty for the test was found to be r =  .89 (M = 20.72, SD = 5.52).", 
  "Data Analys!s #e data of the research were obta!ned at the end  of the spr!ng semester !n 2011.", 
  "All part!c!pants  were  assessed  !ns!de  the  classroom  sett!ng  for  a total about 1 hour !n two d!$erent days.", 
  "#en  the data obta!ned were analyzed us!ng ITEMAN  and  SPSS  15.0  so\"ware.", 
  "Inferent!al  stat!st!cs,  !ndependent  samples  t-test  and  ANOVA,  were  used to f!nd out the relat!onsh!ps between the  !ndependent var!ables of gender and mathema- t!cal ach!evement levels and the scores obta!ned  from MCI.", 
  "Bes!des, Pearson correlat!on coe$!- c!ent !s calculated to determ!ne the correlat!on  between  MAT  and  MCI  scores.", 
  "Before  us!ng  parametr!c  tests,  Kolmogorov-S!m!rnov  test  !s  conducted to check the normal d!str!but!on (for  MCI, Z= 1.043, p > .01; for MAT,  Z= 0.647, p >  .01) and Levene test !s conducted to check the  homogene!ty of the var!ances.", 
  "#e  results  of  these  analyses  were  reported  to  be s!gn!f!cant at the p < .01 level stat!st!cal s!g- n!f!cance.", 
  "To  check  whether  the  obta!ned  sta- t!st!cally s!gn!f!cant results were also pract!cally  s!gn!f!cant e$ect s!zes were calculated.", 
  "Eta squa- \n\nre (\u03b72) values were made to determ!ne e$ect s!ze  values (Kotrl!k & W!ll!ams, 2003).", 
  "When the scores of part!c!pants are exam!ned, !t !s  observed that the!r mean pred!ct!on score !s 26.00  (SD = 11.60), average evaluat!on scores !s 29.11 (SD  = 10.65), and mean cal!brat!on scores !s 55.11 (SD  = 21.75).", 
  "Depend!ng on the results obt!aned, !t can  be concluded that part!c!pants have med!um-h!gh  level of cal!brat!on sk!lls.", 
  "To show whether there are  s!gn!f!cant d!$erences between boys and g!rls w!th  respect  to  the!r  mathemat!cal  cal!brat!on  sk!lls,  !ndependent  samples  t-test  was  run.", 
  "#e  results  of the study showed that there were no s!gn!f!cant  d!$erences between boys and g!rls w!th respect to  the!r pred!ct!on scores (t= .88, p > .01), evaluat!on  scores (t= .07, p > .01) and cal!brat!on scores (t=  .50, p > .01).", 
  "In order to exam!ne, whether a s!gn!f!- cant relat!onsh!p ex!sts among students w!th d!$e- rent mathemat!cal ach!evement levels w!th respect  to  the!r  mathemat!cal  cal!brat!on  sk!lls,  ANOVA  analys!s  was  conducted.", 
  "Before  the  analys!s,  stu- dents were grouped !nto three; as low, m!ddle and  h!gh ach!evers, depend!ng on the!r scores obta!ned  from MAT.", 
  "#e results showed that there are s!g- n!f!cant  d!$erences  between  students\u2019  cal!brat!on  test scores w!th respect to the!r mathemat!cal ac- h!evement (F  (2-91)= 69.46,  p < .001) w!th a large  e$ect s!ze (\u03b72= .60).", 
  "#e post-hoc results showed  the stat!st!cal s!gn!f!cance ex!sts among all groups;  h!gh ach!evers get h!gher scores (M= 77.58, SD=  7.06) than m!ddle ach!evers and low ach!evers and  m!ddle ach!evers (M= 54.27, SD= 16.70) get h!gher  scores than low ach!evers (M= 26.15, SD= 13.49).", 
  "Add!t!onally, a correlat!on analys!s was conduc- ted  to  f!nd  out  !f  part!c!pants\u2019  scores  obta!ned  from MCI and MAT are s!gn!f!cantly correlated.", 
  "Results  showed  that  h!gh  pos!t!ve  stat!st!cally  s!gn!f!cant relat!onsh!ps ex!st between students\u2019  MAT  scores  and  pred!ct!on  scores  r=  .84  (p  <  .01); the!r MAT scores and evaluat!on scores r=  .82 (p < .01); the!r MAT scores and cal!brat!on  scores r= .85 (p < .01).", 
  "D!scuss!on \nOne of the pr!mary purposes of th!s study was  to  develop  an  !nstrument  to  measure  pr!mary  school students\u2019 mathemat!cal cal!brat!on sk!lls.", 
  "#rough the study, a val!d and rel!able !nstru- ment;  Mathemat!cal  Cal!brat!on  Instrument,  was developed.", 
  "In order to name the !nstrument,  \u201cmathemat!cal  cal!brat!on\u201d  !s  used  because  ca- l!brat!on sk!lls show d!screpanc!es w!th respect  \n\f\u00d6ZSOY(cid:3)(cid:18)(cid:3)(cid:44)(cid:81)(cid:89)(cid:72)(cid:86)(cid:87)(cid:76)(cid:74)(cid:68)(cid:87)(cid:76)(cid:82)(cid:81)(cid:3)(cid:82)(cid:73)(cid:3)(cid:41)(cid:76)(cid:73)(cid:87)(cid:75)(cid:3)(cid:42)(cid:85)(cid:68)(cid:71)(cid:72)(cid:3)(cid:54)(cid:87)(cid:88)(cid:71)(cid:72)(cid:81)(cid:87)(cid:86)(cid:109)(cid:3)(cid:48)(cid:68)(cid:87)(cid:75)(cid:72)(cid:80)(cid:68)(cid:87)(cid:76)(cid:70)(cid:68)(cid:79)(cid:3)(cid:38)(cid:68)(cid:79)(cid:76)(cid:69)(cid:85)(cid:68)(cid:87)(cid:76)(cid:82)(cid:81)(cid:3)(cid:54)(cid:78)(cid:76)(cid:79)(cid:79)(cid:86) \nto related course or task (W!nn!e & Mu!s, 2011).", 
  "In the l!terature, there !s not any course/subject  !ndependent cal!brat!on !nstrument.", 
  "Another purpose of th!s study was to determ!ne  students\u2019  mathemat!cal  cal!brat!on  sk!lls  and  !n- vest!gat!ng the!r cal!brat!on sk!lls w!th respect to  several  var!ables  by  us!ng  the  newly  developed  !nstrument.", 
  "\"e developed !nstrument !s appl!ed  to 94 f!#h-grade students, the results showed that  part!c!pants have a med!um level of mathemat!cal  cal!brat!on sk!lls.", 
  "It  !s poss!ble to argue that stu- dents\u2019 cal!brat!on sk!ll level  !s not su$!c!ent con- s!der!ng the !mportance of cal!brat!on !n students\u2019  ach!evement.", 
  "W!nn!e and Perry (2000) reports that  students w!th low cal!brat!on sk!lls w!ll fa!l to cont- rol  the!r  own  learn!ng  process  e$!c!ently.", 
  "Over- conf!dent students do not change the!r study hab!ts  s!nce they bel!eve that they do not need to comple- te the!r m!ss!ng knowledge.", 
  "Underconf!dence stu- dents do not try to change s!nce they bel!eve that  they w!ll always fa!l (Batt!stell!, Cadamuro, Farnet!,  & Versar!, 2009).", 
  "For th!s reason, !t !s !mportant to  self mon!tor and evaluate one\u2019s own performance  dur!ng learn!ng process.", 
  "Prev!ous  research  stud!es  showed  that  there  !s  a  s!gn!f!cant  relat!onsh!p  between  mathemat!cal  cal!brat!on  sk!lls  and  mathemat!cal  ach!evement  (Ch!u & Klassen, 2010).", 
  "It !s known that students  w!th h!gh cal!brat!on sk!lls perform mathemat!cal  tasks successfully dur!ng problem solv!ng process.", 
  "It !s observed that, these students can eas!ly control  the problem solv!ng process, solve complex prob- lems by separat!ng s!mpler p!eces, ask themselves  quest!ons to clar!fy the!r thoughts (Glenberg et al.,  1987; Derm!tzak!, Leondar!, & Goudas, 2009; \u00d6z- soy & Ataman, 2009).", 
  "One of the problems of the study was, to !nvest!- gate  how  students\u2019  cal!brat!on  sk!lls  change  w!th  d!$erent var!ables.", 
  "For th!s purpose, how cal!bra- t!on sk!lls change w!th gender d!$erences !s !nves- t!gated and !t !s found that there are no s!gn!f!cant  d!$erences between boys and g!rls w!th respect to  the!r cal!brat!on scores.", 
  "\"!s result !s not cons!stent  w!th the prev!ous research stud!es (Connell & Ilar- d!, 1987; Cole et al., 1999).", 
  "In these stud!es, !t was  found  that  boys  have  more  accurate  pred!ct!ons  about the!r performances than g!rls.", 
  "S!m!lar re- sults obta!ned from stud!es focus!ng on un!vers!ty  students\u2019 cal!brat!on sk!lls (Beyer, 1998).", 
  "In  the  present  study,  the  relat!onsh!p  between  mathemat!cal  cal!brat!on  sk!lls  and  the  mat- hemat!c  ach!evement  !s  also  !nvest!gated.", 
  "It  !s  found  that  there  !s  a  pos!t!ve  and  s!gn!f!cant  relat!onsh!p  between  the  students\u2019  scores  ob- ta!ned  from  MCI  and  MAT.", 
  "\"!s  result  !s  ex- \npected and supported by the related l!terature.", 
  "Accord!ng  to  Desoete  et  al.", 
  "(2001)  pred!ct!on  and control sk!lls expla!ns 16% of mathemat!cal  ach!evement.", 
  "S!m!larly, prev!ous research (Bol &  Hacker, 2001; Butler & W!nne, 1995; Pajares &  M!ller, 1994; P!ntr!ch & de Groot, 1990; Ram- dass, 2009) has reported a relat!onsh!p between  mathemat!cs  ach!evement  and  mathemat!cal  cal!brat!on sk!lls.", 
  "Research stud!es focus!ng on  cal!brat!on shown that cal!brat!on has a s!gn!f!- cant !mpact on students\u2019 ach!evement, thus stu- dents w!th h!gher levels of cal!brat!on sk!lls are  more successful than students w!th lower levels  of cal!brat!on sk!lls.", 
  "For th!s reason, stud!es !mp- rov!ng students cal!brat!on sk!lls can be used as  useful toold for the!r development."
 ]
}