{
 "document_id": "b15d1404dbd74403acec178e71aea682", 
 "sentences": [
  "\nNote: This article is a post-print copy.", 
  "The final published version resides at  http://www.tandfonline.com/doi/abs/10.1080/00131946.2015.1098644  \nEngaging Students in Autobiographical Critique as a Social Justice Tool:   \nNarratives of Deconstructing and Reconstructing Meritocracy and Privilege with  \nPre-service Teachers  \nAshley Boyd, Assistant Professor of English Education  Department of English  PO Box 645020  Washington State University  Pullman WA 99164-5020  Tel:  (509) 335-7124  Ashley.boyd@wsu.edu  \n\nGeorge Noblit, Joseph R. Neikirk Distinguished Professor of Sociology of Education  School of Education  CB 3500 Peabody Hall   University of North Carolina at Chapel Hill  Chapel Hill, NC  27599-3500  Tel:  T: 919.962.2513  gwn@email.unc.edu  \nPlease direct all correspondence regarding this manuscript to: Ashley Boyd at  ashley.boyd@wsu.edu.", 
  "Engaging Students in Autobiographical Critique as a Social Justice Tool:  Narratives of  \nDeconstructing and Reconstructing Meritocracy and Privilege with Pre-service Teachers  \nAbstract:  \nThis self-study involves instructors of a Social Justice in Education course at a large  university who engaged pre-service teacher education students with assignments  intended to solicit their critical self-reflection and to facilitate an awareness of  themselves as sociocultural beings.", 
  "Our work responds to the continued need to involve  pre-service teachers in experiences that foster critical consciousness and cognizance of  their own socialization.", 
  "For the assignments, students were first asked to describe key  moments in their educational experience in the form of a multimedia submission and  reflection.", 
  "After a semester of critical discussions and readings, students were then  asked to re-visit their initial projects and critique those using course concepts.", 
  "In  addition, they were prompted to include plans for themselves as future social justice  educators.", 
  "In this paper, we analyze those student submissions, and we find that many  reached new conclusions about social justice topics such as race and gender, critiqued  personal and social artifacts, and recognized the connections between privilege and  meritocracy.", 
  "Despite the limitations in class size and structure, we affirm the potential  value of a multi-stage autobiography assignment.", 
  "We also explore instances of student  resistance, wherein students avoided the assigned task and our requirement for self- reflection.", 
  "We conclude by offering implications for teacher education and posit  considerations for future adaptions of the assignment, including the necessity to engage  students in opportunities to take social action and to move beyond critique.", 
  "Key Words:  Social Justice Education, Autobiography, Multimedia  \nEngaging Students in Autobiographical Critique as a Social Justice Tool:  Narratives of  \nDeconstructing and Reconstructing Meritocracy and Privilege with Pre-service Teachers  \nThe short history of social justice in education is one wrought with recognition  \nand rupture.", 
  "After the Civil Rights Movements of the 1960s, the identification of  \nwhiteness as pervasive in our school systems grew (Ladson-Billings, 1999) and  \nuniversities thus began to acknowledge \u201cthe necessity of embedding social justice issues  \nwithin the knowledge, skills, and dispositions of teacher education\u201d (Grant & Agosto,  \n2008).", 
  "This was attempted, however, through what became multicultural education  \ncourses that were celebratory in nature, rather than critical (Banks, 1993).", 
  "That is, social  \njustice was embraced as long as it did not offend white sensibilities about their (our) role  \nin perpetuating injustice.", 
  "The failure to enact a more fully critical approach led to some  \nalteration in teacher education and, as a result, efforts are now aimed at \u201cmaking social  \nchange and activism central to the vision of teaching and learning promoted,\u201d (McDonald  \n& Zeichner, 2009, p. 597).", 
  "Yet, the battle wages on.", 
  "For example, in 2000, NCATE  \nlabeled social justice as a desirable professional disposition, but in 2006 removed  \n(Kumashiro, 2008) the language, only to then reinstate it for 2015 reports (Alsup &  \nmiller, 2014).", 
  "Now that the social justice admonition has been restored, teacher  \neducators continue to posit ways to cultivate equity-oriented stances and practices with  \npre-service teachers.", 
  "Such was our purpose in the project described here:  We wanted to  \nexplore an innovative way to engage students with social justice education through  \nexamining their own stories, which we believe is a crucial first step in any experience that  \naspires to develop critically minded individuals.", 
  "We wanted to help our students see  \ninequities, particularly as they pertained to their own histories and experiences.", 
  "We use \u2018social justice\u2019 throughout the remainder of this article and in our work  \nwith students to mean a commitment to dismantling structures of oppression and to  \npursuing actions with the goal of social change.", 
  "The concept of social justice implies a  \nrecognition that we live in an unequal and stratified society and that racism, classism,  \nsexism, ableism, and heteronormativity are pervasive but are often normalized.", 
  "Education  \nthat is aimed at promoting social justice \u201cdoes not merely examine difference or diversity  \nbut pays careful attention to the systems of power and privilege that give rise to social  \ninequality,\u201d (Hackman, 2005, p. 104).", 
  "In particular, teacher education for social justice  \ntakes \u201cthe position that teachers can and should be both educators and advocates who are  \ncommitted to the democratic ideal and to diminishing existing inequities in school and  \nsociety by helping to redistribute educational opportunities\u201d (Cochran-Smith et al., 2009,  \np. 350) In what follows, we discuss our efforts in our social justice course and what  \neffects were evident.", 
  "Autobiography in Social Justice Education  \nWithin the work of social justice education, the importance and justification for  \nteacher candidates to engage in their own critical reflection is now noted throughout the  \ngrowing body of literature.", 
  "These calls stem from the need to have the predominately  \nwhite, middle class, female population of pre-service teachers begin to understand their  \nown socialization (Sensoy & DiAngelo, 2012) so that they can be open to learning about  \nthe diversity of the students with whom they will work and who are likely different from  \nthemselves (Gay, 2010; Ladson-Billings, 1999).", 
  "Because beliefs can act as filters for  \nnew knowledge (Garmon, 2004; Tatto, 1996) as well as affect future practice (Delpit,  \n2012; Holt-Reynolds, 1992), numerous scholars have cited autobiography and critical  \nreflection as essential components to social justice education (Causey, Thomas, Armento,  \n1999; Cochran-Smith 1995; Gay, 2010; Grant, 1991; Zeichner, 1992).", 
  "The task for  \nteacher educators in foundational courses, charged with preparing those candidates for  \nequity work, is how to summon these prior experiences into our classrooms and have  \nstudents examine them in productive ways.", 
  "As a step in this direction, teacher educators have engaged students in  \nautobiographical work that generally takes the form of writing assignments in which  \nstudents are required to explore their own backgrounds and socialization, including how  \nthey view others, since some students may not recognize that they have a cultural identity  \n(Nieto, 2000).", 
  "Gay (2010) proposes beginning a program or course with a similar  \nexamination of attitudes and beliefs, writing, \u201cit is inconceivable to me that teachers who  \nhave negative beliefs about ethnically diverse students and their cultural heritages as  \nvalid and viable educational resources can relate to them positively in personal and  \ninstructional interactions\u201d (p. 150).", 
  "Thus, if we hope to promote future teachers who can  \nenact culturally responsive, caring and safe classrooms, we should look first to how these  \ncandidates perceive those students.", 
  "Uncovering one\u2019s beliefs about diversity and  \nachieving self-knowledge (Britzman, 2000) is often uncomfortable for students  \n(McIntyre, 1997, 2002, Nieto, 2000); yet, as hooks (1994) declares, \u201cwe have to learn  \nhow to appreciate difficulty, too, as a state of intellectual development\u201d (p. 154).", 
  "This use of autobiography, narrative, and critical reflection in teacher education  \nclassrooms serves a number of social justice goals.", 
  "In some arenas, the target is to  \nconfront students\u2019 racial beliefs.", 
  "Cochran-Smith (1995, 2000) has described assignments  \nin which she asks preservice teachers to construct personal narratives about the  \nexperiences which molded their views of race and culture, and Gay (2010) expands upon  \ntraditional narrative work by inviting students to compose dialogic poems on their  \n\u201cethnicity, culture, and individuality,\u201d to create mixed-media posters to convey their  \nidentities, and to pack a \u201cmetaphorical suitcase of things they would be taking on their  \njourneys toward multicultural competence\u201d (p. 148).", 
  "Her innovative methods with  \nautobiography are meant to open avenues for critical examination in a way that is less  \nthreatening to students.", 
  "Such work with student narratives has been cited as vital  \nespecially for white pre-service teachers, whose unconscious experiences with privilege  \nabound (McIntyre, 1997), and whose good intentions (Milner, 2011) and colorblind  \nideology (Cochran-Smith, 1995) need to be deconstructed.", 
  "Beyond using personal story to probe dispositions toward race, other scholars  \nhave utilized similar means to recognize class and heterosexual biases.", 
  "Causey, Thomas,  \nand Armento (1999) explored autobiographical essays with teacher candidates who  \nillustrate classism.", 
  "Vavrus (2009) employed autoethnography with pre-service teachers  \nas a way to \u201cprovide a critically reflective space for teacher candidates to consider their  \nteacher identity formations as shaped by their lived experiences with gender and  \nsexuality\u201d (p. 385).", 
  "In these narratives, students revealed their memories of gender- \nmolding events from their own educational backgrounds and explored \u201cassumed  \nheterosexuality\u201d as \u201cthe norm\u201d (p. 387), and they made plans for future curriculum with  \ntheir potential students.", 
  "Loutzenheiser (1998) noted the advantage of requiring students  \nto compose a \u201ccultural autobiography\u201d (p. 207) to recognize how race, class, and gender  \nhave intersected in their own lives.", 
  "Thus, there is vast documentation of the use of  \npersonal narrative in the literature on social justice teacher education.", 
  "Our approach, however, differs from the aforementioned summoning of  \nautobiography in critical teacher education courses.", 
  "First, while much of the literature  \ncites the important need for autobiography with white teachers, we also believe that that  \nsuch reflection is important for all aspiring teachers, including those from populations of  \ncolor.", 
  "Our goal was to heighten the critical consciousness (Hinchey, 2004) of our  \nstudents, thus we wanted all to develop an awareness of their \u201csocial justice funds of  \nknowledge\u201d (miller, 2012) as well as to critique their prior experiences for holding  \nideological implications.", 
  "Although being a pre-service teacher of color may provide a  \nlens into the condition of being oppressed and result in teacher candidates who are  \nexplicitly committed to the work of social justice (R\u00ecos & Montecinos, 1999), it does not  \nimmediately guarantee that one will: understand all other cultures (Ramirez Wiedeman,  \n2002), understand the varieties of privileges within communities of color, and/or be  \ncritically reflexive.", 
  "As we will illustrate, our approach spoke to both white pre-service  \nteachers and candidates of color.", 
  "Second, Applebaum (2008) has troubled the notion of soliciting and validating  \nexperience in the pre-service classroom without critique or exploration, as interpretations  \nof the past are ideologically informed.", 
  "Applebaum (2008) writes that the questions we  \nshould ask are, \u201cWhat do these interpretations make evident, and what do other  \ninterpretations conceal?\u201d (p. 409).", 
  "She asserts that these are productive questions for  \nmembers of dominant as well as non-dominant groups.", 
  "Our work, then, responds to  \nApplebaum\u2019s (2008) caution by not only calling forth students\u2019 autobiographies for the  \nstudents\u2019 recognition of their own lenses, but by also requiring critique of the individual  \nnarrative from theoretical standpoints.", 
  "Rather than just \u2018telling their stories\u2019, students  \nwere asked to consider their personal experiences from another angle and to make visible  \ntheir privilege.", 
  "We turn now to a more detailed description of our work with our students  \nand present the continuities, changes, and omissions in their autobiographical work.", 
  "The Course  \nAs a team, we taught a Social Justice in Education course at a large southeastern  \nuniversity that engaged pre-service teacher education students with assignments intended  \nto solicit their critical self-reflection and to facilitate an awareness of themselves as  \nsociocultural beings.", 
  "The class in which our activity occurred was composed of  \napproximately 60 students who were all enrolled in teacher preparation programs  \nspanning early childhood, middle grades, and secondary teaching.", 
  "The class met once  \nweekly for three hours each session.", 
  "The population of students mirrored traditional  \ndemographics of teacher education courses:  approximately 90% of the students were  \nwhite, female, and in their late teens or early 20s.", 
  "Most grew up in the state in which the  \nuniversity resides, and while most were middle class, their geographic origins ranged  \nfrom urban to suburban to very rural.", 
  "The course instructors are also both white, one female and one male.", 
  "In order to  \navoid the message that teachers are \u201call knowing, silent interrogators,\u201d (hooks, 1994, p.  \n21) we shared with our students our own backgrounds, socializations, and past as well as  \ncurrent experiences related to course topics.", 
  "One instructor frequently shared her  \nunderstandings as a white woman coming to know social justice in her pre-service career.", 
  "After growing up in a small, southern, conservative town, she attended the same  \nuniversity in which the course took place and later taught in a high school similar to the  \none she attended.", 
  "As with most white individuals, she had the privilege to ignore systems  \nof oppression and the ways she colluded with them in her formative years; this began to  \nchange in her teen years, although she (and the other course instructor) expressed to  \nstudents their ongoing engagement in self-interrogation to unlearn racism and question  \ndominant culture.", 
  "While a secondary English teacher in her previous career, she strove to  \ncultivate her own and her students\u2019 critical literacies.", 
  "She shared with the pre-service  \nteachers in the course her encounters in the public school classroom, cataloging both her  \nsuccesses and failures with students from a variety of communities.", 
  "She endeavored to  \nbring a practical aspect to this social justice course and to remain true to her knowledge  \nthat the lived experience of being an educator for equity is difficult and complicated.", 
  "Finally, she presented her own educational autobiography from her perspective as a  \nteacher as a model for students in the course.", 
  "The other course instructor, an older white  \nmale, shared his biography as well.", 
  "Born of working class mountain heritage, he later  \nworked on school desegregation in the South and continues to work for educational  \nequity.", 
  "He shared his knowledge on the construction of race and its social and political  \nconsequences with students.", 
  "Not having been a teacher, this instructor spoke more from  \nexperiences in wider social movements and involvement in qualitative studies of schools  \nand communities.", 
  "He has worked in social foundations of education for many years.", 
  "The course instructors share a commitment toward equity and naming oppression, and  \nboth are passionate about working with pre-service teachers to disrupt traditional notions  \nof schooling and deficit perspectives.", 
  "Both made their political positions explicit to  \nstudents throughout the course so as to avoid a decontextualized or watered down version  \nof critical education, and they frequently engaged in critical conversations with one  \nanother, knowing that \u201cno teacher is free of .", 
  ".", 
  ".", 
  "learned and internalized oppressions\u201d  \n(Ellsworth, 1989, p. 308).", 
  "Both recognized the limitations of their experiences in  \nteaching such a course, as they could never fully know the lives of all of the students in  \ntheir classrooms.", 
  "Positioned then, as white social justice educators teaching mostly white students,  \nwe realized our authority in the classroom and our precarious position of dominance as  \nboth course instructors and as white individuals.", 
  "We are well-versed in the critiques of  \ncritical pedagogy and the problematic of working with students to reach a universalized  \ngoal.", 
  "Instead, we wanted to create a more open-ended task that afforded our students the  \nopportunity to examine their stories.", 
  "We thus engaged students in two iterations of an  \nautobiographical assignment meant to solicit how they thought about their personal life  \nexperiences at the beginning of our course and then how they reflected on them at the  \nend.", 
  "After attending the first class session, students were required to submit the initial  \nautobiographical assignment for which they were to choose five artifacts such as  \nnewspaper clippings or videos to represent events, places, or people that reflected \u201ckey  \nmoments in their educational experience.\u201d They were to present these through any  \nmedium they chose, such as PowerPoint, Prezi, video, etc.", 
  "If they chose objects as  \nrepresentations, we asked them to include photographs of the objects for ease in  \nsubmission and assessment.", 
  "They were then instructed to compose a short reflection on  \neach artifact and a summative statement on what the pieces showed collectively.", 
  "We  \nemphasized that each of these should culminate in an overall picture of the educational  \nexperience on which we wanted them to comment, hoping to facilitate a \u2018parts to whole\u2019  \nperspective.", 
  "In the third class meeting, students shared their autobiographies in small groups  \nand discussed their experiences with one another.", 
  "As a full group, we then explored what  \nexperiences were common amongst them and how they differed.", 
  "Finally, we prepared  \nthem for having to return to these at the end of the course, although we waited to disclose  \nthe specifics of the concluding assignment.", 
  "As the course progressed, we engaged  \nstudents weekly in readings related to social justice topics, including racism, classism,  \nsexism, genderism, and heteronormativity, operationalizing each as a socially constructed  \ncategory with lived, and often devastating, ramifications.", 
  "We consistently asked them to  \nreflect, in writing, on how course readings related to their own experiences, hoping to  \ndevelop habits of mind that connected these issues to them personally.", 
  "We connected  \ncourse readings to current school contexts, recent events, and issues in our local area as  \nwell in the broader nation.", 
  "As teacher educators, we realize that the current climate of  \npublic schools often puts issues of social justice aside in order to focus more on technical  \naspects such as classroom management or functional literacy skills.", 
  "We did not wish to  \nignore the oft-perceived more tangible portions of teaching and thus strove to merge the  \ntwo instead of creating a dichotomy.", 
  "As a result, our candidates re-wrote lesson plans  \nfrom a social justice angle, discussed culturally responsive classroom management  \n(Weinstein, Curran, & Tomlinson-Clarke, 2003), constructed additive models of student  \npopulations, and created graphics for physical spaces in which to enact their ideals.", 
  "We  \nemployed a host of media, often asking students to apply the theory from the course to  \nnews clips, music videos, documentary videos of teaching, or advertisements, again in  \norder to develop their propensities for deconstruction.", 
  "Over the semester, we used  \nSkype\u00a9 to allow our students the opportunity to engage with national and international  \nexperts on various social justice topics.", 
  "In other assignments, students interviewed local  \neducators who were involved in a type of social justice-related activism, they composed  \ncritiques of school films from a chosen social justice angle, and they reconstructed  \ncurriculum from their content or grade level area to reflect the goals of social justice.", 
  "Only after all this work, after critical conversations in class and numerous equity-oriented  \nassignments, did we direct them back to their original autobiographies.", 
  "The culminating task for the course required students to return to the original  \nautobiography assignment and critique at least one artifact from their initial submissions  \nusing course concepts.", 
  "We asked them to elucidate the ways they were influenced by  \nbroader socio-historical and political contexts in their construction of this experience as  \nwell as those that were necessary to have had the experience itself.", 
  "Specifically, our task  \nprompted them to:  \u201cBe critical of yourself and what you originally included, or of what  \nyou didn\u2019t see initially,\u201d as well as to \u201cuse course readings to critique and analyze this  \nartifact.\u201d  Then, we asked them to extend their thinking with a new lens and to answer the  \nquestion, \u201cWhat story would you like to be told about you as a Social Justice Educator?\u201d   \nFor this latter element, we asked for two new artifacts as representation, presented again  \nthrough the multi-media modality of their choice.", 
  "Learning From Our Students  \nAs we read our students\u2019 final submissions, we realized they told us a great deal  \nabout the course we had set out to design, and we decided to analyze these  \nautobiographical projects qualitatively.", 
  "We investigated both the types of media students  \nused and the ways they discussed the artifacts provided.", 
  "For this paper, we focused on  \nthe students\u2019 second and final responses to assess the ways they critiqued themselves and  \nthe shifts, or lack thereof, in their narratives.", 
  "Using HyperResearch\u00a9, we first applied a  \nlayer of open coding to note topics the students discussed.", 
  "From this open coding, we  \nthen constructed categories for the referent of students\u2019 critiques.", 
  "Once these were noted,  \nwe established themes from the emergent categories (Charmaz, 2006).", 
  "Cases of  \nresistance were relatively rare but we coded these for their own categories and built  \nthemes as well to note the ways that students contested the assignment.", 
  "Although we recognize that one\u2019s identity is multi-dimensional, what emerged as  \nour analytic focus centered on race.", 
  "We used students\u2019 self-identified race, the way they  \ndiscursively marked themselves, for the following references.", 
  "In our course, we talked  \nwith students about race as a social construct with lived consequences.", 
  "We also explored  \nrace in terms of white privilege, as related to historic oppression of groups, and with  \nregard to culturally responsive pedagogies.", 
  "We engaged in ongoing conversations about  \nthe fine line between blanket generalizations based on race and the need to see people,  \nespecially students, as members of social groups (Gay, 2010).", 
  "The second phase of the  \nautobiographical assignment required students to engage in critique of one artifact from  \ntheir original submissions.", 
  "Thus, while it is not surprising that the majority of the  \nstudents\u2019 responses reflected some degree of reflexivity, what was interesting to note  \nwere the ways they critiqued themselves and the nuanced analyses in which they  \nengaged.", 
  "Because we left the assignment open in terms of what they could choose to  \ncritique and how they would talk about their topics, we felt that their responses were  \nauthentic and less an academic performance for us, the instructors.", 
  "In addition, we noted  \ntheir explorations existed along a spectrum from those who admitted to never having  \nconsidered such issues to those that felt they were social justice minded but broadened  \nthat perspective in the course, thus we did not relegate them into one category from  \nwhich to speak.", 
  "For those narratives that began with qualifiers about how students felt  \nthey were aware of and open to diversity before the course began, these students dug  \ndeeper, excavating their own privilege or recognizing social injustices even when to  \ndiscerning eyes it may have appeared they \u2018had it\u2019 already.", 
  "These stories were powerful  \nand provide promise in continuing such work in the teacher education classroom.", 
  "The students who reported having been influenced then, including those who were  \njust beginning or those who were further along in the quest for social justice, affirmed the  \npotential of the assignment by illustrating how it had allowed for growth from their  \nstarting points.", 
  "Many of their statements illustrated the kinds of movements we wanted  \nto foster because they showed the potential to \u2018see\u2019 otherwise, to imagine differently and  \nmore justly.", 
  "As teacher educators, the project gave us an opportunity to see which of our  \nlearning tasks and readings our students felt affected those movements most.", 
  "Through our analysis, several relevant themes came to light.", 
  "We turn now to a  \ndescription of each of those major themes in students\u2019 responses:  changed perspectives  \non social justice topics, discerning an artifact anew, and recognition of privilege.", 
  "We  \nthen illustrate how not all of our students accepted our prompt and demonstrate how  \nsome instead expressed resistance in varied ways.", 
  "Finally, although we find the  \nassignment incredibly value for a number of reasons we illuminate, we take a moment to  \nissue some cautions in the work and recognize its limitations.", 
  "We conclude with  \nimplications of the assignment for teacher education classrooms.", 
  "Trends in Self-Critique  \nChanged Perspective on a Social Justice Topic  \nMany of our students began their responses by detailing how their perspectives on  \na certain topic related to social justice had changed.", 
  "This was often related to a broad  \nconcept they had once treated as axiomatic, but, through readings and discussion in the  \ncourse, they newly discerned as a difference that was socially constructed.", 
  "There were  \nmultiple ways that students transformed.", 
  "Some tended to focus on particular elements or  \nforms of difference, while others related more directly to new ways of understanding  \nteacher practice.", 
  "Seeing gender, sexuality, and race.", 
  "Several students\u2019 responses focused on their  \nnew perspectives on gender.", 
  "While we had encouraged them to both question the ways  \nthat males and females were treated in schools, we also engaged students in work to  \npurposefully disrupt the strict gender binaries upheld in our society (Boyd, 2014).", 
  "In their  \nfinal autobiographies, they described how they had begun to see that gender was not a  \nnatural entity.", 
  "One student, Tara, a white female, stated, \u201cBefore engaging in the  \nmaterial of this course, I had never thought about how children were forced into certain  \nroles from birth; I always just believed that boys and girls had different interests.\u201d   \nDeconstructing what she had \u2018always believed\u2019 to be true led Tara to then apply this to  \nfuture thinking for her classroom, about which she shared, \u201cIn my own classroom, I hope  \nto create a more \u2018gender neutral\u2019 environment.", 
  "I recognize the fact that students will  \nenter my door with preconceived notions about gender identity already influencing their  \nway of thinking.\u201d  Not only did she recognize a broad social justice issue, but she also  \nbrought it to the more local, immediate context of her future classroom.", 
  "Similarly,  \nJonathan, a black male student, shared his newly formed perspective on sexuality and his  \nplans to create a more inclusive classroom.", 
  "Because he was born in what he labeled a  \nconservative Christian community, he disclosed, \u201cSexuality was something that was  \nnever discussed when I was growing up,\u201d and continued with the critique, \u201cThe way we  \nnormalize heterosexuality when we ask a young man \u2018Do you have a girlfriend?\u2019 or when  \nwe tell a young woman she should \u2018marry the man of her dreams\u2019 sends the message that  \nheteronormativity is our expectation.\u201d  Rather, he planned for a classroom that promoted  \nfree expression of sexuality and gender.", 
  "Still, other students shared their altered viewpoints in regard to race.", 
  "Despite  \nscholarship that disputes the notion of colorblindness (Thompson, 1998), a number of our  \nstudents had held steadfastly to this social lens prior to our course.", 
  "Some of the most  \npowerful student narratives catalogued experiences in which they truly assumed they had  \nnot \u2018seen\u2019 race.", 
  "An exemplar of this was Jenna\u2019s story in which she described her first  \nboyfriend who was African American.", 
  "She wrote, \u201cI am white.", 
  "We were just kids.", 
  "In my  \ninitial autobiography, I described how I learned to see the world \u2018color-blindly\u2019 through  \nthese friendships.\u201d  After returning to her autobiography, however, Jenna, later wrote,  \n\u201cNow, as this class comes to a close, I am able to critique this earlier version of my own  \nself.", 
  "What I didn\u2019t realize initially is that there is no such thing as being \u2018color blind.\u2019\u201d  \nShe described instead a recognition of difference, avowing, \u201cThere are differences in life  \nexperiences and outlooks between the races, whether we see, acknowledge, or even want  \nthem or not.\u201d  She was thus able to articulate how notions of colorblindness are  \nideologically constructed to ignore the existence of race and racism.", 
  "Beyond these, a number of other students described additional experiences of  \n\u2018seeing\u2019 inequity.", 
  "These candidates recognized that inequity existed outside of  \ntraditionally represented binaries of, for example, black and white.", 
  "In one illustrative  \nexample, a white male student had initially used test scores in his first submission to  \nillustrate his awareness of discrepant school access.", 
  "He later critiqued himself for  \nupholding a racial dichotomy with two sides, asserting, \u201cI failed to acknowledge how this  \ninequity affected the other minoritized groups in this classroom besides just African  \nAmericans, such as Hispanics, Native Americans, and those of Middle Eastern descent.\u201d   \nHe went on to acknowledge, \u201cI lacked the depth necessary to think critically about racial  \nissues\u201d stating that there are in fact \u201cmultiple dimensions of racial inequities.\u201d  The  \nautobiography assignment allowed him a platform to wrestle with his views of race.", 
  "Another white student, Lexie, similarly conveyed her feelings about her own original  \nlimitations in thinking, disclosing, \u201cI came to realize that by generalizing the types of  \ninjustices that existed to one category I was not the social justice advocate that I thought I  \nwas.", 
  "I wanted to achieve equality for all students, not realizing that treating all students  \nthe same was injustice in itself.\u201d  Like her classmate, Lexie here comprehends how  \nignoring differences in order to promote equality is a fallacy.", 
  "Thus, our students were  \nable to identify their good intentions and evaluate them in this repeated autobiographical  \nassignment.", 
  "Seeing institutionalized practice.", 
  "In addition to changed perspectives on gender,  \nsexuality, and race, our students took on alternative views of pedagogical practices they  \nhad witnessed in current contexts, as many were jointly in a school placement observing  \nat the time of our course.", 
  "Still others referenced their own past school contexts in terms  \nof accepted practices.", 
  "Many of these they had established as customary based on what  \nLortie (1975) documented as the \u201capprenticeship of observation\u201d.", 
  "This referenced how  \neasily pre-service candidates often categorize teachers\u2019 practices as given.", 
  "One of our  \nstudents, Brooke, also a white female, delved deeply into thinking about teachers\u2019  \npractices and how we label them.", 
  "She wrote of a teacher at her placement school, who  \nshe admired for her \u201cimpressive control over her class.\u201d  Yet, after our consideration in  \nclass, she documented that she began to question the teacher\u2019s exercises, reflecting, \u201csuch  \nrigidity teaches students that getting the right answer is more important than actually  \nthinking\u201d and that it might \u201cmiss the opportunity to teach kids things that really matter.\u201d  \nThus, Brooke came to new perspectives on an aspect that is often at the forefront of pre- \nservice teachers\u2019 minds:  classroom management.", 
  "Similarly, Shaun, another white student, reported on a school in which he had  \nbeen present during the semester.", 
  "He described having observed how teachers spent  \nmore time with and devoted their attention to students who were privileged.", 
  "He analyzed  \nthis observation, offering, \u201cOne of the problems with perpetuating privilege is that it  \noften widens the gap of ability between the highest and lowest.", 
  "The students who are  \nadvanced are going to continue to be that way while the students with lower abilities will  \ncontinue with that path as well.\u201d He elucidates how the reproduction of privilege occurs  \nin the microcosm of the classroom.", 
  "From a related perspective other students critiqued institutionalized practice but  \non a grander scale than teachers\u2019 pedagogical practice.", 
  "Rachel, a female student of color,  \nquestioned the stratification of students at the high school she attended.", 
  "She described a  \nseparate program for gifted students of which she was a part, a distinction that actually  \nled her to another physical campus for classes and activities.", 
  "She noted \u201cMultiple social  \ninjustices were present in the program that I am now able to reflect on but before I did not  \nnotice.\u201d  Also on a more macro-level of critique, Tonya, a white student, took note of our  \ninstructional efforts to debunk the notion of the \u2018teacher savior\u2019 (Ayers, 1994) and our  \nattempts to prompt our students to think about collectivity and the power of collaboration  \nin schools.", 
  "Throughout the course, we advised students to seek like-minded allies in their  \nschools who would also work toward social justice.", 
  "Mirroring this in her comments,  \nTonya began, \u201cI didn\u2019t understand at the beginning of the semester is that education truly  \nis a team effort .", 
  ".", 
  ".", 
  "I .", 
  ".", 
  "assumed that it was solely the responsibility of the teacher to  \ndevelop curriculum and assessments for their students, and that interaction with other  \nteachers, administrators, or parents, would stifle an educator\u2019s autonomy.\u201d   To combat  \nthe traditionally isolating nature of schools and notions that teachers must work alone  \ntoward progress, we encouraged students to be active and critical colleagues.", 
  "Tonya thus  \ncontinued, \u201cI\u2019ve learned through this class though, that education is a team effort.\u201d   \nWhile not related to a specific pedagogy, Michelle and Tonya\u2019s transformed perspective  \non broader educational occurrences are crucial and illustrate how our students took on  \nnew perspectives regarding institutionalized elements that are often assumed as natural.", 
  "Discerning Artifacts Anew  \nA second theme in our analysis of student submissions was the students\u2019  \nawareness of artifacts they had once taken for granted and later discerned with a more  \ncritical eye.", 
  "These artifacts were generally pictures, symbols, or other tangible objects  \nabout which students had written passionately in the initial submission but that which,  \nupon re-visit, they saw through a different lens.", 
  "For instance, one white student, Olivia,  \nwrote about how she reconsidered her high school mascot, \u201ca stereotypical image of a  \nNative American warrior\u201d and the messages it conveyed.", 
  "Although she had considered  \nhow a person of Native descent would feel about the artifact, she told us she had done  \nthis \u201cwithout considering my own or anyone else's Whiteness.", 
  "Now as I am more aware  \nof my own race and its implications for privilege, the invisibility of it dissipates.\u201d   \nAnother white student, Zack, originally wrote about the impact that the acclaimed novel  \nThe Catcher and the Rye had on his own life.", 
  "In re-visiting his artifact, however, he also  \nhighlighted the existence of whiteness.", 
  "He disclosed:  \u201cAs much as I love the book and  \nappreciate the quality of literature .", 
  ".", 
  ".", 
  "it does have a limited audience considering that it  \nis written from the point of view of a white, privileged teenage male.\u201d   Both students  \ntook an entity of which that they had an initial, distant, reading and made it more  \npersonal, seeing how their own social lenses shaped these perspectives.", 
  "Not only did students read social artifacts and objects anew, they also read  \nelements from their own collections through an alternative framework.", 
  "For example,  \nTyler, a white student, re-read the image of her high school show choir, a picture she  \nincluded initially for different reasons, from a multitude of critical perspectives.", 
  "First,  \nshe recognized \u201ca striking feature of the choir is that it is heavily White,\u201d despite the fact  \nthat there was a large population of Indian students in her school.", 
  "Beginning with race,  \nshe then moved onto consider LGBTQ issues presented by the image, where she  \ncataloged her memories of a three part mantra of the group that ended with \u201cwe\u2019re not  \ngay!\u201d despite the fact that many students in the group actually identified openly as lesbian  \nor gay.", 
  "Although she offered no resolution to this conundrum in her writing, Tyler  \nnonetheless pointed out that she did not consider any of this in her first discussion of the  \nartifact.", 
  "She continued beyond race and heteronormativity to explore further issues of  \ngender, stating, \u201cMy previous presentation made explicit mention of the ability to \u2018field  \nan equal number of girls and boys .", 
  ".", 
  ".it turns out that during some sections, the boys and  \ngirls need dance partners,\u201d and thus she critiqued what had initially seemed a social  \njustice agenda for instead upholding normative gender patterns.", 
  "She finished, \u201cit\u2019s still  \ntoo much of a shock to our modern sensibilities to have two girls dancing together,\u201d  \ncritiquing her own reading as well as the broader social standards that governed her  \nexperience.", 
  "The heightened perceptivity with regard to race, sexuality, and gender with  \nwhich Tyler re-assessed her image was noteworthy.", 
  "Her analysis helped us more fully  \ndiscern the potential of the autobiography assignment.", 
  "Students did come to an  \nawakening but did not essentialize themselves as \u2018enlightened\u2019.", 
  "Rather, like Olivia, Zack  \nand Tyler, they understood the moments they had upheld the power structure that  \nbenefited them.", 
  "As Emily, another white female student, put it, \u201cWhen the course began, I knew  \nthat there were social inequalities and inequities that are reproduced in our schools, but I  \ndid not see my place within these structures in a critical light \u2013 I was an observer of these  \ninjustices, rather than seeing myself as an unwitting participant in their replication and a  \npotential change agent to work against them.\u201d  She went on to describe her observations  \nin a local high school and her changed perspective on not only the students in them, but  \nalso the lack of support structures offered in the school.", 
  "Critiquing her original, savior  \nmentality in her first artifact involving the school, she wrote: \u201cTo choose this artifact  \nimplies some kind of separation and immunity from the inequities revealed in it \u2013 that I  \nam not part of their replication in school contexts \u2013 and that, instead, I am there to \u2018fix\u2019 it  \nas a magical outer force, with the inherent wisdom of my sex and race.\u201d Hers, like others,  \nwas marked by a discourse in which she connected herself in a powerful way to social  \nreproduction.", 
  "Seeing entities in this way, as not only external to the self, but as  \nsomething in which she also resided, illustrates the potentially personal element and  \nreflexivity in the assignment.", 
  "Recognition of Privilege  \nRealizations of privilege.", 
  "Most outstanding in all of the students\u2019 narratives was  \nthe theme of the recognition of privilege.", 
  "Many of our white students, perhaps not  \nsurprisingly, admitted in their narratives to never having known they had privilege.", 
  "Scholars have well-documented this aspect of whiteness (Lipsitz, 2010), and this was  \nreflected in our student\u2019s statements such as, \u201cI was completely oblivious to the unearned  \nprivilege I received for being a part of the dominant race, and I had never before stopped  \nto think about who was being oppressed at the expense of my privilege.\u201d  Their critiques  \nwere often personalized and authentic, lacking much of the language that permeated their  \nfirst autobiography.", 
  "Instead, their discourse was punctuated by an awareness that their  \nprivilege came at the cost of someone else\u2019s, an often difficult subject to broach with  \nbudding and idealistic teacher candidates.", 
  "Some identified the rampant myths of  \nmeritocracy in their original artifacts; some addressed how the extracurricular programs  \nthey had attended now emanated financial capital; some examined their school  \nexperiences in more depth and centered on issues of power and oppression; and finally  \nothers delved into the privileges afforded by their family and social networks.", 
  "In all of  \nthese sub categories, students openly discussed the unearned benefits that had  \naccompanied their experiences or arose from the people they had included in their  \noriginal assignments.", 
  "Privilege and meritocracy.", 
  "The myth of meritocracy is a pervasive and  \npersistent social script in our society (Barry, 2005), and our students had not been  \nexcluded from the tentacles of this creature.", 
  "They generally believed that their hard work  \nhad landed them in college and in our classroom, and they had been taught to believe in  \nthe value of hard work and individualism as the key to success.", 
  "After our course  \nreadings, however, our students shared different perspectives on meritocracy than they  \nhad in their original submissions.", 
  "Overwhelmingly, they cited our reading of Tim Wise\u2019s  \nWhite Like Me:  Reflections on Race from a Privileged Son (2011) as the impetus for  \ntheir self-critique.", 
  "This was exceptionally relevant in the narrative of one white student,  \nSarah, who reported that her parents were \u201cself-made\u201d and who was funding her own  \neducation.", 
  "She shared, \u201cNo one has ever given me anything, I thought.\u201d  Referring to  \nWise\u2019s reading, she avowed, \u201cThis reading made me consider things that I had never  \npreviously considered, like the fact that my inherited race had informed the privileges my  \nfamily received for generations and generations.\u201d  Reflecting a similar journey, Angie,  \nanother white student, connected the notion of meritocracy directly to her upbringing.", 
  "Where she had once lauded her parents for instilling in her a strong work ethic, she  \nreconsidered how this made her believe blindly in meritocracy.", 
  "She wrote, \u201cIt is na\u00efve to  \nthink that the same effort put forth by a person of color and a white individual or  \nmembers of high and low social classes will have the same effect, because the  \nunfortunate reality is that the structure of society makes it much easier for the white  \nperson and the person of high social class to succeed.\u201d Thus, the autobiographical  \nassignment afforded students a space to explore their family background and the ways the  \nbenefits their lineage bestowed capital upon them.", 
  "This focus on meritocracy inevitably arose as well in students\u2019 narratives about  \nthe privileges they acquired in their schooling experiences.", 
  "Harper, a white female  \nstudent, originally included her diploma from her International Baccalaureate program.", 
  "This represented \u201cthe requirements, the dedication, the hard work, etc.", 
  "that I felt it  \ninvolved.\u201d  She went on, however, to re-consider, \u201cI was born into a system of privilege  \nthat allowed me to succeed .", 
  ".", 
  ".Never did I stop to think that the reason I was afforded the  \nopportunity to participate in the IB program and get my diploma was due in large part to  \nmy culture and my identity as a member of the white middle class and my family\u2019s  \nhistory.\u201d  Under the surface of her \u201chard work,\u201d then, Harper saw the advantages she had  \nbeen given at an early age.", 
  "Students\u2019 references to schooling ranged from those regarding early childhood  \neducation, reflected in statements such as \u201cI thought of preschool as simply another part  \nof the education process, and never dwelled much on the fact that preschool benefits  \nprivileged individuals,\u201d to resources in students\u2019 schools, such as \u201cThe teachers did not  \nhave to worry about lacking the proper resources to teach their students,\u201d to the  \nreproduction of whiteness in schools, such as \u201cthe vast majority of student and teachers at  \nmy school were all middle and upper-class white people.\u201d  Some of our students attended  \nprivate schools, which they deconstructed as privileged spaces.", 
  "Teachers for whom they  \nwere grateful in their first narratives became teachers who had the time to spend with  \nthem because of the privileges afforded by their educational setting.", 
  "Grand narratives  \nfrom schools, such as having been told, \u201csocial inequality was a thing of the past\u201d  \nbecame open for contradiction.", 
  "Based on our reading of Beth Hatt\u2019s (2007) \u201cartifacts of  \nsmartness\u201d (p. 151), students revealed that they had been constructed as smart throughout  \ntheir whole lives in schools and began to evaluate how this, as one student wrote,  \nmaintained the \u201cself-perpetuating cycle of privilege and ignorance.\u201d   \nThese accounts of school privileges ultimately extended into extracurricular  \nactivities as well.", 
  "Reflecting Lareau\u2019s (2003) theory of concerted cultivation, wherein  \nwhite, middle class children are in a sense groomed to attend college, many of our  \nstudents participated in a number of activities that they later recognized as reflecting  \nimmense privilege.", 
  "One white female student, Elise, re-visited her experience traveling  \nabroad with members of her French class.", 
  "She recounted that there were some students  \nwho did not join the trip, but she had not considered why that might have been the case.", 
  "She then critiqued this omission, stating, \u201cI mentioned that I was fortunate to have the  \nfinancial resources to travel, I did not address the inequality that was present.", 
  "As I look  \nback on this experience, I can see how much I was benefitting from cumulative  \nadvantage.", 
  "Elise here referenced Barry\u2019s (2005) notion of cumulative disadvantage,  \nwhich we had highlighted in class and was a text that the students read.", 
  "Her altered  \nperspective required her to see an aspect that she had not before\u2014how despite her  \nexcitement for traveling abroad, there was an underlying privilege to her actions.", 
  "Many  \nof our other students looked similarly at summer programs in which they had participated  \nand carried a privileged undertone.", 
  "Nuanced understandings of privilege.", 
  "The above theme of recognizing  \nprivilege for perhaps the first time, however, did not apply to all of our students.", 
  "Some  \nhad considered their own advantages and structures of oppression prior to their  \nparticipation in our class.", 
  "Students whose responses appeared in this category were our  \nstudents of color, students who had participated in some form of social activism, or  \nstudents who had taken a course previously where they had begun to wrestle with similar  \ntopics.", 
  "Those three were not mutually exclusive; for example, some students who had  \ntaken a course were also activists.", 
  "Their responses illustrated, however, how they  \ncontinued to grapple with issues of power and social justice in their own lives and the  \nways that they gained more nuanced understandings of the manners in which these  \nstructures operate.", 
  "What was powerful, then, was that our autobiography assignment  \nafforded for growth from where a student began, which was not predetermined for them  \nby us, the instructors.", 
  "Rather, having the assignment as open, as a critique of the self,  \nallowed our students to truly examine their own positions.", 
  "For instance, one female student of color, Samantha, initially struggled in class in  \nregard to her possible privilege.", 
  "She later wrote, \u201cOne thing that I have learned in  \nparticular through this class is that\u2014even as a black woman\u2014I have been the benefactor  \nof privilege my entire life,\u201d and then explained how the educational level and occupations  \nof her parents had afforded her privilege.", 
  "Our students, then, opened up spaces for  \nrecognizing varying aspects of privilege, thereby taking their knowledge of social justice  \nissues to a more complicated awareness of the ways that power operates in various social  \ncontexts.", 
  "Another student of color, Michelle, shared, \u201cLooking back now I see so much  \nprivilege I once did not.", 
  ".", 
  ".", 
  "All the while when this class first started I saw myself as  \nunprivileged because I am a minority female from a lower middle class family.\u201d  Having  \nengaged in her own self-exploration, she persisted, \u201cThis class has really caused me to  \nput on my critical lenses and realize that white males are not the only group that has  \nexperienced privilege.", 
  "I did not initially see how my attending nothing but academic and  \ngifted schools put me higher than other minorities.\u201d  Like Samantha, Michelle primarily  \nfocused on her schooling experiences when considering the advantages she possessed.", 
  "To be sure, these students were not assuming that they had privileges equal to those of  \nwhite students\u2014only that they now had a more intricate awareness of how privilege  \nworked in their lives and in others.", 
  "There was more to these nuanced understandings.", 
  "Another student of color  \nconsidered herself disposed to social justice at the beginning of the course.", 
  "She had in  \nfact participated in a social movement abroad to champion the rights of a faction in a  \nnation whose basic justices were being denied.", 
  "Even then, she began to see the  \nimplications of her privilege in her work, disclosing, \u201cdespite how I admitted that the  \nminoritized group was oppressed, I had a limited view of oppression, one that saw this  \ngroup as underprivileged .", 
  ".", 
  ".I never thought of referring to myself as overprivileged or  \noveradvantaged.\u201d  Social justice for her had been something outside of herself, but our  \nassignment prompted her to think about it more personally.", 
  "This was reflected in her  \nthoughts, \u201cI always felt that my active participation in it [the social movement] was to  \nelevate the status of the disenfranchised because they deserved basic human rights\u2014but  \nnever had I considered how I have significantly more than most of them will ever have.\u201d   \nWhile this student reflects what most would consider activism with a social justice goal,  \nher disposition did not preclude her from introspection and she here shared the  \nacknowledgement of the benefits she maintained despite her actions to help others.", 
  "That  \nthis assignment allowed for these varying degrees of reflection based on students\u2019 current  \ncontexts and orientations continues to illustrate its value in a course geared toward social  \njustice education.", 
  "Resistance to Critique  \nDespite the plethora of responses in which students reported altered perspectives  \nand recognized privilege, not all of our students illustrated these patterns of critique and  \nheightened consciousness.", 
  "Researchers have documented language of avoidance and  \npoliteness in the speech patterns of white females when it comes to issues of social  \njustice and particularly race (for example, see McIntyre, 1997).", 
  "These patterns were  \nrevealed as well in some of our students\u2019 narratives.", 
  "Some resisted our invitation to re- \nthink their initial responses and maintained narratives of individualized notions of  \nsuccess.", 
  "Such students also continued to affirm the influence of sole figures in their lives  \nwithout recognition of structural privileges.", 
  "Further, some also wholly avoided the  \nassignment by detailing experiences they had outside of the classroom rather than  \naddressing how they had changed, or they maintained that they were already disposed  \ntoward equity in the beginning of class and thus did report any growth.", 
  "Although less  \nfrequent than the reactions reviewed above, totaling approximately nine out of the 60  \nstudent responses, these nonetheless necessitate our continued thinking for how to reach  \nall students with our coursework and assignments.", 
  "Despite the second autobiographical task asking specifically for reflection and  \npersonal critique, some students maintained the theme of meritocracy and used this to  \nthen express a belief in celebratory multiculturalism.", 
  "This adherence to individualized  \nsuccess was seen in statements such as \u201cI failed to mention the hard choices that I have  \nalways made and that I will continue to make for the rest of my life.\u201d  Another student  \nexemplified this theme in her statement, \u201cI am incredibly proud of who I am and where I  \ncome from.", 
  ".", 
  ".", 
  "I believe that every person should be proud of their history and their  \nculture.", 
  ".", 
  ".", 
  "It\u2019s ok to be different!\u201d The student here, Natalie, a white female, implies that  \nher experience and culture are equal to others.", 
  "Everyone is equivalently different, and  \nthus everyone deserves to be appreciated alike.", 
  "This perspective ignores the social  \nstratification we discussed in class as well as power and structures of oppression.", 
  "Other students avoided the assignment by talking about education more generally.", 
  "Lillian, a white student, wrote, \u201cAs a teacher, I will be in front of a class full of students  \nthat have no idea who I am, where I am from, or why they should respect me.", 
  "It will be  \nmy job to make them respect me.\u201d  Her need to feel content as a teacher was not  \nconnected to any of the social justice topics we covered in class.", 
  "Rather, she avoided  \nself-analysis in regard to race, class, or gender by substituting it with her insecurities on  \nteaching broadly.", 
  "Another white male student minimally referenced social justice and  \nfinished his narrative with \u201cIn knowing what type of culture the classroom sets forth, we  \nas educators are able to bring our own set of abilities and beliefs into the classroom.\u201d   \nFinally, another white student wrote on curriculum, avowing, \u201cIt is not socially just to  \nleave anybody behind, and I also need to modify my material so that it benefits everyone  \nequally.\u201d  While this may be true, the student spoke in general terms about education and  \ndid not re-visit an original artifact and engage in self-critique in the manner in which we  \nasked.", 
  "Without fulfilling this aspect of the assignment, the student avoided his own  \nimplication in privilege and oppression.", 
  "A few students maintained that they already knew about social justice and thus  \ndid not report any change in perspectives.", 
  "What is notable here is that, as mentioned  \nabove, there were students who were equity-oriented at the start of the course who still  \nfound room for critique and development.", 
  "The students who resisted by stating that they  \nwere already \u2018there,\u2019 were few.", 
  "One white male student, John, who is representative of  \nthis category, relied on a former job he had that he felt had prepared him for our course.", 
  "He wrote of that experience, the \u201cPosition reflects the foundation of knowledge I came  \ninto class with.", 
  "While [in the position], we had monthly social justice workshops, where  \nwe focused on different issues like universal design, racism, and person-first language.\u201d   \nAlthough he said the class \u201cgave me a greater perspective of myself as a teacher and how  \nI should navigate my students and myself through the obstacles of public education,\u201d he  \navoids the task of analysis and introspection that we assigned.", 
  "Instead, his response reads  \nas though he already knew and maybe learned a little more, but lacks the depth we saw in  \nothers\u2019 submissions.", 
  "Discussion:  Maintaining Simple Solutions  \nDespite the few instances of resistance, the overwhelming majority of student  \nresponses were positive and generated the themes catalogued above.", 
  "Our two iterations  \nof the autobiography assignment not only provided students a space to tell their stories  \nand recognize their own social lenses, but they also offered students a way to critique  \ntheir narratives for the power and privilege at work in their own lives in whatever ways  \nthat they pertained to them.", 
  "Students voiced the manners in which their families had  \ninfluenced them or how their schooling had perpetuated social norms.", 
  "Many of them  \nreferenced how whiteness as a system pervaded their lives, beginning to attribute their  \noriginal ideas about meritocracy instead to structural advantage.", 
  "They recognized the  \nways that schools are implicated in social reproduction, pointing out how pedagogical  \npractices benefit some students over others.", 
  "They re-read artifacts from the social milieu  \nthrough new, critical angles and developed fresh perspectives on images and objects.", 
  "It  \nwas this variety in responses and the students\u2019 abilities to select issues for critique on  \ntheir own that helped us see they were actually working through and developing their  \nstances as individuals.", 
  "Ellsworth (1989) reminds us that students\u2019 narratives:   \nAre partial\u2014partial in the sense that they are unfinished, imperfect, limited; and  \npartial in the sense that they project the interests of \u2018one side\u2019 over others.", 
  "Because those voices are partial and partisan, they must be made problematic, but  \nnot because they have broken the rules of thought of the ideal rational person .", 
  ".", 
  ".", 
  "Rather, they must be critiqued because they hold implications for other social  \nmovements and their struggles for self-definition.", 
  "(p. 305-306)    \nWe wanted our students to recognize the limits of their narratives, to see that their story  \nwas one in a host of others and one within a particular time and context.", 
  "It is a story to be  \nvalued, but one that can also be critiqued.", 
  "While we knew that the conclusions for each  \nwould be relatively unique, we hoped to open up that space and see the directions in  \nwhich they moved.", 
  "One reminder here is that our students attended a large, research  \nuniversity.", 
  "Thus, this assignment was catered to our audience in that we knew by their  \nsheer presence in our class most had been privileged in some way.", 
  "The fact that they  \nwere able to articulate their privilege by the end of the course in such analytic terms,  \nsupported by course experiences and readings, points to the value of such an assignment.", 
  "We were buoyed by the evidence in students\u2019 narratives of the recognition of  \nissues of social justice and the critique of privilege and structural oppression, and we thus  \nmaintain the worth of the assignment.", 
  "One element that gave us pause, however, is that  \nmost of our students nonetheless reflected what Hytten and Warren (2003), in similar  \nresearch with students, have labeled as \u201cthe discourse of \u2018fix it\u2019,\u201d wherein \u201cthe belief is  \nthat we understand cognitively the problems that exist; therefore, we should focus our  \ntime and energy on coming up with, and enacting, solutions\u201d (p. 75).", 
  "While they  \nunderstood and analyzed themselves, our students then often offered quick, broad- \nsweeping solutions.", 
  "While we did ask them to envision their future selves as social  \njustice educators and thus wanted them to note things they would \u2018do,\u2019 many of their  \nsubmissions continued to uphold a notion of obtaining results easily.", 
  "In their simple  \nsolutions, students seemed to want to deny any continued complicity, and limited what  \nwas necessary to interpersonal civility.", 
  "This furthermore relates to one of the inherent  \nproblematics of social justice (Ellsworth, 1989; Janks, 2015).", 
  "Oftentimes our visions of  \njustice rely in western, rational notions that have been constructed by the dominant  \nculture.", 
  "Working against those to find more just solutions requires diligent attention to  \nthought and action.", 
  "The Potential of Two Stage Multi-Media Autobiographies  \nThere are a variety of ways that pre-service teachers\u2019 autobiographies can be  \ncalled upon and explored in the teacher education classroom.", 
  "Ours is one that adds to  \nthat body of options.", 
  "Yet, we also hope to illustrate that in the two versions of the  \nassignment, an initial response and a re-visit later in the course, students were able to  \nmore aptly critique their experiences and become critically self aware.", 
  "As noted also,  \nstudents grew from their individualized starting points\u2014those who were new to the  \ndiscourse of social justice became accustomed to the language and topics of critique,  \nwhile those who were already engaged in the practice of analysis developed more  \nnuanced understandings.", 
  "It is the second stage of the assignment, the use of course  \nmaterials applied directly and personally to humanize social justice and the open-ended  \nways that students critically responded, that we posit here as a new approach that led to  \noutcomes less prevalent in similar work by teacher educators.", 
  "Furthermore, it is both the  \nsummoning of intellectual critique and the potential for growth that make this assignment  \na valuable one in the teacher education classroom and are the reasons that we find  \nsignificance in its implementation.", 
  "Despite these benefits, student resistance to social justice content is well known  \nand our analysis reveals this to be true here as well.", 
  "Thankfully, only a small number  \nexpressed this in their re-write when they discursively hijacked the assignment to avoid  \nself-critique.", 
  "Further, both iterations had many cases of students striving for simple  \nsolutions to structural oppression.", 
  "However, it is also evident that the revisiting of their  \nautobiographies allowed the great majority of our students to identify how school and  \nsociety were implicated in social inequities.", 
  "It is crucial to note also that students were  \nable to accomplish such tasks within the context of course readings and discussion, thus  \nwe want to be clear that this autobiographical work must be embedded in a course that  \nprovides sufficient material for students to draw upon.", 
  "Through our intellectual work  \neach week, students\u2019 knowledge of critical theory, injustice, and inequity grew, and we  \ncontinuously asked them in class to apply these concepts to their personal and global  \nworlds.", 
  "Thus, we were able to scaffold the critique in the second autobiography.", 
  "We also recognize our own limits as white educators and the limits of the course  \nwe taught.", 
  "Since our students perceived us as reflecting their own cultures, they were  \nlikely more apt to engage in self-critique and complete the assignment as intended.", 
  "Researchers have documented \u201cthe overwhelming presence of whiteness\u201d (Sleeter, 2001)  \nin teacher education and scholars of color have noted the challenges of working within  \nsuch structures (Leonardo, 2014).", 
  "Our existence as the course instructors therefore is an  \nimportant factor to consider here.", 
  "In addition, with 60 members in the course, it was  \ndifficult to truly accomplish the level of social interaction that makes for a rich learning  \nexperience and to develop the personal academic relationships we would have liked.", 
  "The  \nclass also took place in an amphitheater-type room that limited conversation between  \nteacher candidates.", 
  "Furthermore, we could not assign activist projects and had to rely on  \nplacements from other classes to gather information and structure critique.", 
  "These field  \nexperiences provided fodder for critique and were sure to have influenced students\u2019  \nperspectives in the second phase of the assignment.", 
  "In addition, although we required  \nstudents to interview teacher activists in hopes they would see the potential benefit in  \ncivic engagement, we were unable to actually involve them in any sort of social  \nmovement themselves.", 
  "This is perhaps why the discourse of \u2018fix it,\u2019 as noted above,  \npersisted.", 
  "Therefore, while recognition is a first step, the social justice agenda must  \ndemand action.", 
  "Our assignment, while worthwhile in cultivating self-analysis, did not  \npromote our students to take any action.", 
  "The next step, then, would be for students to  \nassume responsibility for promoting social justice and perhaps document this process.", 
  "Thus, while we are making strides, there is still more work to be done.", 
  "In future adaptations of this assignment, then, we would recommend that teacher  \neducators consider those narratives of resistance we received from students and how one  \nmight go about addressing those preemptively in order to solicit critique from all  \nstudents.", 
  "In addition, to facilitate student action, students could be required to act on one  \nof the elements in the second autobiography in which they describe who they want to be  \nas a social justice educator.", 
  "Perhaps part of the second autobiography then, is a critique  \nof an original artifact, an explanation of who they want to be, and a reflection on what  \nthey have done to get there.", 
  "Taking steps toward those goals during their teacher  \neducation program would hopefully prompt students to continue once they enter their  \ncareers and further their growth as equity-oriented individuals.", 
  "If our social justice  \nagenda is to be realized, critique and action must be mutually present."
 ]
}