{
 "document_id": "cb45d2bb33c6499cb2dd6be0c2618db7", 
 "sentences": [
  "\n\n  The  10th  East  Asia  International  Symposium  on  Teacher  Education,  Nagoya,  2015  International Consortium for Universities of Education in East Asia (ICUE)  Aichi  University  of  Education  \n\nDevelopment of Teacher Education in the Global Era    - Focusing on Ed.D.", 
  "and Master Programs for In-Service Teachers -  \n\nTetsuo Kuramoto \n  Fuculty Education, Aichi University of Education  \n1, Hirosawa, Igaya-cho, Kariya, Aichi 448-8542, Japan  \n*Corresponding Author: kuramoto@auecc.aichi-edu.ac.jp  \nAbstract  \nThe theme of this year\u2019s symposium is \u201cDevelopment of Teacher Education in the  \nGlobal  Era\u201d.", 
  "The  purpose  of  our  symposium  is  to  analyze  teacher  education  \ncurricula/programs such as the Ed.D.", 
  "program and master program for \u201cin-service  \nteachers\u201d.", 
  "Also, we would like to understand teachers\u2019 professional training at the  \nindividual school level (such as lesson studies), and the partnership between the Board  \nof Education and our university.", 
  "Finally, we will improve our teacher education and  \nteacher\u2019s professional training system of the graduate school curricula/instructions and  \nsystems through discussions regarding our advanced idea of \u201cintegration between  \neducational theories and practices\u201d.", 
  "We would like to present the Research Questions regarding each country\u2019s  \nsituation of teacher education below.", 
  "RQ1: What kind of programs regarding teacher education and teacher training do  \nyou have at your university?", 
  "What kind of programs do you offer about  \nprincipal/leadership education, including the curriculum, and are there any  \ninternships?", 
  "RQ2: Why do teachers want to have a master\u2019s degree or PhD/Ed.D.?", 
  "Is it because  \nthey  could  be  officially  promoted  to  the  position  of  principal  or  \nadministrator?", 
  "What kind of incentives can they recieve?", 
  "Are they able to  \nearn more money?", 
  "RQ3: What is the difference between PhD and Ed.D.", 
  "in your country?", 
  "Why does the Ed.D.", 
  "program need to be distinguished from the PhD  \nprogram?", 
  "Do most superintendents and principals have an Ed.D.?", 
  "Do you  \nhave any basic templates/manuals for creating an Ed.D.", 
  "dissertation?", 
  "(Ex.,  \nAction research style with qualitative/quantitative research)  \nRQ4: What kind of professional training system do you have for teachers at the  \nindividual school level, such as a lesson study?", 
  "Also, please explain the  \npartnership between the Board of Education and your university?", 
  "The  10th  East  Asia  International  Symposium  on  Teacher  Education,  Nagoya,  2015  International Consortium for Universities of Education in East Asia (ICUE)  Aichi  University  of  Education  \n   (Figure 1.", 
  "Research Design for development of teachers Education)  \nAs a result, our discussion could be effective and have productive indications for our  \nmain theme of this year\u2019s symposium, which is \u201cDevelopment of Teacher Education in  \nthe Global Era\u201d.", 
  "Keywords: action research, in-service teachers,Ed.D.", 
  "Introduction -Future study focused on Action Research for in-service teachers-  \nThe  most  significant  point  of  this  research  is  that  Lesson  Study  (Japanese  teacher  \ntraining of professional learning community) is a part of the conceptual structure of the  \nCurriculum  Management  theory  so  that  these  relative  concepts  can  become  \nconsequently meaningful to Teacher Development.", 
  "In  order  to  study  the  concepts  discussed  in  my  presentation,  and  to  theorize  the  \neducational  practice  based  on  teacher  development,  the  key  factor  for  my  future  \nresearch is to establish the methodologies for Action Research.", 
  "It is possible to define  \n\u201cmetaphoric\u201d  as  the  educational  research  \u201cof  the  teachers,  by  the  teachers,  for  the  \nteachers\u201d.", 
  "In the meaning, action research theory achievements should be reviewed.", 
  "In  \naddition,  future  visions  should  be  suggested  for  building  \u201ctheory  and  practice\u201d  in  \neducation from the perspective of the action research interests.", 
  "The  10th  East  Asia  International  Symposium  on  Teacher  Education,  Nagoya,  2015  International Consortium for Universities of Education in East Asia (ICUE)  Aichi  University  of  Education  \n1.", 
  "The structure of the Study of Action Research                      \nRecently,  action  research  has  been  to  be  given  special  attentions  as  one  of  the  new  \neducational research methodologies.", 
  "Therefore, because of this, teachers are generally  \nbeing  recognized  as  researchers  who  focus  on  the  process  of  problem  solving  in  their  \npractices.", 
  "Furthermore, it is based on the individual teacher\u2019s specific character, such as  \ntheir own personality, teaching skills, and educational philosophy/morality.", 
  "As a result,  \nthe action research is aimed in order to improve the teachers\u2019 own practices in their own  \nsituations and contexts.", 
  "Kurt Lewin, who is a well-known researcher of Group Dynamics, has generally been  \nconsidered as the origin of action research.", 
  "He is concerned with social problems, and  \nfocused  on  participative  problem-solving  processes  in  the  social  organization.", 
  "He  \ncharacterized  action  research  as  \u201ca  comparative  research  on  the  conditions,  effects  of  \nvarious  forms  of  social  action,  research  leading  to  social  action\u201d,  using  the  process  of  \n\u201cspiral  of  steps,  each  of  which  is  composed  of  a  circle  of  planning,  action,  and  \nfact-finding about the result of the action\u201d (Lewin, 1946).", 
  "It  is  very  difficult  to  define  the  true  concept  of  action  research,  due  to  the  various  \ntheoretical  developments  of  the  background.", 
  "Otherwise,  some  true  concepts  would  be  \nshown as literary reviews.", 
  "According  to  Chris  Argyris,  action  science  was  becoming  famous  by  studying  how  \nhuman  beings  choose  to behave  in  difficult situations.", 
  "Choosing  how to  act  is  the  key  \ndifference  between  Single-Loop  Learning  and  Double-Loop  Learning.", 
  "Thus,  \u201cAction  \nScience\u201d  was  used  in  individual  and  organizational  learning  and  the  extent  to  which  \nhuman reasoning (Argyris, 1985).", 
  "There  are  many  definitions  for  action  research,  historically;  for  instance,  Rory  O\u2019Brien  \ndiscussed action research as below.", 
  "\"Action research...aims to contribute both to the practical concerns of people in an immediate  \nproblematic situation and to further the goals of social science simultaneously.", 
  "Thus, there is a  \ndual  commitment  in  action  research  to  study  a  system  and  concurrently  to  collaborate  with  \nmembers  of  the  system  in  changing  it  in  what  is  together  regarded  as  a  desirable  direction.", 
  "Accomplishing this twin goal requires the active collaboration of researcher and client, and thus  \nit stresses the importance of co-learning as a primary aspect of the research process.\"", 
  "(Harrison,  \n1995).", 
  "Additional definitions follow.", 
  "\u201cAction research is a disciplined process of inquiry conducted by and for those taking action.", 
  "The  primary  reason  for  engaging  inaction  research  is  to  assist  the  actors  in  improving  their  \naction\u201d (Sagor, 2000).", 
  "\u201cAction research consists of planned, continuous, and systematic procedures for learning about  \nyour professional practice and trying out alternative practices to improve outcome\u201d (Whitehead,  \n  The  10th  East  Asia  International  Symposium  on  Teacher  Education,  Nagoya,  2015  International Consortium for Universities of Education in East Asia (ICUE)  Aichi  University  of  Education  \nThe  theoretical  framework  for  educational  action  research  is  described  as  the  rhetoric  of  \n\u201cKnowing  in  Action\u201d  to  \u201cKnowledge  in  Action\u201d.", 
  "This  means  that  it  is  important  for  action  \nresearchers to understand the rhetoric of \u201cReflecting in Action\u201d (Atkins, L. & Wallace, 2012).", 
  "Moreover, from the perspective of subjective theory, action research has an active tendency that  \nis based on individual teachers' personal specific theories and situational theories derived from  \ntheir own experiences (Torbert, 2004).", 
  "Alternatively, action research from objective and scientific  \nperspectives is a community of practice, which is a collaborative understanding with those who  \nare practitioners, researchers, and stakeholders, under the school systems themselves.", 
  "It is not  \nfor  only  personal  issues, but  also  includes  progressive  social problem  solving  in  the process  of  \nfostering  educational  practice.", 
  "Therefore,  action  research  is  an  eloquence  research  that  \nemphasizes the integrated, adequate balance between subjective and objective understandings in  \nthe spiral process of individual and organizational practices.", 
  "It is also based on behavior research  \nof  the  problem  solving  process  within  the  collaborative  research  context  (Reason  &  Bradbury,  \n\nUchiyama, who is a well-known Japanese action researcher, quoted a significant theory of Soft  \nSystem  Methodology  by  Checkland.", 
  "He  also  discussed  integration  between  the  hard  and  soft  \nsystems  of  organizational  management.", 
  "Action  research  by  Uchiyama  introduced  both  Actuality  \nand Auto-Affection, regarding subjective personal idea and objectivized consideration.", 
  "This means  \nthat  subjective  consideration  is  generally  criticized  because  of  a  lack  of  scientific  objectivities;  \nhowever, it became necessary to prove the importance of subjective actuality.", 
  "Also, action research  \nis  a  kind  of  antithesis  to  exceed  positivism,  and  it  is  essential  to  recognize  it  as  a  new  research  \nstyle for practitioners who always face their own actualities.", 
  "Uchiyama described action research  \nas  learning  from  real-world  knowledge  through  practitioner's  experience.", 
  "It  is  behavior  research,  \nor \"Omoi\" exists between actuality and reality, between us and society (Uchiyama2008).", 
  "According to Sano, action research can be possibly divided into three types.", 
  "It is firstly  \nan educational reform movement to involve parents and communities through research  \ndata.", 
  "Secondly, it is a deductive style that puts theory into practice in order to improve  \nclassroom research.", 
  "Thirdly, teachers try to foster their own practice through their own  \nexperienced knowledge.", 
  "In addition, the importance of educational research is to design  \nthe  methodologies  for  the  educational  practice  science  from  perspectives  of  action  \nresearch.", 
  "As educational researchers have pointed out, educational practice and theory  \nare divided into two categories, and they tend not to blend together well.", 
  "Above all, regarding the structure of action research, it is indispensable to discuss an  \nintegrated approach between subjective and objective cognitions and understandings.", 
  "2.", 
  "First, Second, and Third-person Action Research    \nTo  create  a  clearer  definition  of  what  action  research  is,  from  the  points  of  subjective  and  \nobjective cognitions mentioned, a key note speech at action research symposium, which was held  \n  The  10th  East  Asia  International  Symposium  on  Teacher  Education,  Nagoya,  2015  International Consortium for Universities of Education in East Asia (ICUE)  Aichi  University  of  Education  \nat  San  Diego  University  in  2007,  will  be  utilized.", 
  "According  to  Torbert,  the  key  factor  is  \n\u201cFirst-person,  Second-person,  Third-person  theory\u201d,  which  was  based  on  an  \ninter-subjective  \napproach  \n\nintegrate  \nsubjective  \n\nobjective  \ncognitions/understandings.", 
  "contemporary  \n\nscience,  \ninter-subjectivities, which is first-, second-, third-person research and practice, has only  \ntaken shape since the late 1990s.", 
  "The  three  dimensions  of  difference  are  \u201cthe  temporal  dimension,\u201d  \u201cthe  practice  \ndimension\u201d and \u201cthe voice dimension.\u201d The temporal dimension is divided into the past,  \nthe  present,  and  the  future.", 
  "The  practice  dimension  is  differentiated  according  to  \nwhether  the  research  focuses  on  the  researcher\u2019s  own  practice  (first-person  practice),  \nthe practice of a group of which she or he is a member (second-person practice), or the  \npractice  of  some  broader  population  of  which  the  researcher  may  or  may  not  be  a  \nmember (third-person practice).", 
  "Finally, the voice dimension is differentiated according  \nto whether the inquiry is conducted in (1) the frankly subjective first-person voice of the  \naction inquire, (2) the multiple, inter subjective second-person voices of multiple action  \ninquire, and (3) an anonymous, generalized, intended neutral third-person voice.", 
  "To conclude, according to Kuramoto (Kuramoto, 2011), action research means how to  \napproach an objective perspective through an inter-subjective method between personal  \nsubjective perspectives.", 
  "It is also based on the first-person, second-person, third-person  \ntheory, which is a typical triangulation theory of qualitative research.", 
  "(Figure 2.", 
  "3 concepts of Action Research)  \n  The  10th  East  Asia  International  Symposium  on  Teacher  Education,  Nagoya,  2015  International Consortium for Universities of Education in East Asia (ICUE)  Aichi  University  of  Education  \nIn addition, action research has three concepts necessary to recognize its important  \nfeatures.", 
  "Since action research depends on a practitioner\u2019s personal knowledge and experience  \nto  improve  their  practice  in  particular  situations,  the  concept  of  Type  1  (specific  &  \nsubjective perspective), which is based on \u201cactuality and analysis of yourself\u201d, must be  \nconsidered.", 
  "On  the  contrary,  the  concept  of  Type  2  (general  &  objective  perspective),  \nwhich  is  based  on  \u201creality,\u201d  is  regarded  as  a  part  of  social  and  human  science  \nmethodologies.", 
  "Furthermore,  it  has  a  high  status  in  the  academic  society  in  general.", 
  "Therefore,  it  naturally  tends  to  use  an  empirical  methodology  to  prove  some  kind  of  \nsocial or human tendencies without a practitioner\u2019s specific knowledge and experiences.", 
  "It is difficult to analyze individual cases to grasp their austenitic realty.", 
  "Finally,  the  most  important  concept  for  action  research  is  based  on  the  concept  of  \ntypicality  (Type  2).", 
  "This  type  of  concept  is  necessary  in  order  to  integrate  the  \ngeneral/objective and specific/subjective perspectives of action research.", 
  "Because action  \nresearch  needs  to  relatively  acquire  both  concepts,  the  indication  is  similar  to  the  \nphilosophy of the case study method in a typical concept theory.", 
  "3.", 
  "Additional aspect of action research    \nTo profoundly understand the additional aspect of action research, it is required to  \nrecognize the three dimensions for action research, which are the \u201cXYZ aspects\u201d for the  \nintegration between educational practice and theory.", 
  "(Figure 3.", 
  "XYZ aspects for Action Research)  \n  The  10th  East  Asia  International  Symposium  on  Teacher  Education,  Nagoya,  2015  International Consortium for Universities of Education in East Asia (ICUE)  Aichi  University  of  Education  \nThe  \u201cX  aspect,\u201d  which  is  the  practical  aspect,  consists  of  \u201cinductive  research\u201d  and  \n\u201cdeductive  research.\u201d  Inductive  research  is  a  productive  approach  from  practices  into  \ntheories.", 
  "For example, practitioners generally have their own rich, practical experience;  \nhowever, they perform their practice through their own senses and previous experiences  \nwithout  understanding  authentic  theoretical  meanings.", 
  "As  a  result,  they  cannot  \norganize their practices to recognize the meanings and convey them to others.", 
  "Therefore,  it  is  indispensable  for  them  to  build  their  own  theory  from  their  own  \npractices.", 
  "This  requires  the  inductive  approach  of  action  research.", 
  "In  contrast,  \ndeductive  research  is  the  opposite  approach,  which  firstly  tends  to  grasp  educational  \ntheories,  and  secondly,  to  apply  it  into  the  practices.", 
  "Since  both  the  approaches  have  \nblended together relatively well, they are often adapted into research structures such as  \nthe Ed.D.", 
  "dissertation on the  action research style.", 
  "Concerning the pre-survey in that  \ntype of dissertation, it often relies on an inductive approach for practitioners in order to  \nbuild  their  original  theories  from  perspectives  of  the  own  practices.", 
  "The  main  survey  \nconsists  of  a  deductive  approach  for  adapting  theories  into  their  own  practices  to  \nimprove the quality.", 
  "The \u201cY aspect,\u201d which is the academic aspect, consists of \u201ctheoretical research\u201d and  \n\u201cempirical  research.\u201d  As  long  as  it  is  regarded  as  academic  research,  it  is  absolutely  \nnecessary to consider literature reviews in theoretical research, as well as in empirical  \nresearch, to establish research questions and to conduct empirical methodologies which  \nmight include qualitative and quantitative approaches.", 
  "Finally,  the  \u201cZ  aspect,\u201d  which  is  the  \u201cInternational  aspect,\u201d  consists  of  \u201cimport  \nresearch\u201d and \u201cexport research.\u201d The import research style depends on an old-Japanese  \nstyle of research, which was very popular a few decades ago.", 
  "Since Japanese research in  \nthe education field was under development at the time, the research style of translating  \nfrom  the  western  educational  systems  into  the  Japanese  system  was  frequently  \nrespected in the academic societies.", 
  "However, since the 2010s, the exporting of export  \nJapanese  educational  practice  and  research  results  has  gradually  increased.", 
  "Some  of  \nthe  Japanese  educational  concepts  are  gaining  attention  in  international  educational  \nsocieties; the typical popular concept is the lesson study which is the main topic in this  \nbook.", 
  "This  means  that  the  export  research  style  is  also  essential  to  develop  action  \nresearch strategies.", 
  "In Figure 4 below, in order to conduct the action research procedure, it is imperative  \nto  understand  the  process  of  action  research.", 
  "The  reason  why  academic  research  and  \neducational practice do not  combine  together  is  due  to  the  cognitive distance between  \nthem.", 
  "For  instance,  a  practitioner  cannot  use  a  general  and  academic  educational  \ntheory  because  of  his/her  lack  of  academic  experience  and  the  overemphasizing  of  \npractical  interests.", 
  "Therefore,  the  most  important  strategy  for  improving  action  \n  The  10th  East  Asia  International  Symposium  on  Teacher  Education,  Nagoya,  2015  International Consortium for Universities of Education in East Asia (ICUE)  Aichi  University  of  Education  \nresearch  is  to  build  an  intermediate  theory  to  connect  between  academic  theory  and  \neducational practice.", 
  "(Figure 4.", 
  "The process of Action Research)  \nIn  action  research,  which  is  \u201cof  the  teachers,  by  the  teachers,  for  the  teachers,\u201d the  \nteachers need to analyze their own personalities  and practice tendencies from specific  \nand situational theoretical concepts.", 
  "As a result, it is imperative for the practitioners to reflect their own effectiveness of  \nthe practice in their themes.", 
  "In general, teachers focus on their practice through their  \nsense and sensibilities which are based on their previous experiences due to a lack of  \ntime  in  their  hectic  work  schedules.", 
  "In  action  research,  in  the  included  reflection  for  \nexample,  empirical  methodologies,  which  include  the  qualitative  and  quantitative  \napproach, are required to prove the outcomes of their practice.", 
  "4.", 
  "Conclusion -Action research and Ed.D.", 
  "dissertation example-  \nIf  one  focuses  on  how  to  complete  an  educational  practical  dissertation,  action  \nresearch  will  most  likely  be  a  very  typical  methodology  for  it.", 
  "Therefore,  the  Ed.D.", 
  "(Education  Doctoral  Degree)  template  below  in  Figure  5,  one  sample  of  an  Ed.D.", 
  "dissertation, is shown as an example of the action research style.", 
  "Chapters  \nContents  \nThe template of the dissertation on action research (Sample)  \nIntroduction  Purpose  \n\n0.1 Background    \nresearch  \n0.2 Research purposes  \n0.3 Research Value  \n  The  10th  East  Asia  International  Symposium  on  Teacher  Education,  Nagoya,  2015  International Consortium for Universities of Education in East Asia (ICUE)  Aichi  University  of  Education  \n0.4 Research Structure    \nChapter 1  \nLiterature  \n1.1 Academic Achievement    \n\n1.2 Learner Autonomy    \n1.3 Lesson study    \n1.4 Blended Learning    \n1.5 Technology Without the Knowhow    \n1.6 Blended Learning Course Design    \n1.7 Gaps in the Research  \nChapter 2  \nPre-survey  \n2.1.1 The subjects      \n2.1.2 The course goals  \n2.1.3 Course Evaluation    \n2.1.4 Vocabulary learning methodology and Learning input    \n2.1.5 Student learning process    \n2.1.6 Differences in learning styles    \n2.1.7 Methods of data collection  \nChapter 3  \nMain-survey  \n3.2 Main-study    \n3.2.1 The subjects    \n3.2.2    Learning Input (Semester 1)    \n3.2.3 The learning process (semester 1)    \n3.2.4 Learning output (semester 1)    \n3.3 Learning input (semester 2)      \n3.3.1 Mreader   \n3.3.2 Learning process (semester 2)    \n3.3.3 Learning output (semester 2)    \n3.3.4 In conclusion  \nChapter 4  \n\n4.1 Pre-study results    \n4.2 Discussion of Quantitative Results    \n4.3 Statistical Analysis of Pre-study    \n4.4    Survey 2 \u2013 after results (post-survey)      \n4.5 Qualitative results    \n4.6 Main-study results    \n4.7 week 5 /Qualitative Analysis (KJ method)      \n4.8 Week 10/Qualitative Analysis (KJ method)      \n4.9 Week 15 /Qualitative Analysis (KJ method)      \nConclusion  \nAnalysis/  \n5.1 Conclusions for research question number 1-5  \nDiscussion  \n5.7 Complications and disputes    \n5.8 Limitations and future research    \n(Figure 5.", 
  "The template of a dissertation on action research)  \n  The  10th  East  Asia  International  Symposium  on  Teacher  Education,  Nagoya,  2015  International Consortium for Universities of Education in East Asia (ICUE)  Aichi  University  of  Education  \nOne  of  the  students  in  my  doctor\u2019s  course,  Bruce  Lander,  who  is  also  a  Kurume  \nUniversity lecturer, whose abstract for his Ed.D dissertation, \u201dThe Influence of Blended  \nLearning  Technology  on  Contemporary  Society\u201d  is  a  typical  example  regarding  the  \nFigure 5 template above.", 
  "\u201cThis study comprised of two groups of subjects, a pre-study and a main-study.", 
  "The  \npre-study consisted of a large group of elementary English learners at a medium-sized  \nprivate university in Japan, while the main-study consisted of a much smaller group of  \nintermediate-level  English  language  learners  at  the  same  university.", 
  "The  pre-study  \ngroup  comprised  of  480  subjects  ranging  in  age  from  19  to  21,  while  the  main-study  \ngroup contained seven students, all aged 20.", 
  "Both groups were introduced to various  \nlevels of digital, online learning tools that were specifically chosen for the tasks at hand  \nand to meet course objectives.", 
  "The  primary  objective  of  this  study  is  to  raise  awareness  of  technology  through  \nvarious blended learning components that aid autonomous learning, providing students  \nwith  new  learning  skills  and  ultimately  a  new  mind-set.", 
  "It  was  predicted  that  the  \nintroduction  and  on-going  support  of  new  learning  tools  could  not  only  motivate  \nlearners to learn more but also improve test-scores over a comparatively short period of  \ntime.\u201d  \nHowever,  to  conduct  the  action  research/Ed.D  dissertation  procedure  above,  it  is  \nimperative  to  understand  the  process  of  action  research.", 
  "The  reason  why  academic  \nresearch and educational practice do not combine well is due to the cognitive distance  \nbetween them.", 
  "Therefore, the most important strategy for improving action research is  \nto build an intermediate theory to connect academic theory and educational practice.", 
  "This is especially important in the action research which is \u201cof the teachers, by the  \nteachers, for the teachers,\u201d where the teachers need to analyze their own personalities  \nand practice tendencies from specific concepts and a situation theory.", 
  "In conclusion, it is  \nimportant for self-analyzed action research to examine practitioner\u2019s specific qualities,  \nbecause  each  practitioner  has  his  /her  own  educational  style  and  effectiveness  \nskills/techniques.", 
  "Reference      \nAtkins,  L  &  Wallace,  S.  (2012).", 
  "Qualitative Research in Education.", 
  "London:  Sage  \nPublications, LTD.  \nArgyris, C. (1994).", 
  "Knowledge for Action.", 
  "San Francisco CA: Jossey-Bass.", 
  "Harrison, R. (1995).", 
  "Consultant's Journey.", 
  "San Francisco: Jossey-Bass  \nKawakami,T.(2012).", 
  "\u201dAction Research on Classroom Management in Junior High  \n  The  10th  East  Asia  International  Symposium  on  Teacher  Education,  Nagoya,  2015  International Consortium for Universities of Education in East Asia (ICUE)  Aichi  University  of  Education  \nSchool,\u201d master dissertation of Saga University.", 
  "Kuramoto, T.(2008).amerika niokeru karikyuramu manejimennto no kenkyuu (A study  \nof Curriculum Management in the USA), Okayama: Fukuro Press.", 
  "Kuramoto,T.", 
  "(2011).", 
  "An Action Research of Lesson Study in Japan\u2015From the Point of  \nView  of  Student\u2019s  Achievement  and  Teacher\u2019s  Professional  Development\u2015  \nCollaborative Action Research Network, London, UK.", 
  "Lewin, K. (1946) Action research and minority problems.", 
  "J Soc.", 
  "Issues 2(4): 34-46.", 
  "Reason, P., and Torbert, B.", 
  "(2001).The action turn toward a transformational social science:    \nA further look at the scientific merits of action research, Concepts and Transformation, 6(1).", 
  "Reason, P., and Bradbury, H. (2001).", 
  "Handbook of Action Research, London: Sage.", 
  "Sainz.", 
  "L.,Bi.", 
  "(2008).national collaborative action research project with the Purepecha  \ncommunity in Rosarito, B.C.", 
  "Mexico.", 
  "(Presentation at Action Research  \nSymposium).", 
  "Sagor, R.(2000).", 
  "Guiding School Improvement with Action Research, ASCD, Alexandria.", 
  "Stringer, T.(1999) Action Research Thousand Oaks, CA: Sage.", 
  "Torbert,  B.,  and  Associates.", 
  "(2004).Action  Inquiry,  The  Secret  of  timely  and  Transforming  \nLeadership, San Francisco: Berrett-Koehier Publisher.", 
  "Uchiyama, K. (2008).", 
  "A New Theoretical Grounding of Action research: Based on Checkland\u2019s Soft  \nSystem Methodology, Collaborative Action Research Network, London, UK.", 
  "Uchiyama,  K.  (2003).The Theory and Practice of Actuality, Institute of Business Research, Tokyo:  \nDaito Bunka University.", 
  "Whitehead, J.", 
  "& McNiff, J.", 
  "(2006) Action Research Living Theory, London; Sage."
 ]
}