claim,s1,s2,document_id,index,reference_id,document_r_id,evidence_index_1,evidence_index_2
"Keywords: Controversial public issues, teacher preparation, democratic education CONTROVERSIAL PUBLIC ISSUES Controversial Public Issues in the Secondary Classroom: Exploring Teachers’ Thoughts and Perceptions Introduction & Theoretical Framework Scholars within the field of education frequently discuss the role of controversial public issues (CPI) in the K12 classroom as a means for developing citizens who are knowledgeable about topical issues, open to the opinions of others, and capable of participating in rational dialogue about open-ended and complex topics (Brank & Wylie, 2013; Cross & Price, 1996; Hess, 2009; Macedo, 2004; Parker, 2003).","These rubrics focused on the students demonstrating a deep understanding of the two sides of an issue by providing original examples, positions, and observations.",The paper instructions asked the students to describe the research and explain why the conclusions were different.,1166092.1,4,d8c6dd11fe2741319506009a5b95bfe5,2534970888643081776,63,68
"Keywords: Controversial public issues, teacher preparation, democratic education CONTROVERSIAL PUBLIC ISSUES Controversial Public Issues in the Secondary Classroom: Exploring Teachers’ Thoughts and Perceptions Introduction & Theoretical Framework Scholars within the field of education frequently discuss the role of controversial public issues (CPI) in the K12 classroom as a means for developing citizens who are knowledgeable about topical issues, open to the opinions of others, and capable of participating in rational dialogue about open-ended and complex topics (Brank & Wylie, 2013; Cross & Price, 1996; Hess, 2009; Macedo, 2004; Parker, 2003).","As a result, the students in the experimental semester spent a full week considering discussions and discussing discussions.","Student-led discussions are seen as particularly helpful because instructor-led discussions can often fall into 1 Associate Professor, Department of Psychology, University of Nebraska – Lincoln, ebrank2@unl.edu Brank, E. and Wylie, L. more of a lecture-style mode, but student-led discussions foster greater student-to-student interactions (Phillips & Powers, 1979) especially for students who indicate at least a moderate amount of participation (White, 1978).",1166092.1,4,d8c6dd11fe2741319506009a5b95bfe5,2534970888643081776,124,24
"Keywords: Controversial public issues, teacher preparation, democratic education CONTROVERSIAL PUBLIC ISSUES Controversial Public Issues in the Secondary Classroom: Exploring Teachers’ Thoughts and Perceptions Introduction & Theoretical Framework Scholars within the field of education frequently discuss the role of controversial public issues (CPI) in the K12 classroom as a means for developing citizens who are knowledgeable about topical issues, open to the opinions of others, and capable of participating in rational dialogue about open-ended and complex topics (Brank & Wylie, 2013; Cross & Price, 1996; Hess, 2009; Macedo, 2004; Parker, 2003).",The discussion scores were derived from the instructor’s score (6 points maximum) plus an average of two peer reviewers within the discussion leaders’ group (5 points maximum).,Most students typically have had an introduction to social psychology course before enrolling in advanced social psychology.,1166092.1,4,d8c6dd11fe2741319506009a5b95bfe5,2534970888643081776,73,102
"Keywords: Controversial public issues, teacher preparation, democratic education CONTROVERSIAL PUBLIC ISSUES Controversial Public Issues in the Secondary Classroom: Exploring Teachers’ Thoughts and Perceptions Introduction & Theoretical Framework Scholars within the field of education frequently discuss the role of controversial public issues (CPI) in the K12 classroom as a means for developing citizens who are knowledgeable about topical issues, open to the opinions of others, and capable of participating in rational dialogue about open-ended and complex topics (Brank & Wylie, 2013; Cross & Price, 1996; Hess, 2009; Macedo, 2004; Parker, 2003).","Because we expected students in the experimental group to be more engaged in the class, we compared our experimental and control classes on variables meant to measure student learning and other related outcomes.","Let’s discuss: Teaching students about discussions Eve Brank1 and Lindsey Wylie Abstract: Research consistently demonstrates the benefits of employing classroom discussions; however, there has been less attention given to teaching students about discussions.",1166092.1,4,d8c6dd11fe2741319506009a5b95bfe5,2534970888643081776,129,4
"Keywords: Controversial public issues, teacher preparation, democratic education CONTROVERSIAL PUBLIC ISSUES Controversial Public Issues in the Secondary Classroom: Exploring Teachers’ Thoughts and Perceptions Introduction & Theoretical Framework Scholars within the field of education frequently discuss the role of controversial public issues (CPI) in the K12 classroom as a means for developing citizens who are knowledgeable about topical issues, open to the opinions of others, and capable of participating in rational dialogue about open-ended and complex topics (Brank & Wylie, 2013; Cross & Price, 1996; Hess, 2009; Macedo, 2004; Parker, 2003).","These rubrics focused on the students demonstrating a deep understanding of the two sides of an issue by providing original examples, positions, and observations.","For example, we did not include questions those related to whether the instructor was available for office hours and responded to emails quickly.",1166092.1,4,d8c6dd11fe2741319506009a5b95bfe5,2534970888643081776,63,81
"Keywords: Controversial public issues, teacher preparation, democratic education CONTROVERSIAL PUBLIC ISSUES Controversial Public Issues in the Secondary Classroom: Exploring Teachers’ Thoughts and Perceptions Introduction & Theoretical Framework Scholars within the field of education frequently discuss the role of controversial public issues (CPI) in the K12 classroom as a means for developing citizens who are knowledgeable about topical issues, open to the opinions of others, and capable of participating in rational dialogue about open-ended and complex topics (Brank & Wylie, 2013; Cross & Price, 1996; Hess, 2009; Macedo, 2004; Parker, 2003).","Creating a classroom where students are not only engaged in the learning process, but also careful consumers of information, is an important task for an upper-division college instructor.",The discussion scores were derived from the instructor’s score (6 points maximum) plus an average of two peer reviewers within the discussion leaders’ group (5 points maximum).,1166092.1,4,d8c6dd11fe2741319506009a5b95bfe5,2534970888643081776,12,73
"Keywords: Controversial public issues, teacher preparation, democratic education CONTROVERSIAL PUBLIC ISSUES Controversial Public Issues in the Secondary Classroom: Exploring Teachers’ Thoughts and Perceptions Introduction & Theoretical Framework Scholars within the field of education frequently discuss the role of controversial public issues (CPI) in the K12 classroom as a means for developing citizens who are knowledgeable about topical issues, open to the opinions of others, and capable of participating in rational dialogue about open-ended and complex topics (Brank & Wylie, 2013; Cross & Price, 1996; Hess, 2009; Macedo, 2004; Parker, 2003).",Personality Type Questionnaire Please rate the following statements using the scale below.,The discussion scores were derived from the instructor’s score (6 points maximum) plus an average of two peer reviewers within the discussion leaders’ group (5 points maximum).,1166092.1,4,d8c6dd11fe2741319506009a5b95bfe5,2534970888643081776,207,73
"Keywords: Controversial public issues, teacher preparation, democratic education CONTROVERSIAL PUBLIC ISSUES Controversial Public Issues in the Secondary Classroom: Exploring Teachers’ Thoughts and Perceptions Introduction & Theoretical Framework Scholars within the field of education frequently discuss the role of controversial public issues (CPI) in the K12 classroom as a means for developing citizens who are knowledgeable about topical issues, open to the opinions of others, and capable of participating in rational dialogue about open-ended and complex topics (Brank & Wylie, 2013; Cross & Price, 1996; Hess, 2009; Macedo, 2004; Parker, 2003).","Creating a classroom where students are not only engaged in the learning process, but also careful consumers of information, is an important task for an upper-division college instructor.","Student-led discussions are seen as particularly helpful because instructor-led discussions can often fall into 1 Associate Professor, Department of Psychology, University of Nebraska – Lincoln, ebrank2@unl.edu Brank, E. and Wylie, L. more of a lecture-style mode, but student-led discussions foster greater student-to-student interactions (Phillips & Powers, 1979) especially for students who indicate at least a moderate amount of participation (White, 1978).",1166092.1,4,d8c6dd11fe2741319506009a5b95bfe5,2534970888643081776,12,24
"Keywords: Controversial public issues, teacher preparation, democratic education CONTROVERSIAL PUBLIC ISSUES Controversial Public Issues in the Secondary Classroom: Exploring Teachers’ Thoughts and Perceptions Introduction & Theoretical Framework Scholars within the field of education frequently discuss the role of controversial public issues (CPI) in the K12 classroom as a means for developing citizens who are knowledgeable about topical issues, open to the opinions of others, and capable of participating in rational dialogue about open-ended and complex topics (Brank & Wylie, 2013; Cross & Price, 1996; Hess, 2009; Macedo, 2004; Parker, 2003).",The class met two days per week for 75 minutes each day.,I love active classes that are not just lecture.,1166092.1,4,d8c6dd11fe2741319506009a5b95bfe5,2534970888643081776,105,156
"Keywords: Controversial public issues, teacher preparation, democratic education CONTROVERSIAL PUBLIC ISSUES Controversial Public Issues in the Secondary Classroom: Exploring Teachers’ Thoughts and Perceptions Introduction & Theoretical Framework Scholars within the field of education frequently discuss the role of controversial public issues (CPI) in the K12 classroom as a means for developing citizens who are knowledgeable about topical issues, open to the opinions of others, and capable of participating in rational dialogue about open-ended and complex topics (Brank & Wylie, 2013; Cross & Price, 1996; Hess, 2009; Macedo, 2004; Parker, 2003).","For example, we did not include questions those related to whether the instructor was available for office hours and responded to emails quickly.","As noted by Voelkl (1995), student learning is generally increased when a class incorporates active student involvement.",1166092.1,4,d8c6dd11fe2741319506009a5b95bfe5,2534970888643081776,81,164
"Keywords: Controversial public issues, teacher preparation, democratic education CONTROVERSIAL PUBLIC ISSUES Controversial Public Issues in the Secondary Classroom: Exploring Teachers’ Thoughts and Perceptions Introduction & Theoretical Framework Scholars within the field of education frequently discuss the role of controversial public issues (CPI) in the K12 classroom as a means for developing citizens who are knowledgeable about topical issues, open to the opinions of others, and capable of participating in rational dialogue about open-ended and complex topics (Brank & Wylie, 2013; Cross & Price, 1996; Hess, 2009; Macedo, 2004; Parker, 2003).",Personality Type Questionnaire Please rate the following statements using the scale below.,"After removing an extreme outlier score for the term paper (grade = 5/50; student had a personal issue that interfered with completing the paper), the students in the experimental class had significantly higher average term paper grades (M = 36.78, SD =4.64) than did those students in the control class (M = 34.19, SD =5.24), t (73) = -2.27, p = .03, η2 = .06.",1166092.1,4,d8c6dd11fe2741319506009a5b95bfe5,2534970888643081776,207,137
"Keywords: Controversial public issues, teacher preparation, democratic education CONTROVERSIAL PUBLIC ISSUES Controversial Public Issues in the Secondary Classroom: Exploring Teachers’ Thoughts and Perceptions Introduction & Theoretical Framework Scholars within the field of education frequently discuss the role of controversial public issues (CPI) in the K12 classroom as a means for developing citizens who are knowledgeable about topical issues, open to the opinions of others, and capable of participating in rational dialogue about open-ended and complex topics (Brank & Wylie, 2013; Cross & Price, 1996; Hess, 2009; Macedo, 2004; Parker, 2003).","Creating a classroom where students are not only engaged in the learning process, but also careful consumers of information, is an important task for an upper-division college instructor.",Personality Type Questionnaire Please rate the following statements using the scale below.,1166092.1,4,d8c6dd11fe2741319506009a5b95bfe5,2534970888643081776,12,207
"Keywords: Controversial public issues, teacher preparation, democratic education CONTROVERSIAL PUBLIC ISSUES Controversial Public Issues in the Secondary Classroom: Exploring Teachers’ Thoughts and Perceptions Introduction & Theoretical Framework Scholars within the field of education frequently discuss the role of controversial public issues (CPI) in the K12 classroom as a means for developing citizens who are knowledgeable about topical issues, open to the opinions of others, and capable of participating in rational dialogue about open-ended and complex topics (Brank & Wylie, 2013; Cross & Price, 1996; Hess, 2009; Macedo, 2004; Parker, 2003).",Personality Type Questionnaire Please rate the following statements using the scale below.,"The experimental group also read three articles about discussions, which are listed in the current reference list (Cashin & McKnight, 1986; Frederick, 1981; Nunn, 1996).",1166092.1,4,d8c6dd11fe2741319506009a5b95bfe5,2534970888643081776,207,91
"Keywords: Controversial public issues, teacher preparation, democratic education CONTROVERSIAL PUBLIC ISSUES Controversial Public Issues in the Secondary Classroom: Exploring Teachers’ Thoughts and Perceptions Introduction & Theoretical Framework Scholars within the field of education frequently discuss the role of controversial public issues (CPI) in the K12 classroom as a means for developing citizens who are knowledgeable about topical issues, open to the opinions of others, and capable of participating in rational dialogue about open-ended and complex topics (Brank & Wylie, 2013; Cross & Price, 1996; Hess, 2009; Macedo, 2004; Parker, 2003).","Student-led discussions are seen as particularly helpful because instructor-led discussions can often fall into 1 Associate Professor, Department of Psychology, University of Nebraska – Lincoln, ebrank2@unl.edu Brank, E. and Wylie, L. more of a lecture-style mode, but student-led discussions foster greater student-to-student interactions (Phillips & Powers, 1979) especially for students who indicate at least a moderate amount of participation (White, 1978).","To address this, Giordano and Hammer (1999) encourage the use of collaborative learning groups and provide a number of helpful tips from their experiences of using such student groups, but similar to Meyers (1997) these suggestions generally involve the formation of groups, the type of task completed within the group setting, and evaluating student performance in the groups.",1166092.1,4,d8c6dd11fe2741319506009a5b95bfe5,2534970888643081776,24,28
"Keywords: Controversial public issues, teacher preparation, democratic education CONTROVERSIAL PUBLIC ISSUES Controversial Public Issues in the Secondary Classroom: Exploring Teachers’ Thoughts and Perceptions Introduction & Theoretical Framework Scholars within the field of education frequently discuss the role of controversial public issues (CPI) in the K12 classroom as a means for developing citizens who are knowledgeable about topical issues, open to the opinions of others, and capable of participating in rational dialogue about open-ended and complex topics (Brank & Wylie, 2013; Cross & Price, 1996; Hess, 2009; Macedo, 2004; Parker, 2003).",Rate your ability at critiquing or assessing a discussion led by another person.,The current study suggests that teaching about and discussing discussions may be one way for students to become more engaged and have better course outcomes.,1166092.1,4,d8c6dd11fe2741319506009a5b95bfe5,2534970888643081776,225,161
"Keywords: Controversial public issues, teacher preparation, democratic education CONTROVERSIAL PUBLIC ISSUES Controversial Public Issues in the Secondary Classroom: Exploring Teachers’ Thoughts and Perceptions Introduction & Theoretical Framework Scholars within the field of education frequently discuss the role of controversial public issues (CPI) in the K12 classroom as a means for developing citizens who are knowledgeable about topical issues, open to the opinions of others, and capable of participating in rational dialogue about open-ended and complex topics (Brank & Wylie, 2013; Cross & Price, 1996; Hess, 2009; Macedo, 2004; Parker, 2003).",The class met two days per week for 75 minutes each day.,"These rubrics focused on the students demonstrating a deep understanding of the two sides of an issue by providing original examples, positions, and observations.",1166092.1,4,d8c6dd11fe2741319506009a5b95bfe5,2534970888643081776,105,63
"Keywords: Controversial public issues, teacher preparation, democratic education CONTROVERSIAL PUBLIC ISSUES Controversial Public Issues in the Secondary Classroom: Exploring Teachers’ Thoughts and Perceptions Introduction & Theoretical Framework Scholars within the field of education frequently discuss the role of controversial public issues (CPI) in the K12 classroom as a means for developing citizens who are knowledgeable about topical issues, open to the opinions of others, and capable of participating in rational dialogue about open-ended and complex topics (Brank & Wylie, 2013; Cross & Price, 1996; Hess, 2009; Macedo, 2004; Parker, 2003).",The paper instructions asked the students to describe the research and explain why the conclusions were different.,"Let’s discuss: Teaching students about discussions Eve Brank1 and Lindsey Wylie Abstract: Research consistently demonstrates the benefits of employing classroom discussions; however, there has been less attention given to teaching students about discussions.",1166092.1,4,d8c6dd11fe2741319506009a5b95bfe5,2534970888643081776,68,4
"Keywords: Controversial public issues, teacher preparation, democratic education CONTROVERSIAL PUBLIC ISSUES Controversial Public Issues in the Secondary Classroom: Exploring Teachers’ Thoughts and Perceptions Introduction & Theoretical Framework Scholars within the field of education frequently discuss the role of controversial public issues (CPI) in the K12 classroom as a means for developing citizens who are knowledgeable about topical issues, open to the opinions of others, and capable of participating in rational dialogue about open-ended and complex topics (Brank & Wylie, 2013; Cross & Price, 1996; Hess, 2009; Macedo, 2004; Parker, 2003).","These rubrics focused on the students demonstrating a deep understanding of the two sides of an issue by providing original examples, positions, and observations.",Rate your ability at critiquing or assessing a discussion led by another person.,1166092.1,4,d8c6dd11fe2741319506009a5b95bfe5,2534970888643081776,63,225
"Keywords: Controversial public issues, teacher preparation, democratic education CONTROVERSIAL PUBLIC ISSUES Controversial Public Issues in the Secondary Classroom: Exploring Teachers’ Thoughts and Perceptions Introduction & Theoretical Framework Scholars within the field of education frequently discuss the role of controversial public issues (CPI) in the K12 classroom as a means for developing citizens who are knowledgeable about topical issues, open to the opinions of others, and capable of participating in rational dialogue about open-ended and complex topics (Brank & Wylie, 2013; Cross & Price, 1996; Hess, 2009; Macedo, 2004; Parker, 2003).","As noted by Voelkl (1995), student learning is generally increased when a class incorporates active student involvement.",We chose these articles because they were relatively easy for undergraduate students to understand and they each provided information about the importance of discussions and suggestions for leading them.,1166092.1,4,d8c6dd11fe2741319506009a5b95bfe5,2534970888643081776,164,92
"Keywords: Controversial public issues, teacher preparation, democratic education CONTROVERSIAL PUBLIC ISSUES Controversial Public Issues in the Secondary Classroom: Exploring Teachers’ Thoughts and Perceptions Introduction & Theoretical Framework Scholars within the field of education frequently discuss the role of controversial public issues (CPI) in the K12 classroom as a means for developing citizens who are knowledgeable about topical issues, open to the opinions of others, and capable of participating in rational dialogue about open-ended and complex topics (Brank & Wylie, 2013; Cross & Price, 1996; Hess, 2009; Macedo, 2004; Parker, 2003).",The class met two days per week for 75 minutes each day.,The current study suggests that teaching about and discussing discussions may be one way for students to become more engaged and have better course outcomes.,1166092.1,4,d8c6dd11fe2741319506009a5b95bfe5,2534970888643081776,105,161
"Keywords: Controversial public issues, teacher preparation, democratic education CONTROVERSIAL PUBLIC ISSUES Controversial Public Issues in the Secondary Classroom: Exploring Teachers’ Thoughts and Perceptions Introduction & Theoretical Framework Scholars within the field of education frequently discuss the role of controversial public issues (CPI) in the K12 classroom as a means for developing citizens who are knowledgeable about topical issues, open to the opinions of others, and capable of participating in rational dialogue about open-ended and complex topics (Brank & Wylie, 2013; Cross & Price, 1996; Hess, 2009; Macedo, 2004; Parker, 2003).","It is possible that these more advanced students were more amendable to learning about discussions, whereas younger college students may not be or may not be able to implement yet this kind of engaged learning process.",The current research compared 2 advanced social psychology courses: 1 without (control) and 1 with (experimental) a week devoted to learning about and discussing discussions.,1166092.1,4,d8c6dd11fe2741319506009a5b95bfe5,2534970888643081776,190,5
"Keywords: Controversial public issues, teacher preparation, democratic education CONTROVERSIAL PUBLIC ISSUES Controversial Public Issues in the Secondary Classroom: Exploring Teachers’ Thoughts and Perceptions Introduction & Theoretical Framework Scholars within the field of education frequently discuss the role of controversial public issues (CPI) in the K12 classroom as a means for developing citizens who are knowledgeable about topical issues, open to the opinions of others, and capable of participating in rational dialogue about open-ended and complex topics (Brank & Wylie, 2013; Cross & Price, 1996; Hess, 2009; Macedo, 2004; Parker, 2003).","Creating a classroom where students are not only engaged in the learning process, but also careful consumers of information, is an important task for an upper-division college instructor.",We chose these articles because they were relatively easy for undergraduate students to understand and they each provided information about the importance of discussions and suggestions for leading them.,1166092.1,4,d8c6dd11fe2741319506009a5b95bfe5,2534970888643081776,12,92
"Keywords: Controversial public issues, teacher preparation, democratic education CONTROVERSIAL PUBLIC ISSUES Controversial Public Issues in the Secondary Classroom: Exploring Teachers’ Thoughts and Perceptions Introduction & Theoretical Framework Scholars within the field of education frequently discuss the role of controversial public issues (CPI) in the K12 classroom as a means for developing citizens who are knowledgeable about topical issues, open to the opinions of others, and capable of participating in rational dialogue about open-ended and complex topics (Brank & Wylie, 2013; Cross & Price, 1996; Hess, 2009; Macedo, 2004; Parker, 2003).","Student-led discussions are seen as particularly helpful because instructor-led discussions can often fall into 1 Associate Professor, Department of Psychology, University of Nebraska – Lincoln, ebrank2@unl.edu Brank, E. and Wylie, L. more of a lecture-style mode, but student-led discussions foster greater student-to-student interactions (Phillips & Powers, 1979) especially for students who indicate at least a moderate amount of participation (White, 1978).",Most students typically have had an introduction to social psychology course before enrolling in advanced social psychology.,1166092.1,4,d8c6dd11fe2741319506009a5b95bfe5,2534970888643081776,24,102
"Keywords: Controversial public issues, teacher preparation, democratic education CONTROVERSIAL PUBLIC ISSUES Controversial Public Issues in the Secondary Classroom: Exploring Teachers’ Thoughts and Perceptions Introduction & Theoretical Framework Scholars within the field of education frequently discuss the role of controversial public issues (CPI) in the K12 classroom as a means for developing citizens who are knowledgeable about topical issues, open to the opinions of others, and capable of participating in rational dialogue about open-ended and complex topics (Brank & Wylie, 2013; Cross & Price, 1996; Hess, 2009; Macedo, 2004; Parker, 2003).","As a result, the students in the experimental semester spent a full week considering discussions and discussing discussions.",Personality Type Questionnaire Please rate the following statements using the scale below.,1166092.1,4,d8c6dd11fe2741319506009a5b95bfe5,2534970888643081776,124,207
"Keywords: Controversial public issues, teacher preparation, democratic education CONTROVERSIAL PUBLIC ISSUES Controversial Public Issues in the Secondary Classroom: Exploring Teachers’ Thoughts and Perceptions Introduction & Theoretical Framework Scholars within the field of education frequently discuss the role of controversial public issues (CPI) in the K12 classroom as a means for developing citizens who are knowledgeable about topical issues, open to the opinions of others, and capable of participating in rational dialogue about open-ended and complex topics (Brank & Wylie, 2013; Cross & Price, 1996; Hess, 2009; Macedo, 2004; Parker, 2003).","Student-led discussions are seen as particularly helpful because instructor-led discussions can often fall into 1 Associate Professor, Department of Psychology, University of Nebraska – Lincoln, ebrank2@unl.edu Brank, E. and Wylie, L. more of a lecture-style mode, but student-led discussions foster greater student-to-student interactions (Phillips & Powers, 1979) especially for students who indicate at least a moderate amount of participation (White, 1978).",I love active classes that are not just lecture.,1166092.1,4,d8c6dd11fe2741319506009a5b95bfe5,2534970888643081776,24,213
"Keywords: Controversial public issues, teacher preparation, democratic education CONTROVERSIAL PUBLIC ISSUES Controversial Public Issues in the Secondary Classroom: Exploring Teachers’ Thoughts and Perceptions Introduction & Theoretical Framework Scholars within the field of education frequently discuss the role of controversial public issues (CPI) in the K12 classroom as a means for developing citizens who are knowledgeable about topical issues, open to the opinions of others, and capable of participating in rational dialogue about open-ended and complex topics (Brank & Wylie, 2013; Cross & Price, 1996; Hess, 2009; Macedo, 2004; Parker, 2003).",The paper instructions asked the students to describe the research and explain why the conclusions were different.,"To address this, Giordano and Hammer (1999) encourage the use of collaborative learning groups and provide a number of helpful tips from their experiences of using such student groups, but similar to Meyers (1997) these suggestions generally involve the formation of groups, the type of task completed within the group setting, and evaluating student performance in the groups.",1166092.1,4,d8c6dd11fe2741319506009a5b95bfe5,2534970888643081776,68,28
"Keywords: Controversial public issues, teacher preparation, democratic education CONTROVERSIAL PUBLIC ISSUES Controversial Public Issues in the Secondary Classroom: Exploring Teachers’ Thoughts and Perceptions Introduction & Theoretical Framework Scholars within the field of education frequently discuss the role of controversial public issues (CPI) in the K12 classroom as a means for developing citizens who are knowledgeable about topical issues, open to the opinions of others, and capable of participating in rational dialogue about open-ended and complex topics (Brank & Wylie, 2013; Cross & Price, 1996; Hess, 2009; Macedo, 2004; Parker, 2003).",We chose these articles because they were relatively easy for undergraduate students to understand and they each provided information about the importance of discussions and suggestions for leading them.,The discussion scores were derived from the instructor’s score (6 points maximum) plus an average of two peer reviewers within the discussion leaders’ group (5 points maximum).,1166092.1,4,d8c6dd11fe2741319506009a5b95bfe5,2534970888643081776,92,73
"Keywords: Controversial public issues, teacher preparation, democratic education CONTROVERSIAL PUBLIC ISSUES Controversial Public Issues in the Secondary Classroom: Exploring Teachers’ Thoughts and Perceptions Introduction & Theoretical Framework Scholars within the field of education frequently discuss the role of controversial public issues (CPI) in the K12 classroom as a means for developing citizens who are knowledgeable about topical issues, open to the opinions of others, and capable of participating in rational dialogue about open-ended and complex topics (Brank & Wylie, 2013; Cross & Price, 1996; Hess, 2009; Macedo, 2004; Parker, 2003).","As a result, the students in the experimental semester spent a full week considering discussions and discussing discussions.","Creating a classroom where students are not only engaged in the learning process, but also careful consumers of information, is an important task for an upper-division college instructor.",1166092.1,4,d8c6dd11fe2741319506009a5b95bfe5,2534970888643081776,124,12
"Keywords: Controversial public issues, teacher preparation, democratic education CONTROVERSIAL PUBLIC ISSUES Controversial Public Issues in the Secondary Classroom: Exploring Teachers’ Thoughts and Perceptions Introduction & Theoretical Framework Scholars within the field of education frequently discuss the role of controversial public issues (CPI) in the K12 classroom as a means for developing citizens who are knowledgeable about topical issues, open to the opinions of others, and capable of participating in rational dialogue about open-ended and complex topics (Brank & Wylie, 2013; Cross & Price, 1996; Hess, 2009; Macedo, 2004; Parker, 2003).",The current research compared 2 advanced social psychology courses: 1 without (control) and 1 with (experimental) a week devoted to learning about and discussing discussions.,The current study suggests that teaching about and discussing discussions may be one way for students to become more engaged and have better course outcomes.,1166092.1,4,d8c6dd11fe2741319506009a5b95bfe5,2534970888643081776,5,161
"Keywords: Controversial public issues, teacher preparation, democratic education CONTROVERSIAL PUBLIC ISSUES Controversial Public Issues in the Secondary Classroom: Exploring Teachers’ Thoughts and Perceptions Introduction & Theoretical Framework Scholars within the field of education frequently discuss the role of controversial public issues (CPI) in the K12 classroom as a means for developing citizens who are knowledgeable about topical issues, open to the opinions of others, and capable of participating in rational dialogue about open-ended and complex topics (Brank & Wylie, 2013; Cross & Price, 1996; Hess, 2009; Macedo, 2004; Parker, 2003).",I love active classes that are not just lecture.,The current study suggests that teaching about and discussing discussions may be one way for students to become more engaged and have better course outcomes.,1166092.1,4,d8c6dd11fe2741319506009a5b95bfe5,2534970888643081776,156,161
"Keywords: Controversial public issues, teacher preparation, democratic education CONTROVERSIAL PUBLIC ISSUES Controversial Public Issues in the Secondary Classroom: Exploring Teachers’ Thoughts and Perceptions Introduction & Theoretical Framework Scholars within the field of education frequently discuss the role of controversial public issues (CPI) in the K12 classroom as a means for developing citizens who are knowledgeable about topical issues, open to the opinions of others, and capable of participating in rational dialogue about open-ended and complex topics (Brank & Wylie, 2013; Cross & Price, 1996; Hess, 2009; Macedo, 2004; Parker, 2003).",We chose these articles because they were relatively easy for undergraduate students to understand and they each provided information about the importance of discussions and suggestions for leading them.,The current study suggests that teaching about and discussing discussions may be one way for students to become more engaged and have better course outcomes.,1166092.1,4,d8c6dd11fe2741319506009a5b95bfe5,2534970888643081776,92,161
"Keywords: Controversial public issues, teacher preparation, democratic education CONTROVERSIAL PUBLIC ISSUES Controversial Public Issues in the Secondary Classroom: Exploring Teachers’ Thoughts and Perceptions Introduction & Theoretical Framework Scholars within the field of education frequently discuss the role of controversial public issues (CPI) in the K12 classroom as a means for developing citizens who are knowledgeable about topical issues, open to the opinions of others, and capable of participating in rational dialogue about open-ended and complex topics (Brank & Wylie, 2013; Cross & Price, 1996; Hess, 2009; Macedo, 2004; Parker, 2003).","Creating a classroom where students are not only engaged in the learning process, but also careful consumers of information, is an important task for an upper-division college instructor.","Using a repeated measures GLM, there was a significant within-subjects main effect of discussion, F(1, 74) = 63.75, p <.01, η2 = .46, but no significant interaction between semester and discussion, F (1, 74) = 1.98, p = .16, η2 = .03.",1166092.1,4,d8c6dd11fe2741319506009a5b95bfe5,2534970888643081776,12,141
"Keywords: Controversial public issues, teacher preparation, democratic education CONTROVERSIAL PUBLIC ISSUES Controversial Public Issues in the Secondary Classroom: Exploring Teachers’ Thoughts and Perceptions Introduction & Theoretical Framework Scholars within the field of education frequently discuss the role of controversial public issues (CPI) in the K12 classroom as a means for developing citizens who are knowledgeable about topical issues, open to the opinions of others, and capable of participating in rational dialogue about open-ended and complex topics (Brank & Wylie, 2013; Cross & Price, 1996; Hess, 2009; Macedo, 2004; Parker, 2003).",The class met two days per week for 75 minutes each day.,"As noted by Voelkl (1995), student learning is generally increased when a class incorporates active student involvement.",1166092.1,4,d8c6dd11fe2741319506009a5b95bfe5,2534970888643081776,105,164
"Keywords: Controversial public issues, teacher preparation, democratic education CONTROVERSIAL PUBLIC ISSUES Controversial Public Issues in the Secondary Classroom: Exploring Teachers’ Thoughts and Perceptions Introduction & Theoretical Framework Scholars within the field of education frequently discuss the role of controversial public issues (CPI) in the K12 classroom as a means for developing citizens who are knowledgeable about topical issues, open to the opinions of others, and capable of participating in rational dialogue about open-ended and complex topics (Brank & Wylie, 2013; Cross & Price, 1996; Hess, 2009; Macedo, 2004; Parker, 2003).",I love active classes that are not just lecture.,The current research compared 2 advanced social psychology courses: 1 without (control) and 1 with (experimental) a week devoted to learning about and discussing discussions.,1166092.1,4,d8c6dd11fe2741319506009a5b95bfe5,2534970888643081776,213,5
"Keywords: Controversial public issues, teacher preparation, democratic education CONTROVERSIAL PUBLIC ISSUES Controversial Public Issues in the Secondary Classroom: Exploring Teachers’ Thoughts and Perceptions Introduction & Theoretical Framework Scholars within the field of education frequently discuss the role of controversial public issues (CPI) in the K12 classroom as a means for developing citizens who are knowledgeable about topical issues, open to the opinions of others, and capable of participating in rational dialogue about open-ended and complex topics (Brank & Wylie, 2013; Cross & Price, 1996; Hess, 2009; Macedo, 2004; Parker, 2003).",Personality Type Questionnaire Please rate the following statements using the scale below.,The current research compared 2 advanced social psychology courses: 1 without (control) and 1 with (experimental) a week devoted to learning about and discussing discussions.,1166092.1,4,d8c6dd11fe2741319506009a5b95bfe5,2534970888643081776,207,5
"Keywords: Controversial public issues, teacher preparation, democratic education CONTROVERSIAL PUBLIC ISSUES Controversial Public Issues in the Secondary Classroom: Exploring Teachers’ Thoughts and Perceptions Introduction & Theoretical Framework Scholars within the field of education frequently discuss the role of controversial public issues (CPI) in the K12 classroom as a means for developing citizens who are knowledgeable about topical issues, open to the opinions of others, and capable of participating in rational dialogue about open-ended and complex topics (Brank & Wylie, 2013; Cross & Price, 1996; Hess, 2009; Macedo, 2004; Parker, 2003).","It is possible that these more advanced students were more amendable to learning about discussions, whereas younger college students may not be or may not be able to implement yet this kind of engaged learning process.",Students then gathered into their small groups for discussion.,1166092.1,4,d8c6dd11fe2741319506009a5b95bfe5,2534970888643081776,190,111
"Keywords: Controversial public issues, teacher preparation, democratic education CONTROVERSIAL PUBLIC ISSUES Controversial Public Issues in the Secondary Classroom: Exploring Teachers’ Thoughts and Perceptions Introduction & Theoretical Framework Scholars within the field of education frequently discuss the role of controversial public issues (CPI) in the K12 classroom as a means for developing citizens who are knowledgeable about topical issues, open to the opinions of others, and capable of participating in rational dialogue about open-ended and complex topics (Brank & Wylie, 2013; Cross & Price, 1996; Hess, 2009; Macedo, 2004; Parker, 2003).","Because we expected students in the experimental group to be more engaged in the class, we compared our experimental and control classes on variables meant to measure student learning and other related outcomes.","Student-led discussions are seen as particularly helpful because instructor-led discussions can often fall into 1 Associate Professor, Department of Psychology, University of Nebraska – Lincoln, ebrank2@unl.edu Brank, E. and Wylie, L. more of a lecture-style mode, but student-led discussions foster greater student-to-student interactions (Phillips & Powers, 1979) especially for students who indicate at least a moderate amount of participation (White, 1978).",1166092.1,4,d8c6dd11fe2741319506009a5b95bfe5,2534970888643081776,129,24
"Keywords: Controversial public issues, teacher preparation, democratic education CONTROVERSIAL PUBLIC ISSUES Controversial Public Issues in the Secondary Classroom: Exploring Teachers’ Thoughts and Perceptions Introduction & Theoretical Framework Scholars within the field of education frequently discuss the role of controversial public issues (CPI) in the K12 classroom as a means for developing citizens who are knowledgeable about topical issues, open to the opinions of others, and capable of participating in rational dialogue about open-ended and complex topics (Brank & Wylie, 2013; Cross & Price, 1996; Hess, 2009; Macedo, 2004; Parker, 2003).","As noted by Voelkl (1995), student learning is generally increased when a class incorporates active student involvement.",The current research compared 2 advanced social psychology courses: 1 without (control) and 1 with (experimental) a week devoted to learning about and discussing discussions.,1166092.1,4,d8c6dd11fe2741319506009a5b95bfe5,2534970888643081776,164,5
"Keywords: Controversial public issues, teacher preparation, democratic education CONTROVERSIAL PUBLIC ISSUES Controversial Public Issues in the Secondary Classroom: Exploring Teachers’ Thoughts and Perceptions Introduction & Theoretical Framework Scholars within the field of education frequently discuss the role of controversial public issues (CPI) in the K12 classroom as a means for developing citizens who are knowledgeable about topical issues, open to the opinions of others, and capable of participating in rational dialogue about open-ended and complex topics (Brank & Wylie, 2013; Cross & Price, 1996; Hess, 2009; Macedo, 2004; Parker, 2003).","It is possible that these more advanced students were more amendable to learning about discussions, whereas younger college students may not be or may not be able to implement yet this kind of engaged learning process.",I love active classes that are not just lecture.,1166092.1,4,d8c6dd11fe2741319506009a5b95bfe5,2534970888643081776,190,156
"Keywords: Controversial public issues, teacher preparation, democratic education CONTROVERSIAL PUBLIC ISSUES Controversial Public Issues in the Secondary Classroom: Exploring Teachers’ Thoughts and Perceptions Introduction & Theoretical Framework Scholars within the field of education frequently discuss the role of controversial public issues (CPI) in the K12 classroom as a means for developing citizens who are knowledgeable about topical issues, open to the opinions of others, and capable of participating in rational dialogue about open-ended and complex topics (Brank & Wylie, 2013; Cross & Price, 1996; Hess, 2009; Macedo, 2004; Parker, 2003).","After removing an extreme outlier score for the term paper (grade = 5/50; student had a personal issue that interfered with completing the paper), the students in the experimental class had significantly higher average term paper grades (M = 36.78, SD =4.64) than did those students in the control class (M = 34.19, SD =5.24), t (73) = -2.27, p = .03, η2 = .06.",The current study suggests that teaching about and discussing discussions may be one way for students to become more engaged and have better course outcomes.,1166092.1,4,d8c6dd11fe2741319506009a5b95bfe5,2534970888643081776,137,161
"Keywords: Controversial public issues, teacher preparation, democratic education CONTROVERSIAL PUBLIC ISSUES Controversial Public Issues in the Secondary Classroom: Exploring Teachers’ Thoughts and Perceptions Introduction & Theoretical Framework Scholars within the field of education frequently discuss the role of controversial public issues (CPI) in the K12 classroom as a means for developing citizens who are knowledgeable about topical issues, open to the opinions of others, and capable of participating in rational dialogue about open-ended and complex topics (Brank & Wylie, 2013; Cross & Price, 1996; Hess, 2009; Macedo, 2004; Parker, 2003).","Creating a classroom where students are not only engaged in the learning process, but also careful consumers of information, is an important task for an upper-division college instructor.",The paper instructions asked the students to describe the research and explain why the conclusions were different.,1166092.1,4,d8c6dd11fe2741319506009a5b95bfe5,2534970888643081776,12,68
"Keywords: Controversial public issues, teacher preparation, democratic education CONTROVERSIAL PUBLIC ISSUES Controversial Public Issues in the Secondary Classroom: Exploring Teachers’ Thoughts and Perceptions Introduction & Theoretical Framework Scholars within the field of education frequently discuss the role of controversial public issues (CPI) in the K12 classroom as a means for developing citizens who are knowledgeable about topical issues, open to the opinions of others, and capable of participating in rational dialogue about open-ended and complex topics (Brank & Wylie, 2013; Cross & Price, 1996; Hess, 2009; Macedo, 2004; Parker, 2003).","After removing an extreme outlier score for the term paper (grade = 5/50; student had a personal issue that interfered with completing the paper), the students in the experimental class had significantly higher average term paper grades (M = 36.78, SD =4.64) than did those students in the control class (M = 34.19, SD =5.24), t (73) = -2.27, p = .03, η2 = .06.",The paper instructions asked the students to describe the research and explain why the conclusions were different.,1166092.1,4,d8c6dd11fe2741319506009a5b95bfe5,2534970888643081776,137,68
"Keywords: Controversial public issues, teacher preparation, democratic education CONTROVERSIAL PUBLIC ISSUES Controversial Public Issues in the Secondary Classroom: Exploring Teachers’ Thoughts and Perceptions Introduction & Theoretical Framework Scholars within the field of education frequently discuss the role of controversial public issues (CPI) in the K12 classroom as a means for developing citizens who are knowledgeable about topical issues, open to the opinions of others, and capable of participating in rational dialogue about open-ended and complex topics (Brank & Wylie, 2013; Cross & Price, 1996; Hess, 2009; Macedo, 2004; Parker, 2003).",Personality Type Questionnaire Please rate the following statements using the scale below.,"It is possible that these more advanced students were more amendable to learning about discussions, whereas younger college students may not be or may not be able to implement yet this kind of engaged learning process.",1166092.1,4,d8c6dd11fe2741319506009a5b95bfe5,2534970888643081776,207,190
"Keywords: Controversial public issues, teacher preparation, democratic education CONTROVERSIAL PUBLIC ISSUES Controversial Public Issues in the Secondary Classroom: Exploring Teachers’ Thoughts and Perceptions Introduction & Theoretical Framework Scholars within the field of education frequently discuss the role of controversial public issues (CPI) in the K12 classroom as a means for developing citizens who are knowledgeable about topical issues, open to the opinions of others, and capable of participating in rational dialogue about open-ended and complex topics (Brank & Wylie, 2013; Cross & Price, 1996; Hess, 2009; Macedo, 2004; Parker, 2003).","Creating a classroom where students are not only engaged in the learning process, but also careful consumers of information, is an important task for an upper-division college instructor.","It is possible that these more advanced students were more amendable to learning about discussions, whereas younger college students may not be or may not be able to implement yet this kind of engaged learning process.",1166092.1,4,d8c6dd11fe2741319506009a5b95bfe5,2534970888643081776,12,190
"Keywords: Controversial public issues, teacher preparation, democratic education CONTROVERSIAL PUBLIC ISSUES Controversial Public Issues in the Secondary Classroom: Exploring Teachers’ Thoughts and Perceptions Introduction & Theoretical Framework Scholars within the field of education frequently discuss the role of controversial public issues (CPI) in the K12 classroom as a means for developing citizens who are knowledgeable about topical issues, open to the opinions of others, and capable of participating in rational dialogue about open-ended and complex topics (Brank & Wylie, 2013; Cross & Price, 1996; Hess, 2009; Macedo, 2004; Parker, 2003).",Personality Type Questionnaire Please rate the following statements using the scale below.,"To address this, Giordano and Hammer (1999) encourage the use of collaborative learning groups and provide a number of helpful tips from their experiences of using such student groups, but similar to Meyers (1997) these suggestions generally involve the formation of groups, the type of task completed within the group setting, and evaluating student performance in the groups.",1166092.1,4,d8c6dd11fe2741319506009a5b95bfe5,2534970888643081776,207,28
"Keywords: Controversial public issues, teacher preparation, democratic education CONTROVERSIAL PUBLIC ISSUES Controversial Public Issues in the Secondary Classroom: Exploring Teachers’ Thoughts and Perceptions Introduction & Theoretical Framework Scholars within the field of education frequently discuss the role of controversial public issues (CPI) in the K12 classroom as a means for developing citizens who are knowledgeable about topical issues, open to the opinions of others, and capable of participating in rational dialogue about open-ended and complex topics (Brank & Wylie, 2013; Cross & Price, 1996; Hess, 2009; Macedo, 2004; Parker, 2003).","As noted by Voelkl (1995), student learning is generally increased when a class incorporates active student involvement.",I love active classes that are not just lecture.,1166092.1,4,d8c6dd11fe2741319506009a5b95bfe5,2534970888643081776,164,213
"Keywords: Controversial public issues, teacher preparation, democratic education CONTROVERSIAL PUBLIC ISSUES Controversial Public Issues in the Secondary Classroom: Exploring Teachers’ Thoughts and Perceptions Introduction & Theoretical Framework Scholars within the field of education frequently discuss the role of controversial public issues (CPI) in the K12 classroom as a means for developing citizens who are knowledgeable about topical issues, open to the opinions of others, and capable of participating in rational dialogue about open-ended and complex topics (Brank & Wylie, 2013; Cross & Price, 1996; Hess, 2009; Macedo, 2004; Parker, 2003).","As a result, the students in the experimental semester spent a full week considering discussions and discussing discussions.","After removing an extreme outlier score for the term paper (grade = 5/50; student had a personal issue that interfered with completing the paper), the students in the experimental class had significantly higher average term paper grades (M = 36.78, SD =4.64) than did those students in the control class (M = 34.19, SD =5.24), t (73) = -2.27, p = .03, η2 = .06.",1166092.1,4,d8c6dd11fe2741319506009a5b95bfe5,2534970888643081776,124,137
"Keywords: Controversial public issues, teacher preparation, democratic education CONTROVERSIAL PUBLIC ISSUES Controversial Public Issues in the Secondary Classroom: Exploring Teachers’ Thoughts and Perceptions Introduction & Theoretical Framework Scholars within the field of education frequently discuss the role of controversial public issues (CPI) in the K12 classroom as a means for developing citizens who are knowledgeable about topical issues, open to the opinions of others, and capable of participating in rational dialogue about open-ended and complex topics (Brank & Wylie, 2013; Cross & Price, 1996; Hess, 2009; Macedo, 2004; Parker, 2003).","Creating a classroom where students are not only engaged in the learning process, but also careful consumers of information, is an important task for an upper-division college instructor.","These rubrics focused on the students demonstrating a deep understanding of the two sides of an issue by providing original examples, positions, and observations.",1166092.1,4,d8c6dd11fe2741319506009a5b95bfe5,2534970888643081776,12,63
"Keywords: Controversial public issues, teacher preparation, democratic education CONTROVERSIAL PUBLIC ISSUES Controversial Public Issues in the Secondary Classroom: Exploring Teachers’ Thoughts and Perceptions Introduction & Theoretical Framework Scholars within the field of education frequently discuss the role of controversial public issues (CPI) in the K12 classroom as a means for developing citizens who are knowledgeable about topical issues, open to the opinions of others, and capable of participating in rational dialogue about open-ended and complex topics (Brank & Wylie, 2013; Cross & Price, 1996; Hess, 2009; Macedo, 2004; Parker, 2003).","To address this, Giordano and Hammer (1999) encourage the use of collaborative learning groups and provide a number of helpful tips from their experiences of using such student groups, but similar to Meyers (1997) these suggestions generally involve the formation of groups, the type of task completed within the group setting, and evaluating student performance in the groups.",The current study suggests that teaching about and discussing discussions may be one way for students to become more engaged and have better course outcomes.,1166092.1,4,d8c6dd11fe2741319506009a5b95bfe5,2534970888643081776,28,161
"Keywords: Controversial public issues, teacher preparation, democratic education CONTROVERSIAL PUBLIC ISSUES Controversial Public Issues in the Secondary Classroom: Exploring Teachers’ Thoughts and Perceptions Introduction & Theoretical Framework Scholars within the field of education frequently discuss the role of controversial public issues (CPI) in the K12 classroom as a means for developing citizens who are knowledgeable about topical issues, open to the opinions of others, and capable of participating in rational dialogue about open-ended and complex topics (Brank & Wylie, 2013; Cross & Price, 1996; Hess, 2009; Macedo, 2004; Parker, 2003).",The discussion scores were derived from the instructor’s score (6 points maximum) plus an average of two peer reviewers within the discussion leaders’ group (5 points maximum).,Rate your ability at critiquing or assessing a discussion led by another person.,1166092.1,4,d8c6dd11fe2741319506009a5b95bfe5,2534970888643081776,73,225
