# task_id,optionB,optionA
0,0.66538,0.33462
1,0.01445,0.98555
2,0.99479,0.00521
3,0.04228,0.95772
4,0.24926,0.75074
5,0.40347,0.59653
6,0.02259,0.97741
7,0.02237,0.97763
8,0.11887,0.88113
9,0.01061,0.98939
10,0.01445,0.98555
11,0.98255,0.01745
12,0.99591,0.00409
13,0.81668,0.18332
14,0.23376,0.76624
15,0.53988,0.46012
16,0.49855,0.50145
17,0.87139,0.12861
18,0.81987,0.18013
19,0.91038,0.08962
20,0.09933,0.90067
21,0.12008,0.87992
22,0.92031,0.07969
23,0.03903,0.96097
24,0.08458,0.91542
25,0.12442,0.87558
26,0.12029,0.87971
27,0.74155,0.25845
28,0.10640,0.89360
29,0.53692,0.46308
30,0.31249,0.68751
31,0.06281,0.93719
32,0.01703,0.98297
33,0.99440,0.00560
34,0.93152,0.06848
35,0.00661,0.99339
36,0.37790,0.62210
37,0.37836,0.62164
38,0.03036,0.96964
39,0.86973,0.13027
40,0.12561,0.87439
41,0.08458,0.91542
42,0.80591,0.19409
43,0.96964,0.03036
44,0.36399,0.63601
45,0.49435,0.50565
46,0.99918,0.00082
47,0.07296,0.92704
48,0.53544,0.46456
49,0.00560,0.99440
50,0.37836,0.62164
51,0.05206,0.94794
52,0.92673,0.07327
53,0.02157,0.97843
54,0.76671,0.23329
55,0.10555,0.89445
56,0.40347,0.59653
57,0.18013,0.81987
58,0.10012,0.89988
59,0.88393,0.11607
60,0.76828,0.23172
61,0.76581,0.23419
62,0.00416,0.99584
63,0.83997,0.16003
64,0.14768,0.85232
65,0.03036,0.96964
66,0.00250,0.99750
67,0.92278,0.07722
68,0.01850,0.98150
69,0.22579,0.77421
70,0.08962,0.91038
71,0.00661,0.99339
72,0.09933,0.90067
73,0.02237,0.97763
74,0.45852,0.54148
75,0.81903,0.18097
76,0.86973,0.13027
77,0.89988,0.10012
78,0.13109,0.86891
79,0.87971,0.12029
80,0.00199,0.99801
81,0.00153,0.99847
82,0.27721,0.72279
83,0.10012,0.89988
84,0.00404,0.99596
85,0.44700,0.55300
86,0.58602,0.41398
87,0.45562,0.54438
88,0.23376,0.76624
89,0.18013,0.81987
90,0.93346,0.06654
91,0.65287,0.34713
92,0.16003,0.83997
93,0.87971,0.12029
94,0.50145,0.49855
95,0.02237,0.97763
96,0.00430,0.99570
97,0.02604,0.97396
98,0.43746,0.56254
99,0.07969,0.92031
